grep "exp1_D0,25K1,0M1O5T1a3,3b1,1d7f10,5oexp1" DATA.MT.24000.data > DATA.MT.24000.NDX.data 
durian:algos pberck$ grep "exp1_D0,25K1,0M1O5T1Xa3,3b1,1d7f10,5oexp1" DATA.MT.24000.data > DATA.MT.24000.DX.data 

bash create_mtsrilm_plots.sh  DATA.MT.24000.DX.data BLEU mt24dx
create_mtsrilm_plots.sh  DATA.MT.24000.NDX.data BLEU mt24ndx

gnuplot mt24*dx*plot
open mt24*dx*pdf


do_pb_w20000.sh zelfde als 24000/srilm maar met wopr
