#2013-02-15 16:04:52
#BTS10000,/exp2/pberck/nyt.3e7.1000,timbl:'-a1 +D',lc:2,rc:0
#BTS10001,/exp2/pberck/nyt.3e7.5000,timbl:'-a1 +D',lc:2,rc:0
#BTS10002,/exp2/pberck/nyt.3e7.10000,timbl:'-a1 +D',lc:2,rc:0
#BTS10003,/exp2/pberck/nyt.3e7.50000,timbl:'-a1 +D',lc:2,rc:0
#BTS10004,/exp2/pberck/nyt.3e7.100000,timbl:'-a1 +D',lc:2,rc:0
#BTS10005,/exp2/pberck/nyt.3e7.500000,timbl:'-a1 +D',lc:2,rc:0
#BTS10006,/exp2/pberck/nyt.3e7.1000000,timbl:'-a1 +D',lc:2,rc:0
#BTS10007,/exp2/pberck/nyt.3e7.5000000,timbl:'-a1 +D',lc:2,rc:0
