#2013-02-16 12:06:16
#BTS20000,/exp2/pberck/nyt.3e7.1000,timbl:'-a1 +D',lc:1,rc:0
#BTS20001,/exp2/pberck/nyt.3e7.1000,timbl:'-a1 +D',lc:2,rc:0
#BTS20002,/exp2/pberck/nyt.3e7.1000,timbl:'-a1 +D',lc:3,rc:0
#BTS20003,/exp2/pberck/nyt.3e7.1000,timbl:'-a1 +D',lc:4,rc:0
#BTS20004,/exp2/pberck/nyt.3e7.1000,timbl:'-a1 +D',lc:5,rc:0
#BTS20005,/exp2/pberck/nyt.3e7.1000,timbl:'-a1 +D',lc:6,rc:0
#BTS20006,/exp2/pberck/nyt.3e7.1000,timbl:'-a1 +D',lc:7,rc:0
#BTS20007,/exp2/pberck/nyt.3e7.1000,timbl:'-a1 +D',lc:8,rc:0
#BTS20008,/exp2/pberck/nyt.3e7.1000,timbl:'-a1 +D',lc:9,rc:0
#BTS20009,/exp2/pberck/nyt.3e7.1000,timbl:'-a1 +D',lc:10,rc:0
#BTS20010,/exp2/pberck/nyt.3e7.1000,timbl:'-a4 +D',lc:1,rc:0
#BTS20011,/exp2/pberck/nyt.3e7.1000,timbl:'-a4 +D',lc:2,rc:0
#BTS20012,/exp2/pberck/nyt.3e7.1000,timbl:'-a4 +D',lc:3,rc:0
#BTS20013,/exp2/pberck/nyt.3e7.1000,timbl:'-a4 +D',lc:4,rc:0
#BTS20014,/exp2/pberck/nyt.3e7.1000,timbl:'-a4 +D',lc:5,rc:0
#BTS20015,/exp2/pberck/nyt.3e7.1000,timbl:'-a4 +D',lc:6,rc:0
#BTS20016,/exp2/pberck/nyt.3e7.1000,timbl:'-a4 +D',lc:7,rc:0
#BTS20017,/exp2/pberck/nyt.3e7.1000,timbl:'-a4 +D',lc:8,rc:0
#BTS20018,/exp2/pberck/nyt.3e7.1000,timbl:'-a4 +D',lc:9,rc:0
#BTS20019,/exp2/pberck/nyt.3e7.1000,timbl:'-a4 +D',lc:10,rc:0
#BTS20020,/exp2/pberck/nyt.3e7.5000,timbl:'-a1 +D',lc:1,rc:0
#BTS20021,/exp2/pberck/nyt.3e7.5000,timbl:'-a1 +D',lc:2,rc:0
#BTS20022,/exp2/pberck/nyt.3e7.5000,timbl:'-a1 +D',lc:3,rc:0
#BTS20023,/exp2/pberck/nyt.3e7.5000,timbl:'-a1 +D',lc:4,rc:0
#BTS20024,/exp2/pberck/nyt.3e7.5000,timbl:'-a1 +D',lc:5,rc:0
#BTS20025,/exp2/pberck/nyt.3e7.5000,timbl:'-a1 +D',lc:6,rc:0
#BTS20026,/exp2/pberck/nyt.3e7.5000,timbl:'-a1 +D',lc:7,rc:0
#BTS20027,/exp2/pberck/nyt.3e7.5000,timbl:'-a1 +D',lc:8,rc:0
#BTS20028,/exp2/pberck/nyt.3e7.5000,timbl:'-a1 +D',lc:9,rc:0
#BTS20029,/exp2/pberck/nyt.3e7.5000,timbl:'-a1 +D',lc:10,rc:0
#BTS20030,/exp2/pberck/nyt.3e7.5000,timbl:'-a4 +D',lc:1,rc:0
#BTS20031,/exp2/pberck/nyt.3e7.5000,timbl:'-a4 +D',lc:2,rc:0
#BTS20032,/exp2/pberck/nyt.3e7.5000,timbl:'-a4 +D',lc:3,rc:0
#BTS20033,/exp2/pberck/nyt.3e7.5000,timbl:'-a4 +D',lc:4,rc:0
#BTS20034,/exp2/pberck/nyt.3e7.5000,timbl:'-a4 +D',lc:5,rc:0
#BTS20035,/exp2/pberck/nyt.3e7.5000,timbl:'-a4 +D',lc:6,rc:0
#BTS20036,/exp2/pberck/nyt.3e7.5000,timbl:'-a4 +D',lc:7,rc:0
#BTS20037,/exp2/pberck/nyt.3e7.5000,timbl:'-a4 +D',lc:8,rc:0
#BTS20038,/exp2/pberck/nyt.3e7.5000,timbl:'-a4 +D',lc:9,rc:0
#BTS20039,/exp2/pberck/nyt.3e7.5000,timbl:'-a4 +D',lc:10,rc:0
#BTS20040,/exp2/pberck/nyt.3e7.10000,timbl:'-a1 +D',lc:1,rc:0
#BTS20041,/exp2/pberck/nyt.3e7.10000,timbl:'-a1 +D',lc:2,rc:0
#BTS20042,/exp2/pberck/nyt.3e7.10000,timbl:'-a1 +D',lc:3,rc:0
#BTS20043,/exp2/pberck/nyt.3e7.10000,timbl:'-a1 +D',lc:4,rc:0
#BTS20044,/exp2/pberck/nyt.3e7.10000,timbl:'-a1 +D',lc:5,rc:0
#BTS20045,/exp2/pberck/nyt.3e7.10000,timbl:'-a1 +D',lc:6,rc:0
#BTS20046,/exp2/pberck/nyt.3e7.10000,timbl:'-a1 +D',lc:7,rc:0
#BTS20047,/exp2/pberck/nyt.3e7.10000,timbl:'-a1 +D',lc:8,rc:0
#BTS20048,/exp2/pberck/nyt.3e7.10000,timbl:'-a1 +D',lc:9,rc:0
#BTS20049,/exp2/pberck/nyt.3e7.10000,timbl:'-a1 +D',lc:10,rc:0
#BTS20050,/exp2/pberck/nyt.3e7.10000,timbl:'-a4 +D',lc:1,rc:0
#BTS20051,/exp2/pberck/nyt.3e7.10000,timbl:'-a4 +D',lc:2,rc:0
#BTS20052,/exp2/pberck/nyt.3e7.10000,timbl:'-a4 +D',lc:3,rc:0
#BTS20053,/exp2/pberck/nyt.3e7.10000,timbl:'-a4 +D',lc:4,rc:0
#BTS20054,/exp2/pberck/nyt.3e7.10000,timbl:'-a4 +D',lc:5,rc:0
#BTS20055,/exp2/pberck/nyt.3e7.10000,timbl:'-a4 +D',lc:6,rc:0
#BTS20056,/exp2/pberck/nyt.3e7.10000,timbl:'-a4 +D',lc:7,rc:0
#BTS20057,/exp2/pberck/nyt.3e7.10000,timbl:'-a4 +D',lc:8,rc:0
#BTS20058,/exp2/pberck/nyt.3e7.10000,timbl:'-a4 +D',lc:9,rc:0
#BTS20059,/exp2/pberck/nyt.3e7.10000,timbl:'-a4 +D',lc:10,rc:0
#BTS20060,/exp2/pberck/nyt.3e7.50000,timbl:'-a1 +D',lc:1,rc:0
#BTS20061,/exp2/pberck/nyt.3e7.50000,timbl:'-a1 +D',lc:2,rc:0
#BTS20062,/exp2/pberck/nyt.3e7.50000,timbl:'-a1 +D',lc:3,rc:0
#BTS20063,/exp2/pberck/nyt.3e7.50000,timbl:'-a1 +D',lc:4,rc:0
#BTS20064,/exp2/pberck/nyt.3e7.50000,timbl:'-a1 +D',lc:5,rc:0
#BTS20065,/exp2/pberck/nyt.3e7.50000,timbl:'-a1 +D',lc:6,rc:0
#BTS20066,/exp2/pberck/nyt.3e7.50000,timbl:'-a1 +D',lc:7,rc:0
#BTS20067,/exp2/pberck/nyt.3e7.50000,timbl:'-a1 +D',lc:8,rc:0
#BTS20068,/exp2/pberck/nyt.3e7.50000,timbl:'-a1 +D',lc:9,rc:0
#BTS20069,/exp2/pberck/nyt.3e7.50000,timbl:'-a1 +D',lc:10,rc:0
#BTS20070,/exp2/pberck/nyt.3e7.50000,timbl:'-a4 +D',lc:1,rc:0
#BTS20071,/exp2/pberck/nyt.3e7.50000,timbl:'-a4 +D',lc:2,rc:0
#BTS20072,/exp2/pberck/nyt.3e7.50000,timbl:'-a4 +D',lc:3,rc:0
#BTS20073,/exp2/pberck/nyt.3e7.50000,timbl:'-a4 +D',lc:4,rc:0
#BTS20074,/exp2/pberck/nyt.3e7.50000,timbl:'-a4 +D',lc:5,rc:0
#BTS20075,/exp2/pberck/nyt.3e7.50000,timbl:'-a4 +D',lc:6,rc:0
#BTS20076,/exp2/pberck/nyt.3e7.50000,timbl:'-a4 +D',lc:7,rc:0
#BTS20077,/exp2/pberck/nyt.3e7.50000,timbl:'-a4 +D',lc:8,rc:0
#BTS20078,/exp2/pberck/nyt.3e7.50000,timbl:'-a4 +D',lc:9,rc:0
#BTS20079,/exp2/pberck/nyt.3e7.50000,timbl:'-a4 +D',lc:10,rc:0
#BTS20080,/exp2/pberck/nyt.3e7.100000,timbl:'-a1 +D',lc:1,rc:0
#BTS20081,/exp2/pberck/nyt.3e7.100000,timbl:'-a1 +D',lc:2,rc:0
#BTS20082,/exp2/pberck/nyt.3e7.100000,timbl:'-a1 +D',lc:3,rc:0
#BTS20083,/exp2/pberck/nyt.3e7.100000,timbl:'-a1 +D',lc:4,rc:0
#BTS20084,/exp2/pberck/nyt.3e7.100000,timbl:'-a1 +D',lc:5,rc:0
#BTS20085,/exp2/pberck/nyt.3e7.100000,timbl:'-a1 +D',lc:6,rc:0
#BTS20086,/exp2/pberck/nyt.3e7.100000,timbl:'-a1 +D',lc:7,rc:0
#BTS20087,/exp2/pberck/nyt.3e7.100000,timbl:'-a1 +D',lc:8,rc:0
#BTS20088,/exp2/pberck/nyt.3e7.100000,timbl:'-a1 +D',lc:9,rc:0
#BTS20089,/exp2/pberck/nyt.3e7.100000,timbl:'-a1 +D',lc:10,rc:0
#BTS20090,/exp2/pberck/nyt.3e7.100000,timbl:'-a4 +D',lc:1,rc:0
#BTS20091,/exp2/pberck/nyt.3e7.100000,timbl:'-a4 +D',lc:2,rc:0
#BTS20092,/exp2/pberck/nyt.3e7.100000,timbl:'-a4 +D',lc:3,rc:0
#BTS20093,/exp2/pberck/nyt.3e7.100000,timbl:'-a4 +D',lc:4,rc:0
