set title "Different Languages OpenSubtitles, l1r0, igtree, correct distribution %"
set xlabel "lines of data"
set key bottom
set logscale x
set ylabel "correct distribution %"
set grid
#
plot [1000:][10:80]\
"<grep 'l1r0' DATA.OSA.10000.plot|grep 'en-tr.tr'" using 2:4 w lp t "Turkish",\
"<grep 'l1r0' DATA.OSA.10000.plot|grep 'en-sv.sv'" using 2:4 w lp t "Swedish",\
"<grep 'l1r0' DATA.OSA.10000.plot|grep 'en-fi.fi'" using 2:4 w lp t "Finnish",\
"<grep 'l1r0' DATA.OSA.10000.plot|grep 'en-ru.ru'" using 2:4 w lp t "Russian",\
"<grep 'l1r0' DATA.OSA.10000.plot|grep 'en-nl.en'" using 2:4 w lp t "English",\
"<grep 'l1r0' DATA.OSA.10000.plot|grep 'de-en.de'" using 2:4 w lp t "German",\
"<grep 'l1r0' DATA.OSA.10000.plot|grep 'en-nl.nl'" using 2:4 w lp t "Dutch"
#
set terminal push
set terminal postscript eps enhanced color solid rounded lw 2 'Helvetica' 10
set out 'osa_l1r0_igt_cd_LNG.ps'
replot
!epstopdf 'osa_l1r0_igt_cd_LNG.ps'
set term pop
