#2012-01-12 23:16:48
/exp/pberck/wopr/wopr -s do_pdt2.wopr_script -p file0:cgn.4e5.1000,lc0:2,id:PDTT31000,timbl0:-a4 +D,dl:3,test:cgn.t1000,file1:cgn.4e5.1000,timbl1:-a1 +D,lc1:2,n:3,ds:211,mo:1
/exp/pberck/wopr/wopr -s do_pdt2.wopr_script -p file0:cgn.4e5.1000,lc0:2,id:PDTT31001,timbl0:-a4 +D,dl:3,test:cgn.t1000,file1:cgn.4e5.1000,timbl1:-a1 +D,lc1:2,n:3,ds:221,mo:1
/exp/pberck/wopr/wopr -s do_pdt2.wopr_script -p file0:cgn.4e5.1000,lc0:2,id:PDTT31002,timbl0:-a4 +D,dl:3,test:cgn.t1000,file1:cgn.4e5.1000,timbl1:-a1 +D,lc1:2,n:3,ds:511,mo:1
/exp/pberck/wopr/wopr -s do_pdt2.wopr_script -p file0:cgn.4e5.1000,lc0:2,id:PDTT31003,timbl0:-a4 +D,dl:3,test:cgn.t1000,file1:cgn.4e5.1000,timbl1:-a1 +D,lc1:2,n:3,ds:551,mo:1
/exp/pberck/wopr/wopr -s do_pdt2.wopr_script -p file0:cgn.4e5.1000,lc0:2,id:PDTT31004,timbl0:-a4 +D,dl:3,test:cgn.t1000,file1:cgn.4e5.1000,timbl1:-a1 +D,lc1:2,n:3,ds:555,mo:1
/exp/pberck/wopr/wopr -s do_pdt2.wopr_script -p file0:cgn.4e5.1000,lc0:4,id:PDTT31005,timbl0:-a4 +D,dl:3,test:cgn.t1000,file1:cgn.4e5.1000,timbl1:-a1 +D,lc1:2,n:3,ds:211,mo:1
/exp/pberck/wopr/wopr -s do_pdt2.wopr_script -p file0:cgn.4e5.1000,lc0:4,id:PDTT31006,timbl0:-a4 +D,dl:3,test:cgn.t1000,file1:cgn.4e5.1000,timbl1:-a1 +D,lc1:2,n:3,ds:221,mo:1
/exp/pberck/wopr/wopr -s do_pdt2.wopr_script -p file0:cgn.4e5.1000,lc0:4,id:PDTT31007,timbl0:-a4 +D,dl:3,test:cgn.t1000,file1:cgn.4e5.1000,timbl1:-a1 +D,lc1:2,n:3,ds:511,mo:1
/exp/pberck/wopr/wopr -s do_pdt2.wopr_script -p file0:cgn.4e5.1000,lc0:4,id:PDTT31008,timbl0:-a4 +D,dl:3,test:cgn.t1000,file1:cgn.4e5.1000,timbl1:-a1 +D,lc1:2,n:3,ds:551,mo:1
/exp/pberck/wopr/wopr -s do_pdt2.wopr_script -p file0:cgn.4e5.1000,lc0:4,id:PDTT31009,timbl0:-a4 +D,dl:3,test:cgn.t1000,file1:cgn.4e5.1000,timbl1:-a1 +D,lc1:2,n:3,ds:555,mo:1
/exp/pberck/wopr/wopr -s do_pdt2.wopr_script -p file0:cgn.4e5.1000,lc0:8,id:PDTT31010,timbl0:-a4 +D,dl:3,test:cgn.t1000,file1:cgn.4e5.1000,timbl1:-a1 +D,lc1:2,n:3,ds:211,mo:1
/exp/pberck/wopr/wopr -s do_pdt2.wopr_script -p file0:cgn.4e5.1000,lc0:8,id:PDTT31011,timbl0:-a4 +D,dl:3,test:cgn.t1000,file1:cgn.4e5.1000,timbl1:-a1 +D,lc1:2,n:3,ds:221,mo:1
/exp/pberck/wopr/wopr -s do_pdt2.wopr_script -p file0:cgn.4e5.1000,lc0:8,id:PDTT31012,timbl0:-a4 +D,dl:3,test:cgn.t1000,file1:cgn.4e5.1000,timbl1:-a1 +D,lc1:2,n:3,ds:511,mo:1
/exp/pberck/wopr/wopr -s do_pdt2.wopr_script -p file0:cgn.4e5.1000,lc0:8,id:PDTT31013,timbl0:-a4 +D,dl:3,test:cgn.t1000,file1:cgn.4e5.1000,timbl1:-a1 +D,lc1:2,n:3,ds:551,mo:1
/exp/pberck/wopr/wopr -s do_pdt2.wopr_script -p file0:cgn.4e5.1000,lc0:8,id:PDTT31014,timbl0:-a4 +D,dl:3,test:cgn.t1000,file1:cgn.4e5.1000,timbl1:-a1 +D,lc1:2,n:3,ds:555,mo:1
/exp/pberck/wopr/wopr -s do_pdt2.wopr_script -p file0:cgn.4e5.1000,lc0:12,id:PDTT31015,timbl0:-a4 +D,dl:3,test:cgn.t1000,file1:cgn.4e5.1000,timbl1:-a1 +D,lc1:2,n:3,ds:211,mo:1
/exp/pberck/wopr/wopr -s do_pdt2.wopr_script -p file0:cgn.4e5.1000,lc0:12,id:PDTT31016,timbl0:-a4 +D,dl:3,test:cgn.t1000,file1:cgn.4e5.1000,timbl1:-a1 +D,lc1:2,n:3,ds:221,mo:1
/exp/pberck/wopr/wopr -s do_pdt2.wopr_script -p file0:cgn.4e5.1000,lc0:12,id:PDTT31017,timbl0:-a4 +D,dl:3,test:cgn.t1000,file1:cgn.4e5.1000,timbl1:-a1 +D,lc1:2,n:3,ds:511,mo:1
/exp/pberck/wopr/wopr -s do_pdt2.wopr_script -p file0:cgn.4e5.1000,lc0:12,id:PDTT31018,timbl0:-a4 +D,dl:3,test:cgn.t1000,file1:cgn.4e5.1000,timbl1:-a1 +D,lc1:2,n:3,ds:551,mo:1
/exp/pberck/wopr/wopr -s do_pdt2.wopr_script -p file0:cgn.4e5.1000,lc0:12,id:PDTT31019,timbl0:-a4 +D,dl:3,test:cgn.t1000,file1:cgn.4e5.1000,timbl1:-a1 +D,lc1:2,n:3,ds:555,mo:1
/exp/pberck/wopr/wopr -s do_pdt2.wopr_script -p file0:cgn.4e5.1000,lc0:16,id:PDTT31020,timbl0:-a4 +D,dl:3,test:cgn.t1000,file1:cgn.4e5.1000,timbl1:-a1 +D,lc1:2,n:3,ds:211,mo:1
/exp/pberck/wopr/wopr -s do_pdt2.wopr_script -p file0:cgn.4e5.1000,lc0:16,id:PDTT31021,timbl0:-a4 +D,dl:3,test:cgn.t1000,file1:cgn.4e5.1000,timbl1:-a1 +D,lc1:2,n:3,ds:221,mo:1
/exp/pberck/wopr/wopr -s do_pdt2.wopr_script -p file0:cgn.4e5.1000,lc0:16,id:PDTT31022,timbl0:-a4 +D,dl:3,test:cgn.t1000,file1:cgn.4e5.1000,timbl1:-a1 +D,lc1:2,n:3,ds:511,mo:1
/exp/pberck/wopr/wopr -s do_pdt2.wopr_script -p file0:cgn.4e5.1000,lc0:16,id:PDTT31023,timbl0:-a4 +D,dl:3,test:cgn.t1000,file1:cgn.4e5.1000,timbl1:-a1 +D,lc1:2,n:3,ds:551,mo:1
/exp/pberck/wopr/wopr -s do_pdt2.wopr_script -p file0:cgn.4e5.1000,lc0:16,id:PDTT31024,timbl0:-a4 +D,dl:3,test:cgn.t1000,file1:cgn.4e5.1000,timbl1:-a1 +D,lc1:2,n:3,ds:555,mo:1
/exp/pberck/wopr/wopr -s do_pdt2.wopr_script -p file0:cgn.4e5.5000,lc0:2,id:PDTT31025,timbl0:-a4 +D,dl:3,test:cgn.t1000,file1:cgn.4e5.5000,timbl1:-a1 +D,lc1:2,n:3,ds:211,mo:1
/exp/pberck/wopr/wopr -s do_pdt2.wopr_script -p file0:cgn.4e5.5000,lc0:2,id:PDTT31026,timbl0:-a4 +D,dl:3,test:cgn.t1000,file1:cgn.4e5.5000,timbl1:-a1 +D,lc1:2,n:3,ds:221,mo:1
/exp/pberck/wopr/wopr -s do_pdt2.wopr_script -p file0:cgn.4e5.5000,lc0:2,id:PDTT31027,timbl0:-a4 +D,dl:3,test:cgn.t1000,file1:cgn.4e5.5000,timbl1:-a1 +D,lc1:2,n:3,ds:511,mo:1
/exp/pberck/wopr/wopr -s do_pdt2.wopr_script -p file0:cgn.4e5.5000,lc0:2,id:PDTT31028,timbl0:-a4 +D,dl:3,test:cgn.t1000,file1:cgn.4e5.5000,timbl1:-a1 +D,lc1:2,n:3,ds:551,mo:1
/exp/pberck/wopr/wopr -s do_pdt2.wopr_script -p file0:cgn.4e5.5000,lc0:2,id:PDTT31029,timbl0:-a4 +D,dl:3,test:cgn.t1000,file1:cgn.4e5.5000,timbl1:-a1 +D,lc1:2,n:3,ds:555,mo:1
/exp/pberck/wopr/wopr -s do_pdt2.wopr_script -p file0:cgn.4e5.5000,lc0:4,id:PDTT31030,timbl0:-a4 +D,dl:3,test:cgn.t1000,file1:cgn.4e5.5000,timbl1:-a1 +D,lc1:2,n:3,ds:211,mo:1
/exp/pberck/wopr/wopr -s do_pdt2.wopr_script -p file0:cgn.4e5.5000,lc0:4,id:PDTT31031,timbl0:-a4 +D,dl:3,test:cgn.t1000,file1:cgn.4e5.5000,timbl1:-a1 +D,lc1:2,n:3,ds:221,mo:1
/exp/pberck/wopr/wopr -s do_pdt2.wopr_script -p file0:cgn.4e5.5000,lc0:4,id:PDTT31032,timbl0:-a4 +D,dl:3,test:cgn.t1000,file1:cgn.4e5.5000,timbl1:-a1 +D,lc1:2,n:3,ds:511,mo:1
/exp/pberck/wopr/wopr -s do_pdt2.wopr_script -p file0:cgn.4e5.5000,lc0:4,id:PDTT31033,timbl0:-a4 +D,dl:3,test:cgn.t1000,file1:cgn.4e5.5000,timbl1:-a1 +D,lc1:2,n:3,ds:551,mo:1
/exp/pberck/wopr/wopr -s do_pdt2.wopr_script -p file0:cgn.4e5.5000,lc0:4,id:PDTT31034,timbl0:-a4 +D,dl:3,test:cgn.t1000,file1:cgn.4e5.5000,timbl1:-a1 +D,lc1:2,n:3,ds:555,mo:1
/exp/pberck/wopr/wopr -s do_pdt2.wopr_script -p file0:cgn.4e5.5000,lc0:8,id:PDTT31035,timbl0:-a4 +D,dl:3,test:cgn.t1000,file1:cgn.4e5.5000,timbl1:-a1 +D,lc1:2,n:3,ds:211,mo:1
/exp/pberck/wopr/wopr -s do_pdt2.wopr_script -p file0:cgn.4e5.5000,lc0:8,id:PDTT31036,timbl0:-a4 +D,dl:3,test:cgn.t1000,file1:cgn.4e5.5000,timbl1:-a1 +D,lc1:2,n:3,ds:221,mo:1
/exp/pberck/wopr/wopr -s do_pdt2.wopr_script -p file0:cgn.4e5.5000,lc0:8,id:PDTT31037,timbl0:-a4 +D,dl:3,test:cgn.t1000,file1:cgn.4e5.5000,timbl1:-a1 +D,lc1:2,n:3,ds:511,mo:1
/exp/pberck/wopr/wopr -s do_pdt2.wopr_script -p file0:cgn.4e5.5000,lc0:8,id:PDTT31038,timbl0:-a4 +D,dl:3,test:cgn.t1000,file1:cgn.4e5.5000,timbl1:-a1 +D,lc1:2,n:3,ds:551,mo:1
/exp/pberck/wopr/wopr -s do_pdt2.wopr_script -p file0:cgn.4e5.5000,lc0:8,id:PDTT31039,timbl0:-a4 +D,dl:3,test:cgn.t1000,file1:cgn.4e5.5000,timbl1:-a1 +D,lc1:2,n:3,ds:555,mo:1
/exp/pberck/wopr/wopr -s do_pdt2.wopr_script -p file0:cgn.4e5.5000,lc0:12,id:PDTT31040,timbl0:-a4 +D,dl:3,test:cgn.t1000,file1:cgn.4e5.5000,timbl1:-a1 +D,lc1:2,n:3,ds:211,mo:1
/exp/pberck/wopr/wopr -s do_pdt2.wopr_script -p file0:cgn.4e5.5000,lc0:12,id:PDTT31041,timbl0:-a4 +D,dl:3,test:cgn.t1000,file1:cgn.4e5.5000,timbl1:-a1 +D,lc1:2,n:3,ds:221,mo:1
/exp/pberck/wopr/wopr -s do_pdt2.wopr_script -p file0:cgn.4e5.5000,lc0:12,id:PDTT31042,timbl0:-a4 +D,dl:3,test:cgn.t1000,file1:cgn.4e5.5000,timbl1:-a1 +D,lc1:2,n:3,ds:511,mo:1
/exp/pberck/wopr/wopr -s do_pdt2.wopr_script -p file0:cgn.4e5.5000,lc0:12,id:PDTT31043,timbl0:-a4 +D,dl:3,test:cgn.t1000,file1:cgn.4e5.5000,timbl1:-a1 +D,lc1:2,n:3,ds:551,mo:1
/exp/pberck/wopr/wopr -s do_pdt2.wopr_script -p file0:cgn.4e5.5000,lc0:12,id:PDTT31044,timbl0:-a4 +D,dl:3,test:cgn.t1000,file1:cgn.4e5.5000,timbl1:-a1 +D,lc1:2,n:3,ds:555,mo:1
/exp/pberck/wopr/wopr -s do_pdt2.wopr_script -p file0:cgn.4e5.5000,lc0:16,id:PDTT31045,timbl0:-a4 +D,dl:3,test:cgn.t1000,file1:cgn.4e5.5000,timbl1:-a1 +D,lc1:2,n:3,ds:211,mo:1
/exp/pberck/wopr/wopr -s do_pdt2.wopr_script -p file0:cgn.4e5.5000,lc0:16,id:PDTT31046,timbl0:-a4 +D,dl:3,test:cgn.t1000,file1:cgn.4e5.5000,timbl1:-a1 +D,lc1:2,n:3,ds:221,mo:1
/exp/pberck/wopr/wopr -s do_pdt2.wopr_script -p file0:cgn.4e5.5000,lc0:16,id:PDTT31047,timbl0:-a4 +D,dl:3,test:cgn.t1000,file1:cgn.4e5.5000,timbl1:-a1 +D,lc1:2,n:3,ds:511,mo:1
/exp/pberck/wopr/wopr -s do_pdt2.wopr_script -p file0:cgn.4e5.5000,lc0:16,id:PDTT31048,timbl0:-a4 +D,dl:3,test:cgn.t1000,file1:cgn.4e5.5000,timbl1:-a1 +D,lc1:2,n:3,ds:551,mo:1
/exp/pberck/wopr/wopr -s do_pdt2.wopr_script -p file0:cgn.4e5.5000,lc0:16,id:PDTT31049,timbl0:-a4 +D,dl:3,test:cgn.t1000,file1:cgn.4e5.5000,timbl1:-a1 +D,lc1:2,n:3,ds:555,mo:1
/exp/pberck/wopr/wopr -s do_pdt2.wopr_script -p file0:cgn.4e5.10000,lc0:2,id:PDTT31050,timbl0:-a4 +D,dl:3,test:cgn.t1000,file1:cgn.4e5.10000,timbl1:-a1 +D,lc1:2,n:3,ds:211,mo:1
/exp/pberck/wopr/wopr -s do_pdt2.wopr_script -p file0:cgn.4e5.10000,lc0:2,id:PDTT31051,timbl0:-a4 +D,dl:3,test:cgn.t1000,file1:cgn.4e5.10000,timbl1:-a1 +D,lc1:2,n:3,ds:221,mo:1
/exp/pberck/wopr/wopr -s do_pdt2.wopr_script -p file0:cgn.4e5.10000,lc0:2,id:PDTT31052,timbl0:-a4 +D,dl:3,test:cgn.t1000,file1:cgn.4e5.10000,timbl1:-a1 +D,lc1:2,n:3,ds:511,mo:1
/exp/pberck/wopr/wopr -s do_pdt2.wopr_script -p file0:cgn.4e5.10000,lc0:2,id:PDTT31053,timbl0:-a4 +D,dl:3,test:cgn.t1000,file1:cgn.4e5.10000,timbl1:-a1 +D,lc1:2,n:3,ds:551,mo:1
/exp/pberck/wopr/wopr -s do_pdt2.wopr_script -p file0:cgn.4e5.10000,lc0:2,id:PDTT31054,timbl0:-a4 +D,dl:3,test:cgn.t1000,file1:cgn.4e5.10000,timbl1:-a1 +D,lc1:2,n:3,ds:555,mo:1
/exp/pberck/wopr/wopr -s do_pdt2.wopr_script -p file0:cgn.4e5.10000,lc0:4,id:PDTT31055,timbl0:-a4 +D,dl:3,test:cgn.t1000,file1:cgn.4e5.10000,timbl1:-a1 +D,lc1:2,n:3,ds:211,mo:1
/exp/pberck/wopr/wopr -s do_pdt2.wopr_script -p file0:cgn.4e5.10000,lc0:4,id:PDTT31056,timbl0:-a4 +D,dl:3,test:cgn.t1000,file1:cgn.4e5.10000,timbl1:-a1 +D,lc1:2,n:3,ds:221,mo:1
/exp/pberck/wopr/wopr -s do_pdt2.wopr_script -p file0:cgn.4e5.10000,lc0:4,id:PDTT31057,timbl0:-a4 +D,dl:3,test:cgn.t1000,file1:cgn.4e5.10000,timbl1:-a1 +D,lc1:2,n:3,ds:511,mo:1
/exp/pberck/wopr/wopr -s do_pdt2.wopr_script -p file0:cgn.4e5.10000,lc0:4,id:PDTT31058,timbl0:-a4 +D,dl:3,test:cgn.t1000,file1:cgn.4e5.10000,timbl1:-a1 +D,lc1:2,n:3,ds:551,mo:1
/exp/pberck/wopr/wopr -s do_pdt2.wopr_script -p file0:cgn.4e5.10000,lc0:4,id:PDTT31059,timbl0:-a4 +D,dl:3,test:cgn.t1000,file1:cgn.4e5.10000,timbl1:-a1 +D,lc1:2,n:3,ds:555,mo:1
/exp/pberck/wopr/wopr -s do_pdt2.wopr_script -p file0:cgn.4e5.10000,lc0:8,id:PDTT31060,timbl0:-a4 +D,dl:3,test:cgn.t1000,file1:cgn.4e5.10000,timbl1:-a1 +D,lc1:2,n:3,ds:211,mo:1
/exp/pberck/wopr/wopr -s do_pdt2.wopr_script -p file0:cgn.4e5.10000,lc0:8,id:PDTT31061,timbl0:-a4 +D,dl:3,test:cgn.t1000,file1:cgn.4e5.10000,timbl1:-a1 +D,lc1:2,n:3,ds:221,mo:1
/exp/pberck/wopr/wopr -s do_pdt2.wopr_script -p file0:cgn.4e5.10000,lc0:8,id:PDTT31062,timbl0:-a4 +D,dl:3,test:cgn.t1000,file1:cgn.4e5.10000,timbl1:-a1 +D,lc1:2,n:3,ds:511,mo:1
/exp/pberck/wopr/wopr -s do_pdt2.wopr_script -p file0:cgn.4e5.10000,lc0:8,id:PDTT31063,timbl0:-a4 +D,dl:3,test:cgn.t1000,file1:cgn.4e5.10000,timbl1:-a1 +D,lc1:2,n:3,ds:551,mo:1
/exp/pberck/wopr/wopr -s do_pdt2.wopr_script -p file0:cgn.4e5.10000,lc0:8,id:PDTT31064,timbl0:-a4 +D,dl:3,test:cgn.t1000,file1:cgn.4e5.10000,timbl1:-a1 +D,lc1:2,n:3,ds:555,mo:1
/exp/pberck/wopr/wopr -s do_pdt2.wopr_script -p file0:cgn.4e5.10000,lc0:12,id:PDTT31065,timbl0:-a4 +D,dl:3,test:cgn.t1000,file1:cgn.4e5.10000,timbl1:-a1 +D,lc1:2,n:3,ds:211,mo:1
/exp/pberck/wopr/wopr -s do_pdt2.wopr_script -p file0:cgn.4e5.10000,lc0:12,id:PDTT31066,timbl0:-a4 +D,dl:3,test:cgn.t1000,file1:cgn.4e5.10000,timbl1:-a1 +D,lc1:2,n:3,ds:221,mo:1
/exp/pberck/wopr/wopr -s do_pdt2.wopr_script -p file0:cgn.4e5.10000,lc0:12,id:PDTT31067,timbl0:-a4 +D,dl:3,test:cgn.t1000,file1:cgn.4e5.10000,timbl1:-a1 +D,lc1:2,n:3,ds:511,mo:1
/exp/pberck/wopr/wopr -s do_pdt2.wopr_script -p file0:cgn.4e5.10000,lc0:12,id:PDTT31068,timbl0:-a4 +D,dl:3,test:cgn.t1000,file1:cgn.4e5.10000,timbl1:-a1 +D,lc1:2,n:3,ds:551,mo:1
/exp/pberck/wopr/wopr -s do_pdt2.wopr_script -p file0:cgn.4e5.10000,lc0:12,id:PDTT31069,timbl0:-a4 +D,dl:3,test:cgn.t1000,file1:cgn.4e5.10000,timbl1:-a1 +D,lc1:2,n:3,ds:555,mo:1
/exp/pberck/wopr/wopr -s do_pdt2.wopr_script -p file0:cgn.4e5.10000,lc0:16,id:PDTT31070,timbl0:-a4 +D,dl:3,test:cgn.t1000,file1:cgn.4e5.10000,timbl1:-a1 +D,lc1:2,n:3,ds:211,mo:1
/exp/pberck/wopr/wopr -s do_pdt2.wopr_script -p file0:cgn.4e5.10000,lc0:16,id:PDTT31071,timbl0:-a4 +D,dl:3,test:cgn.t1000,file1:cgn.4e5.10000,timbl1:-a1 +D,lc1:2,n:3,ds:221,mo:1
/exp/pberck/wopr/wopr -s do_pdt2.wopr_script -p file0:cgn.4e5.10000,lc0:16,id:PDTT31072,timbl0:-a4 +D,dl:3,test:cgn.t1000,file1:cgn.4e5.10000,timbl1:-a1 +D,lc1:2,n:3,ds:511,mo:1
/exp/pberck/wopr/wopr -s do_pdt2.wopr_script -p file0:cgn.4e5.10000,lc0:16,id:PDTT31073,timbl0:-a4 +D,dl:3,test:cgn.t1000,file1:cgn.4e5.10000,timbl1:-a1 +D,lc1:2,n:3,ds:551,mo:1
/exp/pberck/wopr/wopr -s do_pdt2.wopr_script -p file0:cgn.4e5.10000,lc0:16,id:PDTT31074,timbl0:-a4 +D,dl:3,test:cgn.t1000,file1:cgn.4e5.10000,timbl1:-a1 +D,lc1:2,n:3,ds:555,mo:1
/exp/pberck/wopr/wopr -s do_pdt2.wopr_script -p file0:cgn.4e5.50000,lc0:2,id:PDTT31075,timbl0:-a4 +D,dl:3,test:cgn.t1000,file1:cgn.4e5.50000,timbl1:-a1 +D,lc1:2,n:3,ds:211,mo:1
/exp/pberck/wopr/wopr -s do_pdt2.wopr_script -p file0:cgn.4e5.50000,lc0:2,id:PDTT31076,timbl0:-a4 +D,dl:3,test:cgn.t1000,file1:cgn.4e5.50000,timbl1:-a1 +D,lc1:2,n:3,ds:221,mo:1
/exp/pberck/wopr/wopr -s do_pdt2.wopr_script -p file0:cgn.4e5.50000,lc0:2,id:PDTT31077,timbl0:-a4 +D,dl:3,test:cgn.t1000,file1:cgn.4e5.50000,timbl1:-a1 +D,lc1:2,n:3,ds:511,mo:1
/exp/pberck/wopr/wopr -s do_pdt2.wopr_script -p file0:cgn.4e5.50000,lc0:2,id:PDTT31078,timbl0:-a4 +D,dl:3,test:cgn.t1000,file1:cgn.4e5.50000,timbl1:-a1 +D,lc1:2,n:3,ds:551,mo:1
/exp/pberck/wopr/wopr -s do_pdt2.wopr_script -p file0:cgn.4e5.50000,lc0:2,id:PDTT31079,timbl0:-a4 +D,dl:3,test:cgn.t1000,file1:cgn.4e5.50000,timbl1:-a1 +D,lc1:2,n:3,ds:555,mo:1
/exp/pberck/wopr/wopr -s do_pdt2.wopr_script -p file0:cgn.4e5.50000,lc0:4,id:PDTT31080,timbl0:-a4 +D,dl:3,test:cgn.t1000,file1:cgn.4e5.50000,timbl1:-a1 +D,lc1:2,n:3,ds:211,mo:1
/exp/pberck/wopr/wopr -s do_pdt2.wopr_script -p file0:cgn.4e5.50000,lc0:4,id:PDTT31081,timbl0:-a4 +D,dl:3,test:cgn.t1000,file1:cgn.4e5.50000,timbl1:-a1 +D,lc1:2,n:3,ds:221,mo:1
/exp/pberck/wopr/wopr -s do_pdt2.wopr_script -p file0:cgn.4e5.50000,lc0:4,id:PDTT31082,timbl0:-a4 +D,dl:3,test:cgn.t1000,file1:cgn.4e5.50000,timbl1:-a1 +D,lc1:2,n:3,ds:511,mo:1
/exp/pberck/wopr/wopr -s do_pdt2.wopr_script -p file0:cgn.4e5.50000,lc0:4,id:PDTT31083,timbl0:-a4 +D,dl:3,test:cgn.t1000,file1:cgn.4e5.50000,timbl1:-a1 +D,lc1:2,n:3,ds:551,mo:1
/exp/pberck/wopr/wopr -s do_pdt2.wopr_script -p file0:cgn.4e5.50000,lc0:4,id:PDTT31084,timbl0:-a4 +D,dl:3,test:cgn.t1000,file1:cgn.4e5.50000,timbl1:-a1 +D,lc1:2,n:3,ds:555,mo:1
/exp/pberck/wopr/wopr -s do_pdt2.wopr_script -p file0:cgn.4e5.50000,lc0:8,id:PDTT31085,timbl0:-a4 +D,dl:3,test:cgn.t1000,file1:cgn.4e5.50000,timbl1:-a1 +D,lc1:2,n:3,ds:211,mo:1
/exp/pberck/wopr/wopr -s do_pdt2.wopr_script -p file0:cgn.4e5.50000,lc0:8,id:PDTT31086,timbl0:-a4 +D,dl:3,test:cgn.t1000,file1:cgn.4e5.50000,timbl1:-a1 +D,lc1:2,n:3,ds:221,mo:1
/exp/pberck/wopr/wopr -s do_pdt2.wopr_script -p file0:cgn.4e5.50000,lc0:8,id:PDTT31087,timbl0:-a4 +D,dl:3,test:cgn.t1000,file1:cgn.4e5.50000,timbl1:-a1 +D,lc1:2,n:3,ds:511,mo:1
/exp/pberck/wopr/wopr -s do_pdt2.wopr_script -p file0:cgn.4e5.50000,lc0:8,id:PDTT31088,timbl0:-a4 +D,dl:3,test:cgn.t1000,file1:cgn.4e5.50000,timbl1:-a1 +D,lc1:2,n:3,ds:551,mo:1
/exp/pberck/wopr/wopr -s do_pdt2.wopr_script -p file0:cgn.4e5.50000,lc0:8,id:PDTT31089,timbl0:-a4 +D,dl:3,test:cgn.t1000,file1:cgn.4e5.50000,timbl1:-a1 +D,lc1:2,n:3,ds:555,mo:1
/exp/pberck/wopr/wopr -s do_pdt2.wopr_script -p file0:cgn.4e5.50000,lc0:12,id:PDTT31090,timbl0:-a4 +D,dl:3,test:cgn.t1000,file1:cgn.4e5.50000,timbl1:-a1 +D,lc1:2,n:3,ds:211,mo:1
/exp/pberck/wopr/wopr -s do_pdt2.wopr_script -p file0:cgn.4e5.50000,lc0:12,id:PDTT31091,timbl0:-a4 +D,dl:3,test:cgn.t1000,file1:cgn.4e5.50000,timbl1:-a1 +D,lc1:2,n:3,ds:221,mo:1
/exp/pberck/wopr/wopr -s do_pdt2.wopr_script -p file0:cgn.4e5.50000,lc0:12,id:PDTT31092,timbl0:-a4 +D,dl:3,test:cgn.t1000,file1:cgn.4e5.50000,timbl1:-a1 +D,lc1:2,n:3,ds:511,mo:1
/exp/pberck/wopr/wopr -s do_pdt2.wopr_script -p file0:cgn.4e5.50000,lc0:12,id:PDTT31093,timbl0:-a4 +D,dl:3,test:cgn.t1000,file1:cgn.4e5.50000,timbl1:-a1 +D,lc1:2,n:3,ds:551,mo:1
/exp/pberck/wopr/wopr -s do_pdt2.wopr_script -p file0:cgn.4e5.50000,lc0:12,id:PDTT31094,timbl0:-a4 +D,dl:3,test:cgn.t1000,file1:cgn.4e5.50000,timbl1:-a1 +D,lc1:2,n:3,ds:555,mo:1
/exp/pberck/wopr/wopr -s do_pdt2.wopr_script -p file0:cgn.4e5.50000,lc0:16,id:PDTT31095,timbl0:-a4 +D,dl:3,test:cgn.t1000,file1:cgn.4e5.50000,timbl1:-a1 +D,lc1:2,n:3,ds:211,mo:1
/exp/pberck/wopr/wopr -s do_pdt2.wopr_script -p file0:cgn.4e5.50000,lc0:16,id:PDTT31096,timbl0:-a4 +D,dl:3,test:cgn.t1000,file1:cgn.4e5.50000,timbl1:-a1 +D,lc1:2,n:3,ds:221,mo:1
/exp/pberck/wopr/wopr -s do_pdt2.wopr_script -p file0:cgn.4e5.50000,lc0:16,id:PDTT31097,timbl0:-a4 +D,dl:3,test:cgn.t1000,file1:cgn.4e5.50000,timbl1:-a1 +D,lc1:2,n:3,ds:511,mo:1
/exp/pberck/wopr/wopr -s do_pdt2.wopr_script -p file0:cgn.4e5.50000,lc0:16,id:PDTT31098,timbl0:-a4 +D,dl:3,test:cgn.t1000,file1:cgn.4e5.50000,timbl1:-a1 +D,lc1:2,n:3,ds:551,mo:1
/exp/pberck/wopr/wopr -s do_pdt2.wopr_script -p file0:cgn.4e5.50000,lc0:16,id:PDTT31099,timbl0:-a4 +D,dl:3,test:cgn.t1000,file1:cgn.4e5.50000,timbl1:-a1 +D,lc1:2,n:3,ds:555,mo:1
/exp/pberck/wopr/wopr -s do_pdt2.wopr_script -p file0:cgn.4e5.100000,lc0:2,id:PDTT31100,timbl0:-a4 +D,dl:3,test:cgn.t1000,file1:cgn.4e5.100000,timbl1:-a1 +D,lc1:2,n:3,ds:211,mo:1
/exp/pberck/wopr/wopr -s do_pdt2.wopr_script -p file0:cgn.4e5.100000,lc0:2,id:PDTT31101,timbl0:-a4 +D,dl:3,test:cgn.t1000,file1:cgn.4e5.100000,timbl1:-a1 +D,lc1:2,n:3,ds:221,mo:1
/exp/pberck/wopr/wopr -s do_pdt2.wopr_script -p file0:cgn.4e5.100000,lc0:2,id:PDTT31102,timbl0:-a4 +D,dl:3,test:cgn.t1000,file1:cgn.4e5.100000,timbl1:-a1 +D,lc1:2,n:3,ds:511,mo:1
/exp/pberck/wopr/wopr -s do_pdt2.wopr_script -p file0:cgn.4e5.100000,lc0:2,id:PDTT31103,timbl0:-a4 +D,dl:3,test:cgn.t1000,file1:cgn.4e5.100000,timbl1:-a1 +D,lc1:2,n:3,ds:551,mo:1
/exp/pberck/wopr/wopr -s do_pdt2.wopr_script -p file0:cgn.4e5.100000,lc0:2,id:PDTT31104,timbl0:-a4 +D,dl:3,test:cgn.t1000,file1:cgn.4e5.100000,timbl1:-a1 +D,lc1:2,n:3,ds:555,mo:1
/exp/pberck/wopr/wopr -s do_pdt2.wopr_script -p file0:cgn.4e5.100000,lc0:4,id:PDTT31105,timbl0:-a4 +D,dl:3,test:cgn.t1000,file1:cgn.4e5.100000,timbl1:-a1 +D,lc1:2,n:3,ds:211,mo:1
/exp/pberck/wopr/wopr -s do_pdt2.wopr_script -p file0:cgn.4e5.100000,lc0:4,id:PDTT31106,timbl0:-a4 +D,dl:3,test:cgn.t1000,file1:cgn.4e5.100000,timbl1:-a1 +D,lc1:2,n:3,ds:221,mo:1
/exp/pberck/wopr/wopr -s do_pdt2.wopr_script -p file0:cgn.4e5.100000,lc0:4,id:PDTT31107,timbl0:-a4 +D,dl:3,test:cgn.t1000,file1:cgn.4e5.100000,timbl1:-a1 +D,lc1:2,n:3,ds:511,mo:1
/exp/pberck/wopr/wopr -s do_pdt2.wopr_script -p file0:cgn.4e5.100000,lc0:4,id:PDTT31108,timbl0:-a4 +D,dl:3,test:cgn.t1000,file1:cgn.4e5.100000,timbl1:-a1 +D,lc1:2,n:3,ds:551,mo:1
/exp/pberck/wopr/wopr -s do_pdt2.wopr_script -p file0:cgn.4e5.100000,lc0:4,id:PDTT31109,timbl0:-a4 +D,dl:3,test:cgn.t1000,file1:cgn.4e5.100000,timbl1:-a1 +D,lc1:2,n:3,ds:555,mo:1
/exp/pberck/wopr/wopr -s do_pdt2.wopr_script -p file0:cgn.4e5.100000,lc0:8,id:PDTT31110,timbl0:-a4 +D,dl:3,test:cgn.t1000,file1:cgn.4e5.100000,timbl1:-a1 +D,lc1:2,n:3,ds:211,mo:1
/exp/pberck/wopr/wopr -s do_pdt2.wopr_script -p file0:cgn.4e5.100000,lc0:8,id:PDTT31111,timbl0:-a4 +D,dl:3,test:cgn.t1000,file1:cgn.4e5.100000,timbl1:-a1 +D,lc1:2,n:3,ds:221,mo:1
/exp/pberck/wopr/wopr -s do_pdt2.wopr_script -p file0:cgn.4e5.100000,lc0:8,id:PDTT31112,timbl0:-a4 +D,dl:3,test:cgn.t1000,file1:cgn.4e5.100000,timbl1:-a1 +D,lc1:2,n:3,ds:511,mo:1
/exp/pberck/wopr/wopr -s do_pdt2.wopr_script -p file0:cgn.4e5.100000,lc0:8,id:PDTT31113,timbl0:-a4 +D,dl:3,test:cgn.t1000,file1:cgn.4e5.100000,timbl1:-a1 +D,lc1:2,n:3,ds:551,mo:1
/exp/pberck/wopr/wopr -s do_pdt2.wopr_script -p file0:cgn.4e5.100000,lc0:8,id:PDTT31114,timbl0:-a4 +D,dl:3,test:cgn.t1000,file1:cgn.4e5.100000,timbl1:-a1 +D,lc1:2,n:3,ds:555,mo:1
/exp/pberck/wopr/wopr -s do_pdt2.wopr_script -p file0:cgn.4e5.100000,lc0:12,id:PDTT31115,timbl0:-a4 +D,dl:3,test:cgn.t1000,file1:cgn.4e5.100000,timbl1:-a1 +D,lc1:2,n:3,ds:211,mo:1
/exp/pberck/wopr/wopr -s do_pdt2.wopr_script -p file0:cgn.4e5.100000,lc0:12,id:PDTT31116,timbl0:-a4 +D,dl:3,test:cgn.t1000,file1:cgn.4e5.100000,timbl1:-a1 +D,lc1:2,n:3,ds:221,mo:1
/exp/pberck/wopr/wopr -s do_pdt2.wopr_script -p file0:cgn.4e5.100000,lc0:12,id:PDTT31117,timbl0:-a4 +D,dl:3,test:cgn.t1000,file1:cgn.4e5.100000,timbl1:-a1 +D,lc1:2,n:3,ds:511,mo:1
/exp/pberck/wopr/wopr -s do_pdt2.wopr_script -p file0:cgn.4e5.100000,lc0:12,id:PDTT31118,timbl0:-a4 +D,dl:3,test:cgn.t1000,file1:cgn.4e5.100000,timbl1:-a1 +D,lc1:2,n:3,ds:551,mo:1
/exp/pberck/wopr/wopr -s do_pdt2.wopr_script -p file0:cgn.4e5.100000,lc0:12,id:PDTT31119,timbl0:-a4 +D,dl:3,test:cgn.t1000,file1:cgn.4e5.100000,timbl1:-a1 +D,lc1:2,n:3,ds:555,mo:1
/exp/pberck/wopr/wopr -s do_pdt2.wopr_script -p file0:cgn.4e5.100000,lc0:16,id:PDTT31120,timbl0:-a4 +D,dl:3,test:cgn.t1000,file1:cgn.4e5.100000,timbl1:-a1 +D,lc1:2,n:3,ds:211,mo:1
/exp/pberck/wopr/wopr -s do_pdt2.wopr_script -p file0:cgn.4e5.100000,lc0:16,id:PDTT31121,timbl0:-a4 +D,dl:3,test:cgn.t1000,file1:cgn.4e5.100000,timbl1:-a1 +D,lc1:2,n:3,ds:221,mo:1
/exp/pberck/wopr/wopr -s do_pdt2.wopr_script -p file0:cgn.4e5.100000,lc0:16,id:PDTT31122,timbl0:-a4 +D,dl:3,test:cgn.t1000,file1:cgn.4e5.100000,timbl1:-a1 +D,lc1:2,n:3,ds:511,mo:1
/exp/pberck/wopr/wopr -s do_pdt2.wopr_script -p file0:cgn.4e5.100000,lc0:16,id:PDTT31123,timbl0:-a4 +D,dl:3,test:cgn.t1000,file1:cgn.4e5.100000,timbl1:-a1 +D,lc1:2,n:3,ds:551,mo:1
/exp/pberck/wopr/wopr -s do_pdt2.wopr_script -p file0:cgn.4e5.100000,lc0:16,id:PDTT31124,timbl0:-a4 +D,dl:3,test:cgn.t1000,file1:cgn.4e5.100000,timbl1:-a1 +D,lc1:2,n:3,ds:555,mo:1
/exp/pberck/wopr/wopr -s do_pdt2.wopr_script -p file0:cgn.4e5.400000,lc0:2,id:PDTT31125,timbl0:-a4 +D,dl:3,test:cgn.t1000,file1:cgn.4e5.400000,timbl1:-a1 +D,lc1:2,n:3,ds:211,mo:1
/exp/pberck/wopr/wopr -s do_pdt2.wopr_script -p file0:cgn.4e5.400000,lc0:2,id:PDTT31126,timbl0:-a4 +D,dl:3,test:cgn.t1000,file1:cgn.4e5.400000,timbl1:-a1 +D,lc1:2,n:3,ds:221,mo:1
/exp/pberck/wopr/wopr -s do_pdt2.wopr_script -p file0:cgn.4e5.400000,lc0:2,id:PDTT31127,timbl0:-a4 +D,dl:3,test:cgn.t1000,file1:cgn.4e5.400000,timbl1:-a1 +D,lc1:2,n:3,ds:511,mo:1
/exp/pberck/wopr/wopr -s do_pdt2.wopr_script -p file0:cgn.4e5.400000,lc0:2,id:PDTT31128,timbl0:-a4 +D,dl:3,test:cgn.t1000,file1:cgn.4e5.400000,timbl1:-a1 +D,lc1:2,n:3,ds:551,mo:1
/exp/pberck/wopr/wopr -s do_pdt2.wopr_script -p file0:cgn.4e5.400000,lc0:2,id:PDTT31129,timbl0:-a4 +D,dl:3,test:cgn.t1000,file1:cgn.4e5.400000,timbl1:-a1 +D,lc1:2,n:3,ds:555,mo:1
/exp/pberck/wopr/wopr -s do_pdt2.wopr_script -p file0:cgn.4e5.400000,lc0:4,id:PDTT31130,timbl0:-a4 +D,dl:3,test:cgn.t1000,file1:cgn.4e5.400000,timbl1:-a1 +D,lc1:2,n:3,ds:211,mo:1
/exp/pberck/wopr/wopr -s do_pdt2.wopr_script -p file0:cgn.4e5.400000,lc0:4,id:PDTT31131,timbl0:-a4 +D,dl:3,test:cgn.t1000,file1:cgn.4e5.400000,timbl1:-a1 +D,lc1:2,n:3,ds:221,mo:1
/exp/pberck/wopr/wopr -s do_pdt2.wopr_script -p file0:cgn.4e5.400000,lc0:4,id:PDTT31132,timbl0:-a4 +D,dl:3,test:cgn.t1000,file1:cgn.4e5.400000,timbl1:-a1 +D,lc1:2,n:3,ds:511,mo:1
/exp/pberck/wopr/wopr -s do_pdt2.wopr_script -p file0:cgn.4e5.400000,lc0:4,id:PDTT31133,timbl0:-a4 +D,dl:3,test:cgn.t1000,file1:cgn.4e5.400000,timbl1:-a1 +D,lc1:2,n:3,ds:551,mo:1
/exp/pberck/wopr/wopr -s do_pdt2.wopr_script -p file0:cgn.4e5.400000,lc0:4,id:PDTT31134,timbl0:-a4 +D,dl:3,test:cgn.t1000,file1:cgn.4e5.400000,timbl1:-a1 +D,lc1:2,n:3,ds:555,mo:1
/exp/pberck/wopr/wopr -s do_pdt2.wopr_script -p file0:cgn.4e5.400000,lc0:8,id:PDTT31135,timbl0:-a4 +D,dl:3,test:cgn.t1000,file1:cgn.4e5.400000,timbl1:-a1 +D,lc1:2,n:3,ds:211,mo:1
/exp/pberck/wopr/wopr -s do_pdt2.wopr_script -p file0:cgn.4e5.400000,lc0:8,id:PDTT31136,timbl0:-a4 +D,dl:3,test:cgn.t1000,file1:cgn.4e5.400000,timbl1:-a1 +D,lc1:2,n:3,ds:221,mo:1
/exp/pberck/wopr/wopr -s do_pdt2.wopr_script -p file0:cgn.4e5.400000,lc0:8,id:PDTT31137,timbl0:-a4 +D,dl:3,test:cgn.t1000,file1:cgn.4e5.400000,timbl1:-a1 +D,lc1:2,n:3,ds:511,mo:1
/exp/pberck/wopr/wopr -s do_pdt2.wopr_script -p file0:cgn.4e5.400000,lc0:8,id:PDTT31138,timbl0:-a4 +D,dl:3,test:cgn.t1000,file1:cgn.4e5.400000,timbl1:-a1 +D,lc1:2,n:3,ds:551,mo:1
/exp/pberck/wopr/wopr -s do_pdt2.wopr_script -p file0:cgn.4e5.400000,lc0:8,id:PDTT31139,timbl0:-a4 +D,dl:3,test:cgn.t1000,file1:cgn.4e5.400000,timbl1:-a1 +D,lc1:2,n:3,ds:555,mo:1
/exp/pberck/wopr/wopr -s do_pdt2.wopr_script -p file0:cgn.4e5.400000,lc0:12,id:PDTT31140,timbl0:-a4 +D,dl:3,test:cgn.t1000,file1:cgn.4e5.400000,timbl1:-a1 +D,lc1:2,n:3,ds:211,mo:1
/exp/pberck/wopr/wopr -s do_pdt2.wopr_script -p file0:cgn.4e5.400000,lc0:12,id:PDTT31141,timbl0:-a4 +D,dl:3,test:cgn.t1000,file1:cgn.4e5.400000,timbl1:-a1 +D,lc1:2,n:3,ds:221,mo:1
/exp/pberck/wopr/wopr -s do_pdt2.wopr_script -p file0:cgn.4e5.400000,lc0:12,id:PDTT31142,timbl0:-a4 +D,dl:3,test:cgn.t1000,file1:cgn.4e5.400000,timbl1:-a1 +D,lc1:2,n:3,ds:511,mo:1
/exp/pberck/wopr/wopr -s do_pdt2.wopr_script -p file0:cgn.4e5.400000,lc0:12,id:PDTT31143,timbl0:-a4 +D,dl:3,test:cgn.t1000,file1:cgn.4e5.400000,timbl1:-a1 +D,lc1:2,n:3,ds:551,mo:1
/exp/pberck/wopr/wopr -s do_pdt2.wopr_script -p file0:cgn.4e5.400000,lc0:12,id:PDTT31144,timbl0:-a4 +D,dl:3,test:cgn.t1000,file1:cgn.4e5.400000,timbl1:-a1 +D,lc1:2,n:3,ds:555,mo:1
/exp/pberck/wopr/wopr -s do_pdt2.wopr_script -p file0:cgn.4e5.400000,lc0:16,id:PDTT31145,timbl0:-a4 +D,dl:3,test:cgn.t1000,file1:cgn.4e5.400000,timbl1:-a1 +D,lc1:2,n:3,ds:211,mo:1
/exp/pberck/wopr/wopr -s do_pdt2.wopr_script -p file0:cgn.4e5.400000,lc0:16,id:PDTT31146,timbl0:-a4 +D,dl:3,test:cgn.t1000,file1:cgn.4e5.400000,timbl1:-a1 +D,lc1:2,n:3,ds:221,mo:1
/exp/pberck/wopr/wopr -s do_pdt2.wopr_script -p file0:cgn.4e5.400000,lc0:16,id:PDTT31147,timbl0:-a4 +D,dl:3,test:cgn.t1000,file1:cgn.4e5.400000,timbl1:-a1 +D,lc1:2,n:3,ds:511,mo:1
/exp/pberck/wopr/wopr -s do_pdt2.wopr_script -p file0:cgn.4e5.400000,lc0:16,id:PDTT31148,timbl0:-a4 +D,dl:3,test:cgn.t1000,file1:cgn.4e5.400000,timbl1:-a1 +D,lc1:2,n:3,ds:551,mo:1
/exp/pberck/wopr/wopr -s do_pdt2.wopr_script -p file0:cgn.4e5.400000,lc0:16,id:PDTT31149,timbl0:-a4 +D,dl:3,test:cgn.t1000,file1:cgn.4e5.400000,timbl1:-a1 +D,lc1:2,n:3,ds:555,mo:1
