#2012-01-12 17:23:05
/exp/pberck/wopr/wopr -s do_pdt2.wopr_script -p file0:cgn.4e5.1000,lc0:2,id:PDTT30000,timbl0:-a4 +D,dl:5,test:cgn.t1000,file1:cgn.4e5.1000,timbl1:-a1 +D,lc1:2,n:3,ds:211,mo:1
/exp/pberck/wopr/wopr -s do_pdt2.wopr_script -p file0:cgn.4e5.1000,lc0:2,id:PDTT30001,timbl0:-a4 +D,dl:5,test:cgn.t1000,file1:cgn.4e5.1000,timbl1:-a1 +D,lc1:2,n:3,ds:221,mo:1
/exp/pberck/wopr/wopr -s do_pdt2.wopr_script -p file0:cgn.4e5.1000,lc0:2,id:PDTT30002,timbl0:-a4 +D,dl:5,test:cgn.t1000,file1:cgn.4e5.1000,timbl1:-a1 +D,lc1:2,n:3,ds:511,mo:1
/exp/pberck/wopr/wopr -s do_pdt2.wopr_script -p file0:cgn.4e5.1000,lc0:4,id:PDTT30003,timbl0:-a4 +D,dl:5,test:cgn.t1000,file1:cgn.4e5.1000,timbl1:-a1 +D,lc1:2,n:3,ds:211,mo:1
/exp/pberck/wopr/wopr -s do_pdt2.wopr_script -p file0:cgn.4e5.1000,lc0:4,id:PDTT30004,timbl0:-a4 +D,dl:5,test:cgn.t1000,file1:cgn.4e5.1000,timbl1:-a1 +D,lc1:2,n:3,ds:221,mo:1
/exp/pberck/wopr/wopr -s do_pdt2.wopr_script -p file0:cgn.4e5.1000,lc0:4,id:PDTT30005,timbl0:-a4 +D,dl:5,test:cgn.t1000,file1:cgn.4e5.1000,timbl1:-a1 +D,lc1:2,n:3,ds:511,mo:1
/exp/pberck/wopr/wopr -s do_pdt2.wopr_script -p file0:cgn.4e5.1000,lc0:8,id:PDTT30006,timbl0:-a4 +D,dl:5,test:cgn.t1000,file1:cgn.4e5.1000,timbl1:-a1 +D,lc1:2,n:3,ds:211,mo:1
/exp/pberck/wopr/wopr -s do_pdt2.wopr_script -p file0:cgn.4e5.1000,lc0:8,id:PDTT30007,timbl0:-a4 +D,dl:5,test:cgn.t1000,file1:cgn.4e5.1000,timbl1:-a1 +D,lc1:2,n:3,ds:221,mo:1
/exp/pberck/wopr/wopr -s do_pdt2.wopr_script -p file0:cgn.4e5.1000,lc0:8,id:PDTT30008,timbl0:-a4 +D,dl:5,test:cgn.t1000,file1:cgn.4e5.1000,timbl1:-a1 +D,lc1:2,n:3,ds:511,mo:1
/exp/pberck/wopr/wopr -s do_pdt2.wopr_script -p file0:cgn.4e5.1000,lc0:12,id:PDTT30009,timbl0:-a4 +D,dl:5,test:cgn.t1000,file1:cgn.4e5.1000,timbl1:-a1 +D,lc1:2,n:3,ds:211,mo:1
/exp/pberck/wopr/wopr -s do_pdt2.wopr_script -p file0:cgn.4e5.1000,lc0:12,id:PDTT30010,timbl0:-a4 +D,dl:5,test:cgn.t1000,file1:cgn.4e5.1000,timbl1:-a1 +D,lc1:2,n:3,ds:221,mo:1
/exp/pberck/wopr/wopr -s do_pdt2.wopr_script -p file0:cgn.4e5.1000,lc0:12,id:PDTT30011,timbl0:-a4 +D,dl:5,test:cgn.t1000,file1:cgn.4e5.1000,timbl1:-a1 +D,lc1:2,n:3,ds:511,mo:1
/exp/pberck/wopr/wopr -s do_pdt2.wopr_script -p file0:cgn.4e5.1000,lc0:16,id:PDTT30012,timbl0:-a4 +D,dl:5,test:cgn.t1000,file1:cgn.4e5.1000,timbl1:-a1 +D,lc1:2,n:3,ds:211,mo:1
/exp/pberck/wopr/wopr -s do_pdt2.wopr_script -p file0:cgn.4e5.1000,lc0:16,id:PDTT30013,timbl0:-a4 +D,dl:5,test:cgn.t1000,file1:cgn.4e5.1000,timbl1:-a1 +D,lc1:2,n:3,ds:221,mo:1
/exp/pberck/wopr/wopr -s do_pdt2.wopr_script -p file0:cgn.4e5.1000,lc0:16,id:PDTT30014,timbl0:-a4 +D,dl:5,test:cgn.t1000,file1:cgn.4e5.1000,timbl1:-a1 +D,lc1:2,n:3,ds:511,mo:1
/exp/pberck/wopr/wopr -s do_pdt2.wopr_script -p file0:cgn.4e5.5000,lc0:2,id:PDTT30015,timbl0:-a4 +D,dl:5,test:cgn.t1000,file1:cgn.4e5.5000,timbl1:-a1 +D,lc1:2,n:3,ds:211,mo:1
/exp/pberck/wopr/wopr -s do_pdt2.wopr_script -p file0:cgn.4e5.5000,lc0:2,id:PDTT30016,timbl0:-a4 +D,dl:5,test:cgn.t1000,file1:cgn.4e5.5000,timbl1:-a1 +D,lc1:2,n:3,ds:221,mo:1
/exp/pberck/wopr/wopr -s do_pdt2.wopr_script -p file0:cgn.4e5.5000,lc0:2,id:PDTT30017,timbl0:-a4 +D,dl:5,test:cgn.t1000,file1:cgn.4e5.5000,timbl1:-a1 +D,lc1:2,n:3,ds:511,mo:1
/exp/pberck/wopr/wopr -s do_pdt2.wopr_script -p file0:cgn.4e5.5000,lc0:4,id:PDTT30018,timbl0:-a4 +D,dl:5,test:cgn.t1000,file1:cgn.4e5.5000,timbl1:-a1 +D,lc1:2,n:3,ds:211,mo:1
/exp/pberck/wopr/wopr -s do_pdt2.wopr_script -p file0:cgn.4e5.5000,lc0:4,id:PDTT30019,timbl0:-a4 +D,dl:5,test:cgn.t1000,file1:cgn.4e5.5000,timbl1:-a1 +D,lc1:2,n:3,ds:221,mo:1
/exp/pberck/wopr/wopr -s do_pdt2.wopr_script -p file0:cgn.4e5.5000,lc0:4,id:PDTT30020,timbl0:-a4 +D,dl:5,test:cgn.t1000,file1:cgn.4e5.5000,timbl1:-a1 +D,lc1:2,n:3,ds:511,mo:1
/exp/pberck/wopr/wopr -s do_pdt2.wopr_script -p file0:cgn.4e5.5000,lc0:8,id:PDTT30021,timbl0:-a4 +D,dl:5,test:cgn.t1000,file1:cgn.4e5.5000,timbl1:-a1 +D,lc1:2,n:3,ds:211,mo:1
/exp/pberck/wopr/wopr -s do_pdt2.wopr_script -p file0:cgn.4e5.5000,lc0:8,id:PDTT30022,timbl0:-a4 +D,dl:5,test:cgn.t1000,file1:cgn.4e5.5000,timbl1:-a1 +D,lc1:2,n:3,ds:221,mo:1
/exp/pberck/wopr/wopr -s do_pdt2.wopr_script -p file0:cgn.4e5.5000,lc0:8,id:PDTT30023,timbl0:-a4 +D,dl:5,test:cgn.t1000,file1:cgn.4e5.5000,timbl1:-a1 +D,lc1:2,n:3,ds:511,mo:1
/exp/pberck/wopr/wopr -s do_pdt2.wopr_script -p file0:cgn.4e5.5000,lc0:12,id:PDTT30024,timbl0:-a4 +D,dl:5,test:cgn.t1000,file1:cgn.4e5.5000,timbl1:-a1 +D,lc1:2,n:3,ds:211,mo:1
/exp/pberck/wopr/wopr -s do_pdt2.wopr_script -p file0:cgn.4e5.5000,lc0:12,id:PDTT30025,timbl0:-a4 +D,dl:5,test:cgn.t1000,file1:cgn.4e5.5000,timbl1:-a1 +D,lc1:2,n:3,ds:221,mo:1
/exp/pberck/wopr/wopr -s do_pdt2.wopr_script -p file0:cgn.4e5.5000,lc0:12,id:PDTT30026,timbl0:-a4 +D,dl:5,test:cgn.t1000,file1:cgn.4e5.5000,timbl1:-a1 +D,lc1:2,n:3,ds:511,mo:1
/exp/pberck/wopr/wopr -s do_pdt2.wopr_script -p file0:cgn.4e5.5000,lc0:16,id:PDTT30027,timbl0:-a4 +D,dl:5,test:cgn.t1000,file1:cgn.4e5.5000,timbl1:-a1 +D,lc1:2,n:3,ds:211,mo:1
/exp/pberck/wopr/wopr -s do_pdt2.wopr_script -p file0:cgn.4e5.5000,lc0:16,id:PDTT30028,timbl0:-a4 +D,dl:5,test:cgn.t1000,file1:cgn.4e5.5000,timbl1:-a1 +D,lc1:2,n:3,ds:221,mo:1
/exp/pberck/wopr/wopr -s do_pdt2.wopr_script -p file0:cgn.4e5.5000,lc0:16,id:PDTT30029,timbl0:-a4 +D,dl:5,test:cgn.t1000,file1:cgn.4e5.5000,timbl1:-a1 +D,lc1:2,n:3,ds:511,mo:1
/exp/pberck/wopr/wopr -s do_pdt2.wopr_script -p file0:cgn.4e5.10000,lc0:2,id:PDTT30030,timbl0:-a4 +D,dl:5,test:cgn.t1000,file1:cgn.4e5.10000,timbl1:-a1 +D,lc1:2,n:3,ds:211,mo:1
/exp/pberck/wopr/wopr -s do_pdt2.wopr_script -p file0:cgn.4e5.10000,lc0:2,id:PDTT30031,timbl0:-a4 +D,dl:5,test:cgn.t1000,file1:cgn.4e5.10000,timbl1:-a1 +D,lc1:2,n:3,ds:221,mo:1
/exp/pberck/wopr/wopr -s do_pdt2.wopr_script -p file0:cgn.4e5.10000,lc0:2,id:PDTT30032,timbl0:-a4 +D,dl:5,test:cgn.t1000,file1:cgn.4e5.10000,timbl1:-a1 +D,lc1:2,n:3,ds:511,mo:1
/exp/pberck/wopr/wopr -s do_pdt2.wopr_script -p file0:cgn.4e5.10000,lc0:4,id:PDTT30033,timbl0:-a4 +D,dl:5,test:cgn.t1000,file1:cgn.4e5.10000,timbl1:-a1 +D,lc1:2,n:3,ds:211,mo:1
/exp/pberck/wopr/wopr -s do_pdt2.wopr_script -p file0:cgn.4e5.10000,lc0:4,id:PDTT30034,timbl0:-a4 +D,dl:5,test:cgn.t1000,file1:cgn.4e5.10000,timbl1:-a1 +D,lc1:2,n:3,ds:221,mo:1
/exp/pberck/wopr/wopr -s do_pdt2.wopr_script -p file0:cgn.4e5.10000,lc0:4,id:PDTT30035,timbl0:-a4 +D,dl:5,test:cgn.t1000,file1:cgn.4e5.10000,timbl1:-a1 +D,lc1:2,n:3,ds:511,mo:1
/exp/pberck/wopr/wopr -s do_pdt2.wopr_script -p file0:cgn.4e5.10000,lc0:8,id:PDTT30036,timbl0:-a4 +D,dl:5,test:cgn.t1000,file1:cgn.4e5.10000,timbl1:-a1 +D,lc1:2,n:3,ds:211,mo:1
/exp/pberck/wopr/wopr -s do_pdt2.wopr_script -p file0:cgn.4e5.10000,lc0:8,id:PDTT30037,timbl0:-a4 +D,dl:5,test:cgn.t1000,file1:cgn.4e5.10000,timbl1:-a1 +D,lc1:2,n:3,ds:221,mo:1
/exp/pberck/wopr/wopr -s do_pdt2.wopr_script -p file0:cgn.4e5.10000,lc0:8,id:PDTT30038,timbl0:-a4 +D,dl:5,test:cgn.t1000,file1:cgn.4e5.10000,timbl1:-a1 +D,lc1:2,n:3,ds:511,mo:1
/exp/pberck/wopr/wopr -s do_pdt2.wopr_script -p file0:cgn.4e5.10000,lc0:12,id:PDTT30039,timbl0:-a4 +D,dl:5,test:cgn.t1000,file1:cgn.4e5.10000,timbl1:-a1 +D,lc1:2,n:3,ds:211,mo:1
/exp/pberck/wopr/wopr -s do_pdt2.wopr_script -p file0:cgn.4e5.10000,lc0:12,id:PDTT30040,timbl0:-a4 +D,dl:5,test:cgn.t1000,file1:cgn.4e5.10000,timbl1:-a1 +D,lc1:2,n:3,ds:221,mo:1
/exp/pberck/wopr/wopr -s do_pdt2.wopr_script -p file0:cgn.4e5.10000,lc0:12,id:PDTT30041,timbl0:-a4 +D,dl:5,test:cgn.t1000,file1:cgn.4e5.10000,timbl1:-a1 +D,lc1:2,n:3,ds:511,mo:1
/exp/pberck/wopr/wopr -s do_pdt2.wopr_script -p file0:cgn.4e5.10000,lc0:16,id:PDTT30042,timbl0:-a4 +D,dl:5,test:cgn.t1000,file1:cgn.4e5.10000,timbl1:-a1 +D,lc1:2,n:3,ds:211,mo:1
/exp/pberck/wopr/wopr -s do_pdt2.wopr_script -p file0:cgn.4e5.10000,lc0:16,id:PDTT30043,timbl0:-a4 +D,dl:5,test:cgn.t1000,file1:cgn.4e5.10000,timbl1:-a1 +D,lc1:2,n:3,ds:221,mo:1
/exp/pberck/wopr/wopr -s do_pdt2.wopr_script -p file0:cgn.4e5.10000,lc0:16,id:PDTT30044,timbl0:-a4 +D,dl:5,test:cgn.t1000,file1:cgn.4e5.10000,timbl1:-a1 +D,lc1:2,n:3,ds:511,mo:1
/exp/pberck/wopr/wopr -s do_pdt2.wopr_script -p file0:cgn.4e5.50000,lc0:2,id:PDTT30045,timbl0:-a4 +D,dl:5,test:cgn.t1000,file1:cgn.4e5.50000,timbl1:-a1 +D,lc1:2,n:3,ds:211,mo:1
/exp/pberck/wopr/wopr -s do_pdt2.wopr_script -p file0:cgn.4e5.50000,lc0:2,id:PDTT30046,timbl0:-a4 +D,dl:5,test:cgn.t1000,file1:cgn.4e5.50000,timbl1:-a1 +D,lc1:2,n:3,ds:221,mo:1
/exp/pberck/wopr/wopr -s do_pdt2.wopr_script -p file0:cgn.4e5.50000,lc0:2,id:PDTT30047,timbl0:-a4 +D,dl:5,test:cgn.t1000,file1:cgn.4e5.50000,timbl1:-a1 +D,lc1:2,n:3,ds:511,mo:1
/exp/pberck/wopr/wopr -s do_pdt2.wopr_script -p file0:cgn.4e5.50000,lc0:4,id:PDTT30048,timbl0:-a4 +D,dl:5,test:cgn.t1000,file1:cgn.4e5.50000,timbl1:-a1 +D,lc1:2,n:3,ds:211,mo:1
/exp/pberck/wopr/wopr -s do_pdt2.wopr_script -p file0:cgn.4e5.50000,lc0:4,id:PDTT30049,timbl0:-a4 +D,dl:5,test:cgn.t1000,file1:cgn.4e5.50000,timbl1:-a1 +D,lc1:2,n:3,ds:221,mo:1
/exp/pberck/wopr/wopr -s do_pdt2.wopr_script -p file0:cgn.4e5.50000,lc0:4,id:PDTT30050,timbl0:-a4 +D,dl:5,test:cgn.t1000,file1:cgn.4e5.50000,timbl1:-a1 +D,lc1:2,n:3,ds:511,mo:1
/exp/pberck/wopr/wopr -s do_pdt2.wopr_script -p file0:cgn.4e5.50000,lc0:8,id:PDTT30051,timbl0:-a4 +D,dl:5,test:cgn.t1000,file1:cgn.4e5.50000,timbl1:-a1 +D,lc1:2,n:3,ds:211,mo:1
/exp/pberck/wopr/wopr -s do_pdt2.wopr_script -p file0:cgn.4e5.50000,lc0:8,id:PDTT30052,timbl0:-a4 +D,dl:5,test:cgn.t1000,file1:cgn.4e5.50000,timbl1:-a1 +D,lc1:2,n:3,ds:221,mo:1
/exp/pberck/wopr/wopr -s do_pdt2.wopr_script -p file0:cgn.4e5.50000,lc0:8,id:PDTT30053,timbl0:-a4 +D,dl:5,test:cgn.t1000,file1:cgn.4e5.50000,timbl1:-a1 +D,lc1:2,n:3,ds:511,mo:1
/exp/pberck/wopr/wopr -s do_pdt2.wopr_script -p file0:cgn.4e5.50000,lc0:12,id:PDTT30054,timbl0:-a4 +D,dl:5,test:cgn.t1000,file1:cgn.4e5.50000,timbl1:-a1 +D,lc1:2,n:3,ds:211,mo:1
/exp/pberck/wopr/wopr -s do_pdt2.wopr_script -p file0:cgn.4e5.50000,lc0:12,id:PDTT30055,timbl0:-a4 +D,dl:5,test:cgn.t1000,file1:cgn.4e5.50000,timbl1:-a1 +D,lc1:2,n:3,ds:221,mo:1
/exp/pberck/wopr/wopr -s do_pdt2.wopr_script -p file0:cgn.4e5.50000,lc0:12,id:PDTT30056,timbl0:-a4 +D,dl:5,test:cgn.t1000,file1:cgn.4e5.50000,timbl1:-a1 +D,lc1:2,n:3,ds:511,mo:1
/exp/pberck/wopr/wopr -s do_pdt2.wopr_script -p file0:cgn.4e5.50000,lc0:16,id:PDTT30057,timbl0:-a4 +D,dl:5,test:cgn.t1000,file1:cgn.4e5.50000,timbl1:-a1 +D,lc1:2,n:3,ds:211,mo:1
/exp/pberck/wopr/wopr -s do_pdt2.wopr_script -p file0:cgn.4e5.50000,lc0:16,id:PDTT30058,timbl0:-a4 +D,dl:5,test:cgn.t1000,file1:cgn.4e5.50000,timbl1:-a1 +D,lc1:2,n:3,ds:221,mo:1
/exp/pberck/wopr/wopr -s do_pdt2.wopr_script -p file0:cgn.4e5.50000,lc0:16,id:PDTT30059,timbl0:-a4 +D,dl:5,test:cgn.t1000,file1:cgn.4e5.50000,timbl1:-a1 +D,lc1:2,n:3,ds:511,mo:1
/exp/pberck/wopr/wopr -s do_pdt2.wopr_script -p file0:cgn.4e5.100000,lc0:2,id:PDTT30060,timbl0:-a4 +D,dl:5,test:cgn.t1000,file1:cgn.4e5.100000,timbl1:-a1 +D,lc1:2,n:3,ds:211,mo:1
/exp/pberck/wopr/wopr -s do_pdt2.wopr_script -p file0:cgn.4e5.100000,lc0:2,id:PDTT30061,timbl0:-a4 +D,dl:5,test:cgn.t1000,file1:cgn.4e5.100000,timbl1:-a1 +D,lc1:2,n:3,ds:221,mo:1
/exp/pberck/wopr/wopr -s do_pdt2.wopr_script -p file0:cgn.4e5.100000,lc0:2,id:PDTT30062,timbl0:-a4 +D,dl:5,test:cgn.t1000,file1:cgn.4e5.100000,timbl1:-a1 +D,lc1:2,n:3,ds:511,mo:1
/exp/pberck/wopr/wopr -s do_pdt2.wopr_script -p file0:cgn.4e5.100000,lc0:4,id:PDTT30063,timbl0:-a4 +D,dl:5,test:cgn.t1000,file1:cgn.4e5.100000,timbl1:-a1 +D,lc1:2,n:3,ds:211,mo:1
/exp/pberck/wopr/wopr -s do_pdt2.wopr_script -p file0:cgn.4e5.100000,lc0:4,id:PDTT30064,timbl0:-a4 +D,dl:5,test:cgn.t1000,file1:cgn.4e5.100000,timbl1:-a1 +D,lc1:2,n:3,ds:221,mo:1
/exp/pberck/wopr/wopr -s do_pdt2.wopr_script -p file0:cgn.4e5.100000,lc0:4,id:PDTT30065,timbl0:-a4 +D,dl:5,test:cgn.t1000,file1:cgn.4e5.100000,timbl1:-a1 +D,lc1:2,n:3,ds:511,mo:1
/exp/pberck/wopr/wopr -s do_pdt2.wopr_script -p file0:cgn.4e5.100000,lc0:8,id:PDTT30066,timbl0:-a4 +D,dl:5,test:cgn.t1000,file1:cgn.4e5.100000,timbl1:-a1 +D,lc1:2,n:3,ds:211,mo:1
/exp/pberck/wopr/wopr -s do_pdt2.wopr_script -p file0:cgn.4e5.100000,lc0:8,id:PDTT30067,timbl0:-a4 +D,dl:5,test:cgn.t1000,file1:cgn.4e5.100000,timbl1:-a1 +D,lc1:2,n:3,ds:221,mo:1
/exp/pberck/wopr/wopr -s do_pdt2.wopr_script -p file0:cgn.4e5.100000,lc0:8,id:PDTT30068,timbl0:-a4 +D,dl:5,test:cgn.t1000,file1:cgn.4e5.100000,timbl1:-a1 +D,lc1:2,n:3,ds:511,mo:1
/exp/pberck/wopr/wopr -s do_pdt2.wopr_script -p file0:cgn.4e5.100000,lc0:12,id:PDTT30069,timbl0:-a4 +D,dl:5,test:cgn.t1000,file1:cgn.4e5.100000,timbl1:-a1 +D,lc1:2,n:3,ds:211,mo:1
/exp/pberck/wopr/wopr -s do_pdt2.wopr_script -p file0:cgn.4e5.100000,lc0:12,id:PDTT30070,timbl0:-a4 +D,dl:5,test:cgn.t1000,file1:cgn.4e5.100000,timbl1:-a1 +D,lc1:2,n:3,ds:221,mo:1
/exp/pberck/wopr/wopr -s do_pdt2.wopr_script -p file0:cgn.4e5.100000,lc0:12,id:PDTT30071,timbl0:-a4 +D,dl:5,test:cgn.t1000,file1:cgn.4e5.100000,timbl1:-a1 +D,lc1:2,n:3,ds:511,mo:1
/exp/pberck/wopr/wopr -s do_pdt2.wopr_script -p file0:cgn.4e5.100000,lc0:16,id:PDTT30072,timbl0:-a4 +D,dl:5,test:cgn.t1000,file1:cgn.4e5.100000,timbl1:-a1 +D,lc1:2,n:3,ds:211,mo:1
/exp/pberck/wopr/wopr -s do_pdt2.wopr_script -p file0:cgn.4e5.100000,lc0:16,id:PDTT30073,timbl0:-a4 +D,dl:5,test:cgn.t1000,file1:cgn.4e5.100000,timbl1:-a1 +D,lc1:2,n:3,ds:221,mo:1
/exp/pberck/wopr/wopr -s do_pdt2.wopr_script -p file0:cgn.4e5.100000,lc0:16,id:PDTT30074,timbl0:-a4 +D,dl:5,test:cgn.t1000,file1:cgn.4e5.100000,timbl1:-a1 +D,lc1:2,n:3,ds:511,mo:1
/exp/pberck/wopr/wopr -s do_pdt2.wopr_script -p file0:cgn.4e5.400000,lc0:2,id:PDTT30075,timbl0:-a4 +D,dl:5,test:cgn.t1000,file1:cgn.4e5.400000,timbl1:-a1 +D,lc1:2,n:3,ds:211,mo:1
/exp/pberck/wopr/wopr -s do_pdt2.wopr_script -p file0:cgn.4e5.400000,lc0:2,id:PDTT30076,timbl0:-a4 +D,dl:5,test:cgn.t1000,file1:cgn.4e5.400000,timbl1:-a1 +D,lc1:2,n:3,ds:221,mo:1
/exp/pberck/wopr/wopr -s do_pdt2.wopr_script -p file0:cgn.4e5.400000,lc0:2,id:PDTT30077,timbl0:-a4 +D,dl:5,test:cgn.t1000,file1:cgn.4e5.400000,timbl1:-a1 +D,lc1:2,n:3,ds:511,mo:1
/exp/pberck/wopr/wopr -s do_pdt2.wopr_script -p file0:cgn.4e5.400000,lc0:4,id:PDTT30078,timbl0:-a4 +D,dl:5,test:cgn.t1000,file1:cgn.4e5.400000,timbl1:-a1 +D,lc1:2,n:3,ds:211,mo:1
/exp/pberck/wopr/wopr -s do_pdt2.wopr_script -p file0:cgn.4e5.400000,lc0:4,id:PDTT30079,timbl0:-a4 +D,dl:5,test:cgn.t1000,file1:cgn.4e5.400000,timbl1:-a1 +D,lc1:2,n:3,ds:221,mo:1
/exp/pberck/wopr/wopr -s do_pdt2.wopr_script -p file0:cgn.4e5.400000,lc0:4,id:PDTT30080,timbl0:-a4 +D,dl:5,test:cgn.t1000,file1:cgn.4e5.400000,timbl1:-a1 +D,lc1:2,n:3,ds:511,mo:1
/exp/pberck/wopr/wopr -s do_pdt2.wopr_script -p file0:cgn.4e5.400000,lc0:8,id:PDTT30081,timbl0:-a4 +D,dl:5,test:cgn.t1000,file1:cgn.4e5.400000,timbl1:-a1 +D,lc1:2,n:3,ds:211,mo:1
/exp/pberck/wopr/wopr -s do_pdt2.wopr_script -p file0:cgn.4e5.400000,lc0:8,id:PDTT30082,timbl0:-a4 +D,dl:5,test:cgn.t1000,file1:cgn.4e5.400000,timbl1:-a1 +D,lc1:2,n:3,ds:221,mo:1
/exp/pberck/wopr/wopr -s do_pdt2.wopr_script -p file0:cgn.4e5.400000,lc0:8,id:PDTT30083,timbl0:-a4 +D,dl:5,test:cgn.t1000,file1:cgn.4e5.400000,timbl1:-a1 +D,lc1:2,n:3,ds:511,mo:1
/exp/pberck/wopr/wopr -s do_pdt2.wopr_script -p file0:cgn.4e5.400000,lc0:12,id:PDTT30084,timbl0:-a4 +D,dl:5,test:cgn.t1000,file1:cgn.4e5.400000,timbl1:-a1 +D,lc1:2,n:3,ds:211,mo:1
/exp/pberck/wopr/wopr -s do_pdt2.wopr_script -p file0:cgn.4e5.400000,lc0:12,id:PDTT30085,timbl0:-a4 +D,dl:5,test:cgn.t1000,file1:cgn.4e5.400000,timbl1:-a1 +D,lc1:2,n:3,ds:221,mo:1
/exp/pberck/wopr/wopr -s do_pdt2.wopr_script -p file0:cgn.4e5.400000,lc0:12,id:PDTT30086,timbl0:-a4 +D,dl:5,test:cgn.t1000,file1:cgn.4e5.400000,timbl1:-a1 +D,lc1:2,n:3,ds:511,mo:1
/exp/pberck/wopr/wopr -s do_pdt2.wopr_script -p file0:cgn.4e5.400000,lc0:16,id:PDTT30087,timbl0:-a4 +D,dl:5,test:cgn.t1000,file1:cgn.4e5.400000,timbl1:-a1 +D,lc1:2,n:3,ds:211,mo:1
/exp/pberck/wopr/wopr -s do_pdt2.wopr_script -p file0:cgn.4e5.400000,lc0:16,id:PDTT30088,timbl0:-a4 +D,dl:5,test:cgn.t1000,file1:cgn.4e5.400000,timbl1:-a1 +D,lc1:2,n:3,ds:221,mo:1
/exp/pberck/wopr/wopr -s do_pdt2.wopr_script -p file0:cgn.4e5.400000,lc0:16,id:PDTT30089,timbl0:-a4 +D,dl:5,test:cgn.t1000,file1:cgn.4e5.400000,timbl1:-a1 +D,lc1:2,n:3,ds:511,mo:1
