#2012-01-12 11:26:19
/exp/pberck/wopr/wopr -s do_pdt2.wopr_script -p file0:cgn.4e5.100000,lc0:4,id:PDTT20000,timbl0:-a4 +D,dl:5,test:cgn.t1000,file1:cgn.4e5.1000,timbl1:-a1 +D,lc1:2,n:0,ds:,mo:1
/exp/pberck/wopr/wopr -s do_pdt2.wopr_script -p file0:cgn.4e5.100000,lc0:8,id:PDTT20001,timbl0:-a4 +D,dl:5,test:cgn.t1000,file1:cgn.4e5.1000,timbl1:-a1 +D,lc1:2,n:0,ds:,mo:1
/exp/pberck/wopr/wopr -s do_pdt2.wopr_script -p file0:cgn.4e5.100000,lc0:12,id:PDTT20002,timbl0:-a4 +D,dl:5,test:cgn.t1000,file1:cgn.4e5.1000,timbl1:-a1 +D,lc1:2,n:0,ds:,mo:1
/exp/pberck/wopr/wopr -s do_pdt2.wopr_script -p file0:cgn.4e5.100000,lc0:16,id:PDTT20003,timbl0:-a4 +D,dl:5,test:cgn.t1000,file1:cgn.4e5.1000,timbl1:-a1 +D,lc1:2,n:0,ds:,mo:1
/exp/pberck/wopr/wopr -s do_pdt2.wopr_script -p file0:cgn.4e5.100000,lc0:4,id:PDTT20004,timbl0:-a4 +D,dl:5,test:cgn.t1000,file1:cgn.4e5.5000,timbl1:-a1 +D,lc1:2,n:0,ds:,mo:1
/exp/pberck/wopr/wopr -s do_pdt2.wopr_script -p file0:cgn.4e5.100000,lc0:8,id:PDTT20005,timbl0:-a4 +D,dl:5,test:cgn.t1000,file1:cgn.4e5.5000,timbl1:-a1 +D,lc1:2,n:0,ds:,mo:1
/exp/pberck/wopr/wopr -s do_pdt2.wopr_script -p file0:cgn.4e5.100000,lc0:12,id:PDTT20006,timbl0:-a4 +D,dl:5,test:cgn.t1000,file1:cgn.4e5.5000,timbl1:-a1 +D,lc1:2,n:0,ds:,mo:1
/exp/pberck/wopr/wopr -s do_pdt2.wopr_script -p file0:cgn.4e5.100000,lc0:16,id:PDTT20007,timbl0:-a4 +D,dl:5,test:cgn.t1000,file1:cgn.4e5.5000,timbl1:-a1 +D,lc1:2,n:0,ds:,mo:1
/exp/pberck/wopr/wopr -s do_pdt2.wopr_script -p file0:cgn.4e5.100000,lc0:4,id:PDTT20008,timbl0:-a4 +D,dl:5,test:cgn.t1000,file1:cgn.4e5.10000,timbl1:-a1 +D,lc1:2,n:0,ds:,mo:1
/exp/pberck/wopr/wopr -s do_pdt2.wopr_script -p file0:cgn.4e5.100000,lc0:8,id:PDTT20009,timbl0:-a4 +D,dl:5,test:cgn.t1000,file1:cgn.4e5.10000,timbl1:-a1 +D,lc1:2,n:0,ds:,mo:1
/exp/pberck/wopr/wopr -s do_pdt2.wopr_script -p file0:cgn.4e5.100000,lc0:12,id:PDTT20010,timbl0:-a4 +D,dl:5,test:cgn.t1000,file1:cgn.4e5.10000,timbl1:-a1 +D,lc1:2,n:0,ds:,mo:1
/exp/pberck/wopr/wopr -s do_pdt2.wopr_script -p file0:cgn.4e5.100000,lc0:16,id:PDTT20011,timbl0:-a4 +D,dl:5,test:cgn.t1000,file1:cgn.4e5.10000,timbl1:-a1 +D,lc1:2,n:0,ds:,mo:1
/exp/pberck/wopr/wopr -s do_pdt2.wopr_script -p file0:cgn.4e5.100000,lc0:4,id:PDTT20012,timbl0:-a4 +D,dl:5,test:cgn.t1000,file1:cgn.4e5.50000,timbl1:-a1 +D,lc1:2,n:0,ds:,mo:1
/exp/pberck/wopr/wopr -s do_pdt2.wopr_script -p file0:cgn.4e5.100000,lc0:8,id:PDTT20013,timbl0:-a4 +D,dl:5,test:cgn.t1000,file1:cgn.4e5.50000,timbl1:-a1 +D,lc1:2,n:0,ds:,mo:1
/exp/pberck/wopr/wopr -s do_pdt2.wopr_script -p file0:cgn.4e5.100000,lc0:12,id:PDTT20014,timbl0:-a4 +D,dl:5,test:cgn.t1000,file1:cgn.4e5.50000,timbl1:-a1 +D,lc1:2,n:0,ds:,mo:1
/exp/pberck/wopr/wopr -s do_pdt2.wopr_script -p file0:cgn.4e5.100000,lc0:16,id:PDTT20015,timbl0:-a4 +D,dl:5,test:cgn.t1000,file1:cgn.4e5.50000,timbl1:-a1 +D,lc1:2,n:0,ds:,mo:1
/exp/pberck/wopr/wopr -s do_pdt2.wopr_script -p file0:cgn.4e5.100000,lc0:4,id:PDTT20016,timbl0:-a4 +D,dl:5,test:cgn.t1000,file1:cgn.4e5.100000,timbl1:-a1 +D,lc1:2,n:0,ds:,mo:1
/exp/pberck/wopr/wopr -s do_pdt2.wopr_script -p file0:cgn.4e5.100000,lc0:8,id:PDTT20017,timbl0:-a4 +D,dl:5,test:cgn.t1000,file1:cgn.4e5.100000,timbl1:-a1 +D,lc1:2,n:0,ds:,mo:1
/exp/pberck/wopr/wopr -s do_pdt2.wopr_script -p file0:cgn.4e5.100000,lc0:12,id:PDTT20018,timbl0:-a4 +D,dl:5,test:cgn.t1000,file1:cgn.4e5.100000,timbl1:-a1 +D,lc1:2,n:0,ds:,mo:1
/exp/pberck/wopr/wopr -s do_pdt2.wopr_script -p file0:cgn.4e5.100000,lc0:16,id:PDTT20019,timbl0:-a4 +D,dl:5,test:cgn.t1000,file1:cgn.4e5.100000,timbl1:-a1 +D,lc1:2,n:0,ds:,mo:1
/exp/pberck/wopr/wopr -s do_pdt2.wopr_script -p file0:cgn.4e5.100000,lc0:4,id:PDTT20020,timbl0:-a4 +D,dl:5,test:cgn.t1000,file1:cgn.4e5.400000,timbl1:-a1 +D,lc1:2,n:0,ds:,mo:1
/exp/pberck/wopr/wopr -s do_pdt2.wopr_script -p file0:cgn.4e5.100000,lc0:8,id:PDTT20021,timbl0:-a4 +D,dl:5,test:cgn.t1000,file1:cgn.4e5.400000,timbl1:-a1 +D,lc1:2,n:0,ds:,mo:1
/exp/pberck/wopr/wopr -s do_pdt2.wopr_script -p file0:cgn.4e5.100000,lc0:12,id:PDTT20022,timbl0:-a4 +D,dl:5,test:cgn.t1000,file1:cgn.4e5.400000,timbl1:-a1 +D,lc1:2,n:0,ds:,mo:1
/exp/pberck/wopr/wopr -s do_pdt2.wopr_script -p file0:cgn.4e5.100000,lc0:16,id:PDTT20023,timbl0:-a4 +D,dl:5,test:cgn.t1000,file1:cgn.4e5.400000,timbl1:-a1 +D,lc1:2,n:0,ds:,mo:1
head -n 200000 cgn.4e5 to cgn.4e5.200000
/exp/pberck/wopr/wopr -s do_pdt2.wopr_script -p file0:cgn.4e5.200000,lc0:4,id:PDTT20024,timbl0:-a4 +D,dl:5,test:cgn.t1000,file1:cgn.4e5.1000,timbl1:-a1 +D,lc1:2,n:0,ds:,mo:1
/exp/pberck/wopr/wopr -s do_pdt2.wopr_script -p file0:cgn.4e5.200000,lc0:8,id:PDTT20025,timbl0:-a4 +D,dl:5,test:cgn.t1000,file1:cgn.4e5.1000,timbl1:-a1 +D,lc1:2,n:0,ds:,mo:1
/exp/pberck/wopr/wopr -s do_pdt2.wopr_script -p file0:cgn.4e5.200000,lc0:12,id:PDTT20026,timbl0:-a4 +D,dl:5,test:cgn.t1000,file1:cgn.4e5.1000,timbl1:-a1 +D,lc1:2,n:0,ds:,mo:1
/exp/pberck/wopr/wopr -s do_pdt2.wopr_script -p file0:cgn.4e5.200000,lc0:16,id:PDTT20027,timbl0:-a4 +D,dl:5,test:cgn.t1000,file1:cgn.4e5.1000,timbl1:-a1 +D,lc1:2,n:0,ds:,mo:1
/exp/pberck/wopr/wopr -s do_pdt2.wopr_script -p file0:cgn.4e5.200000,lc0:4,id:PDTT20028,timbl0:-a4 +D,dl:5,test:cgn.t1000,file1:cgn.4e5.5000,timbl1:-a1 +D,lc1:2,n:0,ds:,mo:1
/exp/pberck/wopr/wopr -s do_pdt2.wopr_script -p file0:cgn.4e5.200000,lc0:8,id:PDTT20029,timbl0:-a4 +D,dl:5,test:cgn.t1000,file1:cgn.4e5.5000,timbl1:-a1 +D,lc1:2,n:0,ds:,mo:1
/exp/pberck/wopr/wopr -s do_pdt2.wopr_script -p file0:cgn.4e5.200000,lc0:12,id:PDTT20030,timbl0:-a4 +D,dl:5,test:cgn.t1000,file1:cgn.4e5.5000,timbl1:-a1 +D,lc1:2,n:0,ds:,mo:1
/exp/pberck/wopr/wopr -s do_pdt2.wopr_script -p file0:cgn.4e5.200000,lc0:16,id:PDTT20031,timbl0:-a4 +D,dl:5,test:cgn.t1000,file1:cgn.4e5.5000,timbl1:-a1 +D,lc1:2,n:0,ds:,mo:1
/exp/pberck/wopr/wopr -s do_pdt2.wopr_script -p file0:cgn.4e5.200000,lc0:4,id:PDTT20032,timbl0:-a4 +D,dl:5,test:cgn.t1000,file1:cgn.4e5.10000,timbl1:-a1 +D,lc1:2,n:0,ds:,mo:1
/exp/pberck/wopr/wopr -s do_pdt2.wopr_script -p file0:cgn.4e5.200000,lc0:8,id:PDTT20033,timbl0:-a4 +D,dl:5,test:cgn.t1000,file1:cgn.4e5.10000,timbl1:-a1 +D,lc1:2,n:0,ds:,mo:1
/exp/pberck/wopr/wopr -s do_pdt2.wopr_script -p file0:cgn.4e5.200000,lc0:12,id:PDTT20034,timbl0:-a4 +D,dl:5,test:cgn.t1000,file1:cgn.4e5.10000,timbl1:-a1 +D,lc1:2,n:0,ds:,mo:1
/exp/pberck/wopr/wopr -s do_pdt2.wopr_script -p file0:cgn.4e5.200000,lc0:16,id:PDTT20035,timbl0:-a4 +D,dl:5,test:cgn.t1000,file1:cgn.4e5.10000,timbl1:-a1 +D,lc1:2,n:0,ds:,mo:1
/exp/pberck/wopr/wopr -s do_pdt2.wopr_script -p file0:cgn.4e5.200000,lc0:4,id:PDTT20036,timbl0:-a4 +D,dl:5,test:cgn.t1000,file1:cgn.4e5.50000,timbl1:-a1 +D,lc1:2,n:0,ds:,mo:1
/exp/pberck/wopr/wopr -s do_pdt2.wopr_script -p file0:cgn.4e5.200000,lc0:8,id:PDTT20037,timbl0:-a4 +D,dl:5,test:cgn.t1000,file1:cgn.4e5.50000,timbl1:-a1 +D,lc1:2,n:0,ds:,mo:1
/exp/pberck/wopr/wopr -s do_pdt2.wopr_script -p file0:cgn.4e5.200000,lc0:12,id:PDTT20038,timbl0:-a4 +D,dl:5,test:cgn.t1000,file1:cgn.4e5.50000,timbl1:-a1 +D,lc1:2,n:0,ds:,mo:1
/exp/pberck/wopr/wopr -s do_pdt2.wopr_script -p file0:cgn.4e5.200000,lc0:16,id:PDTT20039,timbl0:-a4 +D,dl:5,test:cgn.t1000,file1:cgn.4e5.50000,timbl1:-a1 +D,lc1:2,n:0,ds:,mo:1
/exp/pberck/wopr/wopr -s do_pdt2.wopr_script -p file0:cgn.4e5.200000,lc0:4,id:PDTT20040,timbl0:-a4 +D,dl:5,test:cgn.t1000,file1:cgn.4e5.100000,timbl1:-a1 +D,lc1:2,n:0,ds:,mo:1
/exp/pberck/wopr/wopr -s do_pdt2.wopr_script -p file0:cgn.4e5.200000,lc0:8,id:PDTT20041,timbl0:-a4 +D,dl:5,test:cgn.t1000,file1:cgn.4e5.100000,timbl1:-a1 +D,lc1:2,n:0,ds:,mo:1
/exp/pberck/wopr/wopr -s do_pdt2.wopr_script -p file0:cgn.4e5.200000,lc0:12,id:PDTT20042,timbl0:-a4 +D,dl:5,test:cgn.t1000,file1:cgn.4e5.100000,timbl1:-a1 +D,lc1:2,n:0,ds:,mo:1
/exp/pberck/wopr/wopr -s do_pdt2.wopr_script -p file0:cgn.4e5.200000,lc0:16,id:PDTT20043,timbl0:-a4 +D,dl:5,test:cgn.t1000,file1:cgn.4e5.100000,timbl1:-a1 +D,lc1:2,n:0,ds:,mo:1
/exp/pberck/wopr/wopr -s do_pdt2.wopr_script -p file0:cgn.4e5.200000,lc0:4,id:PDTT20044,timbl0:-a4 +D,dl:5,test:cgn.t1000,file1:cgn.4e5.400000,timbl1:-a1 +D,lc1:2,n:0,ds:,mo:1
/exp/pberck/wopr/wopr -s do_pdt2.wopr_script -p file0:cgn.4e5.200000,lc0:8,id:PDTT20045,timbl0:-a4 +D,dl:5,test:cgn.t1000,file1:cgn.4e5.400000,timbl1:-a1 +D,lc1:2,n:0,ds:,mo:1
/exp/pberck/wopr/wopr -s do_pdt2.wopr_script -p file0:cgn.4e5.200000,lc0:12,id:PDTT20046,timbl0:-a4 +D,dl:5,test:cgn.t1000,file1:cgn.4e5.400000,timbl1:-a1 +D,lc1:2,n:0,ds:,mo:1
/exp/pberck/wopr/wopr -s do_pdt2.wopr_script -p file0:cgn.4e5.200000,lc0:16,id:PDTT20047,timbl0:-a4 +D,dl:5,test:cgn.t1000,file1:cgn.4e5.400000,timbl1:-a1 +D,lc1:2,n:0,ds:,mo:1
