#2012-01-12 13:32:58
/exp/pberck/wopr/wopr -s do_pdt2.wopr_script -p file0:cgn.4e5.50000,lc0:8,id:PDTT12000,timbl0:-a4 +D,dl:5,test:cgn.t1000,file1:cgn.4e5.1000,timbl1:-a1 +D,lc1:2,n:3,ds:211,mo:1
/exp/pberck/wopr/wopr -s do_pdt2.wopr_script -p file0:cgn.4e5.50000,lc0:8,id:PDTT12001,timbl0:-a4 +D,dl:5,test:cgn.t1000,file1:cgn.4e5.5000,timbl1:-a1 +D,lc1:2,n:3,ds:211,mo:1
/exp/pberck/wopr/wopr -s do_pdt2.wopr_script -p file0:cgn.4e5.50000,lc0:8,id:PDTT12002,timbl0:-a4 +D,dl:5,test:cgn.t1000,file1:cgn.4e5.10000,timbl1:-a1 +D,lc1:2,n:3,ds:211,mo:1
/exp/pberck/wopr/wopr -s do_pdt2.wopr_script -p file0:cgn.4e5.50000,lc0:8,id:PDTT12003,timbl0:-a4 +D,dl:5,test:cgn.t1000,file1:cgn.4e5.50000,timbl1:-a1 +D,lc1:2,n:3,ds:211,mo:1
/exp/pberck/wopr/wopr -s do_pdt2.wopr_script -p file0:cgn.4e5.50000,lc0:8,id:PDTT12004,timbl0:-a4 +D,dl:5,test:cgn.t1000,file1:cgn.4e5.100000,timbl1:-a1 +D,lc1:2,n:3,ds:211,mo:1
/exp/pberck/wopr/wopr -s do_pdt2.wopr_script -p file0:cgn.4e5.50000,lc0:8,id:PDTT12005,timbl0:-a4 +D,dl:5,test:cgn.t1000,file1:cgn.4e5.400000,timbl1:-a1 +D,lc1:2,n:3,ds:211,mo:1
