#2012-03-27 14:28:42
/exp/pberck/wopr/wopr -s do_pdt2.wopr_script -p file0:cgn.4e5.1000,lc0:2,id:PDT3_10000,timbl0:-a1 +D,dl:5,test:cgn.t1000,file1:cgn.4e5.1000,timbl1:-a1 +D,lc1:2,n:1,ds:1,mo:1
/exp/pberck/wopr/wopr -s do_pdt2.wopr_script -p file0:cgn.4e5.1000,lc0:2,id:PDT3_10001,timbl0:-a1 +D,dl:5,test:cgn.t1000,file1:cgn.4e5.1000,timbl1:-a1 +D,lc1:2,n:2,ds:11,mo:1
/exp/pberck/wopr/wopr -s do_pdt2.wopr_script -p file0:cgn.4e5.1000,lc0:2,id:PDT3_10002,timbl0:-a1 +D,dl:5,test:cgn.t1000,file1:cgn.4e5.1000,timbl1:-a1 +D,lc1:2,n:3,ds:111,mo:1
/exp/pberck/wopr/wopr -s do_pdt2.wopr_script -p file0:cgn.4e5.1000,lc0:2,id:PDT3_10003,timbl0:-a1 +D,dl:5,test:cgn.t1000,file1:cgn.4e5.1000,timbl1:-a1 +D,lc1:2,n:4,ds:1111,mo:1
/exp/pberck/wopr/wopr -s do_pdt2.wopr_script -p file0:cgn.4e5.1000,lc0:2,id:PDT3_10004,timbl0:-a1 +D,dl:5,test:cgn.t1000,file1:cgn.4e5.1000,timbl1:-a1 +D,lc1:2,n:5,ds:11111,mo:1
/exp/pberck/wopr/wopr -s do_pdt2.wopr_script -p file0:cgn.4e5.1000,lc0:2,id:PDT3_10005,timbl0:-a1 +D,dl:5,test:cgn.t1000,file1:cgn.4e5.1000,timbl1:-a1 +D,lc1:2,n:3,ds:211,mo:1
/exp/pberck/wopr/wopr -s do_pdt2.wopr_script -p file0:cgn.4e5.1000,lc0:2,id:PDT3_10006,timbl0:-a1 +D,dl:5,test:cgn.t1000,file1:cgn.4e5.1000,timbl1:-a1 +D,lc1:2,n:3,ds:511,mo:1
#2012-03-27 14:29:56
/exp/pberck/wopr/wopr -s do_pdt2.wopr_script -p file0:cgn.4e5.1000,lc0:2,id:PDT3_10000,timbl0:-a1 +D,dl:5,test:cgn.t1000,file1:cgn.4e5.1000,timbl1:-a1 +D,lc1:2,n:1,ds:1,mo:1
/exp/pberck/wopr/wopr -s do_pdt2.wopr_script -p file0:cgn.4e5.1000,lc0:2,id:PDT3_10001,timbl0:-a1 +D,dl:5,test:cgn.t1000,file1:cgn.4e5.1000,timbl1:-a1 +D,lc1:2,n:2,ds:11,mo:1
/exp/pberck/wopr/wopr -s do_pdt2.wopr_script -p file0:cgn.4e5.1000,lc0:2,id:PDT3_10002,timbl0:-a1 +D,dl:5,test:cgn.t1000,file1:cgn.4e5.1000,timbl1:-a1 +D,lc1:2,n:3,ds:111,mo:1
/exp/pberck/wopr/wopr -s do_pdt2.wopr_script -p file0:cgn.4e5.1000,lc0:2,id:PDT3_10003,timbl0:-a1 +D,dl:5,test:cgn.t1000,file1:cgn.4e5.1000,timbl1:-a1 +D,lc1:2,n:4,ds:1111,mo:1
