#2012-01-13 12:42:12
/exp/pberck/wopr/wopr -s do_pdt2.wopr_script -p file0:cgn.4e5.100000,lc0:2,id:PDTT21000,timbl0:-a1 +D,dl:5,test:cgn.t1000,file1:cgn.4e5.1000,timbl1:-a1 +D,lc1:2,n:0,ds:,mo:1
/exp/pberck/wopr/wopr -s do_pdt2.wopr_script -p file0:cgn.4e5.100000,lc0:4,id:PDTT21001,timbl0:-a1 +D,dl:5,test:cgn.t1000,file1:cgn.4e5.1000,timbl1:-a1 +D,lc1:2,n:0,ds:,mo:1
/exp/pberck/wopr/wopr -s do_pdt2.wopr_script -p file0:cgn.4e5.100000,lc0:6,id:PDTT21002,timbl0:-a1 +D,dl:5,test:cgn.t1000,file1:cgn.4e5.1000,timbl1:-a1 +D,lc1:2,n:0,ds:,mo:1
/exp/pberck/wopr/wopr -s do_pdt2.wopr_script -p file0:cgn.4e5.100000,lc0:8,id:PDTT21003,timbl0:-a1 +D,dl:5,test:cgn.t1000,file1:cgn.4e5.1000,timbl1:-a1 +D,lc1:2,n:0,ds:,mo:1
/exp/pberck/wopr/wopr -s do_pdt2.wopr_script -p file0:cgn.4e5.100000,lc0:10,id:PDTT21004,timbl0:-a1 +D,dl:5,test:cgn.t1000,file1:cgn.4e5.1000,timbl1:-a1 +D,lc1:2,n:0,ds:,mo:1
/exp/pberck/wopr/wopr -s do_pdt2.wopr_script -p file0:cgn.4e5.100000,lc0:12,id:PDTT21005,timbl0:-a1 +D,dl:5,test:cgn.t1000,file1:cgn.4e5.1000,timbl1:-a1 +D,lc1:2,n:0,ds:,mo:1
/exp/pberck/wopr/wopr -s do_pdt2.wopr_script -p file0:cgn.4e5.100000,lc0:16,id:PDTT21006,timbl0:-a1 +D,dl:5,test:cgn.t1000,file1:cgn.4e5.1000,timbl1:-a1 +D,lc1:2,n:0,ds:,mo:1
/exp/pberck/wopr/wopr -s do_pdt2.wopr_script -p file0:cgn.4e5.100000,lc0:20,id:PDTT21007,timbl0:-a1 +D,dl:5,test:cgn.t1000,file1:cgn.4e5.1000,timbl1:-a1 +D,lc1:2,n:0,ds:,mo:1
/exp/pberck/wopr/wopr -s do_pdt2.wopr_script -p file0:cgn.4e5.100000,lc0:2,id:PDTT21008,timbl0:-a4 +D,dl:5,test:cgn.t1000,file1:cgn.4e5.1000,timbl1:-a1 +D,lc1:2,n:0,ds:,mo:1
/exp/pberck/wopr/wopr -s do_pdt2.wopr_script -p file0:cgn.4e5.100000,lc0:4,id:PDTT21009,timbl0:-a4 +D,dl:5,test:cgn.t1000,file1:cgn.4e5.1000,timbl1:-a1 +D,lc1:2,n:0,ds:,mo:1
/exp/pberck/wopr/wopr -s do_pdt2.wopr_script -p file0:cgn.4e5.100000,lc0:6,id:PDTT21010,timbl0:-a4 +D,dl:5,test:cgn.t1000,file1:cgn.4e5.1000,timbl1:-a1 +D,lc1:2,n:0,ds:,mo:1
/exp/pberck/wopr/wopr -s do_pdt2.wopr_script -p file0:cgn.4e5.100000,lc0:8,id:PDTT21011,timbl0:-a4 +D,dl:5,test:cgn.t1000,file1:cgn.4e5.1000,timbl1:-a1 +D,lc1:2,n:0,ds:,mo:1
/exp/pberck/wopr/wopr -s do_pdt2.wopr_script -p file0:cgn.4e5.100000,lc0:10,id:PDTT21012,timbl0:-a4 +D,dl:5,test:cgn.t1000,file1:cgn.4e5.1000,timbl1:-a1 +D,lc1:2,n:0,ds:,mo:1
/exp/pberck/wopr/wopr -s do_pdt2.wopr_script -p file0:cgn.4e5.100000,lc0:12,id:PDTT21013,timbl0:-a4 +D,dl:5,test:cgn.t1000,file1:cgn.4e5.1000,timbl1:-a1 +D,lc1:2,n:0,ds:,mo:1
/exp/pberck/wopr/wopr -s do_pdt2.wopr_script -p file0:cgn.4e5.100000,lc0:16,id:PDTT21014,timbl0:-a4 +D,dl:5,test:cgn.t1000,file1:cgn.4e5.1000,timbl1:-a1 +D,lc1:2,n:0,ds:,mo:1
/exp/pberck/wopr/wopr -s do_pdt2.wopr_script -p file0:cgn.4e5.100000,lc0:20,id:PDTT21015,timbl0:-a4 +D,dl:5,test:cgn.t1000,file1:cgn.4e5.1000,timbl1:-a1 +D,lc1:2,n:0,ds:,mo:1
/exp/pberck/wopr/wopr -s do_pdt2.wopr_script -p file0:cgn.4e5.200000,lc0:2,id:PDTT21016,timbl0:-a1 +D,dl:5,test:cgn.t1000,file1:cgn.4e5.1000,timbl1:-a1 +D,lc1:2,n:0,ds:,mo:1
/exp/pberck/wopr/wopr -s do_pdt2.wopr_script -p file0:cgn.4e5.200000,lc0:4,id:PDTT21017,timbl0:-a1 +D,dl:5,test:cgn.t1000,file1:cgn.4e5.1000,timbl1:-a1 +D,lc1:2,n:0,ds:,mo:1
/exp/pberck/wopr/wopr -s do_pdt2.wopr_script -p file0:cgn.4e5.200000,lc0:6,id:PDTT21018,timbl0:-a1 +D,dl:5,test:cgn.t1000,file1:cgn.4e5.1000,timbl1:-a1 +D,lc1:2,n:0,ds:,mo:1
/exp/pberck/wopr/wopr -s do_pdt2.wopr_script -p file0:cgn.4e5.200000,lc0:8,id:PDTT21019,timbl0:-a1 +D,dl:5,test:cgn.t1000,file1:cgn.4e5.1000,timbl1:-a1 +D,lc1:2,n:0,ds:,mo:1
/exp/pberck/wopr/wopr -s do_pdt2.wopr_script -p file0:cgn.4e5.200000,lc0:10,id:PDTT21020,timbl0:-a1 +D,dl:5,test:cgn.t1000,file1:cgn.4e5.1000,timbl1:-a1 +D,lc1:2,n:0,ds:,mo:1
/exp/pberck/wopr/wopr -s do_pdt2.wopr_script -p file0:cgn.4e5.200000,lc0:12,id:PDTT21021,timbl0:-a1 +D,dl:5,test:cgn.t1000,file1:cgn.4e5.1000,timbl1:-a1 +D,lc1:2,n:0,ds:,mo:1
/exp/pberck/wopr/wopr -s do_pdt2.wopr_script -p file0:cgn.4e5.200000,lc0:16,id:PDTT21022,timbl0:-a1 +D,dl:5,test:cgn.t1000,file1:cgn.4e5.1000,timbl1:-a1 +D,lc1:2,n:0,ds:,mo:1
/exp/pberck/wopr/wopr -s do_pdt2.wopr_script -p file0:cgn.4e5.200000,lc0:20,id:PDTT21023,timbl0:-a1 +D,dl:5,test:cgn.t1000,file1:cgn.4e5.1000,timbl1:-a1 +D,lc1:2,n:0,ds:,mo:1
/exp/pberck/wopr/wopr -s do_pdt2.wopr_script -p file0:cgn.4e5.200000,lc0:2,id:PDTT21024,timbl0:-a4 +D,dl:5,test:cgn.t1000,file1:cgn.4e5.1000,timbl1:-a1 +D,lc1:2,n:0,ds:,mo:1
/exp/pberck/wopr/wopr -s do_pdt2.wopr_script -p file0:cgn.4e5.200000,lc0:4,id:PDTT21025,timbl0:-a4 +D,dl:5,test:cgn.t1000,file1:cgn.4e5.1000,timbl1:-a1 +D,lc1:2,n:0,ds:,mo:1
/exp/pberck/wopr/wopr -s do_pdt2.wopr_script -p file0:cgn.4e5.200000,lc0:6,id:PDTT21026,timbl0:-a4 +D,dl:5,test:cgn.t1000,file1:cgn.4e5.1000,timbl1:-a1 +D,lc1:2,n:0,ds:,mo:1
/exp/pberck/wopr/wopr -s do_pdt2.wopr_script -p file0:cgn.4e5.200000,lc0:8,id:PDTT21027,timbl0:-a4 +D,dl:5,test:cgn.t1000,file1:cgn.4e5.1000,timbl1:-a1 +D,lc1:2,n:0,ds:,mo:1
/exp/pberck/wopr/wopr -s do_pdt2.wopr_script -p file0:cgn.4e5.200000,lc0:10,id:PDTT21028,timbl0:-a4 +D,dl:5,test:cgn.t1000,file1:cgn.4e5.1000,timbl1:-a1 +D,lc1:2,n:0,ds:,mo:1
/exp/pberck/wopr/wopr -s do_pdt2.wopr_script -p file0:cgn.4e5.200000,lc0:12,id:PDTT21029,timbl0:-a4 +D,dl:5,test:cgn.t1000,file1:cgn.4e5.1000,timbl1:-a1 +D,lc1:2,n:0,ds:,mo:1
/exp/pberck/wopr/wopr -s do_pdt2.wopr_script -p file0:cgn.4e5.200000,lc0:16,id:PDTT21030,timbl0:-a4 +D,dl:5,test:cgn.t1000,file1:cgn.4e5.1000,timbl1:-a1 +D,lc1:2,n:0,ds:,mo:1
/exp/pberck/wopr/wopr -s do_pdt2.wopr_script -p file0:cgn.4e5.200000,lc0:20,id:PDTT21031,timbl0:-a4 +D,dl:5,test:cgn.t1000,file1:cgn.4e5.1000,timbl1:-a1 +D,lc1:2,n:0,ds:,mo:1
head -n 300000 cgn.4e5 to cgn.4e5.300000
/exp/pberck/wopr/wopr -s do_pdt2.wopr_script -p file0:cgn.4e5.300000,lc0:2,id:PDTT21032,timbl0:-a1 +D,dl:5,test:cgn.t1000,file1:cgn.4e5.1000,timbl1:-a1 +D,lc1:2,n:0,ds:,mo:1
/exp/pberck/wopr/wopr -s do_pdt2.wopr_script -p file0:cgn.4e5.300000,lc0:4,id:PDTT21033,timbl0:-a1 +D,dl:5,test:cgn.t1000,file1:cgn.4e5.1000,timbl1:-a1 +D,lc1:2,n:0,ds:,mo:1
/exp/pberck/wopr/wopr -s do_pdt2.wopr_script -p file0:cgn.4e5.300000,lc0:6,id:PDTT21034,timbl0:-a1 +D,dl:5,test:cgn.t1000,file1:cgn.4e5.1000,timbl1:-a1 +D,lc1:2,n:0,ds:,mo:1
/exp/pberck/wopr/wopr -s do_pdt2.wopr_script -p file0:cgn.4e5.300000,lc0:8,id:PDTT21035,timbl0:-a1 +D,dl:5,test:cgn.t1000,file1:cgn.4e5.1000,timbl1:-a1 +D,lc1:2,n:0,ds:,mo:1
/exp/pberck/wopr/wopr -s do_pdt2.wopr_script -p file0:cgn.4e5.300000,lc0:10,id:PDTT21036,timbl0:-a1 +D,dl:5,test:cgn.t1000,file1:cgn.4e5.1000,timbl1:-a1 +D,lc1:2,n:0,ds:,mo:1
/exp/pberck/wopr/wopr -s do_pdt2.wopr_script -p file0:cgn.4e5.300000,lc0:12,id:PDTT21037,timbl0:-a1 +D,dl:5,test:cgn.t1000,file1:cgn.4e5.1000,timbl1:-a1 +D,lc1:2,n:0,ds:,mo:1
/exp/pberck/wopr/wopr -s do_pdt2.wopr_script -p file0:cgn.4e5.300000,lc0:16,id:PDTT21038,timbl0:-a1 +D,dl:5,test:cgn.t1000,file1:cgn.4e5.1000,timbl1:-a1 +D,lc1:2,n:0,ds:,mo:1
/exp/pberck/wopr/wopr -s do_pdt2.wopr_script -p file0:cgn.4e5.300000,lc0:20,id:PDTT21039,timbl0:-a1 +D,dl:5,test:cgn.t1000,file1:cgn.4e5.1000,timbl1:-a1 +D,lc1:2,n:0,ds:,mo:1
/exp/pberck/wopr/wopr -s do_pdt2.wopr_script -p file0:cgn.4e5.300000,lc0:2,id:PDTT21040,timbl0:-a4 +D,dl:5,test:cgn.t1000,file1:cgn.4e5.1000,timbl1:-a1 +D,lc1:2,n:0,ds:,mo:1
/exp/pberck/wopr/wopr -s do_pdt2.wopr_script -p file0:cgn.4e5.300000,lc0:4,id:PDTT21041,timbl0:-a4 +D,dl:5,test:cgn.t1000,file1:cgn.4e5.1000,timbl1:-a1 +D,lc1:2,n:0,ds:,mo:1
/exp/pberck/wopr/wopr -s do_pdt2.wopr_script -p file0:cgn.4e5.300000,lc0:6,id:PDTT21042,timbl0:-a4 +D,dl:5,test:cgn.t1000,file1:cgn.4e5.1000,timbl1:-a1 +D,lc1:2,n:0,ds:,mo:1
/exp/pberck/wopr/wopr -s do_pdt2.wopr_script -p file0:cgn.4e5.300000,lc0:8,id:PDTT21043,timbl0:-a4 +D,dl:5,test:cgn.t1000,file1:cgn.4e5.1000,timbl1:-a1 +D,lc1:2,n:0,ds:,mo:1
/exp/pberck/wopr/wopr -s do_pdt2.wopr_script -p file0:cgn.4e5.300000,lc0:10,id:PDTT21044,timbl0:-a4 +D,dl:5,test:cgn.t1000,file1:cgn.4e5.1000,timbl1:-a1 +D,lc1:2,n:0,ds:,mo:1
/exp/pberck/wopr/wopr -s do_pdt2.wopr_script -p file0:cgn.4e5.300000,lc0:12,id:PDTT21045,timbl0:-a4 +D,dl:5,test:cgn.t1000,file1:cgn.4e5.1000,timbl1:-a1 +D,lc1:2,n:0,ds:,mo:1
/exp/pberck/wopr/wopr -s do_pdt2.wopr_script -p file0:cgn.4e5.300000,lc0:16,id:PDTT21046,timbl0:-a4 +D,dl:5,test:cgn.t1000,file1:cgn.4e5.1000,timbl1:-a1 +D,lc1:2,n:0,ds:,mo:1
/exp/pberck/wopr/wopr -s do_pdt2.wopr_script -p file0:cgn.4e5.300000,lc0:20,id:PDTT21047,timbl0:-a4 +D,dl:5,test:cgn.t1000,file1:cgn.4e5.1000,timbl1:-a1 +D,lc1:2,n:0,ds:,mo:1
/exp/pberck/wopr/wopr -s do_pdt2.wopr_script -p file0:cgn.4e5.400000,lc0:2,id:PDTT21048,timbl0:-a1 +D,dl:5,test:cgn.t1000,file1:cgn.4e5.1000,timbl1:-a1 +D,lc1:2,n:0,ds:,mo:1
/exp/pberck/wopr/wopr -s do_pdt2.wopr_script -p file0:cgn.4e5.400000,lc0:4,id:PDTT21049,timbl0:-a1 +D,dl:5,test:cgn.t1000,file1:cgn.4e5.1000,timbl1:-a1 +D,lc1:2,n:0,ds:,mo:1
/exp/pberck/wopr/wopr -s do_pdt2.wopr_script -p file0:cgn.4e5.400000,lc0:6,id:PDTT21050,timbl0:-a1 +D,dl:5,test:cgn.t1000,file1:cgn.4e5.1000,timbl1:-a1 +D,lc1:2,n:0,ds:,mo:1
/exp/pberck/wopr/wopr -s do_pdt2.wopr_script -p file0:cgn.4e5.400000,lc0:8,id:PDTT21051,timbl0:-a1 +D,dl:5,test:cgn.t1000,file1:cgn.4e5.1000,timbl1:-a1 +D,lc1:2,n:0,ds:,mo:1
/exp/pberck/wopr/wopr -s do_pdt2.wopr_script -p file0:cgn.4e5.400000,lc0:10,id:PDTT21052,timbl0:-a1 +D,dl:5,test:cgn.t1000,file1:cgn.4e5.1000,timbl1:-a1 +D,lc1:2,n:0,ds:,mo:1
/exp/pberck/wopr/wopr -s do_pdt2.wopr_script -p file0:cgn.4e5.400000,lc0:12,id:PDTT21053,timbl0:-a1 +D,dl:5,test:cgn.t1000,file1:cgn.4e5.1000,timbl1:-a1 +D,lc1:2,n:0,ds:,mo:1
/exp/pberck/wopr/wopr -s do_pdt2.wopr_script -p file0:cgn.4e5.400000,lc0:16,id:PDTT21054,timbl0:-a1 +D,dl:5,test:cgn.t1000,file1:cgn.4e5.1000,timbl1:-a1 +D,lc1:2,n:0,ds:,mo:1
/exp/pberck/wopr/wopr -s do_pdt2.wopr_script -p file0:cgn.4e5.400000,lc0:20,id:PDTT21055,timbl0:-a1 +D,dl:5,test:cgn.t1000,file1:cgn.4e5.1000,timbl1:-a1 +D,lc1:2,n:0,ds:,mo:1
/exp/pberck/wopr/wopr -s do_pdt2.wopr_script -p file0:cgn.4e5.400000,lc0:2,id:PDTT21056,timbl0:-a4 +D,dl:5,test:cgn.t1000,file1:cgn.4e5.1000,timbl1:-a1 +D,lc1:2,n:0,ds:,mo:1
/exp/pberck/wopr/wopr -s do_pdt2.wopr_script -p file0:cgn.4e5.400000,lc0:4,id:PDTT21057,timbl0:-a4 +D,dl:5,test:cgn.t1000,file1:cgn.4e5.1000,timbl1:-a1 +D,lc1:2,n:0,ds:,mo:1
/exp/pberck/wopr/wopr -s do_pdt2.wopr_script -p file0:cgn.4e5.400000,lc0:6,id:PDTT21058,timbl0:-a4 +D,dl:5,test:cgn.t1000,file1:cgn.4e5.1000,timbl1:-a1 +D,lc1:2,n:0,ds:,mo:1
/exp/pberck/wopr/wopr -s do_pdt2.wopr_script -p file0:cgn.4e5.400000,lc0:8,id:PDTT21059,timbl0:-a4 +D,dl:5,test:cgn.t1000,file1:cgn.4e5.1000,timbl1:-a1 +D,lc1:2,n:0,ds:,mo:1
/exp/pberck/wopr/wopr -s do_pdt2.wopr_script -p file0:cgn.4e5.400000,lc0:10,id:PDTT21060,timbl0:-a4 +D,dl:5,test:cgn.t1000,file1:cgn.4e5.1000,timbl1:-a1 +D,lc1:2,n:0,ds:,mo:1
/exp/pberck/wopr/wopr -s do_pdt2.wopr_script -p file0:cgn.4e5.400000,lc0:12,id:PDTT21061,timbl0:-a4 +D,dl:5,test:cgn.t1000,file1:cgn.4e5.1000,timbl1:-a1 +D,lc1:2,n:0,ds:,mo:1
/exp/pberck/wopr/wopr -s do_pdt2.wopr_script -p file0:cgn.4e5.400000,lc0:16,id:PDTT21062,timbl0:-a4 +D,dl:5,test:cgn.t1000,file1:cgn.4e5.1000,timbl1:-a1 +D,lc1:2,n:0,ds:,mo:1
/exp/pberck/wopr/wopr -s do_pdt2.wopr_script -p file0:cgn.4e5.400000,lc0:20,id:PDTT21063,timbl0:-a4 +D,dl:5,test:cgn.t1000,file1:cgn.4e5.1000,timbl1:-a1 +D,lc1:2,n:0,ds:,mo:1
