#2012-01-12 09:54:31
head -n 100000 cgn.4e5 to cgn.4e5.100000
head -n 1000 cgn.4e5 to cgn.4e5.1000
/exp/pberck/wopr/wopr -s do_pdt2.wopr_script -p file0:cgn.4e5.100000,lc0:8,id:PDTT10000,timbl0:-a4 +D,dl:5,test:cgn.t1000,file1:cgn.4e5.1000,timbl1:-a1 +D,lc1:2,n:3,ds:211,mo:1
head -n 5000 cgn.4e5 to cgn.4e5.5000
/exp/pberck/wopr/wopr -s do_pdt2.wopr_script -p file0:cgn.4e5.100000,lc0:8,id:PDTT10001,timbl0:-a4 +D,dl:5,test:cgn.t1000,file1:cgn.4e5.5000,timbl1:-a1 +D,lc1:2,n:3,ds:211,mo:1
head -n 10000 cgn.4e5 to cgn.4e5.10000
/exp/pberck/wopr/wopr -s do_pdt2.wopr_script -p file0:cgn.4e5.100000,lc0:8,id:PDTT10002,timbl0:-a4 +D,dl:5,test:cgn.t1000,file1:cgn.4e5.10000,timbl1:-a1 +D,lc1:2,n:3,ds:211,mo:1
head -n 50000 cgn.4e5 to cgn.4e5.50000
/exp/pberck/wopr/wopr -s do_pdt2.wopr_script -p file0:cgn.4e5.100000,lc0:8,id:PDTT10003,timbl0:-a4 +D,dl:5,test:cgn.t1000,file1:cgn.4e5.50000,timbl1:-a1 +D,lc1:2,n:3,ds:211,mo:1
/exp/pberck/wopr/wopr -s do_pdt2.wopr_script -p file0:cgn.4e5.100000,lc0:8,id:PDTT10004,timbl0:-a4 +D,dl:5,test:cgn.t1000,file1:cgn.4e5.100000,timbl1:-a1 +D,lc1:2,n:3,ds:211,mo:1
head -n 500000 cgn.4e5 to cgn.4e5.500000
/exp/pberck/wopr/wopr -s do_pdt2.wopr_script -p file0:cgn.4e5.100000,lc0:8,id:PDTT10005,timbl0:-a4 +D,dl:5,test:cgn.t1000,file1:cgn.4e5.500000,timbl1:-a1 +D,lc1:2,n:3,ds:211,mo:1
head -n 1000000 cgn.4e5 to cgn.4e5.1000000
/exp/pberck/wopr/wopr -s do_pdt2.wopr_script -p file0:cgn.4e5.100000,lc0:8,id:PDTT10006,timbl0:-a4 +D,dl:5,test:cgn.t1000,file1:cgn.4e5.1000000,timbl1:-a1 +D,lc1:2,n:3,ds:211,mo:1
head -n 5000000 cgn.4e5 to cgn.4e5.5000000
/exp/pberck/wopr/wopr -s do_pdt2.wopr_script -p file0:cgn.4e5.100000,lc0:8,id:PDTT10007,timbl0:-a4 +D,dl:5,test:cgn.t1000,file1:cgn.4e5.5000000,timbl1:-a1 +D,lc1:2,n:3,ds:211,mo:1
head -n 10000000 cgn.4e5 to cgn.4e5.10000000
/exp/pberck/wopr/wopr -s do_pdt2.wopr_script -p file0:cgn.4e5.100000,lc0:8,id:PDTT10008,timbl0:-a4 +D,dl:5,test:cgn.t1000,file1:cgn.4e5.10000000,timbl1:-a1 +D,lc1:2,n:3,ds:211,mo:1
#2012-01-12 11:21:09
head -n 400000 cgn.4e5 to cgn.4e5.400000
