#2012-01-09 10:14:30
/exp/pberck/wopr/wopr_new -s do_pdt2.wopr_script -p file0:../nyt.3e7.1000,lc0:2,id:PDTT91000,timbl0:-a1 +D,dl:5,test:nyt.tail1000,file1:../nyt.3e7.1000,timbl1:-a1 +D,lc1:2,n:0,ds:,mo:1
/exp/pberck/wopr/wopr_new -s do_pdt2.wopr_script -p file0:../nyt.3e7.1000,lc0:3,id:PDTT91001,timbl0:-a1 +D,dl:5,test:nyt.tail1000,file1:../nyt.3e7.1000,timbl1:-a1 +D,lc1:2,n:0,ds:,mo:1
#2012-01-09 10:17:53
/exp/pberck/wopr/wopr_new -s do_pdt2.wopr_script -p file0:../nyt.3e7.1000,lc0:2,id:PDTT91000,timbl0:-a1 +D,dl:5,test:nyt.tail1000,file1:../nyt.3e7.1000,timbl1:-a1 +D,lc1:2,n:0,ds:,mo:1,lm:1
/exp/pberck/wopr/wopr_new -s do_pdt2.wopr_script -p file0:../nyt.3e7.1000,lc0:3,id:PDTT91001,timbl0:-a1 +D,dl:5,test:nyt.tail1000,file1:../nyt.3e7.1000,timbl1:-a1 +D,lc1:2,n:0,ds:,mo:1,lm:1
/exp/pberck/wopr/wopr_new -s do_pdt2.wopr_script -p file0:../nyt.3e7.1000,lc0:4,id:PDTT91002,timbl0:-a1 +D,dl:5,test:nyt.tail1000,file1:../nyt.3e7.1000,timbl1:-a1 +D,lc1:2,n:0,ds:,mo:1,lm:1
/exp/pberck/wopr/wopr_new -s do_pdt2.wopr_script -p file0:../nyt.3e7.1000,lc0:8,id:PDTT91003,timbl0:-a1 +D,dl:5,test:nyt.tail1000,file1:../nyt.3e7.1000,timbl1:-a1 +D,lc1:2,n:0,ds:,mo:1,lm:1
/exp/pberck/wopr/wopr_new -s do_pdt2.wopr_script -p file0:../nyt.3e7.1000,lc0:12,id:PDTT91004,timbl0:-a1 +D,dl:5,test:nyt.tail1000,file1:../nyt.3e7.1000,timbl1:-a1 +D,lc1:2,n:0,ds:,mo:1,lm:1
/exp/pberck/wopr/wopr_new -s do_pdt2.wopr_script -p file0:../nyt.3e7.1000,lc0:16,id:PDTT91005,timbl0:-a1 +D,dl:5,test:nyt.tail1000,file1:../nyt.3e7.1000,timbl1:-a1 +D,lc1:2,n:0,ds:,mo:1,lm:1
/exp/pberck/wopr/wopr_new -s do_pdt2.wopr_script -p file0:../nyt.3e7.1000,lc0:2,id:PDTT91006,timbl0:-a4 +D,dl:5,test:nyt.tail1000,file1:../nyt.3e7.1000,timbl1:-a1 +D,lc1:2,n:0,ds:,mo:1,lm:1
/exp/pberck/wopr/wopr_new -s do_pdt2.wopr_script -p file0:../nyt.3e7.1000,lc0:3,id:PDTT91007,timbl0:-a4 +D,dl:5,test:nyt.tail1000,file1:../nyt.3e7.1000,timbl1:-a1 +D,lc1:2,n:0,ds:,mo:1,lm:1
/exp/pberck/wopr/wopr_new -s do_pdt2.wopr_script -p file0:../nyt.3e7.1000,lc0:4,id:PDTT91008,timbl0:-a4 +D,dl:5,test:nyt.tail1000,file1:../nyt.3e7.1000,timbl1:-a1 +D,lc1:2,n:0,ds:,mo:1,lm:1
/exp/pberck/wopr/wopr_new -s do_pdt2.wopr_script -p file0:../nyt.3e7.1000,lc0:8,id:PDTT91009,timbl0:-a4 +D,dl:5,test:nyt.tail1000,file1:../nyt.3e7.1000,timbl1:-a1 +D,lc1:2,n:0,ds:,mo:1,lm:1
/exp/pberck/wopr/wopr_new -s do_pdt2.wopr_script -p file0:../nyt.3e7.1000,lc0:12,id:PDTT91010,timbl0:-a4 +D,dl:5,test:nyt.tail1000,file1:../nyt.3e7.1000,timbl1:-a1 +D,lc1:2,n:0,ds:,mo:1,lm:1
/exp/pberck/wopr/wopr_new -s do_pdt2.wopr_script -p file0:../nyt.3e7.1000,lc0:16,id:PDTT91011,timbl0:-a4 +D,dl:5,test:nyt.tail1000,file1:../nyt.3e7.1000,timbl1:-a1 +D,lc1:2,n:0,ds:,mo:1,lm:1
/exp/pberck/wopr/wopr_new -s do_pdt2.wopr_script -p file0:../nyt.3e7.5000,lc0:2,id:PDTT91012,timbl0:-a1 +D,dl:5,test:nyt.tail1000,file1:../nyt.3e7.1000,timbl1:-a1 +D,lc1:2,n:0,ds:,mo:1,lm:1
/exp/pberck/wopr/wopr_new -s do_pdt2.wopr_script -p file0:../nyt.3e7.5000,lc0:3,id:PDTT91013,timbl0:-a1 +D,dl:5,test:nyt.tail1000,file1:../nyt.3e7.1000,timbl1:-a1 +D,lc1:2,n:0,ds:,mo:1,lm:1
/exp/pberck/wopr/wopr_new -s do_pdt2.wopr_script -p file0:../nyt.3e7.5000,lc0:4,id:PDTT91014,timbl0:-a1 +D,dl:5,test:nyt.tail1000,file1:../nyt.3e7.1000,timbl1:-a1 +D,lc1:2,n:0,ds:,mo:1,lm:1
/exp/pberck/wopr/wopr_new -s do_pdt2.wopr_script -p file0:../nyt.3e7.5000,lc0:8,id:PDTT91015,timbl0:-a1 +D,dl:5,test:nyt.tail1000,file1:../nyt.3e7.1000,timbl1:-a1 +D,lc1:2,n:0,ds:,mo:1,lm:1
/exp/pberck/wopr/wopr_new -s do_pdt2.wopr_script -p file0:../nyt.3e7.5000,lc0:12,id:PDTT91016,timbl0:-a1 +D,dl:5,test:nyt.tail1000,file1:../nyt.3e7.1000,timbl1:-a1 +D,lc1:2,n:0,ds:,mo:1,lm:1
/exp/pberck/wopr/wopr_new -s do_pdt2.wopr_script -p file0:../nyt.3e7.5000,lc0:16,id:PDTT91017,timbl0:-a1 +D,dl:5,test:nyt.tail1000,file1:../nyt.3e7.1000,timbl1:-a1 +D,lc1:2,n:0,ds:,mo:1,lm:1
/exp/pberck/wopr/wopr_new -s do_pdt2.wopr_script -p file0:../nyt.3e7.5000,lc0:2,id:PDTT91018,timbl0:-a4 +D,dl:5,test:nyt.tail1000,file1:../nyt.3e7.1000,timbl1:-a1 +D,lc1:2,n:0,ds:,mo:1,lm:1
/exp/pberck/wopr/wopr_new -s do_pdt2.wopr_script -p file0:../nyt.3e7.5000,lc0:3,id:PDTT91019,timbl0:-a4 +D,dl:5,test:nyt.tail1000,file1:../nyt.3e7.1000,timbl1:-a1 +D,lc1:2,n:0,ds:,mo:1,lm:1
/exp/pberck/wopr/wopr_new -s do_pdt2.wopr_script -p file0:../nyt.3e7.5000,lc0:4,id:PDTT91020,timbl0:-a4 +D,dl:5,test:nyt.tail1000,file1:../nyt.3e7.1000,timbl1:-a1 +D,lc1:2,n:0,ds:,mo:1,lm:1
/exp/pberck/wopr/wopr_new -s do_pdt2.wopr_script -p file0:../nyt.3e7.5000,lc0:8,id:PDTT91021,timbl0:-a4 +D,dl:5,test:nyt.tail1000,file1:../nyt.3e7.1000,timbl1:-a1 +D,lc1:2,n:0,ds:,mo:1,lm:1
/exp/pberck/wopr/wopr_new -s do_pdt2.wopr_script -p file0:../nyt.3e7.5000,lc0:12,id:PDTT91022,timbl0:-a4 +D,dl:5,test:nyt.tail1000,file1:../nyt.3e7.1000,timbl1:-a1 +D,lc1:2,n:0,ds:,mo:1,lm:1
/exp/pberck/wopr/wopr_new -s do_pdt2.wopr_script -p file0:../nyt.3e7.5000,lc0:16,id:PDTT91023,timbl0:-a4 +D,dl:5,test:nyt.tail1000,file1:../nyt.3e7.1000,timbl1:-a1 +D,lc1:2,n:0,ds:,mo:1,lm:1
/exp/pberck/wopr/wopr_new -s do_pdt2.wopr_script -p file0:../nyt.3e7.10000,lc0:2,id:PDTT91024,timbl0:-a1 +D,dl:5,test:nyt.tail1000,file1:../nyt.3e7.1000,timbl1:-a1 +D,lc1:2,n:0,ds:,mo:1,lm:1
/exp/pberck/wopr/wopr_new -s do_pdt2.wopr_script -p file0:../nyt.3e7.10000,lc0:3,id:PDTT91025,timbl0:-a1 +D,dl:5,test:nyt.tail1000,file1:../nyt.3e7.1000,timbl1:-a1 +D,lc1:2,n:0,ds:,mo:1,lm:1
/exp/pberck/wopr/wopr_new -s do_pdt2.wopr_script -p file0:../nyt.3e7.10000,lc0:4,id:PDTT91026,timbl0:-a1 +D,dl:5,test:nyt.tail1000,file1:../nyt.3e7.1000,timbl1:-a1 +D,lc1:2,n:0,ds:,mo:1,lm:1
/exp/pberck/wopr/wopr_new -s do_pdt2.wopr_script -p file0:../nyt.3e7.10000,lc0:8,id:PDTT91027,timbl0:-a1 +D,dl:5,test:nyt.tail1000,file1:../nyt.3e7.1000,timbl1:-a1 +D,lc1:2,n:0,ds:,mo:1,lm:1
/exp/pberck/wopr/wopr_new -s do_pdt2.wopr_script -p file0:../nyt.3e7.10000,lc0:12,id:PDTT91028,timbl0:-a1 +D,dl:5,test:nyt.tail1000,file1:../nyt.3e7.1000,timbl1:-a1 +D,lc1:2,n:0,ds:,mo:1,lm:1
/exp/pberck/wopr/wopr_new -s do_pdt2.wopr_script -p file0:../nyt.3e7.10000,lc0:16,id:PDTT91029,timbl0:-a1 +D,dl:5,test:nyt.tail1000,file1:../nyt.3e7.1000,timbl1:-a1 +D,lc1:2,n:0,ds:,mo:1,lm:1
/exp/pberck/wopr/wopr_new -s do_pdt2.wopr_script -p file0:../nyt.3e7.10000,lc0:2,id:PDTT91030,timbl0:-a4 +D,dl:5,test:nyt.tail1000,file1:../nyt.3e7.1000,timbl1:-a1 +D,lc1:2,n:0,ds:,mo:1,lm:1
/exp/pberck/wopr/wopr_new -s do_pdt2.wopr_script -p file0:../nyt.3e7.10000,lc0:3,id:PDTT91031,timbl0:-a4 +D,dl:5,test:nyt.tail1000,file1:../nyt.3e7.1000,timbl1:-a1 +D,lc1:2,n:0,ds:,mo:1,lm:1
/exp/pberck/wopr/wopr_new -s do_pdt2.wopr_script -p file0:../nyt.3e7.10000,lc0:4,id:PDTT91032,timbl0:-a4 +D,dl:5,test:nyt.tail1000,file1:../nyt.3e7.1000,timbl1:-a1 +D,lc1:2,n:0,ds:,mo:1,lm:1
/exp/pberck/wopr/wopr_new -s do_pdt2.wopr_script -p file0:../nyt.3e7.10000,lc0:8,id:PDTT91033,timbl0:-a4 +D,dl:5,test:nyt.tail1000,file1:../nyt.3e7.1000,timbl1:-a1 +D,lc1:2,n:0,ds:,mo:1,lm:1
/exp/pberck/wopr/wopr_new -s do_pdt2.wopr_script -p file0:../nyt.3e7.10000,lc0:12,id:PDTT91034,timbl0:-a4 +D,dl:5,test:nyt.tail1000,file1:../nyt.3e7.1000,timbl1:-a1 +D,lc1:2,n:0,ds:,mo:1,lm:1
/exp/pberck/wopr/wopr_new -s do_pdt2.wopr_script -p file0:../nyt.3e7.10000,lc0:16,id:PDTT91035,timbl0:-a4 +D,dl:5,test:nyt.tail1000,file1:../nyt.3e7.1000,timbl1:-a1 +D,lc1:2,n:0,ds:,mo:1,lm:1
/exp/pberck/wopr/wopr_new -s do_pdt2.wopr_script -p file0:../nyt.3e7.50000,lc0:2,id:PDTT91036,timbl0:-a1 +D,dl:5,test:nyt.tail1000,file1:../nyt.3e7.1000,timbl1:-a1 +D,lc1:2,n:0,ds:,mo:1,lm:1
/exp/pberck/wopr/wopr_new -s do_pdt2.wopr_script -p file0:../nyt.3e7.50000,lc0:3,id:PDTT91037,timbl0:-a1 +D,dl:5,test:nyt.tail1000,file1:../nyt.3e7.1000,timbl1:-a1 +D,lc1:2,n:0,ds:,mo:1,lm:1
/exp/pberck/wopr/wopr_new -s do_pdt2.wopr_script -p file0:../nyt.3e7.50000,lc0:4,id:PDTT91038,timbl0:-a1 +D,dl:5,test:nyt.tail1000,file1:../nyt.3e7.1000,timbl1:-a1 +D,lc1:2,n:0,ds:,mo:1,lm:1
/exp/pberck/wopr/wopr_new -s do_pdt2.wopr_script -p file0:../nyt.3e7.50000,lc0:8,id:PDTT91039,timbl0:-a1 +D,dl:5,test:nyt.tail1000,file1:../nyt.3e7.1000,timbl1:-a1 +D,lc1:2,n:0,ds:,mo:1,lm:1
/exp/pberck/wopr/wopr_new -s do_pdt2.wopr_script -p file0:../nyt.3e7.50000,lc0:12,id:PDTT91040,timbl0:-a1 +D,dl:5,test:nyt.tail1000,file1:../nyt.3e7.1000,timbl1:-a1 +D,lc1:2,n:0,ds:,mo:1,lm:1
/exp/pberck/wopr/wopr_new -s do_pdt2.wopr_script -p file0:../nyt.3e7.50000,lc0:16,id:PDTT91041,timbl0:-a1 +D,dl:5,test:nyt.tail1000,file1:../nyt.3e7.1000,timbl1:-a1 +D,lc1:2,n:0,ds:,mo:1,lm:1
/exp/pberck/wopr/wopr_new -s do_pdt2.wopr_script -p file0:../nyt.3e7.50000,lc0:2,id:PDTT91042,timbl0:-a4 +D,dl:5,test:nyt.tail1000,file1:../nyt.3e7.1000,timbl1:-a1 +D,lc1:2,n:0,ds:,mo:1,lm:1
/exp/pberck/wopr/wopr_new -s do_pdt2.wopr_script -p file0:../nyt.3e7.50000,lc0:3,id:PDTT91043,timbl0:-a4 +D,dl:5,test:nyt.tail1000,file1:../nyt.3e7.1000,timbl1:-a1 +D,lc1:2,n:0,ds:,mo:1,lm:1
/exp/pberck/wopr/wopr_new -s do_pdt2.wopr_script -p file0:../nyt.3e7.50000,lc0:4,id:PDTT91044,timbl0:-a4 +D,dl:5,test:nyt.tail1000,file1:../nyt.3e7.1000,timbl1:-a1 +D,lc1:2,n:0,ds:,mo:1,lm:1
/exp/pberck/wopr/wopr_new -s do_pdt2.wopr_script -p file0:../nyt.3e7.50000,lc0:8,id:PDTT91045,timbl0:-a4 +D,dl:5,test:nyt.tail1000,file1:../nyt.3e7.1000,timbl1:-a1 +D,lc1:2,n:0,ds:,mo:1,lm:1
/exp/pberck/wopr/wopr_new -s do_pdt2.wopr_script -p file0:../nyt.3e7.50000,lc0:12,id:PDTT91046,timbl0:-a4 +D,dl:5,test:nyt.tail1000,file1:../nyt.3e7.1000,timbl1:-a1 +D,lc1:2,n:0,ds:,mo:1,lm:1
/exp/pberck/wopr/wopr_new -s do_pdt2.wopr_script -p file0:../nyt.3e7.50000,lc0:16,id:PDTT91047,timbl0:-a4 +D,dl:5,test:nyt.tail1000,file1:../nyt.3e7.1000,timbl1:-a1 +D,lc1:2,n:0,ds:,mo:1,lm:1
/exp/pberck/wopr/wopr_new -s do_pdt2.wopr_script -p file0:../nyt.3e7.100000,lc0:2,id:PDTT91048,timbl0:-a1 +D,dl:5,test:nyt.tail1000,file1:../nyt.3e7.1000,timbl1:-a1 +D,lc1:2,n:0,ds:,mo:1,lm:1
/exp/pberck/wopr/wopr_new -s do_pdt2.wopr_script -p file0:../nyt.3e7.100000,lc0:3,id:PDTT91049,timbl0:-a1 +D,dl:5,test:nyt.tail1000,file1:../nyt.3e7.1000,timbl1:-a1 +D,lc1:2,n:0,ds:,mo:1,lm:1
/exp/pberck/wopr/wopr_new -s do_pdt2.wopr_script -p file0:../nyt.3e7.100000,lc0:4,id:PDTT91050,timbl0:-a1 +D,dl:5,test:nyt.tail1000,file1:../nyt.3e7.1000,timbl1:-a1 +D,lc1:2,n:0,ds:,mo:1,lm:1
/exp/pberck/wopr/wopr_new -s do_pdt2.wopr_script -p file0:../nyt.3e7.100000,lc0:8,id:PDTT91051,timbl0:-a1 +D,dl:5,test:nyt.tail1000,file1:../nyt.3e7.1000,timbl1:-a1 +D,lc1:2,n:0,ds:,mo:1,lm:1
/exp/pberck/wopr/wopr_new -s do_pdt2.wopr_script -p file0:../nyt.3e7.100000,lc0:12,id:PDTT91052,timbl0:-a1 +D,dl:5,test:nyt.tail1000,file1:../nyt.3e7.1000,timbl1:-a1 +D,lc1:2,n:0,ds:,mo:1,lm:1
/exp/pberck/wopr/wopr_new -s do_pdt2.wopr_script -p file0:../nyt.3e7.100000,lc0:16,id:PDTT91053,timbl0:-a1 +D,dl:5,test:nyt.tail1000,file1:../nyt.3e7.1000,timbl1:-a1 +D,lc1:2,n:0,ds:,mo:1,lm:1
/exp/pberck/wopr/wopr_new -s do_pdt2.wopr_script -p file0:../nyt.3e7.100000,lc0:2,id:PDTT91054,timbl0:-a4 +D,dl:5,test:nyt.tail1000,file1:../nyt.3e7.1000,timbl1:-a1 +D,lc1:2,n:0,ds:,mo:1,lm:1
/exp/pberck/wopr/wopr_new -s do_pdt2.wopr_script -p file0:../nyt.3e7.100000,lc0:3,id:PDTT91055,timbl0:-a4 +D,dl:5,test:nyt.tail1000,file1:../nyt.3e7.1000,timbl1:-a1 +D,lc1:2,n:0,ds:,mo:1,lm:1
/exp/pberck/wopr/wopr_new -s do_pdt2.wopr_script -p file0:../nyt.3e7.100000,lc0:4,id:PDTT91056,timbl0:-a4 +D,dl:5,test:nyt.tail1000,file1:../nyt.3e7.1000,timbl1:-a1 +D,lc1:2,n:0,ds:,mo:1,lm:1
/exp/pberck/wopr/wopr_new -s do_pdt2.wopr_script -p file0:../nyt.3e7.100000,lc0:8,id:PDTT91057,timbl0:-a4 +D,dl:5,test:nyt.tail1000,file1:../nyt.3e7.1000,timbl1:-a1 +D,lc1:2,n:0,ds:,mo:1,lm:1
/exp/pberck/wopr/wopr_new -s do_pdt2.wopr_script -p file0:../nyt.3e7.100000,lc0:12,id:PDTT91058,timbl0:-a4 +D,dl:5,test:nyt.tail1000,file1:../nyt.3e7.1000,timbl1:-a1 +D,lc1:2,n:0,ds:,mo:1,lm:1
/exp/pberck/wopr/wopr_new -s do_pdt2.wopr_script -p file0:../nyt.3e7.100000,lc0:16,id:PDTT91059,timbl0:-a4 +D,dl:5,test:nyt.tail1000,file1:../nyt.3e7.1000,timbl1:-a1 +D,lc1:2,n:0,ds:,mo:1,lm:1
/exp/pberck/wopr/wopr_new -s do_pdt2.wopr_script -p file0:../nyt.3e7.500000,lc0:2,id:PDTT91060,timbl0:-a1 +D,dl:5,test:nyt.tail1000,file1:../nyt.3e7.1000,timbl1:-a1 +D,lc1:2,n:0,ds:,mo:1,lm:1
/exp/pberck/wopr/wopr_new -s do_pdt2.wopr_script -p file0:../nyt.3e7.500000,lc0:3,id:PDTT91061,timbl0:-a1 +D,dl:5,test:nyt.tail1000,file1:../nyt.3e7.1000,timbl1:-a1 +D,lc1:2,n:0,ds:,mo:1,lm:1
/exp/pberck/wopr/wopr_new -s do_pdt2.wopr_script -p file0:../nyt.3e7.500000,lc0:4,id:PDTT91062,timbl0:-a1 +D,dl:5,test:nyt.tail1000,file1:../nyt.3e7.1000,timbl1:-a1 +D,lc1:2,n:0,ds:,mo:1,lm:1
/exp/pberck/wopr/wopr_new -s do_pdt2.wopr_script -p file0:../nyt.3e7.500000,lc0:8,id:PDTT91063,timbl0:-a1 +D,dl:5,test:nyt.tail1000,file1:../nyt.3e7.1000,timbl1:-a1 +D,lc1:2,n:0,ds:,mo:1,lm:1
/exp/pberck/wopr/wopr_new -s do_pdt2.wopr_script -p file0:../nyt.3e7.500000,lc0:12,id:PDTT91064,timbl0:-a1 +D,dl:5,test:nyt.tail1000,file1:../nyt.3e7.1000,timbl1:-a1 +D,lc1:2,n:0,ds:,mo:1,lm:1
/exp/pberck/wopr/wopr_new -s do_pdt2.wopr_script -p file0:../nyt.3e7.500000,lc0:16,id:PDTT91065,timbl0:-a1 +D,dl:5,test:nyt.tail1000,file1:../nyt.3e7.1000,timbl1:-a1 +D,lc1:2,n:0,ds:,mo:1,lm:1
/exp/pberck/wopr/wopr_new -s do_pdt2.wopr_script -p file0:../nyt.3e7.500000,lc0:2,id:PDTT91066,timbl0:-a4 +D,dl:5,test:nyt.tail1000,file1:../nyt.3e7.1000,timbl1:-a1 +D,lc1:2,n:0,ds:,mo:1,lm:1
/exp/pberck/wopr/wopr_new -s do_pdt2.wopr_script -p file0:../nyt.3e7.500000,lc0:3,id:PDTT91067,timbl0:-a4 +D,dl:5,test:nyt.tail1000,file1:../nyt.3e7.1000,timbl1:-a1 +D,lc1:2,n:0,ds:,mo:1,lm:1
/exp/pberck/wopr/wopr_new -s do_pdt2.wopr_script -p file0:../nyt.3e7.500000,lc0:4,id:PDTT91068,timbl0:-a4 +D,dl:5,test:nyt.tail1000,file1:../nyt.3e7.1000,timbl1:-a1 +D,lc1:2,n:0,ds:,mo:1,lm:1
/exp/pberck/wopr/wopr_new -s do_pdt2.wopr_script -p file0:../nyt.3e7.500000,lc0:8,id:PDTT91069,timbl0:-a4 +D,dl:5,test:nyt.tail1000,file1:../nyt.3e7.1000,timbl1:-a1 +D,lc1:2,n:0,ds:,mo:1,lm:1
/exp/pberck/wopr/wopr_new -s do_pdt2.wopr_script -p file0:../nyt.3e7.500000,lc0:12,id:PDTT91070,timbl0:-a4 +D,dl:5,test:nyt.tail1000,file1:../nyt.3e7.1000,timbl1:-a1 +D,lc1:2,n:0,ds:,mo:1,lm:1
/exp/pberck/wopr/wopr_new -s do_pdt2.wopr_script -p file0:../nyt.3e7.500000,lc0:16,id:PDTT91071,timbl0:-a4 +D,dl:5,test:nyt.tail1000,file1:../nyt.3e7.1000,timbl1:-a1 +D,lc1:2,n:0,ds:,mo:1,lm:1
#2012-01-15 11:48:49
/exp/pberck/wopr/wopr_new -s do_pdt2.wopr_script -p file0:../nyt.3e7.500000,lc0:16,id:PDTT91071,timbl0:-a4 +D,dl:5,test:nyt.tail1000,file1:../nyt.3e7.1000,timbl1:-a1 +D,lc1:2,n:0,ds:,mo:1,lm:1
/exp/pberck/wopr/wopr_new -s do_pdt2.wopr_script -p file0:../nyt.3e7.1000000,lc0:2,id:PDTT91072,timbl0:-a1 +D,dl:5,test:nyt.tail1000,file1:../nyt.3e7.1000,timbl1:-a1 +D,lc1:2,n:0,ds:,mo:1,lm:1
/exp/pberck/wopr/wopr_new -s do_pdt2.wopr_script -p file0:../nyt.3e7.1000000,lc0:3,id:PDTT91073,timbl0:-a1 +D,dl:5,test:nyt.tail1000,file1:../nyt.3e7.1000,timbl1:-a1 +D,lc1:2,n:0,ds:,mo:1,lm:1
/exp/pberck/wopr/wopr_new -s do_pdt2.wopr_script -p file0:../nyt.3e7.1000000,lc0:4,id:PDTT91074,timbl0:-a1 +D,dl:5,test:nyt.tail1000,file1:../nyt.3e7.1000,timbl1:-a1 +D,lc1:2,n:0,ds:,mo:1,lm:1
/exp/pberck/wopr/wopr_new -s do_pdt2.wopr_script -p file0:../nyt.3e7.1000000,lc0:8,id:PDTT91075,timbl0:-a1 +D,dl:5,test:nyt.tail1000,file1:../nyt.3e7.1000,timbl1:-a1 +D,lc1:2,n:0,ds:,mo:1,lm:1
/exp/pberck/wopr/wopr_new -s do_pdt2.wopr_script -p file0:../nyt.3e7.1000000,lc0:12,id:PDTT91076,timbl0:-a1 +D,dl:5,test:nyt.tail1000,file1:../nyt.3e7.1000,timbl1:-a1 +D,lc1:2,n:0,ds:,mo:1,lm:1
/exp/pberck/wopr/wopr_new -s do_pdt2.wopr_script -p file0:../nyt.3e7.1000000,lc0:16,id:PDTT91077,timbl0:-a1 +D,dl:5,test:nyt.tail1000,file1:../nyt.3e7.1000,timbl1:-a1 +D,lc1:2,n:0,ds:,mo:1,lm:1
/exp/pberck/wopr/wopr_new -s do_pdt2.wopr_script -p file0:../nyt.3e7.1000000,lc0:2,id:PDTT91078,timbl0:-a4 +D,dl:5,test:nyt.tail1000,file1:../nyt.3e7.1000,timbl1:-a1 +D,lc1:2,n:0,ds:,mo:1,lm:1
/exp/pberck/wopr/wopr_new -s do_pdt2.wopr_script -p file0:../nyt.3e7.1000000,lc0:3,id:PDTT91079,timbl0:-a4 +D,dl:5,test:nyt.tail1000,file1:../nyt.3e7.1000,timbl1:-a1 +D,lc1:2,n:0,ds:,mo:1,lm:1
/exp/pberck/wopr/wopr_new -s do_pdt2.wopr_script -p file0:../nyt.3e7.1000000,lc0:4,id:PDTT91080,timbl0:-a4 +D,dl:5,test:nyt.tail1000,file1:../nyt.3e7.1000,timbl1:-a1 +D,lc1:2,n:0,ds:,mo:1,lm:1
/exp/pberck/wopr/wopr_new -s do_pdt2.wopr_script -p file0:../nyt.3e7.1000000,lc0:8,id:PDTT91081,timbl0:-a4 +D,dl:5,test:nyt.tail1000,file1:../nyt.3e7.1000,timbl1:-a1 +D,lc1:2,n:0,ds:,mo:1,lm:1
/exp/pberck/wopr/wopr_new -s do_pdt2.wopr_script -p file0:../nyt.3e7.1000000,lc0:12,id:PDTT91082,timbl0:-a4 +D,dl:5,test:nyt.tail1000,file1:../nyt.3e7.1000,timbl1:-a1 +D,lc1:2,n:0,ds:,mo:1,lm:1
/exp/pberck/wopr/wopr_new -s do_pdt2.wopr_script -p file0:../nyt.3e7.1000000,lc0:16,id:PDTT91083,timbl0:-a4 +D,dl:5,test:nyt.tail1000,file1:../nyt.3e7.1000,timbl1:-a1 +D,lc1:2,n:0,ds:,mo:1,lm:1
