#2012-03-26 11:34:19
/exp/pberck/wopr/wopr -s do_pdt2.wopr_script -p file0:../nyt.3e7.1000,lc0:2,id:PDT3_40000,timbl0:-a1 +D,dl:6,test:nyt.tail1000,file1:../nyt.3e7.1000,timbl1:-a1 +D,lc1:2,n:1,ds:1,mo:1,lm:1
/exp/pberck/wopr/wopr -s do_pdt2.wopr_script -p file0:../nyt.3e7.1000,lc0:2,id:PDT3_40001,timbl0:-a1 +D,dl:6,test:nyt.tail1000,file1:../nyt.3e7.1000,timbl1:-a1 +D,lc1:2,n:2,ds:11,mo:1,lm:1
/exp/pberck/wopr/wopr -s do_pdt2.wopr_script -p file0:../nyt.3e7.1000,lc0:2,id:PDT3_40002,timbl0:-a1 +D,dl:6,test:nyt.tail1000,file1:../nyt.3e7.1000,timbl1:-a1 +D,lc1:2,n:3,ds:111,mo:1,lm:1
/exp/pberck/wopr/wopr -s do_pdt2.wopr_script -p file0:../nyt.3e7.1000,lc0:2,id:PDT3_40003,timbl0:-a1 +D,dl:6,test:nyt.tail1000,file1:../nyt.3e7.1000,timbl1:-a1 +D,lc1:2,n:4,ds:1111,mo:1,lm:1
/exp/pberck/wopr/wopr -s do_pdt2.wopr_script -p file0:../nyt.3e7.1000,lc0:2,id:PDT3_40004,timbl0:-a1 +D,dl:6,test:nyt.tail1000,file1:../nyt.3e7.1000,timbl1:-a1 +D,lc1:2,n:5,ds:11111,mo:1,lm:1
/exp/pberck/wopr/wopr -s do_pdt2.wopr_script -p file0:../nyt.3e7.1000,lc0:2,id:PDT3_40005,timbl0:-a1 +D,dl:6,test:nyt.tail1000,file1:../nyt.3e7.1000,timbl1:-a1 +D,lc1:2,n:6,ds:111111,mo:1,lm:1
/exp/pberck/wopr/wopr -s do_pdt2.wopr_script -p file0:../nyt.3e7.1000,lc0:3,id:PDT3_40006,timbl0:-a1 +D,dl:6,test:nyt.tail1000,file1:../nyt.3e7.1000,timbl1:-a1 +D,lc1:2,n:1,ds:1,mo:1,lm:1
/exp/pberck/wopr/wopr -s do_pdt2.wopr_script -p file0:../nyt.3e7.1000,lc0:3,id:PDT3_40007,timbl0:-a1 +D,dl:6,test:nyt.tail1000,file1:../nyt.3e7.1000,timbl1:-a1 +D,lc1:2,n:2,ds:11,mo:1,lm:1
/exp/pberck/wopr/wopr -s do_pdt2.wopr_script -p file0:../nyt.3e7.1000,lc0:3,id:PDT3_40008,timbl0:-a1 +D,dl:6,test:nyt.tail1000,file1:../nyt.3e7.1000,timbl1:-a1 +D,lc1:2,n:3,ds:111,mo:1,lm:1
/exp/pberck/wopr/wopr -s do_pdt2.wopr_script -p file0:../nyt.3e7.1000,lc0:3,id:PDT3_40009,timbl0:-a1 +D,dl:6,test:nyt.tail1000,file1:../nyt.3e7.1000,timbl1:-a1 +D,lc1:2,n:4,ds:1111,mo:1,lm:1
/exp/pberck/wopr/wopr -s do_pdt2.wopr_script -p file0:../nyt.3e7.1000,lc0:3,id:PDT3_40010,timbl0:-a1 +D,dl:6,test:nyt.tail1000,file1:../nyt.3e7.1000,timbl1:-a1 +D,lc1:2,n:5,ds:11111,mo:1,lm:1
/exp/pberck/wopr/wopr -s do_pdt2.wopr_script -p file0:../nyt.3e7.1000,lc0:3,id:PDT3_40011,timbl0:-a1 +D,dl:6,test:nyt.tail1000,file1:../nyt.3e7.1000,timbl1:-a1 +D,lc1:2,n:6,ds:111111,mo:1,lm:1
/exp/pberck/wopr/wopr -s do_pdt2.wopr_script -p file0:../nyt.3e7.1000,lc0:4,id:PDT3_40012,timbl0:-a1 +D,dl:6,test:nyt.tail1000,file1:../nyt.3e7.1000,timbl1:-a1 +D,lc1:2,n:1,ds:1,mo:1,lm:1
/exp/pberck/wopr/wopr -s do_pdt2.wopr_script -p file0:../nyt.3e7.1000,lc0:4,id:PDT3_40013,timbl0:-a1 +D,dl:6,test:nyt.tail1000,file1:../nyt.3e7.1000,timbl1:-a1 +D,lc1:2,n:2,ds:11,mo:1,lm:1
/exp/pberck/wopr/wopr -s do_pdt2.wopr_script -p file0:../nyt.3e7.1000,lc0:4,id:PDT3_40014,timbl0:-a1 +D,dl:6,test:nyt.tail1000,file1:../nyt.3e7.1000,timbl1:-a1 +D,lc1:2,n:3,ds:111,mo:1,lm:1
/exp/pberck/wopr/wopr -s do_pdt2.wopr_script -p file0:../nyt.3e7.1000,lc0:4,id:PDT3_40015,timbl0:-a1 +D,dl:6,test:nyt.tail1000,file1:../nyt.3e7.1000,timbl1:-a1 +D,lc1:2,n:4,ds:1111,mo:1,lm:1
/exp/pberck/wopr/wopr -s do_pdt2.wopr_script -p file0:../nyt.3e7.1000,lc0:4,id:PDT3_40016,timbl0:-a1 +D,dl:6,test:nyt.tail1000,file1:../nyt.3e7.1000,timbl1:-a1 +D,lc1:2,n:5,ds:11111,mo:1,lm:1
/exp/pberck/wopr/wopr -s do_pdt2.wopr_script -p file0:../nyt.3e7.1000,lc0:4,id:PDT3_40017,timbl0:-a1 +D,dl:6,test:nyt.tail1000,file1:../nyt.3e7.1000,timbl1:-a1 +D,lc1:2,n:6,ds:111111,mo:1,lm:1
/exp/pberck/wopr/wopr -s do_pdt2.wopr_script -p file0:../nyt.3e7.1000,lc0:5,id:PDT3_40018,timbl0:-a1 +D,dl:6,test:nyt.tail1000,file1:../nyt.3e7.1000,timbl1:-a1 +D,lc1:2,n:1,ds:1,mo:1,lm:1
/exp/pberck/wopr/wopr -s do_pdt2.wopr_script -p file0:../nyt.3e7.1000,lc0:5,id:PDT3_40019,timbl0:-a1 +D,dl:6,test:nyt.tail1000,file1:../nyt.3e7.1000,timbl1:-a1 +D,lc1:2,n:2,ds:11,mo:1,lm:1
/exp/pberck/wopr/wopr -s do_pdt2.wopr_script -p file0:../nyt.3e7.1000,lc0:5,id:PDT3_40020,timbl0:-a1 +D,dl:6,test:nyt.tail1000,file1:../nyt.3e7.1000,timbl1:-a1 +D,lc1:2,n:3,ds:111,mo:1,lm:1
/exp/pberck/wopr/wopr -s do_pdt2.wopr_script -p file0:../nyt.3e7.1000,lc0:5,id:PDT3_40021,timbl0:-a1 +D,dl:6,test:nyt.tail1000,file1:../nyt.3e7.1000,timbl1:-a1 +D,lc1:2,n:4,ds:1111,mo:1,lm:1
/exp/pberck/wopr/wopr -s do_pdt2.wopr_script -p file0:../nyt.3e7.1000,lc0:5,id:PDT3_40022,timbl0:-a1 +D,dl:6,test:nyt.tail1000,file1:../nyt.3e7.1000,timbl1:-a1 +D,lc1:2,n:5,ds:11111,mo:1,lm:1
/exp/pberck/wopr/wopr -s do_pdt2.wopr_script -p file0:../nyt.3e7.1000,lc0:5,id:PDT3_40023,timbl0:-a1 +D,dl:6,test:nyt.tail1000,file1:../nyt.3e7.1000,timbl1:-a1 +D,lc1:2,n:6,ds:111111,mo:1,lm:1
/exp/pberck/wopr/wopr -s do_pdt2.wopr_script -p file0:../nyt.3e7.1000,lc0:6,id:PDT3_40024,timbl0:-a1 +D,dl:6,test:nyt.tail1000,file1:../nyt.3e7.1000,timbl1:-a1 +D,lc1:2,n:1,ds:1,mo:1,lm:1
/exp/pberck/wopr/wopr -s do_pdt2.wopr_script -p file0:../nyt.3e7.1000,lc0:6,id:PDT3_40025,timbl0:-a1 +D,dl:6,test:nyt.tail1000,file1:../nyt.3e7.1000,timbl1:-a1 +D,lc1:2,n:2,ds:11,mo:1,lm:1
/exp/pberck/wopr/wopr -s do_pdt2.wopr_script -p file0:../nyt.3e7.1000,lc0:6,id:PDT3_40026,timbl0:-a1 +D,dl:6,test:nyt.tail1000,file1:../nyt.3e7.1000,timbl1:-a1 +D,lc1:2,n:3,ds:111,mo:1,lm:1
/exp/pberck/wopr/wopr -s do_pdt2.wopr_script -p file0:../nyt.3e7.1000,lc0:6,id:PDT3_40027,timbl0:-a1 +D,dl:6,test:nyt.tail1000,file1:../nyt.3e7.1000,timbl1:-a1 +D,lc1:2,n:4,ds:1111,mo:1,lm:1
/exp/pberck/wopr/wopr -s do_pdt2.wopr_script -p file0:../nyt.3e7.1000,lc0:6,id:PDT3_40028,timbl0:-a1 +D,dl:6,test:nyt.tail1000,file1:../nyt.3e7.1000,timbl1:-a1 +D,lc1:2,n:5,ds:11111,mo:1,lm:1
/exp/pberck/wopr/wopr -s do_pdt2.wopr_script -p file0:../nyt.3e7.1000,lc0:6,id:PDT3_40029,timbl0:-a1 +D,dl:6,test:nyt.tail1000,file1:../nyt.3e7.1000,timbl1:-a1 +D,lc1:2,n:6,ds:111111,mo:1,lm:1
/exp/pberck/wopr/wopr -s do_pdt2.wopr_script -p file0:../nyt.3e7.1000,lc0:8,id:PDT3_40030,timbl0:-a1 +D,dl:6,test:nyt.tail1000,file1:../nyt.3e7.1000,timbl1:-a1 +D,lc1:2,n:1,ds:1,mo:1,lm:1
/exp/pberck/wopr/wopr -s do_pdt2.wopr_script -p file0:../nyt.3e7.1000,lc0:8,id:PDT3_40031,timbl0:-a1 +D,dl:6,test:nyt.tail1000,file1:../nyt.3e7.1000,timbl1:-a1 +D,lc1:2,n:2,ds:11,mo:1,lm:1
/exp/pberck/wopr/wopr -s do_pdt2.wopr_script -p file0:../nyt.3e7.1000,lc0:8,id:PDT3_40032,timbl0:-a1 +D,dl:6,test:nyt.tail1000,file1:../nyt.3e7.1000,timbl1:-a1 +D,lc1:2,n:3,ds:111,mo:1,lm:1
/exp/pberck/wopr/wopr -s do_pdt2.wopr_script -p file0:../nyt.3e7.1000,lc0:8,id:PDT3_40033,timbl0:-a1 +D,dl:6,test:nyt.tail1000,file1:../nyt.3e7.1000,timbl1:-a1 +D,lc1:2,n:4,ds:1111,mo:1,lm:1
/exp/pberck/wopr/wopr -s do_pdt2.wopr_script -p file0:../nyt.3e7.1000,lc0:8,id:PDT3_40034,timbl0:-a1 +D,dl:6,test:nyt.tail1000,file1:../nyt.3e7.1000,timbl1:-a1 +D,lc1:2,n:5,ds:11111,mo:1,lm:1
/exp/pberck/wopr/wopr -s do_pdt2.wopr_script -p file0:../nyt.3e7.1000,lc0:8,id:PDT3_40035,timbl0:-a1 +D,dl:6,test:nyt.tail1000,file1:../nyt.3e7.1000,timbl1:-a1 +D,lc1:2,n:6,ds:111111,mo:1,lm:1
/exp/pberck/wopr/wopr -s do_pdt2.wopr_script -p file0:../nyt.3e7.1000,lc0:10,id:PDT3_40036,timbl0:-a1 +D,dl:6,test:nyt.tail1000,file1:../nyt.3e7.1000,timbl1:-a1 +D,lc1:2,n:1,ds:1,mo:1,lm:1
/exp/pberck/wopr/wopr -s do_pdt2.wopr_script -p file0:../nyt.3e7.1000,lc0:10,id:PDT3_40037,timbl0:-a1 +D,dl:6,test:nyt.tail1000,file1:../nyt.3e7.1000,timbl1:-a1 +D,lc1:2,n:2,ds:11,mo:1,lm:1
/exp/pberck/wopr/wopr -s do_pdt2.wopr_script -p file0:../nyt.3e7.1000,lc0:10,id:PDT3_40038,timbl0:-a1 +D,dl:6,test:nyt.tail1000,file1:../nyt.3e7.1000,timbl1:-a1 +D,lc1:2,n:3,ds:111,mo:1,lm:1
/exp/pberck/wopr/wopr -s do_pdt2.wopr_script -p file0:../nyt.3e7.1000,lc0:10,id:PDT3_40039,timbl0:-a1 +D,dl:6,test:nyt.tail1000,file1:../nyt.3e7.1000,timbl1:-a1 +D,lc1:2,n:4,ds:1111,mo:1,lm:1
/exp/pberck/wopr/wopr -s do_pdt2.wopr_script -p file0:../nyt.3e7.1000,lc0:10,id:PDT3_40040,timbl0:-a1 +D,dl:6,test:nyt.tail1000,file1:../nyt.3e7.1000,timbl1:-a1 +D,lc1:2,n:5,ds:11111,mo:1,lm:1
/exp/pberck/wopr/wopr -s do_pdt2.wopr_script -p file0:../nyt.3e7.1000,lc0:10,id:PDT3_40041,timbl0:-a1 +D,dl:6,test:nyt.tail1000,file1:../nyt.3e7.1000,timbl1:-a1 +D,lc1:2,n:6,ds:111111,mo:1,lm:1
/exp/pberck/wopr/wopr -s do_pdt2.wopr_script -p file0:../nyt.3e7.1000,lc0:12,id:PDT3_40042,timbl0:-a1 +D,dl:6,test:nyt.tail1000,file1:../nyt.3e7.1000,timbl1:-a1 +D,lc1:2,n:1,ds:1,mo:1,lm:1
/exp/pberck/wopr/wopr -s do_pdt2.wopr_script -p file0:../nyt.3e7.1000,lc0:12,id:PDT3_40043,timbl0:-a1 +D,dl:6,test:nyt.tail1000,file1:../nyt.3e7.1000,timbl1:-a1 +D,lc1:2,n:2,ds:11,mo:1,lm:1
/exp/pberck/wopr/wopr -s do_pdt2.wopr_script -p file0:../nyt.3e7.1000,lc0:12,id:PDT3_40044,timbl0:-a1 +D,dl:6,test:nyt.tail1000,file1:../nyt.3e7.1000,timbl1:-a1 +D,lc1:2,n:3,ds:111,mo:1,lm:1
/exp/pberck/wopr/wopr -s do_pdt2.wopr_script -p file0:../nyt.3e7.1000,lc0:12,id:PDT3_40045,timbl0:-a1 +D,dl:6,test:nyt.tail1000,file1:../nyt.3e7.1000,timbl1:-a1 +D,lc1:2,n:4,ds:1111,mo:1,lm:1
/exp/pberck/wopr/wopr -s do_pdt2.wopr_script -p file0:../nyt.3e7.1000,lc0:12,id:PDT3_40046,timbl0:-a1 +D,dl:6,test:nyt.tail1000,file1:../nyt.3e7.1000,timbl1:-a1 +D,lc1:2,n:5,ds:11111,mo:1,lm:1
/exp/pberck/wopr/wopr -s do_pdt2.wopr_script -p file0:../nyt.3e7.1000,lc0:12,id:PDT3_40047,timbl0:-a1 +D,dl:6,test:nyt.tail1000,file1:../nyt.3e7.1000,timbl1:-a1 +D,lc1:2,n:6,ds:111111,mo:1,lm:1
/exp/pberck/wopr/wopr -s do_pdt2.wopr_script -p file0:../nyt.3e7.1000,lc0:16,id:PDT3_40048,timbl0:-a1 +D,dl:6,test:nyt.tail1000,file1:../nyt.3e7.1000,timbl1:-a1 +D,lc1:2,n:1,ds:1,mo:1,lm:1
/exp/pberck/wopr/wopr -s do_pdt2.wopr_script -p file0:../nyt.3e7.1000,lc0:16,id:PDT3_40049,timbl0:-a1 +D,dl:6,test:nyt.tail1000,file1:../nyt.3e7.1000,timbl1:-a1 +D,lc1:2,n:2,ds:11,mo:1,lm:1
/exp/pberck/wopr/wopr -s do_pdt2.wopr_script -p file0:../nyt.3e7.1000,lc0:16,id:PDT3_40050,timbl0:-a1 +D,dl:6,test:nyt.tail1000,file1:../nyt.3e7.1000,timbl1:-a1 +D,lc1:2,n:3,ds:111,mo:1,lm:1
/exp/pberck/wopr/wopr -s do_pdt2.wopr_script -p file0:../nyt.3e7.1000,lc0:16,id:PDT3_40051,timbl0:-a1 +D,dl:6,test:nyt.tail1000,file1:../nyt.3e7.1000,timbl1:-a1 +D,lc1:2,n:4,ds:1111,mo:1,lm:1
/exp/pberck/wopr/wopr -s do_pdt2.wopr_script -p file0:../nyt.3e7.1000,lc0:16,id:PDT3_40052,timbl0:-a1 +D,dl:6,test:nyt.tail1000,file1:../nyt.3e7.1000,timbl1:-a1 +D,lc1:2,n:5,ds:11111,mo:1,lm:1
/exp/pberck/wopr/wopr -s do_pdt2.wopr_script -p file0:../nyt.3e7.1000,lc0:16,id:PDT3_40053,timbl0:-a1 +D,dl:6,test:nyt.tail1000,file1:../nyt.3e7.1000,timbl1:-a1 +D,lc1:2,n:6,ds:111111,mo:1,lm:1
/exp/pberck/wopr/wopr -s do_pdt2.wopr_script -p file0:../nyt.3e7.5000,lc0:2,id:PDT3_40054,timbl0:-a1 +D,dl:6,test:nyt.tail1000,file1:../nyt.3e7.5000,timbl1:-a1 +D,lc1:2,n:1,ds:1,mo:1,lm:1
/exp/pberck/wopr/wopr -s do_pdt2.wopr_script -p file0:../nyt.3e7.5000,lc0:2,id:PDT3_40055,timbl0:-a1 +D,dl:6,test:nyt.tail1000,file1:../nyt.3e7.5000,timbl1:-a1 +D,lc1:2,n:2,ds:11,mo:1,lm:1
/exp/pberck/wopr/wopr -s do_pdt2.wopr_script -p file0:../nyt.3e7.5000,lc0:2,id:PDT3_40056,timbl0:-a1 +D,dl:6,test:nyt.tail1000,file1:../nyt.3e7.5000,timbl1:-a1 +D,lc1:2,n:3,ds:111,mo:1,lm:1
/exp/pberck/wopr/wopr -s do_pdt2.wopr_script -p file0:../nyt.3e7.5000,lc0:2,id:PDT3_40057,timbl0:-a1 +D,dl:6,test:nyt.tail1000,file1:../nyt.3e7.5000,timbl1:-a1 +D,lc1:2,n:4,ds:1111,mo:1,lm:1
/exp/pberck/wopr/wopr -s do_pdt2.wopr_script -p file0:../nyt.3e7.5000,lc0:2,id:PDT3_40058,timbl0:-a1 +D,dl:6,test:nyt.tail1000,file1:../nyt.3e7.5000,timbl1:-a1 +D,lc1:2,n:5,ds:11111,mo:1,lm:1
/exp/pberck/wopr/wopr -s do_pdt2.wopr_script -p file0:../nyt.3e7.5000,lc0:2,id:PDT3_40059,timbl0:-a1 +D,dl:6,test:nyt.tail1000,file1:../nyt.3e7.5000,timbl1:-a1 +D,lc1:2,n:6,ds:111111,mo:1,lm:1
/exp/pberck/wopr/wopr -s do_pdt2.wopr_script -p file0:../nyt.3e7.5000,lc0:3,id:PDT3_40060,timbl0:-a1 +D,dl:6,test:nyt.tail1000,file1:../nyt.3e7.5000,timbl1:-a1 +D,lc1:2,n:1,ds:1,mo:1,lm:1
/exp/pberck/wopr/wopr -s do_pdt2.wopr_script -p file0:../nyt.3e7.5000,lc0:3,id:PDT3_40061,timbl0:-a1 +D,dl:6,test:nyt.tail1000,file1:../nyt.3e7.5000,timbl1:-a1 +D,lc1:2,n:2,ds:11,mo:1,lm:1
/exp/pberck/wopr/wopr -s do_pdt2.wopr_script -p file0:../nyt.3e7.5000,lc0:3,id:PDT3_40062,timbl0:-a1 +D,dl:6,test:nyt.tail1000,file1:../nyt.3e7.5000,timbl1:-a1 +D,lc1:2,n:3,ds:111,mo:1,lm:1
/exp/pberck/wopr/wopr -s do_pdt2.wopr_script -p file0:../nyt.3e7.5000,lc0:3,id:PDT3_40063,timbl0:-a1 +D,dl:6,test:nyt.tail1000,file1:../nyt.3e7.5000,timbl1:-a1 +D,lc1:2,n:4,ds:1111,mo:1,lm:1
/exp/pberck/wopr/wopr -s do_pdt2.wopr_script -p file0:../nyt.3e7.5000,lc0:3,id:PDT3_40064,timbl0:-a1 +D,dl:6,test:nyt.tail1000,file1:../nyt.3e7.5000,timbl1:-a1 +D,lc1:2,n:5,ds:11111,mo:1,lm:1
/exp/pberck/wopr/wopr -s do_pdt2.wopr_script -p file0:../nyt.3e7.5000,lc0:3,id:PDT3_40065,timbl0:-a1 +D,dl:6,test:nyt.tail1000,file1:../nyt.3e7.5000,timbl1:-a1 +D,lc1:2,n:6,ds:111111,mo:1,lm:1
/exp/pberck/wopr/wopr -s do_pdt2.wopr_script -p file0:../nyt.3e7.5000,lc0:4,id:PDT3_40066,timbl0:-a1 +D,dl:6,test:nyt.tail1000,file1:../nyt.3e7.5000,timbl1:-a1 +D,lc1:2,n:1,ds:1,mo:1,lm:1
/exp/pberck/wopr/wopr -s do_pdt2.wopr_script -p file0:../nyt.3e7.5000,lc0:4,id:PDT3_40067,timbl0:-a1 +D,dl:6,test:nyt.tail1000,file1:../nyt.3e7.5000,timbl1:-a1 +D,lc1:2,n:2,ds:11,mo:1,lm:1
/exp/pberck/wopr/wopr -s do_pdt2.wopr_script -p file0:../nyt.3e7.5000,lc0:4,id:PDT3_40068,timbl0:-a1 +D,dl:6,test:nyt.tail1000,file1:../nyt.3e7.5000,timbl1:-a1 +D,lc1:2,n:3,ds:111,mo:1,lm:1
/exp/pberck/wopr/wopr -s do_pdt2.wopr_script -p file0:../nyt.3e7.5000,lc0:4,id:PDT3_40069,timbl0:-a1 +D,dl:6,test:nyt.tail1000,file1:../nyt.3e7.5000,timbl1:-a1 +D,lc1:2,n:4,ds:1111,mo:1,lm:1
/exp/pberck/wopr/wopr -s do_pdt2.wopr_script -p file0:../nyt.3e7.5000,lc0:4,id:PDT3_40070,timbl0:-a1 +D,dl:6,test:nyt.tail1000,file1:../nyt.3e7.5000,timbl1:-a1 +D,lc1:2,n:5,ds:11111,mo:1,lm:1
/exp/pberck/wopr/wopr -s do_pdt2.wopr_script -p file0:../nyt.3e7.5000,lc0:4,id:PDT3_40071,timbl0:-a1 +D,dl:6,test:nyt.tail1000,file1:../nyt.3e7.5000,timbl1:-a1 +D,lc1:2,n:6,ds:111111,mo:1,lm:1
/exp/pberck/wopr/wopr -s do_pdt2.wopr_script -p file0:../nyt.3e7.5000,lc0:5,id:PDT3_40072,timbl0:-a1 +D,dl:6,test:nyt.tail1000,file1:../nyt.3e7.5000,timbl1:-a1 +D,lc1:2,n:1,ds:1,mo:1,lm:1
/exp/pberck/wopr/wopr -s do_pdt2.wopr_script -p file0:../nyt.3e7.5000,lc0:5,id:PDT3_40073,timbl0:-a1 +D,dl:6,test:nyt.tail1000,file1:../nyt.3e7.5000,timbl1:-a1 +D,lc1:2,n:2,ds:11,mo:1,lm:1
/exp/pberck/wopr/wopr -s do_pdt2.wopr_script -p file0:../nyt.3e7.5000,lc0:5,id:PDT3_40074,timbl0:-a1 +D,dl:6,test:nyt.tail1000,file1:../nyt.3e7.5000,timbl1:-a1 +D,lc1:2,n:3,ds:111,mo:1,lm:1
/exp/pberck/wopr/wopr -s do_pdt2.wopr_script -p file0:../nyt.3e7.5000,lc0:5,id:PDT3_40075,timbl0:-a1 +D,dl:6,test:nyt.tail1000,file1:../nyt.3e7.5000,timbl1:-a1 +D,lc1:2,n:4,ds:1111,mo:1,lm:1
/exp/pberck/wopr/wopr -s do_pdt2.wopr_script -p file0:../nyt.3e7.5000,lc0:5,id:PDT3_40076,timbl0:-a1 +D,dl:6,test:nyt.tail1000,file1:../nyt.3e7.5000,timbl1:-a1 +D,lc1:2,n:5,ds:11111,mo:1,lm:1
/exp/pberck/wopr/wopr -s do_pdt2.wopr_script -p file0:../nyt.3e7.5000,lc0:5,id:PDT3_40077,timbl0:-a1 +D,dl:6,test:nyt.tail1000,file1:../nyt.3e7.5000,timbl1:-a1 +D,lc1:2,n:6,ds:111111,mo:1,lm:1
/exp/pberck/wopr/wopr -s do_pdt2.wopr_script -p file0:../nyt.3e7.5000,lc0:6,id:PDT3_40078,timbl0:-a1 +D,dl:6,test:nyt.tail1000,file1:../nyt.3e7.5000,timbl1:-a1 +D,lc1:2,n:1,ds:1,mo:1,lm:1
/exp/pberck/wopr/wopr -s do_pdt2.wopr_script -p file0:../nyt.3e7.5000,lc0:6,id:PDT3_40079,timbl0:-a1 +D,dl:6,test:nyt.tail1000,file1:../nyt.3e7.5000,timbl1:-a1 +D,lc1:2,n:2,ds:11,mo:1,lm:1
/exp/pberck/wopr/wopr -s do_pdt2.wopr_script -p file0:../nyt.3e7.5000,lc0:6,id:PDT3_40080,timbl0:-a1 +D,dl:6,test:nyt.tail1000,file1:../nyt.3e7.5000,timbl1:-a1 +D,lc1:2,n:3,ds:111,mo:1,lm:1
/exp/pberck/wopr/wopr -s do_pdt2.wopr_script -p file0:../nyt.3e7.5000,lc0:6,id:PDT3_40081,timbl0:-a1 +D,dl:6,test:nyt.tail1000,file1:../nyt.3e7.5000,timbl1:-a1 +D,lc1:2,n:4,ds:1111,mo:1,lm:1
/exp/pberck/wopr/wopr -s do_pdt2.wopr_script -p file0:../nyt.3e7.5000,lc0:6,id:PDT3_40082,timbl0:-a1 +D,dl:6,test:nyt.tail1000,file1:../nyt.3e7.5000,timbl1:-a1 +D,lc1:2,n:5,ds:11111,mo:1,lm:1
/exp/pberck/wopr/wopr -s do_pdt2.wopr_script -p file0:../nyt.3e7.5000,lc0:6,id:PDT3_40083,timbl0:-a1 +D,dl:6,test:nyt.tail1000,file1:../nyt.3e7.5000,timbl1:-a1 +D,lc1:2,n:6,ds:111111,mo:1,lm:1
/exp/pberck/wopr/wopr -s do_pdt2.wopr_script -p file0:../nyt.3e7.5000,lc0:8,id:PDT3_40084,timbl0:-a1 +D,dl:6,test:nyt.tail1000,file1:../nyt.3e7.5000,timbl1:-a1 +D,lc1:2,n:1,ds:1,mo:1,lm:1
/exp/pberck/wopr/wopr -s do_pdt2.wopr_script -p file0:../nyt.3e7.5000,lc0:8,id:PDT3_40085,timbl0:-a1 +D,dl:6,test:nyt.tail1000,file1:../nyt.3e7.5000,timbl1:-a1 +D,lc1:2,n:2,ds:11,mo:1,lm:1
/exp/pberck/wopr/wopr -s do_pdt2.wopr_script -p file0:../nyt.3e7.5000,lc0:8,id:PDT3_40086,timbl0:-a1 +D,dl:6,test:nyt.tail1000,file1:../nyt.3e7.5000,timbl1:-a1 +D,lc1:2,n:3,ds:111,mo:1,lm:1
/exp/pberck/wopr/wopr -s do_pdt2.wopr_script -p file0:../nyt.3e7.5000,lc0:8,id:PDT3_40087,timbl0:-a1 +D,dl:6,test:nyt.tail1000,file1:../nyt.3e7.5000,timbl1:-a1 +D,lc1:2,n:4,ds:1111,mo:1,lm:1
/exp/pberck/wopr/wopr -s do_pdt2.wopr_script -p file0:../nyt.3e7.5000,lc0:8,id:PDT3_40088,timbl0:-a1 +D,dl:6,test:nyt.tail1000,file1:../nyt.3e7.5000,timbl1:-a1 +D,lc1:2,n:5,ds:11111,mo:1,lm:1
/exp/pberck/wopr/wopr -s do_pdt2.wopr_script -p file0:../nyt.3e7.5000,lc0:8,id:PDT3_40089,timbl0:-a1 +D,dl:6,test:nyt.tail1000,file1:../nyt.3e7.5000,timbl1:-a1 +D,lc1:2,n:6,ds:111111,mo:1,lm:1
/exp/pberck/wopr/wopr -s do_pdt2.wopr_script -p file0:../nyt.3e7.5000,lc0:10,id:PDT3_40090,timbl0:-a1 +D,dl:6,test:nyt.tail1000,file1:../nyt.3e7.5000,timbl1:-a1 +D,lc1:2,n:1,ds:1,mo:1,lm:1
/exp/pberck/wopr/wopr -s do_pdt2.wopr_script -p file0:../nyt.3e7.5000,lc0:10,id:PDT3_40091,timbl0:-a1 +D,dl:6,test:nyt.tail1000,file1:../nyt.3e7.5000,timbl1:-a1 +D,lc1:2,n:2,ds:11,mo:1,lm:1
/exp/pberck/wopr/wopr -s do_pdt2.wopr_script -p file0:../nyt.3e7.5000,lc0:10,id:PDT3_40092,timbl0:-a1 +D,dl:6,test:nyt.tail1000,file1:../nyt.3e7.5000,timbl1:-a1 +D,lc1:2,n:3,ds:111,mo:1,lm:1
/exp/pberck/wopr/wopr -s do_pdt2.wopr_script -p file0:../nyt.3e7.5000,lc0:10,id:PDT3_40093,timbl0:-a1 +D,dl:6,test:nyt.tail1000,file1:../nyt.3e7.5000,timbl1:-a1 +D,lc1:2,n:4,ds:1111,mo:1,lm:1
/exp/pberck/wopr/wopr -s do_pdt2.wopr_script -p file0:../nyt.3e7.5000,lc0:10,id:PDT3_40094,timbl0:-a1 +D,dl:6,test:nyt.tail1000,file1:../nyt.3e7.5000,timbl1:-a1 +D,lc1:2,n:5,ds:11111,mo:1,lm:1
/exp/pberck/wopr/wopr -s do_pdt2.wopr_script -p file0:../nyt.3e7.5000,lc0:10,id:PDT3_40095,timbl0:-a1 +D,dl:6,test:nyt.tail1000,file1:../nyt.3e7.5000,timbl1:-a1 +D,lc1:2,n:6,ds:111111,mo:1,lm:1
/exp/pberck/wopr/wopr -s do_pdt2.wopr_script -p file0:../nyt.3e7.5000,lc0:12,id:PDT3_40096,timbl0:-a1 +D,dl:6,test:nyt.tail1000,file1:../nyt.3e7.5000,timbl1:-a1 +D,lc1:2,n:1,ds:1,mo:1,lm:1
/exp/pberck/wopr/wopr -s do_pdt2.wopr_script -p file0:../nyt.3e7.5000,lc0:12,id:PDT3_40097,timbl0:-a1 +D,dl:6,test:nyt.tail1000,file1:../nyt.3e7.5000,timbl1:-a1 +D,lc1:2,n:2,ds:11,mo:1,lm:1
/exp/pberck/wopr/wopr -s do_pdt2.wopr_script -p file0:../nyt.3e7.5000,lc0:12,id:PDT3_40098,timbl0:-a1 +D,dl:6,test:nyt.tail1000,file1:../nyt.3e7.5000,timbl1:-a1 +D,lc1:2,n:3,ds:111,mo:1,lm:1
/exp/pberck/wopr/wopr -s do_pdt2.wopr_script -p file0:../nyt.3e7.5000,lc0:12,id:PDT3_40099,timbl0:-a1 +D,dl:6,test:nyt.tail1000,file1:../nyt.3e7.5000,timbl1:-a1 +D,lc1:2,n:4,ds:1111,mo:1,lm:1
/exp/pberck/wopr/wopr -s do_pdt2.wopr_script -p file0:../nyt.3e7.5000,lc0:12,id:PDT3_40100,timbl0:-a1 +D,dl:6,test:nyt.tail1000,file1:../nyt.3e7.5000,timbl1:-a1 +D,lc1:2,n:5,ds:11111,mo:1,lm:1
/exp/pberck/wopr/wopr -s do_pdt2.wopr_script -p file0:../nyt.3e7.5000,lc0:12,id:PDT3_40101,timbl0:-a1 +D,dl:6,test:nyt.tail1000,file1:../nyt.3e7.5000,timbl1:-a1 +D,lc1:2,n:6,ds:111111,mo:1,lm:1
/exp/pberck/wopr/wopr -s do_pdt2.wopr_script -p file0:../nyt.3e7.5000,lc0:16,id:PDT3_40102,timbl0:-a1 +D,dl:6,test:nyt.tail1000,file1:../nyt.3e7.5000,timbl1:-a1 +D,lc1:2,n:1,ds:1,mo:1,lm:1
/exp/pberck/wopr/wopr -s do_pdt2.wopr_script -p file0:../nyt.3e7.5000,lc0:16,id:PDT3_40103,timbl0:-a1 +D,dl:6,test:nyt.tail1000,file1:../nyt.3e7.5000,timbl1:-a1 +D,lc1:2,n:2,ds:11,mo:1,lm:1
/exp/pberck/wopr/wopr -s do_pdt2.wopr_script -p file0:../nyt.3e7.5000,lc0:16,id:PDT3_40104,timbl0:-a1 +D,dl:6,test:nyt.tail1000,file1:../nyt.3e7.5000,timbl1:-a1 +D,lc1:2,n:3,ds:111,mo:1,lm:1
/exp/pberck/wopr/wopr -s do_pdt2.wopr_script -p file0:../nyt.3e7.5000,lc0:16,id:PDT3_40105,timbl0:-a1 +D,dl:6,test:nyt.tail1000,file1:../nyt.3e7.5000,timbl1:-a1 +D,lc1:2,n:4,ds:1111,mo:1,lm:1
/exp/pberck/wopr/wopr -s do_pdt2.wopr_script -p file0:../nyt.3e7.5000,lc0:16,id:PDT3_40106,timbl0:-a1 +D,dl:6,test:nyt.tail1000,file1:../nyt.3e7.5000,timbl1:-a1 +D,lc1:2,n:5,ds:11111,mo:1,lm:1
/exp/pberck/wopr/wopr -s do_pdt2.wopr_script -p file0:../nyt.3e7.5000,lc0:16,id:PDT3_40107,timbl0:-a1 +D,dl:6,test:nyt.tail1000,file1:../nyt.3e7.5000,timbl1:-a1 +D,lc1:2,n:6,ds:111111,mo:1,lm:1
/exp/pberck/wopr/wopr -s do_pdt2.wopr_script -p file0:../nyt.3e7.10000,lc0:2,id:PDT3_40108,timbl0:-a1 +D,dl:6,test:nyt.tail1000,file1:../nyt.3e7.10000,timbl1:-a1 +D,lc1:2,n:1,ds:1,mo:1,lm:1
/exp/pberck/wopr/wopr -s do_pdt2.wopr_script -p file0:../nyt.3e7.10000,lc0:2,id:PDT3_40109,timbl0:-a1 +D,dl:6,test:nyt.tail1000,file1:../nyt.3e7.10000,timbl1:-a1 +D,lc1:2,n:2,ds:11,mo:1,lm:1
/exp/pberck/wopr/wopr -s do_pdt2.wopr_script -p file0:../nyt.3e7.10000,lc0:2,id:PDT3_40110,timbl0:-a1 +D,dl:6,test:nyt.tail1000,file1:../nyt.3e7.10000,timbl1:-a1 +D,lc1:2,n:3,ds:111,mo:1,lm:1
/exp/pberck/wopr/wopr -s do_pdt2.wopr_script -p file0:../nyt.3e7.10000,lc0:2,id:PDT3_40111,timbl0:-a1 +D,dl:6,test:nyt.tail1000,file1:../nyt.3e7.10000,timbl1:-a1 +D,lc1:2,n:4,ds:1111,mo:1,lm:1
/exp/pberck/wopr/wopr -s do_pdt2.wopr_script -p file0:../nyt.3e7.10000,lc0:2,id:PDT3_40112,timbl0:-a1 +D,dl:6,test:nyt.tail1000,file1:../nyt.3e7.10000,timbl1:-a1 +D,lc1:2,n:5,ds:11111,mo:1,lm:1
/exp/pberck/wopr/wopr -s do_pdt2.wopr_script -p file0:../nyt.3e7.10000,lc0:2,id:PDT3_40113,timbl0:-a1 +D,dl:6,test:nyt.tail1000,file1:../nyt.3e7.10000,timbl1:-a1 +D,lc1:2,n:6,ds:111111,mo:1,lm:1
/exp/pberck/wopr/wopr -s do_pdt2.wopr_script -p file0:../nyt.3e7.10000,lc0:3,id:PDT3_40114,timbl0:-a1 +D,dl:6,test:nyt.tail1000,file1:../nyt.3e7.10000,timbl1:-a1 +D,lc1:2,n:1,ds:1,mo:1,lm:1
/exp/pberck/wopr/wopr -s do_pdt2.wopr_script -p file0:../nyt.3e7.10000,lc0:3,id:PDT3_40115,timbl0:-a1 +D,dl:6,test:nyt.tail1000,file1:../nyt.3e7.10000,timbl1:-a1 +D,lc1:2,n:2,ds:11,mo:1,lm:1
/exp/pberck/wopr/wopr -s do_pdt2.wopr_script -p file0:../nyt.3e7.10000,lc0:3,id:PDT3_40116,timbl0:-a1 +D,dl:6,test:nyt.tail1000,file1:../nyt.3e7.10000,timbl1:-a1 +D,lc1:2,n:3,ds:111,mo:1,lm:1
/exp/pberck/wopr/wopr -s do_pdt2.wopr_script -p file0:../nyt.3e7.10000,lc0:3,id:PDT3_40117,timbl0:-a1 +D,dl:6,test:nyt.tail1000,file1:../nyt.3e7.10000,timbl1:-a1 +D,lc1:2,n:4,ds:1111,mo:1,lm:1
/exp/pberck/wopr/wopr -s do_pdt2.wopr_script -p file0:../nyt.3e7.10000,lc0:3,id:PDT3_40118,timbl0:-a1 +D,dl:6,test:nyt.tail1000,file1:../nyt.3e7.10000,timbl1:-a1 +D,lc1:2,n:5,ds:11111,mo:1,lm:1
/exp/pberck/wopr/wopr -s do_pdt2.wopr_script -p file0:../nyt.3e7.10000,lc0:3,id:PDT3_40119,timbl0:-a1 +D,dl:6,test:nyt.tail1000,file1:../nyt.3e7.10000,timbl1:-a1 +D,lc1:2,n:6,ds:111111,mo:1,lm:1
/exp/pberck/wopr/wopr -s do_pdt2.wopr_script -p file0:../nyt.3e7.10000,lc0:4,id:PDT3_40120,timbl0:-a1 +D,dl:6,test:nyt.tail1000,file1:../nyt.3e7.10000,timbl1:-a1 +D,lc1:2,n:1,ds:1,mo:1,lm:1
/exp/pberck/wopr/wopr -s do_pdt2.wopr_script -p file0:../nyt.3e7.10000,lc0:4,id:PDT3_40121,timbl0:-a1 +D,dl:6,test:nyt.tail1000,file1:../nyt.3e7.10000,timbl1:-a1 +D,lc1:2,n:2,ds:11,mo:1,lm:1
/exp/pberck/wopr/wopr -s do_pdt2.wopr_script -p file0:../nyt.3e7.10000,lc0:4,id:PDT3_40122,timbl0:-a1 +D,dl:6,test:nyt.tail1000,file1:../nyt.3e7.10000,timbl1:-a1 +D,lc1:2,n:3,ds:111,mo:1,lm:1
/exp/pberck/wopr/wopr -s do_pdt2.wopr_script -p file0:../nyt.3e7.10000,lc0:4,id:PDT3_40123,timbl0:-a1 +D,dl:6,test:nyt.tail1000,file1:../nyt.3e7.10000,timbl1:-a1 +D,lc1:2,n:4,ds:1111,mo:1,lm:1
/exp/pberck/wopr/wopr -s do_pdt2.wopr_script -p file0:../nyt.3e7.10000,lc0:4,id:PDT3_40124,timbl0:-a1 +D,dl:6,test:nyt.tail1000,file1:../nyt.3e7.10000,timbl1:-a1 +D,lc1:2,n:5,ds:11111,mo:1,lm:1
/exp/pberck/wopr/wopr -s do_pdt2.wopr_script -p file0:../nyt.3e7.10000,lc0:4,id:PDT3_40125,timbl0:-a1 +D,dl:6,test:nyt.tail1000,file1:../nyt.3e7.10000,timbl1:-a1 +D,lc1:2,n:6,ds:111111,mo:1,lm:1
/exp/pberck/wopr/wopr -s do_pdt2.wopr_script -p file0:../nyt.3e7.10000,lc0:5,id:PDT3_40126,timbl0:-a1 +D,dl:6,test:nyt.tail1000,file1:../nyt.3e7.10000,timbl1:-a1 +D,lc1:2,n:1,ds:1,mo:1,lm:1
/exp/pberck/wopr/wopr -s do_pdt2.wopr_script -p file0:../nyt.3e7.10000,lc0:5,id:PDT3_40127,timbl0:-a1 +D,dl:6,test:nyt.tail1000,file1:../nyt.3e7.10000,timbl1:-a1 +D,lc1:2,n:2,ds:11,mo:1,lm:1
/exp/pberck/wopr/wopr -s do_pdt2.wopr_script -p file0:../nyt.3e7.10000,lc0:5,id:PDT3_40128,timbl0:-a1 +D,dl:6,test:nyt.tail1000,file1:../nyt.3e7.10000,timbl1:-a1 +D,lc1:2,n:3,ds:111,mo:1,lm:1
/exp/pberck/wopr/wopr -s do_pdt2.wopr_script -p file0:../nyt.3e7.10000,lc0:5,id:PDT3_40129,timbl0:-a1 +D,dl:6,test:nyt.tail1000,file1:../nyt.3e7.10000,timbl1:-a1 +D,lc1:2,n:4,ds:1111,mo:1,lm:1
/exp/pberck/wopr/wopr -s do_pdt2.wopr_script -p file0:../nyt.3e7.10000,lc0:5,id:PDT3_40130,timbl0:-a1 +D,dl:6,test:nyt.tail1000,file1:../nyt.3e7.10000,timbl1:-a1 +D,lc1:2,n:5,ds:11111,mo:1,lm:1
/exp/pberck/wopr/wopr -s do_pdt2.wopr_script -p file0:../nyt.3e7.10000,lc0:5,id:PDT3_40131,timbl0:-a1 +D,dl:6,test:nyt.tail1000,file1:../nyt.3e7.10000,timbl1:-a1 +D,lc1:2,n:6,ds:111111,mo:1,lm:1
/exp/pberck/wopr/wopr -s do_pdt2.wopr_script -p file0:../nyt.3e7.10000,lc0:6,id:PDT3_40132,timbl0:-a1 +D,dl:6,test:nyt.tail1000,file1:../nyt.3e7.10000,timbl1:-a1 +D,lc1:2,n:1,ds:1,mo:1,lm:1
/exp/pberck/wopr/wopr -s do_pdt2.wopr_script -p file0:../nyt.3e7.10000,lc0:6,id:PDT3_40133,timbl0:-a1 +D,dl:6,test:nyt.tail1000,file1:../nyt.3e7.10000,timbl1:-a1 +D,lc1:2,n:2,ds:11,mo:1,lm:1
/exp/pberck/wopr/wopr -s do_pdt2.wopr_script -p file0:../nyt.3e7.10000,lc0:6,id:PDT3_40134,timbl0:-a1 +D,dl:6,test:nyt.tail1000,file1:../nyt.3e7.10000,timbl1:-a1 +D,lc1:2,n:3,ds:111,mo:1,lm:1
/exp/pberck/wopr/wopr -s do_pdt2.wopr_script -p file0:../nyt.3e7.10000,lc0:6,id:PDT3_40135,timbl0:-a1 +D,dl:6,test:nyt.tail1000,file1:../nyt.3e7.10000,timbl1:-a1 +D,lc1:2,n:4,ds:1111,mo:1,lm:1
/exp/pberck/wopr/wopr -s do_pdt2.wopr_script -p file0:../nyt.3e7.10000,lc0:6,id:PDT3_40136,timbl0:-a1 +D,dl:6,test:nyt.tail1000,file1:../nyt.3e7.10000,timbl1:-a1 +D,lc1:2,n:5,ds:11111,mo:1,lm:1
/exp/pberck/wopr/wopr -s do_pdt2.wopr_script -p file0:../nyt.3e7.10000,lc0:6,id:PDT3_40137,timbl0:-a1 +D,dl:6,test:nyt.tail1000,file1:../nyt.3e7.10000,timbl1:-a1 +D,lc1:2,n:6,ds:111111,mo:1,lm:1
/exp/pberck/wopr/wopr -s do_pdt2.wopr_script -p file0:../nyt.3e7.10000,lc0:8,id:PDT3_40138,timbl0:-a1 +D,dl:6,test:nyt.tail1000,file1:../nyt.3e7.10000,timbl1:-a1 +D,lc1:2,n:1,ds:1,mo:1,lm:1
/exp/pberck/wopr/wopr -s do_pdt2.wopr_script -p file0:../nyt.3e7.10000,lc0:8,id:PDT3_40139,timbl0:-a1 +D,dl:6,test:nyt.tail1000,file1:../nyt.3e7.10000,timbl1:-a1 +D,lc1:2,n:2,ds:11,mo:1,lm:1
/exp/pberck/wopr/wopr -s do_pdt2.wopr_script -p file0:../nyt.3e7.10000,lc0:8,id:PDT3_40140,timbl0:-a1 +D,dl:6,test:nyt.tail1000,file1:../nyt.3e7.10000,timbl1:-a1 +D,lc1:2,n:3,ds:111,mo:1,lm:1
/exp/pberck/wopr/wopr -s do_pdt2.wopr_script -p file0:../nyt.3e7.10000,lc0:8,id:PDT3_40141,timbl0:-a1 +D,dl:6,test:nyt.tail1000,file1:../nyt.3e7.10000,timbl1:-a1 +D,lc1:2,n:4,ds:1111,mo:1,lm:1
/exp/pberck/wopr/wopr -s do_pdt2.wopr_script -p file0:../nyt.3e7.10000,lc0:8,id:PDT3_40142,timbl0:-a1 +D,dl:6,test:nyt.tail1000,file1:../nyt.3e7.10000,timbl1:-a1 +D,lc1:2,n:5,ds:11111,mo:1,lm:1
/exp/pberck/wopr/wopr -s do_pdt2.wopr_script -p file0:../nyt.3e7.10000,lc0:8,id:PDT3_40143,timbl0:-a1 +D,dl:6,test:nyt.tail1000,file1:../nyt.3e7.10000,timbl1:-a1 +D,lc1:2,n:6,ds:111111,mo:1,lm:1
/exp/pberck/wopr/wopr -s do_pdt2.wopr_script -p file0:../nyt.3e7.10000,lc0:10,id:PDT3_40144,timbl0:-a1 +D,dl:6,test:nyt.tail1000,file1:../nyt.3e7.10000,timbl1:-a1 +D,lc1:2,n:1,ds:1,mo:1,lm:1
/exp/pberck/wopr/wopr -s do_pdt2.wopr_script -p file0:../nyt.3e7.10000,lc0:10,id:PDT3_40145,timbl0:-a1 +D,dl:6,test:nyt.tail1000,file1:../nyt.3e7.10000,timbl1:-a1 +D,lc1:2,n:2,ds:11,mo:1,lm:1
/exp/pberck/wopr/wopr -s do_pdt2.wopr_script -p file0:../nyt.3e7.10000,lc0:10,id:PDT3_40146,timbl0:-a1 +D,dl:6,test:nyt.tail1000,file1:../nyt.3e7.10000,timbl1:-a1 +D,lc1:2,n:3,ds:111,mo:1,lm:1
/exp/pberck/wopr/wopr -s do_pdt2.wopr_script -p file0:../nyt.3e7.10000,lc0:10,id:PDT3_40147,timbl0:-a1 +D,dl:6,test:nyt.tail1000,file1:../nyt.3e7.10000,timbl1:-a1 +D,lc1:2,n:4,ds:1111,mo:1,lm:1
/exp/pberck/wopr/wopr -s do_pdt2.wopr_script -p file0:../nyt.3e7.10000,lc0:10,id:PDT3_40148,timbl0:-a1 +D,dl:6,test:nyt.tail1000,file1:../nyt.3e7.10000,timbl1:-a1 +D,lc1:2,n:5,ds:11111,mo:1,lm:1
/exp/pberck/wopr/wopr -s do_pdt2.wopr_script -p file0:../nyt.3e7.10000,lc0:10,id:PDT3_40149,timbl0:-a1 +D,dl:6,test:nyt.tail1000,file1:../nyt.3e7.10000,timbl1:-a1 +D,lc1:2,n:6,ds:111111,mo:1,lm:1
/exp/pberck/wopr/wopr -s do_pdt2.wopr_script -p file0:../nyt.3e7.10000,lc0:12,id:PDT3_40150,timbl0:-a1 +D,dl:6,test:nyt.tail1000,file1:../nyt.3e7.10000,timbl1:-a1 +D,lc1:2,n:1,ds:1,mo:1,lm:1
/exp/pberck/wopr/wopr -s do_pdt2.wopr_script -p file0:../nyt.3e7.10000,lc0:12,id:PDT3_40151,timbl0:-a1 +D,dl:6,test:nyt.tail1000,file1:../nyt.3e7.10000,timbl1:-a1 +D,lc1:2,n:2,ds:11,mo:1,lm:1
/exp/pberck/wopr/wopr -s do_pdt2.wopr_script -p file0:../nyt.3e7.10000,lc0:12,id:PDT3_40152,timbl0:-a1 +D,dl:6,test:nyt.tail1000,file1:../nyt.3e7.10000,timbl1:-a1 +D,lc1:2,n:3,ds:111,mo:1,lm:1
/exp/pberck/wopr/wopr -s do_pdt2.wopr_script -p file0:../nyt.3e7.10000,lc0:12,id:PDT3_40153,timbl0:-a1 +D,dl:6,test:nyt.tail1000,file1:../nyt.3e7.10000,timbl1:-a1 +D,lc1:2,n:4,ds:1111,mo:1,lm:1
/exp/pberck/wopr/wopr -s do_pdt2.wopr_script -p file0:../nyt.3e7.10000,lc0:12,id:PDT3_40154,timbl0:-a1 +D,dl:6,test:nyt.tail1000,file1:../nyt.3e7.10000,timbl1:-a1 +D,lc1:2,n:5,ds:11111,mo:1,lm:1
/exp/pberck/wopr/wopr -s do_pdt2.wopr_script -p file0:../nyt.3e7.10000,lc0:12,id:PDT3_40155,timbl0:-a1 +D,dl:6,test:nyt.tail1000,file1:../nyt.3e7.10000,timbl1:-a1 +D,lc1:2,n:6,ds:111111,mo:1,lm:1
/exp/pberck/wopr/wopr -s do_pdt2.wopr_script -p file0:../nyt.3e7.10000,lc0:16,id:PDT3_40156,timbl0:-a1 +D,dl:6,test:nyt.tail1000,file1:../nyt.3e7.10000,timbl1:-a1 +D,lc1:2,n:1,ds:1,mo:1,lm:1
/exp/pberck/wopr/wopr -s do_pdt2.wopr_script -p file0:../nyt.3e7.10000,lc0:16,id:PDT3_40157,timbl0:-a1 +D,dl:6,test:nyt.tail1000,file1:../nyt.3e7.10000,timbl1:-a1 +D,lc1:2,n:2,ds:11,mo:1,lm:1
/exp/pberck/wopr/wopr -s do_pdt2.wopr_script -p file0:../nyt.3e7.10000,lc0:16,id:PDT3_40158,timbl0:-a1 +D,dl:6,test:nyt.tail1000,file1:../nyt.3e7.10000,timbl1:-a1 +D,lc1:2,n:3,ds:111,mo:1,lm:1
/exp/pberck/wopr/wopr -s do_pdt2.wopr_script -p file0:../nyt.3e7.10000,lc0:16,id:PDT3_40159,timbl0:-a1 +D,dl:6,test:nyt.tail1000,file1:../nyt.3e7.10000,timbl1:-a1 +D,lc1:2,n:4,ds:1111,mo:1,lm:1
/exp/pberck/wopr/wopr -s do_pdt2.wopr_script -p file0:../nyt.3e7.10000,lc0:16,id:PDT3_40160,timbl0:-a1 +D,dl:6,test:nyt.tail1000,file1:../nyt.3e7.10000,timbl1:-a1 +D,lc1:2,n:5,ds:11111,mo:1,lm:1
/exp/pberck/wopr/wopr -s do_pdt2.wopr_script -p file0:../nyt.3e7.10000,lc0:16,id:PDT3_40161,timbl0:-a1 +D,dl:6,test:nyt.tail1000,file1:../nyt.3e7.10000,timbl1:-a1 +D,lc1:2,n:6,ds:111111,mo:1,lm:1
/exp/pberck/wopr/wopr -s do_pdt2.wopr_script -p file0:../nyt.3e7.50000,lc0:2,id:PDT3_40162,timbl0:-a1 +D,dl:6,test:nyt.tail1000,file1:../nyt.3e7.50000,timbl1:-a1 +D,lc1:2,n:1,ds:1,mo:1,lm:1
/exp/pberck/wopr/wopr -s do_pdt2.wopr_script -p file0:../nyt.3e7.50000,lc0:2,id:PDT3_40163,timbl0:-a1 +D,dl:6,test:nyt.tail1000,file1:../nyt.3e7.50000,timbl1:-a1 +D,lc1:2,n:2,ds:11,mo:1,lm:1
/exp/pberck/wopr/wopr -s do_pdt2.wopr_script -p file0:../nyt.3e7.50000,lc0:2,id:PDT3_40164,timbl0:-a1 +D,dl:6,test:nyt.tail1000,file1:../nyt.3e7.50000,timbl1:-a1 +D,lc1:2,n:3,ds:111,mo:1,lm:1
/exp/pberck/wopr/wopr -s do_pdt2.wopr_script -p file0:../nyt.3e7.50000,lc0:2,id:PDT3_40165,timbl0:-a1 +D,dl:6,test:nyt.tail1000,file1:../nyt.3e7.50000,timbl1:-a1 +D,lc1:2,n:4,ds:1111,mo:1,lm:1
/exp/pberck/wopr/wopr -s do_pdt2.wopr_script -p file0:../nyt.3e7.50000,lc0:2,id:PDT3_40166,timbl0:-a1 +D,dl:6,test:nyt.tail1000,file1:../nyt.3e7.50000,timbl1:-a1 +D,lc1:2,n:5,ds:11111,mo:1,lm:1
/exp/pberck/wopr/wopr -s do_pdt2.wopr_script -p file0:../nyt.3e7.50000,lc0:2,id:PDT3_40167,timbl0:-a1 +D,dl:6,test:nyt.tail1000,file1:../nyt.3e7.50000,timbl1:-a1 +D,lc1:2,n:6,ds:111111,mo:1,lm:1
/exp/pberck/wopr/wopr -s do_pdt2.wopr_script -p file0:../nyt.3e7.50000,lc0:3,id:PDT3_40168,timbl0:-a1 +D,dl:6,test:nyt.tail1000,file1:../nyt.3e7.50000,timbl1:-a1 +D,lc1:2,n:1,ds:1,mo:1,lm:1
/exp/pberck/wopr/wopr -s do_pdt2.wopr_script -p file0:../nyt.3e7.50000,lc0:3,id:PDT3_40169,timbl0:-a1 +D,dl:6,test:nyt.tail1000,file1:../nyt.3e7.50000,timbl1:-a1 +D,lc1:2,n:2,ds:11,mo:1,lm:1
/exp/pberck/wopr/wopr -s do_pdt2.wopr_script -p file0:../nyt.3e7.50000,lc0:3,id:PDT3_40170,timbl0:-a1 +D,dl:6,test:nyt.tail1000,file1:../nyt.3e7.50000,timbl1:-a1 +D,lc1:2,n:3,ds:111,mo:1,lm:1
/exp/pberck/wopr/wopr -s do_pdt2.wopr_script -p file0:../nyt.3e7.50000,lc0:3,id:PDT3_40171,timbl0:-a1 +D,dl:6,test:nyt.tail1000,file1:../nyt.3e7.50000,timbl1:-a1 +D,lc1:2,n:4,ds:1111,mo:1,lm:1
/exp/pberck/wopr/wopr -s do_pdt2.wopr_script -p file0:../nyt.3e7.50000,lc0:3,id:PDT3_40172,timbl0:-a1 +D,dl:6,test:nyt.tail1000,file1:../nyt.3e7.50000,timbl1:-a1 +D,lc1:2,n:5,ds:11111,mo:1,lm:1
/exp/pberck/wopr/wopr -s do_pdt2.wopr_script -p file0:../nyt.3e7.50000,lc0:3,id:PDT3_40173,timbl0:-a1 +D,dl:6,test:nyt.tail1000,file1:../nyt.3e7.50000,timbl1:-a1 +D,lc1:2,n:6,ds:111111,mo:1,lm:1
/exp/pberck/wopr/wopr -s do_pdt2.wopr_script -p file0:../nyt.3e7.50000,lc0:4,id:PDT3_40174,timbl0:-a1 +D,dl:6,test:nyt.tail1000,file1:../nyt.3e7.50000,timbl1:-a1 +D,lc1:2,n:1,ds:1,mo:1,lm:1
/exp/pberck/wopr/wopr -s do_pdt2.wopr_script -p file0:../nyt.3e7.50000,lc0:4,id:PDT3_40175,timbl0:-a1 +D,dl:6,test:nyt.tail1000,file1:../nyt.3e7.50000,timbl1:-a1 +D,lc1:2,n:2,ds:11,mo:1,lm:1
/exp/pberck/wopr/wopr -s do_pdt2.wopr_script -p file0:../nyt.3e7.50000,lc0:4,id:PDT3_40176,timbl0:-a1 +D,dl:6,test:nyt.tail1000,file1:../nyt.3e7.50000,timbl1:-a1 +D,lc1:2,n:3,ds:111,mo:1,lm:1
/exp/pberck/wopr/wopr -s do_pdt2.wopr_script -p file0:../nyt.3e7.50000,lc0:4,id:PDT3_40177,timbl0:-a1 +D,dl:6,test:nyt.tail1000,file1:../nyt.3e7.50000,timbl1:-a1 +D,lc1:2,n:4,ds:1111,mo:1,lm:1
/exp/pberck/wopr/wopr -s do_pdt2.wopr_script -p file0:../nyt.3e7.50000,lc0:4,id:PDT3_40178,timbl0:-a1 +D,dl:6,test:nyt.tail1000,file1:../nyt.3e7.50000,timbl1:-a1 +D,lc1:2,n:5,ds:11111,mo:1,lm:1
/exp/pberck/wopr/wopr -s do_pdt2.wopr_script -p file0:../nyt.3e7.50000,lc0:4,id:PDT3_40179,timbl0:-a1 +D,dl:6,test:nyt.tail1000,file1:../nyt.3e7.50000,timbl1:-a1 +D,lc1:2,n:6,ds:111111,mo:1,lm:1
/exp/pberck/wopr/wopr -s do_pdt2.wopr_script -p file0:../nyt.3e7.50000,lc0:5,id:PDT3_40180,timbl0:-a1 +D,dl:6,test:nyt.tail1000,file1:../nyt.3e7.50000,timbl1:-a1 +D,lc1:2,n:1,ds:1,mo:1,lm:1
/exp/pberck/wopr/wopr -s do_pdt2.wopr_script -p file0:../nyt.3e7.50000,lc0:5,id:PDT3_40181,timbl0:-a1 +D,dl:6,test:nyt.tail1000,file1:../nyt.3e7.50000,timbl1:-a1 +D,lc1:2,n:2,ds:11,mo:1,lm:1
/exp/pberck/wopr/wopr -s do_pdt2.wopr_script -p file0:../nyt.3e7.50000,lc0:5,id:PDT3_40182,timbl0:-a1 +D,dl:6,test:nyt.tail1000,file1:../nyt.3e7.50000,timbl1:-a1 +D,lc1:2,n:3,ds:111,mo:1,lm:1
/exp/pberck/wopr/wopr -s do_pdt2.wopr_script -p file0:../nyt.3e7.50000,lc0:5,id:PDT3_40183,timbl0:-a1 +D,dl:6,test:nyt.tail1000,file1:../nyt.3e7.50000,timbl1:-a1 +D,lc1:2,n:4,ds:1111,mo:1,lm:1
/exp/pberck/wopr/wopr -s do_pdt2.wopr_script -p file0:../nyt.3e7.50000,lc0:5,id:PDT3_40184,timbl0:-a1 +D,dl:6,test:nyt.tail1000,file1:../nyt.3e7.50000,timbl1:-a1 +D,lc1:2,n:5,ds:11111,mo:1,lm:1
/exp/pberck/wopr/wopr -s do_pdt2.wopr_script -p file0:../nyt.3e7.50000,lc0:5,id:PDT3_40185,timbl0:-a1 +D,dl:6,test:nyt.tail1000,file1:../nyt.3e7.50000,timbl1:-a1 +D,lc1:2,n:6,ds:111111,mo:1,lm:1
/exp/pberck/wopr/wopr -s do_pdt2.wopr_script -p file0:../nyt.3e7.50000,lc0:6,id:PDT3_40186,timbl0:-a1 +D,dl:6,test:nyt.tail1000,file1:../nyt.3e7.50000,timbl1:-a1 +D,lc1:2,n:1,ds:1,mo:1,lm:1
/exp/pberck/wopr/wopr -s do_pdt2.wopr_script -p file0:../nyt.3e7.50000,lc0:6,id:PDT3_40187,timbl0:-a1 +D,dl:6,test:nyt.tail1000,file1:../nyt.3e7.50000,timbl1:-a1 +D,lc1:2,n:2,ds:11,mo:1,lm:1
/exp/pberck/wopr/wopr -s do_pdt2.wopr_script -p file0:../nyt.3e7.50000,lc0:6,id:PDT3_40188,timbl0:-a1 +D,dl:6,test:nyt.tail1000,file1:../nyt.3e7.50000,timbl1:-a1 +D,lc1:2,n:3,ds:111,mo:1,lm:1
/exp/pberck/wopr/wopr -s do_pdt2.wopr_script -p file0:../nyt.3e7.50000,lc0:6,id:PDT3_40189,timbl0:-a1 +D,dl:6,test:nyt.tail1000,file1:../nyt.3e7.50000,timbl1:-a1 +D,lc1:2,n:4,ds:1111,mo:1,lm:1
/exp/pberck/wopr/wopr -s do_pdt2.wopr_script -p file0:../nyt.3e7.50000,lc0:6,id:PDT3_40190,timbl0:-a1 +D,dl:6,test:nyt.tail1000,file1:../nyt.3e7.50000,timbl1:-a1 +D,lc1:2,n:5,ds:11111,mo:1,lm:1
/exp/pberck/wopr/wopr -s do_pdt2.wopr_script -p file0:../nyt.3e7.50000,lc0:6,id:PDT3_40191,timbl0:-a1 +D,dl:6,test:nyt.tail1000,file1:../nyt.3e7.50000,timbl1:-a1 +D,lc1:2,n:6,ds:111111,mo:1,lm:1
/exp/pberck/wopr/wopr -s do_pdt2.wopr_script -p file0:../nyt.3e7.50000,lc0:8,id:PDT3_40192,timbl0:-a1 +D,dl:6,test:nyt.tail1000,file1:../nyt.3e7.50000,timbl1:-a1 +D,lc1:2,n:1,ds:1,mo:1,lm:1
/exp/pberck/wopr/wopr -s do_pdt2.wopr_script -p file0:../nyt.3e7.50000,lc0:8,id:PDT3_40193,timbl0:-a1 +D,dl:6,test:nyt.tail1000,file1:../nyt.3e7.50000,timbl1:-a1 +D,lc1:2,n:2,ds:11,mo:1,lm:1
/exp/pberck/wopr/wopr -s do_pdt2.wopr_script -p file0:../nyt.3e7.50000,lc0:8,id:PDT3_40194,timbl0:-a1 +D,dl:6,test:nyt.tail1000,file1:../nyt.3e7.50000,timbl1:-a1 +D,lc1:2,n:3,ds:111,mo:1,lm:1
/exp/pberck/wopr/wopr -s do_pdt2.wopr_script -p file0:../nyt.3e7.50000,lc0:8,id:PDT3_40195,timbl0:-a1 +D,dl:6,test:nyt.tail1000,file1:../nyt.3e7.50000,timbl1:-a1 +D,lc1:2,n:4,ds:1111,mo:1,lm:1
/exp/pberck/wopr/wopr -s do_pdt2.wopr_script -p file0:../nyt.3e7.50000,lc0:8,id:PDT3_40196,timbl0:-a1 +D,dl:6,test:nyt.tail1000,file1:../nyt.3e7.50000,timbl1:-a1 +D,lc1:2,n:5,ds:11111,mo:1,lm:1
/exp/pberck/wopr/wopr -s do_pdt2.wopr_script -p file0:../nyt.3e7.50000,lc0:8,id:PDT3_40197,timbl0:-a1 +D,dl:6,test:nyt.tail1000,file1:../nyt.3e7.50000,timbl1:-a1 +D,lc1:2,n:6,ds:111111,mo:1,lm:1
/exp/pberck/wopr/wopr -s do_pdt2.wopr_script -p file0:../nyt.3e7.50000,lc0:10,id:PDT3_40198,timbl0:-a1 +D,dl:6,test:nyt.tail1000,file1:../nyt.3e7.50000,timbl1:-a1 +D,lc1:2,n:1,ds:1,mo:1,lm:1
/exp/pberck/wopr/wopr -s do_pdt2.wopr_script -p file0:../nyt.3e7.50000,lc0:10,id:PDT3_40199,timbl0:-a1 +D,dl:6,test:nyt.tail1000,file1:../nyt.3e7.50000,timbl1:-a1 +D,lc1:2,n:2,ds:11,mo:1,lm:1
/exp/pberck/wopr/wopr -s do_pdt2.wopr_script -p file0:../nyt.3e7.50000,lc0:10,id:PDT3_40200,timbl0:-a1 +D,dl:6,test:nyt.tail1000,file1:../nyt.3e7.50000,timbl1:-a1 +D,lc1:2,n:3,ds:111,mo:1,lm:1
/exp/pberck/wopr/wopr -s do_pdt2.wopr_script -p file0:../nyt.3e7.50000,lc0:10,id:PDT3_40201,timbl0:-a1 +D,dl:6,test:nyt.tail1000,file1:../nyt.3e7.50000,timbl1:-a1 +D,lc1:2,n:4,ds:1111,mo:1,lm:1
/exp/pberck/wopr/wopr -s do_pdt2.wopr_script -p file0:../nyt.3e7.50000,lc0:10,id:PDT3_40202,timbl0:-a1 +D,dl:6,test:nyt.tail1000,file1:../nyt.3e7.50000,timbl1:-a1 +D,lc1:2,n:5,ds:11111,mo:1,lm:1
/exp/pberck/wopr/wopr -s do_pdt2.wopr_script -p file0:../nyt.3e7.50000,lc0:10,id:PDT3_40203,timbl0:-a1 +D,dl:6,test:nyt.tail1000,file1:../nyt.3e7.50000,timbl1:-a1 +D,lc1:2,n:6,ds:111111,mo:1,lm:1
/exp/pberck/wopr/wopr -s do_pdt2.wopr_script -p file0:../nyt.3e7.50000,lc0:12,id:PDT3_40204,timbl0:-a1 +D,dl:6,test:nyt.tail1000,file1:../nyt.3e7.50000,timbl1:-a1 +D,lc1:2,n:1,ds:1,mo:1,lm:1
/exp/pberck/wopr/wopr -s do_pdt2.wopr_script -p file0:../nyt.3e7.50000,lc0:12,id:PDT3_40205,timbl0:-a1 +D,dl:6,test:nyt.tail1000,file1:../nyt.3e7.50000,timbl1:-a1 +D,lc1:2,n:2,ds:11,mo:1,lm:1
/exp/pberck/wopr/wopr -s do_pdt2.wopr_script -p file0:../nyt.3e7.50000,lc0:12,id:PDT3_40206,timbl0:-a1 +D,dl:6,test:nyt.tail1000,file1:../nyt.3e7.50000,timbl1:-a1 +D,lc1:2,n:3,ds:111,mo:1,lm:1
/exp/pberck/wopr/wopr -s do_pdt2.wopr_script -p file0:../nyt.3e7.50000,lc0:12,id:PDT3_40207,timbl0:-a1 +D,dl:6,test:nyt.tail1000,file1:../nyt.3e7.50000,timbl1:-a1 +D,lc1:2,n:4,ds:1111,mo:1,lm:1
/exp/pberck/wopr/wopr -s do_pdt2.wopr_script -p file0:../nyt.3e7.50000,lc0:12,id:PDT3_40208,timbl0:-a1 +D,dl:6,test:nyt.tail1000,file1:../nyt.3e7.50000,timbl1:-a1 +D,lc1:2,n:5,ds:11111,mo:1,lm:1
/exp/pberck/wopr/wopr -s do_pdt2.wopr_script -p file0:../nyt.3e7.50000,lc0:12,id:PDT3_40209,timbl0:-a1 +D,dl:6,test:nyt.tail1000,file1:../nyt.3e7.50000,timbl1:-a1 +D,lc1:2,n:6,ds:111111,mo:1,lm:1
/exp/pberck/wopr/wopr -s do_pdt2.wopr_script -p file0:../nyt.3e7.50000,lc0:16,id:PDT3_40210,timbl0:-a1 +D,dl:6,test:nyt.tail1000,file1:../nyt.3e7.50000,timbl1:-a1 +D,lc1:2,n:1,ds:1,mo:1,lm:1
/exp/pberck/wopr/wopr -s do_pdt2.wopr_script -p file0:../nyt.3e7.50000,lc0:16,id:PDT3_40211,timbl0:-a1 +D,dl:6,test:nyt.tail1000,file1:../nyt.3e7.50000,timbl1:-a1 +D,lc1:2,n:2,ds:11,mo:1,lm:1
/exp/pberck/wopr/wopr -s do_pdt2.wopr_script -p file0:../nyt.3e7.50000,lc0:16,id:PDT3_40212,timbl0:-a1 +D,dl:6,test:nyt.tail1000,file1:../nyt.3e7.50000,timbl1:-a1 +D,lc1:2,n:3,ds:111,mo:1,lm:1
/exp/pberck/wopr/wopr -s do_pdt2.wopr_script -p file0:../nyt.3e7.50000,lc0:16,id:PDT3_40213,timbl0:-a1 +D,dl:6,test:nyt.tail1000,file1:../nyt.3e7.50000,timbl1:-a1 +D,lc1:2,n:4,ds:1111,mo:1,lm:1
/exp/pberck/wopr/wopr -s do_pdt2.wopr_script -p file0:../nyt.3e7.50000,lc0:16,id:PDT3_40214,timbl0:-a1 +D,dl:6,test:nyt.tail1000,file1:../nyt.3e7.50000,timbl1:-a1 +D,lc1:2,n:5,ds:11111,mo:1,lm:1
/exp/pberck/wopr/wopr -s do_pdt2.wopr_script -p file0:../nyt.3e7.50000,lc0:16,id:PDT3_40215,timbl0:-a1 +D,dl:6,test:nyt.tail1000,file1:../nyt.3e7.50000,timbl1:-a1 +D,lc1:2,n:6,ds:111111,mo:1,lm:1
/exp/pberck/wopr/wopr -s do_pdt2.wopr_script -p file0:../nyt.3e7.100000,lc0:2,id:PDT3_40216,timbl0:-a1 +D,dl:6,test:nyt.tail1000,file1:../nyt.3e7.100000,timbl1:-a1 +D,lc1:2,n:1,ds:1,mo:1,lm:1
/exp/pberck/wopr/wopr -s do_pdt2.wopr_script -p file0:../nyt.3e7.100000,lc0:2,id:PDT3_40217,timbl0:-a1 +D,dl:6,test:nyt.tail1000,file1:../nyt.3e7.100000,timbl1:-a1 +D,lc1:2,n:2,ds:11,mo:1,lm:1
/exp/pberck/wopr/wopr -s do_pdt2.wopr_script -p file0:../nyt.3e7.100000,lc0:2,id:PDT3_40218,timbl0:-a1 +D,dl:6,test:nyt.tail1000,file1:../nyt.3e7.100000,timbl1:-a1 +D,lc1:2,n:3,ds:111,mo:1,lm:1
/exp/pberck/wopr/wopr -s do_pdt2.wopr_script -p file0:../nyt.3e7.100000,lc0:2,id:PDT3_40219,timbl0:-a1 +D,dl:6,test:nyt.tail1000,file1:../nyt.3e7.100000,timbl1:-a1 +D,lc1:2,n:4,ds:1111,mo:1,lm:1
/exp/pberck/wopr/wopr -s do_pdt2.wopr_script -p file0:../nyt.3e7.100000,lc0:2,id:PDT3_40220,timbl0:-a1 +D,dl:6,test:nyt.tail1000,file1:../nyt.3e7.100000,timbl1:-a1 +D,lc1:2,n:5,ds:11111,mo:1,lm:1
/exp/pberck/wopr/wopr -s do_pdt2.wopr_script -p file0:../nyt.3e7.100000,lc0:2,id:PDT3_40221,timbl0:-a1 +D,dl:6,test:nyt.tail1000,file1:../nyt.3e7.100000,timbl1:-a1 +D,lc1:2,n:6,ds:111111,mo:1,lm:1
/exp/pberck/wopr/wopr -s do_pdt2.wopr_script -p file0:../nyt.3e7.100000,lc0:3,id:PDT3_40222,timbl0:-a1 +D,dl:6,test:nyt.tail1000,file1:../nyt.3e7.100000,timbl1:-a1 +D,lc1:2,n:1,ds:1,mo:1,lm:1
/exp/pberck/wopr/wopr -s do_pdt2.wopr_script -p file0:../nyt.3e7.100000,lc0:3,id:PDT3_40223,timbl0:-a1 +D,dl:6,test:nyt.tail1000,file1:../nyt.3e7.100000,timbl1:-a1 +D,lc1:2,n:2,ds:11,mo:1,lm:1
/exp/pberck/wopr/wopr -s do_pdt2.wopr_script -p file0:../nyt.3e7.100000,lc0:3,id:PDT3_40224,timbl0:-a1 +D,dl:6,test:nyt.tail1000,file1:../nyt.3e7.100000,timbl1:-a1 +D,lc1:2,n:3,ds:111,mo:1,lm:1
/exp/pberck/wopr/wopr -s do_pdt2.wopr_script -p file0:../nyt.3e7.100000,lc0:3,id:PDT3_40225,timbl0:-a1 +D,dl:6,test:nyt.tail1000,file1:../nyt.3e7.100000,timbl1:-a1 +D,lc1:2,n:4,ds:1111,mo:1,lm:1
/exp/pberck/wopr/wopr -s do_pdt2.wopr_script -p file0:../nyt.3e7.100000,lc0:3,id:PDT3_40226,timbl0:-a1 +D,dl:6,test:nyt.tail1000,file1:../nyt.3e7.100000,timbl1:-a1 +D,lc1:2,n:5,ds:11111,mo:1,lm:1
/exp/pberck/wopr/wopr -s do_pdt2.wopr_script -p file0:../nyt.3e7.100000,lc0:3,id:PDT3_40227,timbl0:-a1 +D,dl:6,test:nyt.tail1000,file1:../nyt.3e7.100000,timbl1:-a1 +D,lc1:2,n:6,ds:111111,mo:1,lm:1
/exp/pberck/wopr/wopr -s do_pdt2.wopr_script -p file0:../nyt.3e7.100000,lc0:4,id:PDT3_40228,timbl0:-a1 +D,dl:6,test:nyt.tail1000,file1:../nyt.3e7.100000,timbl1:-a1 +D,lc1:2,n:1,ds:1,mo:1,lm:1
/exp/pberck/wopr/wopr -s do_pdt2.wopr_script -p file0:../nyt.3e7.100000,lc0:4,id:PDT3_40229,timbl0:-a1 +D,dl:6,test:nyt.tail1000,file1:../nyt.3e7.100000,timbl1:-a1 +D,lc1:2,n:2,ds:11,mo:1,lm:1
/exp/pberck/wopr/wopr -s do_pdt2.wopr_script -p file0:../nyt.3e7.100000,lc0:4,id:PDT3_40230,timbl0:-a1 +D,dl:6,test:nyt.tail1000,file1:../nyt.3e7.100000,timbl1:-a1 +D,lc1:2,n:3,ds:111,mo:1,lm:1
/exp/pberck/wopr/wopr -s do_pdt2.wopr_script -p file0:../nyt.3e7.100000,lc0:4,id:PDT3_40231,timbl0:-a1 +D,dl:6,test:nyt.tail1000,file1:../nyt.3e7.100000,timbl1:-a1 +D,lc1:2,n:4,ds:1111,mo:1,lm:1
/exp/pberck/wopr/wopr -s do_pdt2.wopr_script -p file0:../nyt.3e7.100000,lc0:4,id:PDT3_40232,timbl0:-a1 +D,dl:6,test:nyt.tail1000,file1:../nyt.3e7.100000,timbl1:-a1 +D,lc1:2,n:5,ds:11111,mo:1,lm:1
/exp/pberck/wopr/wopr -s do_pdt2.wopr_script -p file0:../nyt.3e7.100000,lc0:4,id:PDT3_40233,timbl0:-a1 +D,dl:6,test:nyt.tail1000,file1:../nyt.3e7.100000,timbl1:-a1 +D,lc1:2,n:6,ds:111111,mo:1,lm:1
/exp/pberck/wopr/wopr -s do_pdt2.wopr_script -p file0:../nyt.3e7.100000,lc0:5,id:PDT3_40234,timbl0:-a1 +D,dl:6,test:nyt.tail1000,file1:../nyt.3e7.100000,timbl1:-a1 +D,lc1:2,n:1,ds:1,mo:1,lm:1
/exp/pberck/wopr/wopr -s do_pdt2.wopr_script -p file0:../nyt.3e7.100000,lc0:5,id:PDT3_40235,timbl0:-a1 +D,dl:6,test:nyt.tail1000,file1:../nyt.3e7.100000,timbl1:-a1 +D,lc1:2,n:2,ds:11,mo:1,lm:1
/exp/pberck/wopr/wopr -s do_pdt2.wopr_script -p file0:../nyt.3e7.100000,lc0:5,id:PDT3_40236,timbl0:-a1 +D,dl:6,test:nyt.tail1000,file1:../nyt.3e7.100000,timbl1:-a1 +D,lc1:2,n:3,ds:111,mo:1,lm:1
/exp/pberck/wopr/wopr -s do_pdt2.wopr_script -p file0:../nyt.3e7.100000,lc0:5,id:PDT3_40237,timbl0:-a1 +D,dl:6,test:nyt.tail1000,file1:../nyt.3e7.100000,timbl1:-a1 +D,lc1:2,n:4,ds:1111,mo:1,lm:1
/exp/pberck/wopr/wopr -s do_pdt2.wopr_script -p file0:../nyt.3e7.100000,lc0:5,id:PDT3_40238,timbl0:-a1 +D,dl:6,test:nyt.tail1000,file1:../nyt.3e7.100000,timbl1:-a1 +D,lc1:2,n:5,ds:11111,mo:1,lm:1
/exp/pberck/wopr/wopr -s do_pdt2.wopr_script -p file0:../nyt.3e7.100000,lc0:5,id:PDT3_40239,timbl0:-a1 +D,dl:6,test:nyt.tail1000,file1:../nyt.3e7.100000,timbl1:-a1 +D,lc1:2,n:6,ds:111111,mo:1,lm:1
/exp/pberck/wopr/wopr -s do_pdt2.wopr_script -p file0:../nyt.3e7.100000,lc0:6,id:PDT3_40240,timbl0:-a1 +D,dl:6,test:nyt.tail1000,file1:../nyt.3e7.100000,timbl1:-a1 +D,lc1:2,n:1,ds:1,mo:1,lm:1
/exp/pberck/wopr/wopr -s do_pdt2.wopr_script -p file0:../nyt.3e7.100000,lc0:6,id:PDT3_40241,timbl0:-a1 +D,dl:6,test:nyt.tail1000,file1:../nyt.3e7.100000,timbl1:-a1 +D,lc1:2,n:2,ds:11,mo:1,lm:1
/exp/pberck/wopr/wopr -s do_pdt2.wopr_script -p file0:../nyt.3e7.100000,lc0:6,id:PDT3_40242,timbl0:-a1 +D,dl:6,test:nyt.tail1000,file1:../nyt.3e7.100000,timbl1:-a1 +D,lc1:2,n:3,ds:111,mo:1,lm:1
/exp/pberck/wopr/wopr -s do_pdt2.wopr_script -p file0:../nyt.3e7.100000,lc0:6,id:PDT3_40243,timbl0:-a1 +D,dl:6,test:nyt.tail1000,file1:../nyt.3e7.100000,timbl1:-a1 +D,lc1:2,n:4,ds:1111,mo:1,lm:1
/exp/pberck/wopr/wopr -s do_pdt2.wopr_script -p file0:../nyt.3e7.100000,lc0:6,id:PDT3_40244,timbl0:-a1 +D,dl:6,test:nyt.tail1000,file1:../nyt.3e7.100000,timbl1:-a1 +D,lc1:2,n:5,ds:11111,mo:1,lm:1
/exp/pberck/wopr/wopr -s do_pdt2.wopr_script -p file0:../nyt.3e7.100000,lc0:6,id:PDT3_40245,timbl0:-a1 +D,dl:6,test:nyt.tail1000,file1:../nyt.3e7.100000,timbl1:-a1 +D,lc1:2,n:6,ds:111111,mo:1,lm:1
/exp/pberck/wopr/wopr -s do_pdt2.wopr_script -p file0:../nyt.3e7.100000,lc0:8,id:PDT3_40246,timbl0:-a1 +D,dl:6,test:nyt.tail1000,file1:../nyt.3e7.100000,timbl1:-a1 +D,lc1:2,n:1,ds:1,mo:1,lm:1
/exp/pberck/wopr/wopr -s do_pdt2.wopr_script -p file0:../nyt.3e7.100000,lc0:8,id:PDT3_40247,timbl0:-a1 +D,dl:6,test:nyt.tail1000,file1:../nyt.3e7.100000,timbl1:-a1 +D,lc1:2,n:2,ds:11,mo:1,lm:1
/exp/pberck/wopr/wopr -s do_pdt2.wopr_script -p file0:../nyt.3e7.100000,lc0:8,id:PDT3_40248,timbl0:-a1 +D,dl:6,test:nyt.tail1000,file1:../nyt.3e7.100000,timbl1:-a1 +D,lc1:2,n:3,ds:111,mo:1,lm:1
/exp/pberck/wopr/wopr -s do_pdt2.wopr_script -p file0:../nyt.3e7.100000,lc0:8,id:PDT3_40249,timbl0:-a1 +D,dl:6,test:nyt.tail1000,file1:../nyt.3e7.100000,timbl1:-a1 +D,lc1:2,n:4,ds:1111,mo:1,lm:1
/exp/pberck/wopr/wopr -s do_pdt2.wopr_script -p file0:../nyt.3e7.100000,lc0:8,id:PDT3_40250,timbl0:-a1 +D,dl:6,test:nyt.tail1000,file1:../nyt.3e7.100000,timbl1:-a1 +D,lc1:2,n:5,ds:11111,mo:1,lm:1
/exp/pberck/wopr/wopr -s do_pdt2.wopr_script -p file0:../nyt.3e7.100000,lc0:8,id:PDT3_40251,timbl0:-a1 +D,dl:6,test:nyt.tail1000,file1:../nyt.3e7.100000,timbl1:-a1 +D,lc1:2,n:6,ds:111111,mo:1,lm:1
/exp/pberck/wopr/wopr -s do_pdt2.wopr_script -p file0:../nyt.3e7.100000,lc0:10,id:PDT3_40252,timbl0:-a1 +D,dl:6,test:nyt.tail1000,file1:../nyt.3e7.100000,timbl1:-a1 +D,lc1:2,n:1,ds:1,mo:1,lm:1
/exp/pberck/wopr/wopr -s do_pdt2.wopr_script -p file0:../nyt.3e7.100000,lc0:10,id:PDT3_40253,timbl0:-a1 +D,dl:6,test:nyt.tail1000,file1:../nyt.3e7.100000,timbl1:-a1 +D,lc1:2,n:2,ds:11,mo:1,lm:1
/exp/pberck/wopr/wopr -s do_pdt2.wopr_script -p file0:../nyt.3e7.100000,lc0:10,id:PDT3_40254,timbl0:-a1 +D,dl:6,test:nyt.tail1000,file1:../nyt.3e7.100000,timbl1:-a1 +D,lc1:2,n:3,ds:111,mo:1,lm:1
/exp/pberck/wopr/wopr -s do_pdt2.wopr_script -p file0:../nyt.3e7.100000,lc0:10,id:PDT3_40255,timbl0:-a1 +D,dl:6,test:nyt.tail1000,file1:../nyt.3e7.100000,timbl1:-a1 +D,lc1:2,n:4,ds:1111,mo:1,lm:1
/exp/pberck/wopr/wopr -s do_pdt2.wopr_script -p file0:../nyt.3e7.100000,lc0:10,id:PDT3_40256,timbl0:-a1 +D,dl:6,test:nyt.tail1000,file1:../nyt.3e7.100000,timbl1:-a1 +D,lc1:2,n:5,ds:11111,mo:1,lm:1
/exp/pberck/wopr/wopr -s do_pdt2.wopr_script -p file0:../nyt.3e7.100000,lc0:10,id:PDT3_40257,timbl0:-a1 +D,dl:6,test:nyt.tail1000,file1:../nyt.3e7.100000,timbl1:-a1 +D,lc1:2,n:6,ds:111111,mo:1,lm:1
/exp/pberck/wopr/wopr -s do_pdt2.wopr_script -p file0:../nyt.3e7.100000,lc0:12,id:PDT3_40258,timbl0:-a1 +D,dl:6,test:nyt.tail1000,file1:../nyt.3e7.100000,timbl1:-a1 +D,lc1:2,n:1,ds:1,mo:1,lm:1
/exp/pberck/wopr/wopr -s do_pdt2.wopr_script -p file0:../nyt.3e7.100000,lc0:12,id:PDT3_40259,timbl0:-a1 +D,dl:6,test:nyt.tail1000,file1:../nyt.3e7.100000,timbl1:-a1 +D,lc1:2,n:2,ds:11,mo:1,lm:1
/exp/pberck/wopr/wopr -s do_pdt2.wopr_script -p file0:../nyt.3e7.100000,lc0:12,id:PDT3_40260,timbl0:-a1 +D,dl:6,test:nyt.tail1000,file1:../nyt.3e7.100000,timbl1:-a1 +D,lc1:2,n:3,ds:111,mo:1,lm:1
/exp/pberck/wopr/wopr -s do_pdt2.wopr_script -p file0:../nyt.3e7.100000,lc0:12,id:PDT3_40261,timbl0:-a1 +D,dl:6,test:nyt.tail1000,file1:../nyt.3e7.100000,timbl1:-a1 +D,lc1:2,n:4,ds:1111,mo:1,lm:1
/exp/pberck/wopr/wopr -s do_pdt2.wopr_script -p file0:../nyt.3e7.100000,lc0:12,id:PDT3_40262,timbl0:-a1 +D,dl:6,test:nyt.tail1000,file1:../nyt.3e7.100000,timbl1:-a1 +D,lc1:2,n:5,ds:11111,mo:1,lm:1
/exp/pberck/wopr/wopr -s do_pdt2.wopr_script -p file0:../nyt.3e7.100000,lc0:12,id:PDT3_40263,timbl0:-a1 +D,dl:6,test:nyt.tail1000,file1:../nyt.3e7.100000,timbl1:-a1 +D,lc1:2,n:6,ds:111111,mo:1,lm:1
/exp/pberck/wopr/wopr -s do_pdt2.wopr_script -p file0:../nyt.3e7.100000,lc0:16,id:PDT3_40264,timbl0:-a1 +D,dl:6,test:nyt.tail1000,file1:../nyt.3e7.100000,timbl1:-a1 +D,lc1:2,n:1,ds:1,mo:1,lm:1
/exp/pberck/wopr/wopr -s do_pdt2.wopr_script -p file0:../nyt.3e7.100000,lc0:16,id:PDT3_40265,timbl0:-a1 +D,dl:6,test:nyt.tail1000,file1:../nyt.3e7.100000,timbl1:-a1 +D,lc1:2,n:2,ds:11,mo:1,lm:1
/exp/pberck/wopr/wopr -s do_pdt2.wopr_script -p file0:../nyt.3e7.100000,lc0:16,id:PDT3_40266,timbl0:-a1 +D,dl:6,test:nyt.tail1000,file1:../nyt.3e7.100000,timbl1:-a1 +D,lc1:2,n:3,ds:111,mo:1,lm:1
/exp/pberck/wopr/wopr -s do_pdt2.wopr_script -p file0:../nyt.3e7.100000,lc0:16,id:PDT3_40267,timbl0:-a1 +D,dl:6,test:nyt.tail1000,file1:../nyt.3e7.100000,timbl1:-a1 +D,lc1:2,n:4,ds:1111,mo:1,lm:1
/exp/pberck/wopr/wopr -s do_pdt2.wopr_script -p file0:../nyt.3e7.100000,lc0:16,id:PDT3_40268,timbl0:-a1 +D,dl:6,test:nyt.tail1000,file1:../nyt.3e7.100000,timbl1:-a1 +D,lc1:2,n:5,ds:11111,mo:1,lm:1
/exp/pberck/wopr/wopr -s do_pdt2.wopr_script -p file0:../nyt.3e7.100000,lc0:16,id:PDT3_40269,timbl0:-a1 +D,dl:6,test:nyt.tail1000,file1:../nyt.3e7.100000,timbl1:-a1 +D,lc1:2,n:6,ds:111111,mo:1,lm:1
/exp/pberck/wopr/wopr -s do_pdt2.wopr_script -p file0:../nyt.3e7.500000,lc0:2,id:PDT3_40270,timbl0:-a1 +D,dl:6,test:nyt.tail1000,file1:../nyt.3e7.500000,timbl1:-a1 +D,lc1:2,n:1,ds:1,mo:1,lm:1
/exp/pberck/wopr/wopr -s do_pdt2.wopr_script -p file0:../nyt.3e7.500000,lc0:2,id:PDT3_40271,timbl0:-a1 +D,dl:6,test:nyt.tail1000,file1:../nyt.3e7.500000,timbl1:-a1 +D,lc1:2,n:2,ds:11,mo:1,lm:1
/exp/pberck/wopr/wopr -s do_pdt2.wopr_script -p file0:../nyt.3e7.500000,lc0:2,id:PDT3_40272,timbl0:-a1 +D,dl:6,test:nyt.tail1000,file1:../nyt.3e7.500000,timbl1:-a1 +D,lc1:2,n:3,ds:111,mo:1,lm:1
/exp/pberck/wopr/wopr -s do_pdt2.wopr_script -p file0:../nyt.3e7.500000,lc0:2,id:PDT3_40273,timbl0:-a1 +D,dl:6,test:nyt.tail1000,file1:../nyt.3e7.500000,timbl1:-a1 +D,lc1:2,n:4,ds:1111,mo:1,lm:1
/exp/pberck/wopr/wopr -s do_pdt2.wopr_script -p file0:../nyt.3e7.500000,lc0:2,id:PDT3_40274,timbl0:-a1 +D,dl:6,test:nyt.tail1000,file1:../nyt.3e7.500000,timbl1:-a1 +D,lc1:2,n:5,ds:11111,mo:1,lm:1
/exp/pberck/wopr/wopr -s do_pdt2.wopr_script -p file0:../nyt.3e7.500000,lc0:2,id:PDT3_40275,timbl0:-a1 +D,dl:6,test:nyt.tail1000,file1:../nyt.3e7.500000,timbl1:-a1 +D,lc1:2,n:6,ds:111111,mo:1,lm:1
/exp/pberck/wopr/wopr -s do_pdt2.wopr_script -p file0:../nyt.3e7.500000,lc0:3,id:PDT3_40276,timbl0:-a1 +D,dl:6,test:nyt.tail1000,file1:../nyt.3e7.500000,timbl1:-a1 +D,lc1:2,n:1,ds:1,mo:1,lm:1
/exp/pberck/wopr/wopr -s do_pdt2.wopr_script -p file0:../nyt.3e7.500000,lc0:3,id:PDT3_40277,timbl0:-a1 +D,dl:6,test:nyt.tail1000,file1:../nyt.3e7.500000,timbl1:-a1 +D,lc1:2,n:2,ds:11,mo:1,lm:1
/exp/pberck/wopr/wopr -s do_pdt2.wopr_script -p file0:../nyt.3e7.500000,lc0:3,id:PDT3_40278,timbl0:-a1 +D,dl:6,test:nyt.tail1000,file1:../nyt.3e7.500000,timbl1:-a1 +D,lc1:2,n:3,ds:111,mo:1,lm:1
/exp/pberck/wopr/wopr -s do_pdt2.wopr_script -p file0:../nyt.3e7.500000,lc0:3,id:PDT3_40279,timbl0:-a1 +D,dl:6,test:nyt.tail1000,file1:../nyt.3e7.500000,timbl1:-a1 +D,lc1:2,n:4,ds:1111,mo:1,lm:1
/exp/pberck/wopr/wopr -s do_pdt2.wopr_script -p file0:../nyt.3e7.500000,lc0:3,id:PDT3_40280,timbl0:-a1 +D,dl:6,test:nyt.tail1000,file1:../nyt.3e7.500000,timbl1:-a1 +D,lc1:2,n:5,ds:11111,mo:1,lm:1
/exp/pberck/wopr/wopr -s do_pdt2.wopr_script -p file0:../nyt.3e7.500000,lc0:3,id:PDT3_40281,timbl0:-a1 +D,dl:6,test:nyt.tail1000,file1:../nyt.3e7.500000,timbl1:-a1 +D,lc1:2,n:6,ds:111111,mo:1,lm:1
/exp/pberck/wopr/wopr -s do_pdt2.wopr_script -p file0:../nyt.3e7.500000,lc0:4,id:PDT3_40282,timbl0:-a1 +D,dl:6,test:nyt.tail1000,file1:../nyt.3e7.500000,timbl1:-a1 +D,lc1:2,n:1,ds:1,mo:1,lm:1
/exp/pberck/wopr/wopr -s do_pdt2.wopr_script -p file0:../nyt.3e7.500000,lc0:4,id:PDT3_40283,timbl0:-a1 +D,dl:6,test:nyt.tail1000,file1:../nyt.3e7.500000,timbl1:-a1 +D,lc1:2,n:2,ds:11,mo:1,lm:1
/exp/pberck/wopr/wopr -s do_pdt2.wopr_script -p file0:../nyt.3e7.500000,lc0:4,id:PDT3_40284,timbl0:-a1 +D,dl:6,test:nyt.tail1000,file1:../nyt.3e7.500000,timbl1:-a1 +D,lc1:2,n:3,ds:111,mo:1,lm:1
/exp/pberck/wopr/wopr -s do_pdt2.wopr_script -p file0:../nyt.3e7.500000,lc0:4,id:PDT3_40285,timbl0:-a1 +D,dl:6,test:nyt.tail1000,file1:../nyt.3e7.500000,timbl1:-a1 +D,lc1:2,n:4,ds:1111,mo:1,lm:1
/exp/pberck/wopr/wopr -s do_pdt2.wopr_script -p file0:../nyt.3e7.500000,lc0:4,id:PDT3_40286,timbl0:-a1 +D,dl:6,test:nyt.tail1000,file1:../nyt.3e7.500000,timbl1:-a1 +D,lc1:2,n:5,ds:11111,mo:1,lm:1
/exp/pberck/wopr/wopr -s do_pdt2.wopr_script -p file0:../nyt.3e7.500000,lc0:4,id:PDT3_40287,timbl0:-a1 +D,dl:6,test:nyt.tail1000,file1:../nyt.3e7.500000,timbl1:-a1 +D,lc1:2,n:6,ds:111111,mo:1,lm:1
/exp/pberck/wopr/wopr -s do_pdt2.wopr_script -p file0:../nyt.3e7.500000,lc0:5,id:PDT3_40288,timbl0:-a1 +D,dl:6,test:nyt.tail1000,file1:../nyt.3e7.500000,timbl1:-a1 +D,lc1:2,n:1,ds:1,mo:1,lm:1
/exp/pberck/wopr/wopr -s do_pdt2.wopr_script -p file0:../nyt.3e7.500000,lc0:5,id:PDT3_40289,timbl0:-a1 +D,dl:6,test:nyt.tail1000,file1:../nyt.3e7.500000,timbl1:-a1 +D,lc1:2,n:2,ds:11,mo:1,lm:1
/exp/pberck/wopr/wopr -s do_pdt2.wopr_script -p file0:../nyt.3e7.500000,lc0:5,id:PDT3_40290,timbl0:-a1 +D,dl:6,test:nyt.tail1000,file1:../nyt.3e7.500000,timbl1:-a1 +D,lc1:2,n:3,ds:111,mo:1,lm:1
/exp/pberck/wopr/wopr -s do_pdt2.wopr_script -p file0:../nyt.3e7.500000,lc0:5,id:PDT3_40291,timbl0:-a1 +D,dl:6,test:nyt.tail1000,file1:../nyt.3e7.500000,timbl1:-a1 +D,lc1:2,n:4,ds:1111,mo:1,lm:1
/exp/pberck/wopr/wopr -s do_pdt2.wopr_script -p file0:../nyt.3e7.500000,lc0:5,id:PDT3_40292,timbl0:-a1 +D,dl:6,test:nyt.tail1000,file1:../nyt.3e7.500000,timbl1:-a1 +D,lc1:2,n:5,ds:11111,mo:1,lm:1
/exp/pberck/wopr/wopr -s do_pdt2.wopr_script -p file0:../nyt.3e7.500000,lc0:5,id:PDT3_40293,timbl0:-a1 +D,dl:6,test:nyt.tail1000,file1:../nyt.3e7.500000,timbl1:-a1 +D,lc1:2,n:6,ds:111111,mo:1,lm:1
/exp/pberck/wopr/wopr -s do_pdt2.wopr_script -p file0:../nyt.3e7.500000,lc0:6,id:PDT3_40294,timbl0:-a1 +D,dl:6,test:nyt.tail1000,file1:../nyt.3e7.500000,timbl1:-a1 +D,lc1:2,n:1,ds:1,mo:1,lm:1
/exp/pberck/wopr/wopr -s do_pdt2.wopr_script -p file0:../nyt.3e7.500000,lc0:6,id:PDT3_40295,timbl0:-a1 +D,dl:6,test:nyt.tail1000,file1:../nyt.3e7.500000,timbl1:-a1 +D,lc1:2,n:2,ds:11,mo:1,lm:1
/exp/pberck/wopr/wopr -s do_pdt2.wopr_script -p file0:../nyt.3e7.500000,lc0:6,id:PDT3_40296,timbl0:-a1 +D,dl:6,test:nyt.tail1000,file1:../nyt.3e7.500000,timbl1:-a1 +D,lc1:2,n:3,ds:111,mo:1,lm:1
/exp/pberck/wopr/wopr -s do_pdt2.wopr_script -p file0:../nyt.3e7.500000,lc0:6,id:PDT3_40297,timbl0:-a1 +D,dl:6,test:nyt.tail1000,file1:../nyt.3e7.500000,timbl1:-a1 +D,lc1:2,n:4,ds:1111,mo:1,lm:1
/exp/pberck/wopr/wopr -s do_pdt2.wopr_script -p file0:../nyt.3e7.500000,lc0:6,id:PDT3_40298,timbl0:-a1 +D,dl:6,test:nyt.tail1000,file1:../nyt.3e7.500000,timbl1:-a1 +D,lc1:2,n:5,ds:11111,mo:1,lm:1
/exp/pberck/wopr/wopr -s do_pdt2.wopr_script -p file0:../nyt.3e7.500000,lc0:6,id:PDT3_40299,timbl0:-a1 +D,dl:6,test:nyt.tail1000,file1:../nyt.3e7.500000,timbl1:-a1 +D,lc1:2,n:6,ds:111111,mo:1,lm:1
/exp/pberck/wopr/wopr -s do_pdt2.wopr_script -p file0:../nyt.3e7.500000,lc0:8,id:PDT3_40300,timbl0:-a1 +D,dl:6,test:nyt.tail1000,file1:../nyt.3e7.500000,timbl1:-a1 +D,lc1:2,n:1,ds:1,mo:1,lm:1
/exp/pberck/wopr/wopr -s do_pdt2.wopr_script -p file0:../nyt.3e7.500000,lc0:8,id:PDT3_40301,timbl0:-a1 +D,dl:6,test:nyt.tail1000,file1:../nyt.3e7.500000,timbl1:-a1 +D,lc1:2,n:2,ds:11,mo:1,lm:1
/exp/pberck/wopr/wopr -s do_pdt2.wopr_script -p file0:../nyt.3e7.500000,lc0:8,id:PDT3_40302,timbl0:-a1 +D,dl:6,test:nyt.tail1000,file1:../nyt.3e7.500000,timbl1:-a1 +D,lc1:2,n:3,ds:111,mo:1,lm:1
/exp/pberck/wopr/wopr -s do_pdt2.wopr_script -p file0:../nyt.3e7.500000,lc0:8,id:PDT3_40303,timbl0:-a1 +D,dl:6,test:nyt.tail1000,file1:../nyt.3e7.500000,timbl1:-a1 +D,lc1:2,n:4,ds:1111,mo:1,lm:1
/exp/pberck/wopr/wopr -s do_pdt2.wopr_script -p file0:../nyt.3e7.500000,lc0:8,id:PDT3_40304,timbl0:-a1 +D,dl:6,test:nyt.tail1000,file1:../nyt.3e7.500000,timbl1:-a1 +D,lc1:2,n:5,ds:11111,mo:1,lm:1
/exp/pberck/wopr/wopr -s do_pdt2.wopr_script -p file0:../nyt.3e7.500000,lc0:8,id:PDT3_40305,timbl0:-a1 +D,dl:6,test:nyt.tail1000,file1:../nyt.3e7.500000,timbl1:-a1 +D,lc1:2,n:6,ds:111111,mo:1,lm:1
/exp/pberck/wopr/wopr -s do_pdt2.wopr_script -p file0:../nyt.3e7.500000,lc0:10,id:PDT3_40306,timbl0:-a1 +D,dl:6,test:nyt.tail1000,file1:../nyt.3e7.500000,timbl1:-a1 +D,lc1:2,n:1,ds:1,mo:1,lm:1
/exp/pberck/wopr/wopr -s do_pdt2.wopr_script -p file0:../nyt.3e7.500000,lc0:10,id:PDT3_40307,timbl0:-a1 +D,dl:6,test:nyt.tail1000,file1:../nyt.3e7.500000,timbl1:-a1 +D,lc1:2,n:2,ds:11,mo:1,lm:1
/exp/pberck/wopr/wopr -s do_pdt2.wopr_script -p file0:../nyt.3e7.500000,lc0:10,id:PDT3_40308,timbl0:-a1 +D,dl:6,test:nyt.tail1000,file1:../nyt.3e7.500000,timbl1:-a1 +D,lc1:2,n:3,ds:111,mo:1,lm:1
/exp/pberck/wopr/wopr -s do_pdt2.wopr_script -p file0:../nyt.3e7.500000,lc0:10,id:PDT3_40309,timbl0:-a1 +D,dl:6,test:nyt.tail1000,file1:../nyt.3e7.500000,timbl1:-a1 +D,lc1:2,n:4,ds:1111,mo:1,lm:1
/exp/pberck/wopr/wopr -s do_pdt2.wopr_script -p file0:../nyt.3e7.500000,lc0:10,id:PDT3_40310,timbl0:-a1 +D,dl:6,test:nyt.tail1000,file1:../nyt.3e7.500000,timbl1:-a1 +D,lc1:2,n:5,ds:11111,mo:1,lm:1
/exp/pberck/wopr/wopr -s do_pdt2.wopr_script -p file0:../nyt.3e7.500000,lc0:10,id:PDT3_40311,timbl0:-a1 +D,dl:6,test:nyt.tail1000,file1:../nyt.3e7.500000,timbl1:-a1 +D,lc1:2,n:6,ds:111111,mo:1,lm:1
/exp/pberck/wopr/wopr -s do_pdt2.wopr_script -p file0:../nyt.3e7.500000,lc0:12,id:PDT3_40312,timbl0:-a1 +D,dl:6,test:nyt.tail1000,file1:../nyt.3e7.500000,timbl1:-a1 +D,lc1:2,n:1,ds:1,mo:1,lm:1
/exp/pberck/wopr/wopr -s do_pdt2.wopr_script -p file0:../nyt.3e7.500000,lc0:12,id:PDT3_40313,timbl0:-a1 +D,dl:6,test:nyt.tail1000,file1:../nyt.3e7.500000,timbl1:-a1 +D,lc1:2,n:2,ds:11,mo:1,lm:1
/exp/pberck/wopr/wopr -s do_pdt2.wopr_script -p file0:../nyt.3e7.500000,lc0:12,id:PDT3_40314,timbl0:-a1 +D,dl:6,test:nyt.tail1000,file1:../nyt.3e7.500000,timbl1:-a1 +D,lc1:2,n:3,ds:111,mo:1,lm:1
/exp/pberck/wopr/wopr -s do_pdt2.wopr_script -p file0:../nyt.3e7.500000,lc0:12,id:PDT3_40315,timbl0:-a1 +D,dl:6,test:nyt.tail1000,file1:../nyt.3e7.500000,timbl1:-a1 +D,lc1:2,n:4,ds:1111,mo:1,lm:1
/exp/pberck/wopr/wopr -s do_pdt2.wopr_script -p file0:../nyt.3e7.500000,lc0:12,id:PDT3_40316,timbl0:-a1 +D,dl:6,test:nyt.tail1000,file1:../nyt.3e7.500000,timbl1:-a1 +D,lc1:2,n:5,ds:11111,mo:1,lm:1
/exp/pberck/wopr/wopr -s do_pdt2.wopr_script -p file0:../nyt.3e7.500000,lc0:12,id:PDT3_40317,timbl0:-a1 +D,dl:6,test:nyt.tail1000,file1:../nyt.3e7.500000,timbl1:-a1 +D,lc1:2,n:6,ds:111111,mo:1,lm:1
/exp/pberck/wopr/wopr -s do_pdt2.wopr_script -p file0:../nyt.3e7.500000,lc0:16,id:PDT3_40318,timbl0:-a1 +D,dl:6,test:nyt.tail1000,file1:../nyt.3e7.500000,timbl1:-a1 +D,lc1:2,n:1,ds:1,mo:1,lm:1
/exp/pberck/wopr/wopr -s do_pdt2.wopr_script -p file0:../nyt.3e7.500000,lc0:16,id:PDT3_40319,timbl0:-a1 +D,dl:6,test:nyt.tail1000,file1:../nyt.3e7.500000,timbl1:-a1 +D,lc1:2,n:2,ds:11,mo:1,lm:1
/exp/pberck/wopr/wopr -s do_pdt2.wopr_script -p file0:../nyt.3e7.500000,lc0:16,id:PDT3_40320,timbl0:-a1 +D,dl:6,test:nyt.tail1000,file1:../nyt.3e7.500000,timbl1:-a1 +D,lc1:2,n:3,ds:111,mo:1,lm:1
/exp/pberck/wopr/wopr -s do_pdt2.wopr_script -p file0:../nyt.3e7.500000,lc0:16,id:PDT3_40321,timbl0:-a1 +D,dl:6,test:nyt.tail1000,file1:../nyt.3e7.500000,timbl1:-a1 +D,lc1:2,n:4,ds:1111,mo:1,lm:1
/exp/pberck/wopr/wopr -s do_pdt2.wopr_script -p file0:../nyt.3e7.500000,lc0:16,id:PDT3_40322,timbl0:-a1 +D,dl:6,test:nyt.tail1000,file1:../nyt.3e7.500000,timbl1:-a1 +D,lc1:2,n:5,ds:11111,mo:1,lm:1
/exp/pberck/wopr/wopr -s do_pdt2.wopr_script -p file0:../nyt.3e7.500000,lc0:16,id:PDT3_40323,timbl0:-a1 +D,dl:6,test:nyt.tail1000,file1:../nyt.3e7.500000,timbl1:-a1 +D,lc1:2,n:6,ds:111111,mo:1,lm:1
/exp/pberck/wopr/wopr -s do_pdt2.wopr_script -p file0:../nyt.3e7.1000000,lc0:2,id:PDT3_40324,timbl0:-a1 +D,dl:6,test:nyt.tail1000,file1:../nyt.3e7.1000000,timbl1:-a1 +D,lc1:2,n:1,ds:1,mo:1,lm:1
/exp/pberck/wopr/wopr -s do_pdt2.wopr_script -p file0:../nyt.3e7.1000000,lc0:2,id:PDT3_40325,timbl0:-a1 +D,dl:6,test:nyt.tail1000,file1:../nyt.3e7.1000000,timbl1:-a1 +D,lc1:2,n:2,ds:11,mo:1,lm:1
/exp/pberck/wopr/wopr -s do_pdt2.wopr_script -p file0:../nyt.3e7.1000000,lc0:2,id:PDT3_40326,timbl0:-a1 +D,dl:6,test:nyt.tail1000,file1:../nyt.3e7.1000000,timbl1:-a1 +D,lc1:2,n:3,ds:111,mo:1,lm:1
/exp/pberck/wopr/wopr -s do_pdt2.wopr_script -p file0:../nyt.3e7.1000000,lc0:2,id:PDT3_40327,timbl0:-a1 +D,dl:6,test:nyt.tail1000,file1:../nyt.3e7.1000000,timbl1:-a1 +D,lc1:2,n:4,ds:1111,mo:1,lm:1
/exp/pberck/wopr/wopr -s do_pdt2.wopr_script -p file0:../nyt.3e7.1000000,lc0:2,id:PDT3_40328,timbl0:-a1 +D,dl:6,test:nyt.tail1000,file1:../nyt.3e7.1000000,timbl1:-a1 +D,lc1:2,n:5,ds:11111,mo:1,lm:1
/exp/pberck/wopr/wopr -s do_pdt2.wopr_script -p file0:../nyt.3e7.1000000,lc0:2,id:PDT3_40329,timbl0:-a1 +D,dl:6,test:nyt.tail1000,file1:../nyt.3e7.1000000,timbl1:-a1 +D,lc1:2,n:6,ds:111111,mo:1,lm:1
/exp/pberck/wopr/wopr -s do_pdt2.wopr_script -p file0:../nyt.3e7.1000000,lc0:3,id:PDT3_40330,timbl0:-a1 +D,dl:6,test:nyt.tail1000,file1:../nyt.3e7.1000000,timbl1:-a1 +D,lc1:2,n:1,ds:1,mo:1,lm:1
/exp/pberck/wopr/wopr -s do_pdt2.wopr_script -p file0:../nyt.3e7.1000000,lc0:3,id:PDT3_40331,timbl0:-a1 +D,dl:6,test:nyt.tail1000,file1:../nyt.3e7.1000000,timbl1:-a1 +D,lc1:2,n:2,ds:11,mo:1,lm:1
/exp/pberck/wopr/wopr -s do_pdt2.wopr_script -p file0:../nyt.3e7.1000000,lc0:3,id:PDT3_40332,timbl0:-a1 +D,dl:6,test:nyt.tail1000,file1:../nyt.3e7.1000000,timbl1:-a1 +D,lc1:2,n:3,ds:111,mo:1,lm:1
/exp/pberck/wopr/wopr -s do_pdt2.wopr_script -p file0:../nyt.3e7.1000000,lc0:3,id:PDT3_40333,timbl0:-a1 +D,dl:6,test:nyt.tail1000,file1:../nyt.3e7.1000000,timbl1:-a1 +D,lc1:2,n:4,ds:1111,mo:1,lm:1
/exp/pberck/wopr/wopr -s do_pdt2.wopr_script -p file0:../nyt.3e7.1000000,lc0:3,id:PDT3_40334,timbl0:-a1 +D,dl:6,test:nyt.tail1000,file1:../nyt.3e7.1000000,timbl1:-a1 +D,lc1:2,n:5,ds:11111,mo:1,lm:1
/exp/pberck/wopr/wopr -s do_pdt2.wopr_script -p file0:../nyt.3e7.1000000,lc0:3,id:PDT3_40335,timbl0:-a1 +D,dl:6,test:nyt.tail1000,file1:../nyt.3e7.1000000,timbl1:-a1 +D,lc1:2,n:6,ds:111111,mo:1,lm:1
/exp/pberck/wopr/wopr -s do_pdt2.wopr_script -p file0:../nyt.3e7.1000000,lc0:4,id:PDT3_40336,timbl0:-a1 +D,dl:6,test:nyt.tail1000,file1:../nyt.3e7.1000000,timbl1:-a1 +D,lc1:2,n:1,ds:1,mo:1,lm:1
/exp/pberck/wopr/wopr -s do_pdt2.wopr_script -p file0:../nyt.3e7.1000000,lc0:4,id:PDT3_40337,timbl0:-a1 +D,dl:6,test:nyt.tail1000,file1:../nyt.3e7.1000000,timbl1:-a1 +D,lc1:2,n:2,ds:11,mo:1,lm:1
/exp/pberck/wopr/wopr -s do_pdt2.wopr_script -p file0:../nyt.3e7.1000000,lc0:4,id:PDT3_40338,timbl0:-a1 +D,dl:6,test:nyt.tail1000,file1:../nyt.3e7.1000000,timbl1:-a1 +D,lc1:2,n:3,ds:111,mo:1,lm:1
/exp/pberck/wopr/wopr -s do_pdt2.wopr_script -p file0:../nyt.3e7.1000000,lc0:4,id:PDT3_40339,timbl0:-a1 +D,dl:6,test:nyt.tail1000,file1:../nyt.3e7.1000000,timbl1:-a1 +D,lc1:2,n:4,ds:1111,mo:1,lm:1
/exp/pberck/wopr/wopr -s do_pdt2.wopr_script -p file0:../nyt.3e7.1000000,lc0:4,id:PDT3_40340,timbl0:-a1 +D,dl:6,test:nyt.tail1000,file1:../nyt.3e7.1000000,timbl1:-a1 +D,lc1:2,n:5,ds:11111,mo:1,lm:1
/exp/pberck/wopr/wopr -s do_pdt2.wopr_script -p file0:../nyt.3e7.1000000,lc0:4,id:PDT3_40341,timbl0:-a1 +D,dl:6,test:nyt.tail1000,file1:../nyt.3e7.1000000,timbl1:-a1 +D,lc1:2,n:6,ds:111111,mo:1,lm:1
/exp/pberck/wopr/wopr -s do_pdt2.wopr_script -p file0:../nyt.3e7.1000000,lc0:5,id:PDT3_40342,timbl0:-a1 +D,dl:6,test:nyt.tail1000,file1:../nyt.3e7.1000000,timbl1:-a1 +D,lc1:2,n:1,ds:1,mo:1,lm:1
/exp/pberck/wopr/wopr -s do_pdt2.wopr_script -p file0:../nyt.3e7.1000000,lc0:5,id:PDT3_40343,timbl0:-a1 +D,dl:6,test:nyt.tail1000,file1:../nyt.3e7.1000000,timbl1:-a1 +D,lc1:2,n:2,ds:11,mo:1,lm:1
/exp/pberck/wopr/wopr -s do_pdt2.wopr_script -p file0:../nyt.3e7.1000000,lc0:5,id:PDT3_40344,timbl0:-a1 +D,dl:6,test:nyt.tail1000,file1:../nyt.3e7.1000000,timbl1:-a1 +D,lc1:2,n:3,ds:111,mo:1,lm:1
/exp/pberck/wopr/wopr -s do_pdt2.wopr_script -p file0:../nyt.3e7.1000000,lc0:5,id:PDT3_40345,timbl0:-a1 +D,dl:6,test:nyt.tail1000,file1:../nyt.3e7.1000000,timbl1:-a1 +D,lc1:2,n:4,ds:1111,mo:1,lm:1
/exp/pberck/wopr/wopr -s do_pdt2.wopr_script -p file0:../nyt.3e7.1000000,lc0:5,id:PDT3_40346,timbl0:-a1 +D,dl:6,test:nyt.tail1000,file1:../nyt.3e7.1000000,timbl1:-a1 +D,lc1:2,n:5,ds:11111,mo:1,lm:1
/exp/pberck/wopr/wopr -s do_pdt2.wopr_script -p file0:../nyt.3e7.1000000,lc0:5,id:PDT3_40347,timbl0:-a1 +D,dl:6,test:nyt.tail1000,file1:../nyt.3e7.1000000,timbl1:-a1 +D,lc1:2,n:6,ds:111111,mo:1,lm:1
/exp/pberck/wopr/wopr -s do_pdt2.wopr_script -p file0:../nyt.3e7.1000000,lc0:6,id:PDT3_40348,timbl0:-a1 +D,dl:6,test:nyt.tail1000,file1:../nyt.3e7.1000000,timbl1:-a1 +D,lc1:2,n:1,ds:1,mo:1,lm:1
/exp/pberck/wopr/wopr -s do_pdt2.wopr_script -p file0:../nyt.3e7.1000000,lc0:6,id:PDT3_40349,timbl0:-a1 +D,dl:6,test:nyt.tail1000,file1:../nyt.3e7.1000000,timbl1:-a1 +D,lc1:2,n:2,ds:11,mo:1,lm:1
/exp/pberck/wopr/wopr -s do_pdt2.wopr_script -p file0:../nyt.3e7.1000000,lc0:6,id:PDT3_40350,timbl0:-a1 +D,dl:6,test:nyt.tail1000,file1:../nyt.3e7.1000000,timbl1:-a1 +D,lc1:2,n:3,ds:111,mo:1,lm:1
/exp/pberck/wopr/wopr -s do_pdt2.wopr_script -p file0:../nyt.3e7.1000000,lc0:6,id:PDT3_40351,timbl0:-a1 +D,dl:6,test:nyt.tail1000,file1:../nyt.3e7.1000000,timbl1:-a1 +D,lc1:2,n:4,ds:1111,mo:1,lm:1
/exp/pberck/wopr/wopr -s do_pdt2.wopr_script -p file0:../nyt.3e7.1000000,lc0:6,id:PDT3_40352,timbl0:-a1 +D,dl:6,test:nyt.tail1000,file1:../nyt.3e7.1000000,timbl1:-a1 +D,lc1:2,n:5,ds:11111,mo:1,lm:1
/exp/pberck/wopr/wopr -s do_pdt2.wopr_script -p file0:../nyt.3e7.1000000,lc0:6,id:PDT3_40353,timbl0:-a1 +D,dl:6,test:nyt.tail1000,file1:../nyt.3e7.1000000,timbl1:-a1 +D,lc1:2,n:6,ds:111111,mo:1,lm:1
/exp/pberck/wopr/wopr -s do_pdt2.wopr_script -p file0:../nyt.3e7.1000000,lc0:8,id:PDT3_40354,timbl0:-a1 +D,dl:6,test:nyt.tail1000,file1:../nyt.3e7.1000000,timbl1:-a1 +D,lc1:2,n:1,ds:1,mo:1,lm:1
/exp/pberck/wopr/wopr -s do_pdt2.wopr_script -p file0:../nyt.3e7.1000000,lc0:8,id:PDT3_40355,timbl0:-a1 +D,dl:6,test:nyt.tail1000,file1:../nyt.3e7.1000000,timbl1:-a1 +D,lc1:2,n:2,ds:11,mo:1,lm:1
/exp/pberck/wopr/wopr -s do_pdt2.wopr_script -p file0:../nyt.3e7.1000000,lc0:8,id:PDT3_40356,timbl0:-a1 +D,dl:6,test:nyt.tail1000,file1:../nyt.3e7.1000000,timbl1:-a1 +D,lc1:2,n:3,ds:111,mo:1,lm:1
/exp/pberck/wopr/wopr -s do_pdt2.wopr_script -p file0:../nyt.3e7.1000000,lc0:8,id:PDT3_40357,timbl0:-a1 +D,dl:6,test:nyt.tail1000,file1:../nyt.3e7.1000000,timbl1:-a1 +D,lc1:2,n:4,ds:1111,mo:1,lm:1
/exp/pberck/wopr/wopr -s do_pdt2.wopr_script -p file0:../nyt.3e7.1000000,lc0:8,id:PDT3_40358,timbl0:-a1 +D,dl:6,test:nyt.tail1000,file1:../nyt.3e7.1000000,timbl1:-a1 +D,lc1:2,n:5,ds:11111,mo:1,lm:1
/exp/pberck/wopr/wopr -s do_pdt2.wopr_script -p file0:../nyt.3e7.1000000,lc0:8,id:PDT3_40359,timbl0:-a1 +D,dl:6,test:nyt.tail1000,file1:../nyt.3e7.1000000,timbl1:-a1 +D,lc1:2,n:6,ds:111111,mo:1,lm:1
/exp/pberck/wopr/wopr -s do_pdt2.wopr_script -p file0:../nyt.3e7.1000000,lc0:10,id:PDT3_40360,timbl0:-a1 +D,dl:6,test:nyt.tail1000,file1:../nyt.3e7.1000000,timbl1:-a1 +D,lc1:2,n:1,ds:1,mo:1,lm:1
/exp/pberck/wopr/wopr -s do_pdt2.wopr_script -p file0:../nyt.3e7.1000000,lc0:10,id:PDT3_40361,timbl0:-a1 +D,dl:6,test:nyt.tail1000,file1:../nyt.3e7.1000000,timbl1:-a1 +D,lc1:2,n:2,ds:11,mo:1,lm:1
/exp/pberck/wopr/wopr -s do_pdt2.wopr_script -p file0:../nyt.3e7.1000000,lc0:10,id:PDT3_40362,timbl0:-a1 +D,dl:6,test:nyt.tail1000,file1:../nyt.3e7.1000000,timbl1:-a1 +D,lc1:2,n:3,ds:111,mo:1,lm:1
/exp/pberck/wopr/wopr -s do_pdt2.wopr_script -p file0:../nyt.3e7.1000000,lc0:10,id:PDT3_40363,timbl0:-a1 +D,dl:6,test:nyt.tail1000,file1:../nyt.3e7.1000000,timbl1:-a1 +D,lc1:2,n:4,ds:1111,mo:1,lm:1
/exp/pberck/wopr/wopr -s do_pdt2.wopr_script -p file0:../nyt.3e7.1000000,lc0:10,id:PDT3_40364,timbl0:-a1 +D,dl:6,test:nyt.tail1000,file1:../nyt.3e7.1000000,timbl1:-a1 +D,lc1:2,n:5,ds:11111,mo:1,lm:1
/exp/pberck/wopr/wopr -s do_pdt2.wopr_script -p file0:../nyt.3e7.1000000,lc0:10,id:PDT3_40365,timbl0:-a1 +D,dl:6,test:nyt.tail1000,file1:../nyt.3e7.1000000,timbl1:-a1 +D,lc1:2,n:6,ds:111111,mo:1,lm:1
/exp/pberck/wopr/wopr -s do_pdt2.wopr_script -p file0:../nyt.3e7.1000000,lc0:12,id:PDT3_40366,timbl0:-a1 +D,dl:6,test:nyt.tail1000,file1:../nyt.3e7.1000000,timbl1:-a1 +D,lc1:2,n:1,ds:1,mo:1,lm:1
/exp/pberck/wopr/wopr -s do_pdt2.wopr_script -p file0:../nyt.3e7.1000000,lc0:12,id:PDT3_40367,timbl0:-a1 +D,dl:6,test:nyt.tail1000,file1:../nyt.3e7.1000000,timbl1:-a1 +D,lc1:2,n:2,ds:11,mo:1,lm:1
/exp/pberck/wopr/wopr -s do_pdt2.wopr_script -p file0:../nyt.3e7.1000000,lc0:12,id:PDT3_40368,timbl0:-a1 +D,dl:6,test:nyt.tail1000,file1:../nyt.3e7.1000000,timbl1:-a1 +D,lc1:2,n:3,ds:111,mo:1,lm:1
/exp/pberck/wopr/wopr -s do_pdt2.wopr_script -p file0:../nyt.3e7.1000000,lc0:12,id:PDT3_40369,timbl0:-a1 +D,dl:6,test:nyt.tail1000,file1:../nyt.3e7.1000000,timbl1:-a1 +D,lc1:2,n:4,ds:1111,mo:1,lm:1
/exp/pberck/wopr/wopr -s do_pdt2.wopr_script -p file0:../nyt.3e7.1000000,lc0:12,id:PDT3_40370,timbl0:-a1 +D,dl:6,test:nyt.tail1000,file1:../nyt.3e7.1000000,timbl1:-a1 +D,lc1:2,n:5,ds:11111,mo:1,lm:1
/exp/pberck/wopr/wopr -s do_pdt2.wopr_script -p file0:../nyt.3e7.1000000,lc0:12,id:PDT3_40371,timbl0:-a1 +D,dl:6,test:nyt.tail1000,file1:../nyt.3e7.1000000,timbl1:-a1 +D,lc1:2,n:6,ds:111111,mo:1,lm:1
/exp/pberck/wopr/wopr -s do_pdt2.wopr_script -p file0:../nyt.3e7.1000000,lc0:16,id:PDT3_40372,timbl0:-a1 +D,dl:6,test:nyt.tail1000,file1:../nyt.3e7.1000000,timbl1:-a1 +D,lc1:2,n:1,ds:1,mo:1,lm:1
/exp/pberck/wopr/wopr -s do_pdt2.wopr_script -p file0:../nyt.3e7.1000000,lc0:16,id:PDT3_40373,timbl0:-a1 +D,dl:6,test:nyt.tail1000,file1:../nyt.3e7.1000000,timbl1:-a1 +D,lc1:2,n:2,ds:11,mo:1,lm:1
/exp/pberck/wopr/wopr -s do_pdt2.wopr_script -p file0:../nyt.3e7.1000000,lc0:16,id:PDT3_40374,timbl0:-a1 +D,dl:6,test:nyt.tail1000,file1:../nyt.3e7.1000000,timbl1:-a1 +D,lc1:2,n:3,ds:111,mo:1,lm:1
/exp/pberck/wopr/wopr -s do_pdt2.wopr_script -p file0:../nyt.3e7.1000000,lc0:16,id:PDT3_40375,timbl0:-a1 +D,dl:6,test:nyt.tail1000,file1:../nyt.3e7.1000000,timbl1:-a1 +D,lc1:2,n:4,ds:1111,mo:1,lm:1
/exp/pberck/wopr/wopr -s do_pdt2.wopr_script -p file0:../nyt.3e7.1000000,lc0:16,id:PDT3_40376,timbl0:-a1 +D,dl:6,test:nyt.tail1000,file1:../nyt.3e7.1000000,timbl1:-a1 +D,lc1:2,n:5,ds:11111,mo:1,lm:1
/exp/pberck/wopr/wopr -s do_pdt2.wopr_script -p file0:../nyt.3e7.1000000,lc0:16,id:PDT3_40377,timbl0:-a1 +D,dl:6,test:nyt.tail1000,file1:../nyt.3e7.1000000,timbl1:-a1 +D,lc1:2,n:6,ds:111111,mo:1,lm:1
/exp/pberck/wopr/wopr -s do_pdt2.wopr_script -p file0:../nyt.3e7.1000000,lc0:2,id:PDT3_40378,timbl0:-a1 +D,dl:6,test:nyt.tail1000,file1:../nyt.3e7.5000000,timbl1:-a1 +D,lc1:2,n:1,ds:1,mo:1,lm:1
/exp/pberck/wopr/wopr -s do_pdt2.wopr_script -p file0:../nyt.3e7.1000000,lc0:2,id:PDT3_40379,timbl0:-a1 +D,dl:6,test:nyt.tail1000,file1:../nyt.3e7.5000000,timbl1:-a1 +D,lc1:2,n:2,ds:11,mo:1,lm:1
/exp/pberck/wopr/wopr -s do_pdt2.wopr_script -p file0:../nyt.3e7.1000000,lc0:2,id:PDT3_40380,timbl0:-a1 +D,dl:6,test:nyt.tail1000,file1:../nyt.3e7.5000000,timbl1:-a1 +D,lc1:2,n:3,ds:111,mo:1,lm:1
/exp/pberck/wopr/wopr -s do_pdt2.wopr_script -p file0:../nyt.3e7.1000000,lc0:2,id:PDT3_40381,timbl0:-a1 +D,dl:6,test:nyt.tail1000,file1:../nyt.3e7.5000000,timbl1:-a1 +D,lc1:2,n:4,ds:1111,mo:1,lm:1
/exp/pberck/wopr/wopr -s do_pdt2.wopr_script -p file0:../nyt.3e7.1000000,lc0:2,id:PDT3_40382,timbl0:-a1 +D,dl:6,test:nyt.tail1000,file1:../nyt.3e7.5000000,timbl1:-a1 +D,lc1:2,n:5,ds:11111,mo:1,lm:1
/exp/pberck/wopr/wopr -s do_pdt2.wopr_script -p file0:../nyt.3e7.1000000,lc0:2,id:PDT3_40383,timbl0:-a1 +D,dl:6,test:nyt.tail1000,file1:../nyt.3e7.5000000,timbl1:-a1 +D,lc1:2,n:6,ds:111111,mo:1,lm:1
/exp/pberck/wopr/wopr -s do_pdt2.wopr_script -p file0:../nyt.3e7.1000000,lc0:3,id:PDT3_40384,timbl0:-a1 +D,dl:6,test:nyt.tail1000,file1:../nyt.3e7.5000000,timbl1:-a1 +D,lc1:2,n:1,ds:1,mo:1,lm:1
/exp/pberck/wopr/wopr -s do_pdt2.wopr_script -p file0:../nyt.3e7.1000000,lc0:3,id:PDT3_40385,timbl0:-a1 +D,dl:6,test:nyt.tail1000,file1:../nyt.3e7.5000000,timbl1:-a1 +D,lc1:2,n:2,ds:11,mo:1,lm:1
/exp/pberck/wopr/wopr -s do_pdt2.wopr_script -p file0:../nyt.3e7.1000000,lc0:3,id:PDT3_40386,timbl0:-a1 +D,dl:6,test:nyt.tail1000,file1:../nyt.3e7.5000000,timbl1:-a1 +D,lc1:2,n:3,ds:111,mo:1,lm:1
/exp/pberck/wopr/wopr -s do_pdt2.wopr_script -p file0:../nyt.3e7.1000000,lc0:3,id:PDT3_40387,timbl0:-a1 +D,dl:6,test:nyt.tail1000,file1:../nyt.3e7.5000000,timbl1:-a1 +D,lc1:2,n:4,ds:1111,mo:1,lm:1
/exp/pberck/wopr/wopr -s do_pdt2.wopr_script -p file0:../nyt.3e7.1000000,lc0:3,id:PDT3_40388,timbl0:-a1 +D,dl:6,test:nyt.tail1000,file1:../nyt.3e7.5000000,timbl1:-a1 +D,lc1:2,n:5,ds:11111,mo:1,lm:1
/exp/pberck/wopr/wopr -s do_pdt2.wopr_script -p file0:../nyt.3e7.1000000,lc0:3,id:PDT3_40389,timbl0:-a1 +D,dl:6,test:nyt.tail1000,file1:../nyt.3e7.5000000,timbl1:-a1 +D,lc1:2,n:6,ds:111111,mo:1,lm:1
/exp/pberck/wopr/wopr -s do_pdt2.wopr_script -p file0:../nyt.3e7.1000000,lc0:4,id:PDT3_40390,timbl0:-a1 +D,dl:6,test:nyt.tail1000,file1:../nyt.3e7.5000000,timbl1:-a1 +D,lc1:2,n:1,ds:1,mo:1,lm:1
/exp/pberck/wopr/wopr -s do_pdt2.wopr_script -p file0:../nyt.3e7.1000000,lc0:4,id:PDT3_40391,timbl0:-a1 +D,dl:6,test:nyt.tail1000,file1:../nyt.3e7.5000000,timbl1:-a1 +D,lc1:2,n:2,ds:11,mo:1,lm:1
/exp/pberck/wopr/wopr -s do_pdt2.wopr_script -p file0:../nyt.3e7.1000000,lc0:4,id:PDT3_40392,timbl0:-a1 +D,dl:6,test:nyt.tail1000,file1:../nyt.3e7.5000000,timbl1:-a1 +D,lc1:2,n:3,ds:111,mo:1,lm:1
/exp/pberck/wopr/wopr -s do_pdt2.wopr_script -p file0:../nyt.3e7.1000000,lc0:4,id:PDT3_40393,timbl0:-a1 +D,dl:6,test:nyt.tail1000,file1:../nyt.3e7.5000000,timbl1:-a1 +D,lc1:2,n:4,ds:1111,mo:1,lm:1
/exp/pberck/wopr/wopr -s do_pdt2.wopr_script -p file0:../nyt.3e7.1000000,lc0:4,id:PDT3_40394,timbl0:-a1 +D,dl:6,test:nyt.tail1000,file1:../nyt.3e7.5000000,timbl1:-a1 +D,lc1:2,n:5,ds:11111,mo:1,lm:1
/exp/pberck/wopr/wopr -s do_pdt2.wopr_script -p file0:../nyt.3e7.1000000,lc0:4,id:PDT3_40395,timbl0:-a1 +D,dl:6,test:nyt.tail1000,file1:../nyt.3e7.5000000,timbl1:-a1 +D,lc1:2,n:6,ds:111111,mo:1,lm:1
/exp/pberck/wopr/wopr -s do_pdt2.wopr_script -p file0:../nyt.3e7.1000000,lc0:5,id:PDT3_40396,timbl0:-a1 +D,dl:6,test:nyt.tail1000,file1:../nyt.3e7.5000000,timbl1:-a1 +D,lc1:2,n:1,ds:1,mo:1,lm:1
/exp/pberck/wopr/wopr -s do_pdt2.wopr_script -p file0:../nyt.3e7.1000000,lc0:5,id:PDT3_40397,timbl0:-a1 +D,dl:6,test:nyt.tail1000,file1:../nyt.3e7.5000000,timbl1:-a1 +D,lc1:2,n:2,ds:11,mo:1,lm:1
/exp/pberck/wopr/wopr -s do_pdt2.wopr_script -p file0:../nyt.3e7.1000000,lc0:5,id:PDT3_40398,timbl0:-a1 +D,dl:6,test:nyt.tail1000,file1:../nyt.3e7.5000000,timbl1:-a1 +D,lc1:2,n:3,ds:111,mo:1,lm:1
/exp/pberck/wopr/wopr -s do_pdt2.wopr_script -p file0:../nyt.3e7.1000000,lc0:5,id:PDT3_40399,timbl0:-a1 +D,dl:6,test:nyt.tail1000,file1:../nyt.3e7.5000000,timbl1:-a1 +D,lc1:2,n:4,ds:1111,mo:1,lm:1
/exp/pberck/wopr/wopr -s do_pdt2.wopr_script -p file0:../nyt.3e7.1000000,lc0:5,id:PDT3_40400,timbl0:-a1 +D,dl:6,test:nyt.tail1000,file1:../nyt.3e7.5000000,timbl1:-a1 +D,lc1:2,n:5,ds:11111,mo:1,lm:1
/exp/pberck/wopr/wopr -s do_pdt2.wopr_script -p file0:../nyt.3e7.1000000,lc0:5,id:PDT3_40401,timbl0:-a1 +D,dl:6,test:nyt.tail1000,file1:../nyt.3e7.5000000,timbl1:-a1 +D,lc1:2,n:6,ds:111111,mo:1,lm:1
/exp/pberck/wopr/wopr -s do_pdt2.wopr_script -p file0:../nyt.3e7.1000000,lc0:6,id:PDT3_40402,timbl0:-a1 +D,dl:6,test:nyt.tail1000,file1:../nyt.3e7.5000000,timbl1:-a1 +D,lc1:2,n:1,ds:1,mo:1,lm:1
/exp/pberck/wopr/wopr -s do_pdt2.wopr_script -p file0:../nyt.3e7.1000000,lc0:6,id:PDT3_40403,timbl0:-a1 +D,dl:6,test:nyt.tail1000,file1:../nyt.3e7.5000000,timbl1:-a1 +D,lc1:2,n:2,ds:11,mo:1,lm:1
/exp/pberck/wopr/wopr -s do_pdt2.wopr_script -p file0:../nyt.3e7.1000000,lc0:6,id:PDT3_40404,timbl0:-a1 +D,dl:6,test:nyt.tail1000,file1:../nyt.3e7.5000000,timbl1:-a1 +D,lc1:2,n:3,ds:111,mo:1,lm:1
/exp/pberck/wopr/wopr -s do_pdt2.wopr_script -p file0:../nyt.3e7.1000000,lc0:6,id:PDT3_40405,timbl0:-a1 +D,dl:6,test:nyt.tail1000,file1:../nyt.3e7.5000000,timbl1:-a1 +D,lc1:2,n:4,ds:1111,mo:1,lm:1
/exp/pberck/wopr/wopr -s do_pdt2.wopr_script -p file0:../nyt.3e7.1000000,lc0:6,id:PDT3_40406,timbl0:-a1 +D,dl:6,test:nyt.tail1000,file1:../nyt.3e7.5000000,timbl1:-a1 +D,lc1:2,n:5,ds:11111,mo:1,lm:1
/exp/pberck/wopr/wopr -s do_pdt2.wopr_script -p file0:../nyt.3e7.1000000,lc0:6,id:PDT3_40407,timbl0:-a1 +D,dl:6,test:nyt.tail1000,file1:../nyt.3e7.5000000,timbl1:-a1 +D,lc1:2,n:6,ds:111111,mo:1,lm:1
/exp/pberck/wopr/wopr -s do_pdt2.wopr_script -p file0:../nyt.3e7.1000000,lc0:8,id:PDT3_40408,timbl0:-a1 +D,dl:6,test:nyt.tail1000,file1:../nyt.3e7.5000000,timbl1:-a1 +D,lc1:2,n:1,ds:1,mo:1,lm:1
/exp/pberck/wopr/wopr -s do_pdt2.wopr_script -p file0:../nyt.3e7.1000000,lc0:8,id:PDT3_40409,timbl0:-a1 +D,dl:6,test:nyt.tail1000,file1:../nyt.3e7.5000000,timbl1:-a1 +D,lc1:2,n:2,ds:11,mo:1,lm:1
/exp/pberck/wopr/wopr -s do_pdt2.wopr_script -p file0:../nyt.3e7.1000000,lc0:8,id:PDT3_40410,timbl0:-a1 +D,dl:6,test:nyt.tail1000,file1:../nyt.3e7.5000000,timbl1:-a1 +D,lc1:2,n:3,ds:111,mo:1,lm:1
/exp/pberck/wopr/wopr -s do_pdt2.wopr_script -p file0:../nyt.3e7.1000000,lc0:8,id:PDT3_40411,timbl0:-a1 +D,dl:6,test:nyt.tail1000,file1:../nyt.3e7.5000000,timbl1:-a1 +D,lc1:2,n:4,ds:1111,mo:1,lm:1
/exp/pberck/wopr/wopr -s do_pdt2.wopr_script -p file0:../nyt.3e7.1000000,lc0:8,id:PDT3_40412,timbl0:-a1 +D,dl:6,test:nyt.tail1000,file1:../nyt.3e7.5000000,timbl1:-a1 +D,lc1:2,n:5,ds:11111,mo:1,lm:1
/exp/pberck/wopr/wopr -s do_pdt2.wopr_script -p file0:../nyt.3e7.1000000,lc0:8,id:PDT3_40413,timbl0:-a1 +D,dl:6,test:nyt.tail1000,file1:../nyt.3e7.5000000,timbl1:-a1 +D,lc1:2,n:6,ds:111111,mo:1,lm:1
/exp/pberck/wopr/wopr -s do_pdt2.wopr_script -p file0:../nyt.3e7.1000000,lc0:10,id:PDT3_40414,timbl0:-a1 +D,dl:6,test:nyt.tail1000,file1:../nyt.3e7.5000000,timbl1:-a1 +D,lc1:2,n:1,ds:1,mo:1,lm:1
/exp/pberck/wopr/wopr -s do_pdt2.wopr_script -p file0:../nyt.3e7.1000000,lc0:10,id:PDT3_40415,timbl0:-a1 +D,dl:6,test:nyt.tail1000,file1:../nyt.3e7.5000000,timbl1:-a1 +D,lc1:2,n:2,ds:11,mo:1,lm:1
/exp/pberck/wopr/wopr -s do_pdt2.wopr_script -p file0:../nyt.3e7.1000000,lc0:10,id:PDT3_40416,timbl0:-a1 +D,dl:6,test:nyt.tail1000,file1:../nyt.3e7.5000000,timbl1:-a1 +D,lc1:2,n:3,ds:111,mo:1,lm:1
/exp/pberck/wopr/wopr -s do_pdt2.wopr_script -p file0:../nyt.3e7.1000000,lc0:10,id:PDT3_40417,timbl0:-a1 +D,dl:6,test:nyt.tail1000,file1:../nyt.3e7.5000000,timbl1:-a1 +D,lc1:2,n:4,ds:1111,mo:1,lm:1
/exp/pberck/wopr/wopr -s do_pdt2.wopr_script -p file0:../nyt.3e7.1000000,lc0:10,id:PDT3_40418,timbl0:-a1 +D,dl:6,test:nyt.tail1000,file1:../nyt.3e7.5000000,timbl1:-a1 +D,lc1:2,n:5,ds:11111,mo:1,lm:1
/exp/pberck/wopr/wopr -s do_pdt2.wopr_script -p file0:../nyt.3e7.1000000,lc0:10,id:PDT3_40419,timbl0:-a1 +D,dl:6,test:nyt.tail1000,file1:../nyt.3e7.5000000,timbl1:-a1 +D,lc1:2,n:6,ds:111111,mo:1,lm:1
/exp/pberck/wopr/wopr -s do_pdt2.wopr_script -p file0:../nyt.3e7.1000000,lc0:12,id:PDT3_40420,timbl0:-a1 +D,dl:6,test:nyt.tail1000,file1:../nyt.3e7.5000000,timbl1:-a1 +D,lc1:2,n:1,ds:1,mo:1,lm:1
/exp/pberck/wopr/wopr -s do_pdt2.wopr_script -p file0:../nyt.3e7.1000000,lc0:12,id:PDT3_40421,timbl0:-a1 +D,dl:6,test:nyt.tail1000,file1:../nyt.3e7.5000000,timbl1:-a1 +D,lc1:2,n:2,ds:11,mo:1,lm:1
/exp/pberck/wopr/wopr -s do_pdt2.wopr_script -p file0:../nyt.3e7.1000000,lc0:12,id:PDT3_40422,timbl0:-a1 +D,dl:6,test:nyt.tail1000,file1:../nyt.3e7.5000000,timbl1:-a1 +D,lc1:2,n:3,ds:111,mo:1,lm:1
/exp/pberck/wopr/wopr -s do_pdt2.wopr_script -p file0:../nyt.3e7.1000000,lc0:12,id:PDT3_40423,timbl0:-a1 +D,dl:6,test:nyt.tail1000,file1:../nyt.3e7.5000000,timbl1:-a1 +D,lc1:2,n:4,ds:1111,mo:1,lm:1
/exp/pberck/wopr/wopr -s do_pdt2.wopr_script -p file0:../nyt.3e7.1000000,lc0:12,id:PDT3_40424,timbl0:-a1 +D,dl:6,test:nyt.tail1000,file1:../nyt.3e7.5000000,timbl1:-a1 +D,lc1:2,n:5,ds:11111,mo:1,lm:1
/exp/pberck/wopr/wopr -s do_pdt2.wopr_script -p file0:../nyt.3e7.1000000,lc0:12,id:PDT3_40425,timbl0:-a1 +D,dl:6,test:nyt.tail1000,file1:../nyt.3e7.5000000,timbl1:-a1 +D,lc1:2,n:6,ds:111111,mo:1,lm:1
/exp/pberck/wopr/wopr -s do_pdt2.wopr_script -p file0:../nyt.3e7.1000000,lc0:16,id:PDT3_40426,timbl0:-a1 +D,dl:6,test:nyt.tail1000,file1:../nyt.3e7.5000000,timbl1:-a1 +D,lc1:2,n:1,ds:1,mo:1,lm:1
/exp/pberck/wopr/wopr -s do_pdt2.wopr_script -p file0:../nyt.3e7.1000000,lc0:16,id:PDT3_40427,timbl0:-a1 +D,dl:6,test:nyt.tail1000,file1:../nyt.3e7.5000000,timbl1:-a1 +D,lc1:2,n:2,ds:11,mo:1,lm:1
/exp/pberck/wopr/wopr -s do_pdt2.wopr_script -p file0:../nyt.3e7.1000000,lc0:16,id:PDT3_40428,timbl0:-a1 +D,dl:6,test:nyt.tail1000,file1:../nyt.3e7.5000000,timbl1:-a1 +D,lc1:2,n:3,ds:111,mo:1,lm:1
/exp/pberck/wopr/wopr -s do_pdt2.wopr_script -p file0:../nyt.3e7.1000000,lc0:16,id:PDT3_40429,timbl0:-a1 +D,dl:6,test:nyt.tail1000,file1:../nyt.3e7.5000000,timbl1:-a1 +D,lc1:2,n:4,ds:1111,mo:1,lm:1
/exp/pberck/wopr/wopr -s do_pdt2.wopr_script -p file0:../nyt.3e7.1000000,lc0:16,id:PDT3_40430,timbl0:-a1 +D,dl:6,test:nyt.tail1000,file1:../nyt.3e7.5000000,timbl1:-a1 +D,lc1:2,n:5,ds:11111,mo:1,lm:1
/exp/pberck/wopr/wopr -s do_pdt2.wopr_script -p file0:../nyt.3e7.1000000,lc0:16,id:PDT3_40431,timbl0:-a1 +D,dl:6,test:nyt.tail1000,file1:../nyt.3e7.5000000,timbl1:-a1 +D,lc1:2,n:6,ds:111111,mo:1,lm:1
/exp/pberck/wopr/wopr -s do_pdt2.wopr_script -p file0:../nyt.3e7.1000000,lc0:2,id:PDT3_40432,timbl0:-a1 +D,dl:6,test:nyt.tail1000,file1:../nyt.3e7.10000000,timbl1:-a1 +D,lc1:2,n:1,ds:1,mo:1,lm:1
/exp/pberck/wopr/wopr -s do_pdt2.wopr_script -p file0:../nyt.3e7.1000000,lc0:2,id:PDT3_40433,timbl0:-a1 +D,dl:6,test:nyt.tail1000,file1:../nyt.3e7.10000000,timbl1:-a1 +D,lc1:2,n:2,ds:11,mo:1,lm:1
/exp/pberck/wopr/wopr -s do_pdt2.wopr_script -p file0:../nyt.3e7.1000000,lc0:2,id:PDT3_40434,timbl0:-a1 +D,dl:6,test:nyt.tail1000,file1:../nyt.3e7.10000000,timbl1:-a1 +D,lc1:2,n:3,ds:111,mo:1,lm:1
/exp/pberck/wopr/wopr -s do_pdt2.wopr_script -p file0:../nyt.3e7.1000000,lc0:2,id:PDT3_40435,timbl0:-a1 +D,dl:6,test:nyt.tail1000,file1:../nyt.3e7.10000000,timbl1:-a1 +D,lc1:2,n:4,ds:1111,mo:1,lm:1
/exp/pberck/wopr/wopr -s do_pdt2.wopr_script -p file0:../nyt.3e7.1000000,lc0:2,id:PDT3_40436,timbl0:-a1 +D,dl:6,test:nyt.tail1000,file1:../nyt.3e7.10000000,timbl1:-a1 +D,lc1:2,n:5,ds:11111,mo:1,lm:1
/exp/pberck/wopr/wopr -s do_pdt2.wopr_script -p file0:../nyt.3e7.1000000,lc0:2,id:PDT3_40437,timbl0:-a1 +D,dl:6,test:nyt.tail1000,file1:../nyt.3e7.10000000,timbl1:-a1 +D,lc1:2,n:6,ds:111111,mo:1,lm:1
/exp/pberck/wopr/wopr -s do_pdt2.wopr_script -p file0:../nyt.3e7.1000000,lc0:3,id:PDT3_40438,timbl0:-a1 +D,dl:6,test:nyt.tail1000,file1:../nyt.3e7.10000000,timbl1:-a1 +D,lc1:2,n:1,ds:1,mo:1,lm:1
/exp/pberck/wopr/wopr -s do_pdt2.wopr_script -p file0:../nyt.3e7.1000000,lc0:3,id:PDT3_40439,timbl0:-a1 +D,dl:6,test:nyt.tail1000,file1:../nyt.3e7.10000000,timbl1:-a1 +D,lc1:2,n:2,ds:11,mo:1,lm:1
/exp/pberck/wopr/wopr -s do_pdt2.wopr_script -p file0:../nyt.3e7.1000000,lc0:3,id:PDT3_40440,timbl0:-a1 +D,dl:6,test:nyt.tail1000,file1:../nyt.3e7.10000000,timbl1:-a1 +D,lc1:2,n:3,ds:111,mo:1,lm:1
/exp/pberck/wopr/wopr -s do_pdt2.wopr_script -p file0:../nyt.3e7.1000000,lc0:3,id:PDT3_40441,timbl0:-a1 +D,dl:6,test:nyt.tail1000,file1:../nyt.3e7.10000000,timbl1:-a1 +D,lc1:2,n:4,ds:1111,mo:1,lm:1
/exp/pberck/wopr/wopr -s do_pdt2.wopr_script -p file0:../nyt.3e7.1000000,lc0:3,id:PDT3_40442,timbl0:-a1 +D,dl:6,test:nyt.tail1000,file1:../nyt.3e7.10000000,timbl1:-a1 +D,lc1:2,n:5,ds:11111,mo:1,lm:1
/exp/pberck/wopr/wopr -s do_pdt2.wopr_script -p file0:../nyt.3e7.1000000,lc0:3,id:PDT3_40443,timbl0:-a1 +D,dl:6,test:nyt.tail1000,file1:../nyt.3e7.10000000,timbl1:-a1 +D,lc1:2,n:6,ds:111111,mo:1,lm:1
/exp/pberck/wopr/wopr -s do_pdt2.wopr_script -p file0:../nyt.3e7.1000000,lc0:4,id:PDT3_40444,timbl0:-a1 +D,dl:6,test:nyt.tail1000,file1:../nyt.3e7.10000000,timbl1:-a1 +D,lc1:2,n:1,ds:1,mo:1,lm:1
/exp/pberck/wopr/wopr -s do_pdt2.wopr_script -p file0:../nyt.3e7.1000000,lc0:4,id:PDT3_40445,timbl0:-a1 +D,dl:6,test:nyt.tail1000,file1:../nyt.3e7.10000000,timbl1:-a1 +D,lc1:2,n:2,ds:11,mo:1,lm:1
/exp/pberck/wopr/wopr -s do_pdt2.wopr_script -p file0:../nyt.3e7.1000000,lc0:4,id:PDT3_40446,timbl0:-a1 +D,dl:6,test:nyt.tail1000,file1:../nyt.3e7.10000000,timbl1:-a1 +D,lc1:2,n:3,ds:111,mo:1,lm:1
/exp/pberck/wopr/wopr -s do_pdt2.wopr_script -p file0:../nyt.3e7.1000000,lc0:4,id:PDT3_40447,timbl0:-a1 +D,dl:6,test:nyt.tail1000,file1:../nyt.3e7.10000000,timbl1:-a1 +D,lc1:2,n:4,ds:1111,mo:1,lm:1
/exp/pberck/wopr/wopr -s do_pdt2.wopr_script -p file0:../nyt.3e7.1000000,lc0:4,id:PDT3_40448,timbl0:-a1 +D,dl:6,test:nyt.tail1000,file1:../nyt.3e7.10000000,timbl1:-a1 +D,lc1:2,n:5,ds:11111,mo:1,lm:1
/exp/pberck/wopr/wopr -s do_pdt2.wopr_script -p file0:../nyt.3e7.1000000,lc0:4,id:PDT3_40449,timbl0:-a1 +D,dl:6,test:nyt.tail1000,file1:../nyt.3e7.10000000,timbl1:-a1 +D,lc1:2,n:6,ds:111111,mo:1,lm:1
/exp/pberck/wopr/wopr -s do_pdt2.wopr_script -p file0:../nyt.3e7.1000000,lc0:5,id:PDT3_40450,timbl0:-a1 +D,dl:6,test:nyt.tail1000,file1:../nyt.3e7.10000000,timbl1:-a1 +D,lc1:2,n:1,ds:1,mo:1,lm:1
/exp/pberck/wopr/wopr -s do_pdt2.wopr_script -p file0:../nyt.3e7.1000000,lc0:5,id:PDT3_40451,timbl0:-a1 +D,dl:6,test:nyt.tail1000,file1:../nyt.3e7.10000000,timbl1:-a1 +D,lc1:2,n:2,ds:11,mo:1,lm:1
/exp/pberck/wopr/wopr -s do_pdt2.wopr_script -p file0:../nyt.3e7.1000000,lc0:5,id:PDT3_40452,timbl0:-a1 +D,dl:6,test:nyt.tail1000,file1:../nyt.3e7.10000000,timbl1:-a1 +D,lc1:2,n:3,ds:111,mo:1,lm:1
/exp/pberck/wopr/wopr -s do_pdt2.wopr_script -p file0:../nyt.3e7.1000000,lc0:5,id:PDT3_40453,timbl0:-a1 +D,dl:6,test:nyt.tail1000,file1:../nyt.3e7.10000000,timbl1:-a1 +D,lc1:2,n:4,ds:1111,mo:1,lm:1
/exp/pberck/wopr/wopr -s do_pdt2.wopr_script -p file0:../nyt.3e7.1000000,lc0:5,id:PDT3_40454,timbl0:-a1 +D,dl:6,test:nyt.tail1000,file1:../nyt.3e7.10000000,timbl1:-a1 +D,lc1:2,n:5,ds:11111,mo:1,lm:1
/exp/pberck/wopr/wopr -s do_pdt2.wopr_script -p file0:../nyt.3e7.1000000,lc0:5,id:PDT3_40455,timbl0:-a1 +D,dl:6,test:nyt.tail1000,file1:../nyt.3e7.10000000,timbl1:-a1 +D,lc1:2,n:6,ds:111111,mo:1,lm:1
/exp/pberck/wopr/wopr -s do_pdt2.wopr_script -p file0:../nyt.3e7.1000000,lc0:6,id:PDT3_40456,timbl0:-a1 +D,dl:6,test:nyt.tail1000,file1:../nyt.3e7.10000000,timbl1:-a1 +D,lc1:2,n:1,ds:1,mo:1,lm:1
/exp/pberck/wopr/wopr -s do_pdt2.wopr_script -p file0:../nyt.3e7.1000000,lc0:6,id:PDT3_40457,timbl0:-a1 +D,dl:6,test:nyt.tail1000,file1:../nyt.3e7.10000000,timbl1:-a1 +D,lc1:2,n:2,ds:11,mo:1,lm:1
/exp/pberck/wopr/wopr -s do_pdt2.wopr_script -p file0:../nyt.3e7.1000000,lc0:6,id:PDT3_40458,timbl0:-a1 +D,dl:6,test:nyt.tail1000,file1:../nyt.3e7.10000000,timbl1:-a1 +D,lc1:2,n:3,ds:111,mo:1,lm:1
/exp/pberck/wopr/wopr -s do_pdt2.wopr_script -p file0:../nyt.3e7.1000000,lc0:6,id:PDT3_40459,timbl0:-a1 +D,dl:6,test:nyt.tail1000,file1:../nyt.3e7.10000000,timbl1:-a1 +D,lc1:2,n:4,ds:1111,mo:1,lm:1
/exp/pberck/wopr/wopr -s do_pdt2.wopr_script -p file0:../nyt.3e7.1000000,lc0:6,id:PDT3_40460,timbl0:-a1 +D,dl:6,test:nyt.tail1000,file1:../nyt.3e7.10000000,timbl1:-a1 +D,lc1:2,n:5,ds:11111,mo:1,lm:1
/exp/pberck/wopr/wopr -s do_pdt2.wopr_script -p file0:../nyt.3e7.1000000,lc0:6,id:PDT3_40461,timbl0:-a1 +D,dl:6,test:nyt.tail1000,file1:../nyt.3e7.10000000,timbl1:-a1 +D,lc1:2,n:6,ds:111111,mo:1,lm:1
/exp/pberck/wopr/wopr -s do_pdt2.wopr_script -p file0:../nyt.3e7.1000000,lc0:8,id:PDT3_40462,timbl0:-a1 +D,dl:6,test:nyt.tail1000,file1:../nyt.3e7.10000000,timbl1:-a1 +D,lc1:2,n:1,ds:1,mo:1,lm:1
/exp/pberck/wopr/wopr -s do_pdt2.wopr_script -p file0:../nyt.3e7.1000000,lc0:8,id:PDT3_40463,timbl0:-a1 +D,dl:6,test:nyt.tail1000,file1:../nyt.3e7.10000000,timbl1:-a1 +D,lc1:2,n:2,ds:11,mo:1,lm:1
/exp/pberck/wopr/wopr -s do_pdt2.wopr_script -p file0:../nyt.3e7.1000000,lc0:8,id:PDT3_40464,timbl0:-a1 +D,dl:6,test:nyt.tail1000,file1:../nyt.3e7.10000000,timbl1:-a1 +D,lc1:2,n:3,ds:111,mo:1,lm:1
/exp/pberck/wopr/wopr -s do_pdt2.wopr_script -p file0:../nyt.3e7.1000000,lc0:8,id:PDT3_40465,timbl0:-a1 +D,dl:6,test:nyt.tail1000,file1:../nyt.3e7.10000000,timbl1:-a1 +D,lc1:2,n:4,ds:1111,mo:1,lm:1
/exp/pberck/wopr/wopr -s do_pdt2.wopr_script -p file0:../nyt.3e7.1000000,lc0:8,id:PDT3_40466,timbl0:-a1 +D,dl:6,test:nyt.tail1000,file1:../nyt.3e7.10000000,timbl1:-a1 +D,lc1:2,n:5,ds:11111,mo:1,lm:1
/exp/pberck/wopr/wopr -s do_pdt2.wopr_script -p file0:../nyt.3e7.1000000,lc0:8,id:PDT3_40467,timbl0:-a1 +D,dl:6,test:nyt.tail1000,file1:../nyt.3e7.10000000,timbl1:-a1 +D,lc1:2,n:6,ds:111111,mo:1,lm:1
/exp/pberck/wopr/wopr -s do_pdt2.wopr_script -p file0:../nyt.3e7.1000000,lc0:10,id:PDT3_40468,timbl0:-a1 +D,dl:6,test:nyt.tail1000,file1:../nyt.3e7.10000000,timbl1:-a1 +D,lc1:2,n:1,ds:1,mo:1,lm:1
/exp/pberck/wopr/wopr -s do_pdt2.wopr_script -p file0:../nyt.3e7.1000000,lc0:10,id:PDT3_40469,timbl0:-a1 +D,dl:6,test:nyt.tail1000,file1:../nyt.3e7.10000000,timbl1:-a1 +D,lc1:2,n:2,ds:11,mo:1,lm:1
/exp/pberck/wopr/wopr -s do_pdt2.wopr_script -p file0:../nyt.3e7.1000000,lc0:10,id:PDT3_40470,timbl0:-a1 +D,dl:6,test:nyt.tail1000,file1:../nyt.3e7.10000000,timbl1:-a1 +D,lc1:2,n:3,ds:111,mo:1,lm:1
/exp/pberck/wopr/wopr -s do_pdt2.wopr_script -p file0:../nyt.3e7.1000000,lc0:10,id:PDT3_40471,timbl0:-a1 +D,dl:6,test:nyt.tail1000,file1:../nyt.3e7.10000000,timbl1:-a1 +D,lc1:2,n:4,ds:1111,mo:1,lm:1
/exp/pberck/wopr/wopr -s do_pdt2.wopr_script -p file0:../nyt.3e7.1000000,lc0:10,id:PDT3_40472,timbl0:-a1 +D,dl:6,test:nyt.tail1000,file1:../nyt.3e7.10000000,timbl1:-a1 +D,lc1:2,n:5,ds:11111,mo:1,lm:1
/exp/pberck/wopr/wopr -s do_pdt2.wopr_script -p file0:../nyt.3e7.1000000,lc0:10,id:PDT3_40473,timbl0:-a1 +D,dl:6,test:nyt.tail1000,file1:../nyt.3e7.10000000,timbl1:-a1 +D,lc1:2,n:6,ds:111111,mo:1,lm:1
/exp/pberck/wopr/wopr -s do_pdt2.wopr_script -p file0:../nyt.3e7.1000000,lc0:12,id:PDT3_40474,timbl0:-a1 +D,dl:6,test:nyt.tail1000,file1:../nyt.3e7.10000000,timbl1:-a1 +D,lc1:2,n:1,ds:1,mo:1,lm:1
/exp/pberck/wopr/wopr -s do_pdt2.wopr_script -p file0:../nyt.3e7.1000000,lc0:12,id:PDT3_40475,timbl0:-a1 +D,dl:6,test:nyt.tail1000,file1:../nyt.3e7.10000000,timbl1:-a1 +D,lc1:2,n:2,ds:11,mo:1,lm:1
/exp/pberck/wopr/wopr -s do_pdt2.wopr_script -p file0:../nyt.3e7.1000000,lc0:12,id:PDT3_40476,timbl0:-a1 +D,dl:6,test:nyt.tail1000,file1:../nyt.3e7.10000000,timbl1:-a1 +D,lc1:2,n:3,ds:111,mo:1,lm:1
/exp/pberck/wopr/wopr -s do_pdt2.wopr_script -p file0:../nyt.3e7.1000000,lc0:12,id:PDT3_40477,timbl0:-a1 +D,dl:6,test:nyt.tail1000,file1:../nyt.3e7.10000000,timbl1:-a1 +D,lc1:2,n:4,ds:1111,mo:1,lm:1
/exp/pberck/wopr/wopr -s do_pdt2.wopr_script -p file0:../nyt.3e7.1000000,lc0:12,id:PDT3_40478,timbl0:-a1 +D,dl:6,test:nyt.tail1000,file1:../nyt.3e7.10000000,timbl1:-a1 +D,lc1:2,n:5,ds:11111,mo:1,lm:1
/exp/pberck/wopr/wopr -s do_pdt2.wopr_script -p file0:../nyt.3e7.1000000,lc0:12,id:PDT3_40479,timbl0:-a1 +D,dl:6,test:nyt.tail1000,file1:../nyt.3e7.10000000,timbl1:-a1 +D,lc1:2,n:6,ds:111111,mo:1,lm:1
/exp/pberck/wopr/wopr -s do_pdt2.wopr_script -p file0:../nyt.3e7.1000000,lc0:16,id:PDT3_40480,timbl0:-a1 +D,dl:6,test:nyt.tail1000,file1:../nyt.3e7.10000000,timbl1:-a1 +D,lc1:2,n:1,ds:1,mo:1,lm:1
/exp/pberck/wopr/wopr -s do_pdt2.wopr_script -p file0:../nyt.3e7.1000000,lc0:16,id:PDT3_40481,timbl0:-a1 +D,dl:6,test:nyt.tail1000,file1:../nyt.3e7.10000000,timbl1:-a1 +D,lc1:2,n:2,ds:11,mo:1,lm:1
/exp/pberck/wopr/wopr -s do_pdt2.wopr_script -p file0:../nyt.3e7.1000000,lc0:16,id:PDT3_40482,timbl0:-a1 +D,dl:6,test:nyt.tail1000,file1:../nyt.3e7.10000000,timbl1:-a1 +D,lc1:2,n:3,ds:111,mo:1,lm:1
/exp/pberck/wopr/wopr -s do_pdt2.wopr_script -p file0:../nyt.3e7.1000000,lc0:16,id:PDT3_40483,timbl0:-a1 +D,dl:6,test:nyt.tail1000,file1:../nyt.3e7.10000000,timbl1:-a1 +D,lc1:2,n:4,ds:1111,mo:1,lm:1
/exp/pberck/wopr/wopr -s do_pdt2.wopr_script -p file0:../nyt.3e7.1000000,lc0:16,id:PDT3_40484,timbl0:-a1 +D,dl:6,test:nyt.tail1000,file1:../nyt.3e7.10000000,timbl1:-a1 +D,lc1:2,n:5,ds:11111,mo:1,lm:1
/exp/pberck/wopr/wopr -s do_pdt2.wopr_script -p file0:../nyt.3e7.1000000,lc0:16,id:PDT3_40485,timbl0:-a1 +D,dl:6,test:nyt.tail1000,file1:../nyt.3e7.10000000,timbl1:-a1 +D,lc1:2,n:6,ds:111111,mo:1,lm:1
