#2012-01-06 11:35:39
/exp/pberck/wopr/wopr -s do_pdt2.wopr_script -p file0:../nyt.3e7.100,lc0:4,id:PDTT80000,timbl0:-a1 +D,dl:3,test:nyt.tail1000,file1:../nyt.3e7.100,timbl1:-a1 +D,lc1:2,n:3,ds:511,mo:1
/exp/pberck/wopr/wopr -s do_pdt2.wopr_script -p file0:../nyt.3e7.100,lc0:8,id:PDTT80001,timbl0:-a1 +D,dl:3,test:nyt.tail1000,file1:../nyt.3e7.100,timbl1:-a1 +D,lc1:2,n:3,ds:511,mo:1
/exp/pberck/wopr/wopr -s do_pdt2.wopr_script -p file0:../nyt.3e7.100,lc0:12,id:PDTT80002,timbl0:-a1 +D,dl:3,test:nyt.tail1000,file1:../nyt.3e7.100,timbl1:-a1 +D,lc1:2,n:3,ds:511,mo:1
/exp/pberck/wopr/wopr -s do_pdt2.wopr_script -p file0:../nyt.3e7.100,lc0:16,id:PDTT80003,timbl0:-a1 +D,dl:3,test:nyt.tail1000,file1:../nyt.3e7.100,timbl1:-a1 +D,lc1:2,n:3,ds:511,mo:1
/exp/pberck/wopr/wopr -s do_pdt2.wopr_script -p file0:../nyt.3e7.500,lc0:4,id:PDTT80004,timbl0:-a1 +D,dl:3,test:nyt.tail1000,file1:../nyt.3e7.500,timbl1:-a1 +D,lc1:2,n:3,ds:511,mo:1
/exp/pberck/wopr/wopr -s do_pdt2.wopr_script -p file0:../nyt.3e7.500,lc0:8,id:PDTT80005,timbl0:-a1 +D,dl:3,test:nyt.tail1000,file1:../nyt.3e7.500,timbl1:-a1 +D,lc1:2,n:3,ds:511,mo:1
/exp/pberck/wopr/wopr -s do_pdt2.wopr_script -p file0:../nyt.3e7.500,lc0:12,id:PDTT80006,timbl0:-a1 +D,dl:3,test:nyt.tail1000,file1:../nyt.3e7.500,timbl1:-a1 +D,lc1:2,n:3,ds:511,mo:1
/exp/pberck/wopr/wopr -s do_pdt2.wopr_script -p file0:../nyt.3e7.500,lc0:16,id:PDTT80007,timbl0:-a1 +D,dl:3,test:nyt.tail1000,file1:../nyt.3e7.500,timbl1:-a1 +D,lc1:2,n:3,ds:511,mo:1
/exp/pberck/wopr/wopr -s do_pdt2.wopr_script -p file0:../nyt.3e7.1000,lc0:4,id:PDTT80008,timbl0:-a1 +D,dl:3,test:nyt.tail1000,file1:../nyt.3e7.1000,timbl1:-a1 +D,lc1:2,n:3,ds:511,mo:1
/exp/pberck/wopr/wopr -s do_pdt2.wopr_script -p file0:../nyt.3e7.1000,lc0:8,id:PDTT80009,timbl0:-a1 +D,dl:3,test:nyt.tail1000,file1:../nyt.3e7.1000,timbl1:-a1 +D,lc1:2,n:3,ds:511,mo:1
/exp/pberck/wopr/wopr -s do_pdt2.wopr_script -p file0:../nyt.3e7.1000,lc0:12,id:PDTT80010,timbl0:-a1 +D,dl:3,test:nyt.tail1000,file1:../nyt.3e7.1000,timbl1:-a1 +D,lc1:2,n:3,ds:511,mo:1
/exp/pberck/wopr/wopr -s do_pdt2.wopr_script -p file0:../nyt.3e7.1000,lc0:16,id:PDTT80011,timbl0:-a1 +D,dl:3,test:nyt.tail1000,file1:../nyt.3e7.1000,timbl1:-a1 +D,lc1:2,n:3,ds:511,mo:1
/exp/pberck/wopr/wopr -s do_pdt2.wopr_script -p file0:../nyt.3e7.5000,lc0:4,id:PDTT80012,timbl0:-a1 +D,dl:3,test:nyt.tail1000,file1:../nyt.3e7.5000,timbl1:-a1 +D,lc1:2,n:3,ds:511,mo:1
/exp/pberck/wopr/wopr -s do_pdt2.wopr_script -p file0:../nyt.3e7.5000,lc0:8,id:PDTT80013,timbl0:-a1 +D,dl:3,test:nyt.tail1000,file1:../nyt.3e7.5000,timbl1:-a1 +D,lc1:2,n:3,ds:511,mo:1
/exp/pberck/wopr/wopr -s do_pdt2.wopr_script -p file0:../nyt.3e7.5000,lc0:12,id:PDTT80014,timbl0:-a1 +D,dl:3,test:nyt.tail1000,file1:../nyt.3e7.5000,timbl1:-a1 +D,lc1:2,n:3,ds:511,mo:1
/exp/pberck/wopr/wopr -s do_pdt2.wopr_script -p file0:../nyt.3e7.5000,lc0:16,id:PDTT80015,timbl0:-a1 +D,dl:3,test:nyt.tail1000,file1:../nyt.3e7.5000,timbl1:-a1 +D,lc1:2,n:3,ds:511,mo:1
/exp/pberck/wopr/wopr -s do_pdt2.wopr_script -p file0:../nyt.3e7.10000,lc0:4,id:PDTT80016,timbl0:-a1 +D,dl:3,test:nyt.tail1000,file1:../nyt.3e7.10000,timbl1:-a1 +D,lc1:2,n:3,ds:511,mo:1
/exp/pberck/wopr/wopr -s do_pdt2.wopr_script -p file0:../nyt.3e7.10000,lc0:8,id:PDTT80017,timbl0:-a1 +D,dl:3,test:nyt.tail1000,file1:../nyt.3e7.10000,timbl1:-a1 +D,lc1:2,n:3,ds:511,mo:1
/exp/pberck/wopr/wopr -s do_pdt2.wopr_script -p file0:../nyt.3e7.10000,lc0:12,id:PDTT80018,timbl0:-a1 +D,dl:3,test:nyt.tail1000,file1:../nyt.3e7.10000,timbl1:-a1 +D,lc1:2,n:3,ds:511,mo:1
/exp/pberck/wopr/wopr -s do_pdt2.wopr_script -p file0:../nyt.3e7.10000,lc0:16,id:PDTT80019,timbl0:-a1 +D,dl:3,test:nyt.tail1000,file1:../nyt.3e7.10000,timbl1:-a1 +D,lc1:2,n:3,ds:511,mo:1
/exp/pberck/wopr/wopr -s do_pdt2.wopr_script -p file0:../nyt.3e7.50000,lc0:4,id:PDTT80020,timbl0:-a1 +D,dl:3,test:nyt.tail1000,file1:../nyt.3e7.50000,timbl1:-a1 +D,lc1:2,n:3,ds:511,mo:1
/exp/pberck/wopr/wopr -s do_pdt2.wopr_script -p file0:../nyt.3e7.50000,lc0:8,id:PDTT80021,timbl0:-a1 +D,dl:3,test:nyt.tail1000,file1:../nyt.3e7.50000,timbl1:-a1 +D,lc1:2,n:3,ds:511,mo:1
/exp/pberck/wopr/wopr -s do_pdt2.wopr_script -p file0:../nyt.3e7.50000,lc0:12,id:PDTT80022,timbl0:-a1 +D,dl:3,test:nyt.tail1000,file1:../nyt.3e7.50000,timbl1:-a1 +D,lc1:2,n:3,ds:511,mo:1
/exp/pberck/wopr/wopr -s do_pdt2.wopr_script -p file0:../nyt.3e7.50000,lc0:16,id:PDTT80023,timbl0:-a1 +D,dl:3,test:nyt.tail1000,file1:../nyt.3e7.50000,timbl1:-a1 +D,lc1:2,n:3,ds:511,mo:1
/exp/pberck/wopr/wopr -s do_pdt2.wopr_script -p file0:../nyt.3e7.100000,lc0:4,id:PDTT80024,timbl0:-a1 +D,dl:3,test:nyt.tail1000,file1:../nyt.3e7.100000,timbl1:-a1 +D,lc1:2,n:3,ds:511,mo:1
/exp/pberck/wopr/wopr -s do_pdt2.wopr_script -p file0:../nyt.3e7.100000,lc0:8,id:PDTT80025,timbl0:-a1 +D,dl:3,test:nyt.tail1000,file1:../nyt.3e7.100000,timbl1:-a1 +D,lc1:2,n:3,ds:511,mo:1
/exp/pberck/wopr/wopr -s do_pdt2.wopr_script -p file0:../nyt.3e7.100000,lc0:12,id:PDTT80026,timbl0:-a1 +D,dl:3,test:nyt.tail1000,file1:../nyt.3e7.100000,timbl1:-a1 +D,lc1:2,n:3,ds:511,mo:1
/exp/pberck/wopr/wopr -s do_pdt2.wopr_script -p file0:../nyt.3e7.100000,lc0:16,id:PDTT80027,timbl0:-a1 +D,dl:3,test:nyt.tail1000,file1:../nyt.3e7.100000,timbl1:-a1 +D,lc1:2,n:3,ds:511,mo:1
/exp/pberck/wopr/wopr -s do_pdt2.wopr_script -p file0:../nyt.3e7.500000,lc0:4,id:PDTT80028,timbl0:-a1 +D,dl:3,test:nyt.tail1000,file1:../nyt.3e7.500000,timbl1:-a1 +D,lc1:2,n:3,ds:511,mo:1
/exp/pberck/wopr/wopr -s do_pdt2.wopr_script -p file0:../nyt.3e7.500000,lc0:8,id:PDTT80029,timbl0:-a1 +D,dl:3,test:nyt.tail1000,file1:../nyt.3e7.500000,timbl1:-a1 +D,lc1:2,n:3,ds:511,mo:1
/exp/pberck/wopr/wopr -s do_pdt2.wopr_script -p file0:../nyt.3e7.500000,lc0:12,id:PDTT80030,timbl0:-a1 +D,dl:3,test:nyt.tail1000,file1:../nyt.3e7.500000,timbl1:-a1 +D,lc1:2,n:3,ds:511,mo:1
/exp/pberck/wopr/wopr -s do_pdt2.wopr_script -p file0:../nyt.3e7.500000,lc0:16,id:PDTT80031,timbl0:-a1 +D,dl:3,test:nyt.tail1000,file1:../nyt.3e7.500000,timbl1:-a1 +D,lc1:2,n:3,ds:511,mo:1
/exp/pberck/wopr/wopr -s do_pdt2.wopr_script -p file0:../nyt.3e7.1000000,lc0:4,id:PDTT80032,timbl0:-a1 +D,dl:3,test:nyt.tail1000,file1:../nyt.3e7.1000000,timbl1:-a1 +D,lc1:2,n:3,ds:511,mo:1
/exp/pberck/wopr/wopr -s do_pdt2.wopr_script -p file0:../nyt.3e7.1000000,lc0:8,id:PDTT80033,timbl0:-a1 +D,dl:3,test:nyt.tail1000,file1:../nyt.3e7.1000000,timbl1:-a1 +D,lc1:2,n:3,ds:511,mo:1
/exp/pberck/wopr/wopr -s do_pdt2.wopr_script -p file0:../nyt.3e7.1000000,lc0:12,id:PDTT80034,timbl0:-a1 +D,dl:3,test:nyt.tail1000,file1:../nyt.3e7.1000000,timbl1:-a1 +D,lc1:2,n:3,ds:511,mo:1
/exp/pberck/wopr/wopr -s do_pdt2.wopr_script -p file0:../nyt.3e7.1000000,lc0:16,id:PDTT80035,timbl0:-a1 +D,dl:3,test:nyt.tail1000,file1:../nyt.3e7.1000000,timbl1:-a1 +D,lc1:2,n:3,ds:511,mo:1
/exp/pberck/wopr/wopr -s do_pdt2.wopr_script -p file0:../nyt.3e7.5000000,lc0:4,id:PDTT80036,timbl0:-a1 +D,dl:3,test:nyt.tail1000,file1:../nyt.3e7.5000000,timbl1:-a1 +D,lc1:2,n:3,ds:511,mo:1
/exp/pberck/wopr/wopr -s do_pdt2.wopr_script -p file0:../nyt.3e7.5000000,lc0:8,id:PDTT80037,timbl0:-a1 +D,dl:3,test:nyt.tail1000,file1:../nyt.3e7.5000000,timbl1:-a1 +D,lc1:2,n:3,ds:511,mo:1
/exp/pberck/wopr/wopr -s do_pdt2.wopr_script -p file0:../nyt.3e7.5000000,lc0:12,id:PDTT80038,timbl0:-a1 +D,dl:3,test:nyt.tail1000,file1:../nyt.3e7.5000000,timbl1:-a1 +D,lc1:2,n:3,ds:511,mo:1
#2012-01-11 08:51:02
/exp/pberck/wopr/wopr -s do_pdt2.wopr_script -p file0:../nyt.3e7.5000000,lc0:12,id:PDTT80038,timbl0:-a1 +D,dl:3,test:nyt.tail1000,file1:../nyt.3e7.5000000,timbl1:-a1 +D,lc1:2,n:3,ds:511,mo:1
