#2012-03-27 15:10:39
/exp/pberck/wopr/wopr -s do_pdt2.wopr_script -p file0:../nyt.3e7.1000,lc0:2,id:PDT3_50000,timbl0:-a1 +D,dl:5,test:nyt.tail1000,file1:../nyt.3e7.1000,timbl1:-a1 +D,lc1:2,n:1,ds:5,mo:1,lm:1
/exp/pberck/wopr/wopr -s do_pdt2.wopr_script -p file0:../nyt.3e7.1000,lc0:2,id:PDT3_50001,timbl0:-a1 +D,dl:5,test:nyt.tail1000,file1:../nyt.3e7.1000,timbl1:-a1 +D,lc1:2,n:2,ds:51,mo:1,lm:1
/exp/pberck/wopr/wopr -s do_pdt2.wopr_script -p file0:../nyt.3e7.1000,lc0:2,id:PDT3_50002,timbl0:-a1 +D,dl:5,test:nyt.tail1000,file1:../nyt.3e7.1000,timbl1:-a1 +D,lc1:2,n:4,ds:5111,mo:1,lm:1
/exp/pberck/wopr/wopr -s do_pdt2.wopr_script -p file0:../nyt.3e7.1000,lc0:2,id:PDT3_50003,timbl0:-a1 +D,dl:5,test:nyt.tail1000,file1:../nyt.3e7.1000,timbl1:-a1 +D,lc1:2,n:5,ds:51111,mo:1,lm:1
/exp/pberck/wopr/wopr -s do_pdt2.wopr_script -p file0:../nyt.3e7.1000,lc0:2,id:PDT3_50004,timbl0:-a1 +D,dl:5,test:nyt.tail1000,file1:../nyt.3e7.1000,timbl1:-a1 +D,lc1:2,n:6,ds:511111,mo:1,lm:1
/exp/pberck/wopr/wopr -s do_pdt2.wopr_script -p file0:../nyt.3e7.1000,lc0:3,id:PDT3_50005,timbl0:-a1 +D,dl:5,test:nyt.tail1000,file1:../nyt.3e7.1000,timbl1:-a1 +D,lc1:2,n:1,ds:5,mo:1,lm:1
/exp/pberck/wopr/wopr -s do_pdt2.wopr_script -p file0:../nyt.3e7.1000,lc0:3,id:PDT3_50006,timbl0:-a1 +D,dl:5,test:nyt.tail1000,file1:../nyt.3e7.1000,timbl1:-a1 +D,lc1:2,n:2,ds:51,mo:1,lm:1
/exp/pberck/wopr/wopr -s do_pdt2.wopr_script -p file0:../nyt.3e7.1000,lc0:3,id:PDT3_50007,timbl0:-a1 +D,dl:5,test:nyt.tail1000,file1:../nyt.3e7.1000,timbl1:-a1 +D,lc1:2,n:4,ds:5111,mo:1,lm:1
/exp/pberck/wopr/wopr -s do_pdt2.wopr_script -p file0:../nyt.3e7.1000,lc0:3,id:PDT3_50008,timbl0:-a1 +D,dl:5,test:nyt.tail1000,file1:../nyt.3e7.1000,timbl1:-a1 +D,lc1:2,n:5,ds:51111,mo:1,lm:1
/exp/pberck/wopr/wopr -s do_pdt2.wopr_script -p file0:../nyt.3e7.1000,lc0:3,id:PDT3_50009,timbl0:-a1 +D,dl:5,test:nyt.tail1000,file1:../nyt.3e7.1000,timbl1:-a1 +D,lc1:2,n:6,ds:511111,mo:1,lm:1
/exp/pberck/wopr/wopr -s do_pdt2.wopr_script -p file0:../nyt.3e7.1000,lc0:4,id:PDT3_50010,timbl0:-a1 +D,dl:5,test:nyt.tail1000,file1:../nyt.3e7.1000,timbl1:-a1 +D,lc1:2,n:1,ds:5,mo:1,lm:1
/exp/pberck/wopr/wopr -s do_pdt2.wopr_script -p file0:../nyt.3e7.1000,lc0:4,id:PDT3_50011,timbl0:-a1 +D,dl:5,test:nyt.tail1000,file1:../nyt.3e7.1000,timbl1:-a1 +D,lc1:2,n:2,ds:51,mo:1,lm:1
/exp/pberck/wopr/wopr -s do_pdt2.wopr_script -p file0:../nyt.3e7.1000,lc0:4,id:PDT3_50012,timbl0:-a1 +D,dl:5,test:nyt.tail1000,file1:../nyt.3e7.1000,timbl1:-a1 +D,lc1:2,n:4,ds:5111,mo:1,lm:1
/exp/pberck/wopr/wopr -s do_pdt2.wopr_script -p file0:../nyt.3e7.1000,lc0:4,id:PDT3_50013,timbl0:-a1 +D,dl:5,test:nyt.tail1000,file1:../nyt.3e7.1000,timbl1:-a1 +D,lc1:2,n:5,ds:51111,mo:1,lm:1
/exp/pberck/wopr/wopr -s do_pdt2.wopr_script -p file0:../nyt.3e7.1000,lc0:4,id:PDT3_50014,timbl0:-a1 +D,dl:5,test:nyt.tail1000,file1:../nyt.3e7.1000,timbl1:-a1 +D,lc1:2,n:6,ds:511111,mo:1,lm:1
/exp/pberck/wopr/wopr -s do_pdt2.wopr_script -p file0:../nyt.3e7.1000,lc0:5,id:PDT3_50015,timbl0:-a1 +D,dl:5,test:nyt.tail1000,file1:../nyt.3e7.1000,timbl1:-a1 +D,lc1:2,n:1,ds:5,mo:1,lm:1
/exp/pberck/wopr/wopr -s do_pdt2.wopr_script -p file0:../nyt.3e7.1000,lc0:5,id:PDT3_50016,timbl0:-a1 +D,dl:5,test:nyt.tail1000,file1:../nyt.3e7.1000,timbl1:-a1 +D,lc1:2,n:2,ds:51,mo:1,lm:1
/exp/pberck/wopr/wopr -s do_pdt2.wopr_script -p file0:../nyt.3e7.1000,lc0:5,id:PDT3_50017,timbl0:-a1 +D,dl:5,test:nyt.tail1000,file1:../nyt.3e7.1000,timbl1:-a1 +D,lc1:2,n:4,ds:5111,mo:1,lm:1
/exp/pberck/wopr/wopr -s do_pdt2.wopr_script -p file0:../nyt.3e7.1000,lc0:5,id:PDT3_50018,timbl0:-a1 +D,dl:5,test:nyt.tail1000,file1:../nyt.3e7.1000,timbl1:-a1 +D,lc1:2,n:5,ds:51111,mo:1,lm:1
/exp/pberck/wopr/wopr -s do_pdt2.wopr_script -p file0:../nyt.3e7.1000,lc0:5,id:PDT3_50019,timbl0:-a1 +D,dl:5,test:nyt.tail1000,file1:../nyt.3e7.1000,timbl1:-a1 +D,lc1:2,n:6,ds:511111,mo:1,lm:1
/exp/pberck/wopr/wopr -s do_pdt2.wopr_script -p file0:../nyt.3e7.1000,lc0:6,id:PDT3_50020,timbl0:-a1 +D,dl:5,test:nyt.tail1000,file1:../nyt.3e7.1000,timbl1:-a1 +D,lc1:2,n:1,ds:5,mo:1,lm:1
/exp/pberck/wopr/wopr -s do_pdt2.wopr_script -p file0:../nyt.3e7.1000,lc0:6,id:PDT3_50021,timbl0:-a1 +D,dl:5,test:nyt.tail1000,file1:../nyt.3e7.1000,timbl1:-a1 +D,lc1:2,n:2,ds:51,mo:1,lm:1
/exp/pberck/wopr/wopr -s do_pdt2.wopr_script -p file0:../nyt.3e7.1000,lc0:6,id:PDT3_50022,timbl0:-a1 +D,dl:5,test:nyt.tail1000,file1:../nyt.3e7.1000,timbl1:-a1 +D,lc1:2,n:4,ds:5111,mo:1,lm:1
/exp/pberck/wopr/wopr -s do_pdt2.wopr_script -p file0:../nyt.3e7.1000,lc0:6,id:PDT3_50023,timbl0:-a1 +D,dl:5,test:nyt.tail1000,file1:../nyt.3e7.1000,timbl1:-a1 +D,lc1:2,n:5,ds:51111,mo:1,lm:1
/exp/pberck/wopr/wopr -s do_pdt2.wopr_script -p file0:../nyt.3e7.1000,lc0:6,id:PDT3_50024,timbl0:-a1 +D,dl:5,test:nyt.tail1000,file1:../nyt.3e7.1000,timbl1:-a1 +D,lc1:2,n:6,ds:511111,mo:1,lm:1
/exp/pberck/wopr/wopr -s do_pdt2.wopr_script -p file0:../nyt.3e7.1000,lc0:8,id:PDT3_50025,timbl0:-a1 +D,dl:5,test:nyt.tail1000,file1:../nyt.3e7.1000,timbl1:-a1 +D,lc1:2,n:1,ds:5,mo:1,lm:1
/exp/pberck/wopr/wopr -s do_pdt2.wopr_script -p file0:../nyt.3e7.1000,lc0:8,id:PDT3_50026,timbl0:-a1 +D,dl:5,test:nyt.tail1000,file1:../nyt.3e7.1000,timbl1:-a1 +D,lc1:2,n:2,ds:51,mo:1,lm:1
/exp/pberck/wopr/wopr -s do_pdt2.wopr_script -p file0:../nyt.3e7.1000,lc0:8,id:PDT3_50027,timbl0:-a1 +D,dl:5,test:nyt.tail1000,file1:../nyt.3e7.1000,timbl1:-a1 +D,lc1:2,n:4,ds:5111,mo:1,lm:1
/exp/pberck/wopr/wopr -s do_pdt2.wopr_script -p file0:../nyt.3e7.1000,lc0:8,id:PDT3_50028,timbl0:-a1 +D,dl:5,test:nyt.tail1000,file1:../nyt.3e7.1000,timbl1:-a1 +D,lc1:2,n:5,ds:51111,mo:1,lm:1
/exp/pberck/wopr/wopr -s do_pdt2.wopr_script -p file0:../nyt.3e7.1000,lc0:8,id:PDT3_50029,timbl0:-a1 +D,dl:5,test:nyt.tail1000,file1:../nyt.3e7.1000,timbl1:-a1 +D,lc1:2,n:6,ds:511111,mo:1,lm:1
/exp/pberck/wopr/wopr -s do_pdt2.wopr_script -p file0:../nyt.3e7.1000,lc0:10,id:PDT3_50030,timbl0:-a1 +D,dl:5,test:nyt.tail1000,file1:../nyt.3e7.1000,timbl1:-a1 +D,lc1:2,n:1,ds:5,mo:1,lm:1
/exp/pberck/wopr/wopr -s do_pdt2.wopr_script -p file0:../nyt.3e7.1000,lc0:10,id:PDT3_50031,timbl0:-a1 +D,dl:5,test:nyt.tail1000,file1:../nyt.3e7.1000,timbl1:-a1 +D,lc1:2,n:2,ds:51,mo:1,lm:1
/exp/pberck/wopr/wopr -s do_pdt2.wopr_script -p file0:../nyt.3e7.1000,lc0:10,id:PDT3_50032,timbl0:-a1 +D,dl:5,test:nyt.tail1000,file1:../nyt.3e7.1000,timbl1:-a1 +D,lc1:2,n:4,ds:5111,mo:1,lm:1
/exp/pberck/wopr/wopr -s do_pdt2.wopr_script -p file0:../nyt.3e7.1000,lc0:10,id:PDT3_50033,timbl0:-a1 +D,dl:5,test:nyt.tail1000,file1:../nyt.3e7.1000,timbl1:-a1 +D,lc1:2,n:5,ds:51111,mo:1,lm:1
/exp/pberck/wopr/wopr -s do_pdt2.wopr_script -p file0:../nyt.3e7.1000,lc0:10,id:PDT3_50034,timbl0:-a1 +D,dl:5,test:nyt.tail1000,file1:../nyt.3e7.1000,timbl1:-a1 +D,lc1:2,n:6,ds:511111,mo:1,lm:1
/exp/pberck/wopr/wopr -s do_pdt2.wopr_script -p file0:../nyt.3e7.1000,lc0:12,id:PDT3_50035,timbl0:-a1 +D,dl:5,test:nyt.tail1000,file1:../nyt.3e7.1000,timbl1:-a1 +D,lc1:2,n:1,ds:5,mo:1,lm:1
/exp/pberck/wopr/wopr -s do_pdt2.wopr_script -p file0:../nyt.3e7.1000,lc0:12,id:PDT3_50036,timbl0:-a1 +D,dl:5,test:nyt.tail1000,file1:../nyt.3e7.1000,timbl1:-a1 +D,lc1:2,n:2,ds:51,mo:1,lm:1
/exp/pberck/wopr/wopr -s do_pdt2.wopr_script -p file0:../nyt.3e7.1000,lc0:12,id:PDT3_50037,timbl0:-a1 +D,dl:5,test:nyt.tail1000,file1:../nyt.3e7.1000,timbl1:-a1 +D,lc1:2,n:4,ds:5111,mo:1,lm:1
/exp/pberck/wopr/wopr -s do_pdt2.wopr_script -p file0:../nyt.3e7.1000,lc0:12,id:PDT3_50038,timbl0:-a1 +D,dl:5,test:nyt.tail1000,file1:../nyt.3e7.1000,timbl1:-a1 +D,lc1:2,n:5,ds:51111,mo:1,lm:1
/exp/pberck/wopr/wopr -s do_pdt2.wopr_script -p file0:../nyt.3e7.1000,lc0:12,id:PDT3_50039,timbl0:-a1 +D,dl:5,test:nyt.tail1000,file1:../nyt.3e7.1000,timbl1:-a1 +D,lc1:2,n:6,ds:511111,mo:1,lm:1
/exp/pberck/wopr/wopr -s do_pdt2.wopr_script -p file0:../nyt.3e7.1000,lc0:16,id:PDT3_50040,timbl0:-a1 +D,dl:5,test:nyt.tail1000,file1:../nyt.3e7.1000,timbl1:-a1 +D,lc1:2,n:1,ds:5,mo:1,lm:1
/exp/pberck/wopr/wopr -s do_pdt2.wopr_script -p file0:../nyt.3e7.1000,lc0:16,id:PDT3_50041,timbl0:-a1 +D,dl:5,test:nyt.tail1000,file1:../nyt.3e7.1000,timbl1:-a1 +D,lc1:2,n:2,ds:51,mo:1,lm:1
/exp/pberck/wopr/wopr -s do_pdt2.wopr_script -p file0:../nyt.3e7.1000,lc0:16,id:PDT3_50042,timbl0:-a1 +D,dl:5,test:nyt.tail1000,file1:../nyt.3e7.1000,timbl1:-a1 +D,lc1:2,n:4,ds:5111,mo:1,lm:1
/exp/pberck/wopr/wopr -s do_pdt2.wopr_script -p file0:../nyt.3e7.1000,lc0:16,id:PDT3_50043,timbl0:-a1 +D,dl:5,test:nyt.tail1000,file1:../nyt.3e7.1000,timbl1:-a1 +D,lc1:2,n:5,ds:51111,mo:1,lm:1
/exp/pberck/wopr/wopr -s do_pdt2.wopr_script -p file0:../nyt.3e7.1000,lc0:16,id:PDT3_50044,timbl0:-a1 +D,dl:5,test:nyt.tail1000,file1:../nyt.3e7.1000,timbl1:-a1 +D,lc1:2,n:6,ds:511111,mo:1,lm:1
/exp/pberck/wopr/wopr -s do_pdt2.wopr_script -p file0:../nyt.3e7.5000,lc0:2,id:PDT3_50045,timbl0:-a1 +D,dl:5,test:nyt.tail1000,file1:../nyt.3e7.5000,timbl1:-a1 +D,lc1:2,n:1,ds:5,mo:1,lm:1
/exp/pberck/wopr/wopr -s do_pdt2.wopr_script -p file0:../nyt.3e7.5000,lc0:2,id:PDT3_50046,timbl0:-a1 +D,dl:5,test:nyt.tail1000,file1:../nyt.3e7.5000,timbl1:-a1 +D,lc1:2,n:2,ds:51,mo:1,lm:1
/exp/pberck/wopr/wopr -s do_pdt2.wopr_script -p file0:../nyt.3e7.5000,lc0:2,id:PDT3_50047,timbl0:-a1 +D,dl:5,test:nyt.tail1000,file1:../nyt.3e7.5000,timbl1:-a1 +D,lc1:2,n:4,ds:5111,mo:1,lm:1
/exp/pberck/wopr/wopr -s do_pdt2.wopr_script -p file0:../nyt.3e7.5000,lc0:2,id:PDT3_50048,timbl0:-a1 +D,dl:5,test:nyt.tail1000,file1:../nyt.3e7.5000,timbl1:-a1 +D,lc1:2,n:5,ds:51111,mo:1,lm:1
/exp/pberck/wopr/wopr -s do_pdt2.wopr_script -p file0:../nyt.3e7.5000,lc0:2,id:PDT3_50049,timbl0:-a1 +D,dl:5,test:nyt.tail1000,file1:../nyt.3e7.5000,timbl1:-a1 +D,lc1:2,n:6,ds:511111,mo:1,lm:1
/exp/pberck/wopr/wopr -s do_pdt2.wopr_script -p file0:../nyt.3e7.5000,lc0:3,id:PDT3_50050,timbl0:-a1 +D,dl:5,test:nyt.tail1000,file1:../nyt.3e7.5000,timbl1:-a1 +D,lc1:2,n:1,ds:5,mo:1,lm:1
/exp/pberck/wopr/wopr -s do_pdt2.wopr_script -p file0:../nyt.3e7.5000,lc0:3,id:PDT3_50051,timbl0:-a1 +D,dl:5,test:nyt.tail1000,file1:../nyt.3e7.5000,timbl1:-a1 +D,lc1:2,n:2,ds:51,mo:1,lm:1
/exp/pberck/wopr/wopr -s do_pdt2.wopr_script -p file0:../nyt.3e7.5000,lc0:3,id:PDT3_50052,timbl0:-a1 +D,dl:5,test:nyt.tail1000,file1:../nyt.3e7.5000,timbl1:-a1 +D,lc1:2,n:4,ds:5111,mo:1,lm:1
/exp/pberck/wopr/wopr -s do_pdt2.wopr_script -p file0:../nyt.3e7.5000,lc0:3,id:PDT3_50053,timbl0:-a1 +D,dl:5,test:nyt.tail1000,file1:../nyt.3e7.5000,timbl1:-a1 +D,lc1:2,n:5,ds:51111,mo:1,lm:1
/exp/pberck/wopr/wopr -s do_pdt2.wopr_script -p file0:../nyt.3e7.5000,lc0:3,id:PDT3_50054,timbl0:-a1 +D,dl:5,test:nyt.tail1000,file1:../nyt.3e7.5000,timbl1:-a1 +D,lc1:2,n:6,ds:511111,mo:1,lm:1
/exp/pberck/wopr/wopr -s do_pdt2.wopr_script -p file0:../nyt.3e7.5000,lc0:4,id:PDT3_50055,timbl0:-a1 +D,dl:5,test:nyt.tail1000,file1:../nyt.3e7.5000,timbl1:-a1 +D,lc1:2,n:1,ds:5,mo:1,lm:1
/exp/pberck/wopr/wopr -s do_pdt2.wopr_script -p file0:../nyt.3e7.5000,lc0:4,id:PDT3_50056,timbl0:-a1 +D,dl:5,test:nyt.tail1000,file1:../nyt.3e7.5000,timbl1:-a1 +D,lc1:2,n:2,ds:51,mo:1,lm:1
/exp/pberck/wopr/wopr -s do_pdt2.wopr_script -p file0:../nyt.3e7.5000,lc0:4,id:PDT3_50057,timbl0:-a1 +D,dl:5,test:nyt.tail1000,file1:../nyt.3e7.5000,timbl1:-a1 +D,lc1:2,n:4,ds:5111,mo:1,lm:1
/exp/pberck/wopr/wopr -s do_pdt2.wopr_script -p file0:../nyt.3e7.5000,lc0:4,id:PDT3_50058,timbl0:-a1 +D,dl:5,test:nyt.tail1000,file1:../nyt.3e7.5000,timbl1:-a1 +D,lc1:2,n:5,ds:51111,mo:1,lm:1
/exp/pberck/wopr/wopr -s do_pdt2.wopr_script -p file0:../nyt.3e7.5000,lc0:4,id:PDT3_50059,timbl0:-a1 +D,dl:5,test:nyt.tail1000,file1:../nyt.3e7.5000,timbl1:-a1 +D,lc1:2,n:6,ds:511111,mo:1,lm:1
/exp/pberck/wopr/wopr -s do_pdt2.wopr_script -p file0:../nyt.3e7.5000,lc0:5,id:PDT3_50060,timbl0:-a1 +D,dl:5,test:nyt.tail1000,file1:../nyt.3e7.5000,timbl1:-a1 +D,lc1:2,n:1,ds:5,mo:1,lm:1
/exp/pberck/wopr/wopr -s do_pdt2.wopr_script -p file0:../nyt.3e7.5000,lc0:5,id:PDT3_50061,timbl0:-a1 +D,dl:5,test:nyt.tail1000,file1:../nyt.3e7.5000,timbl1:-a1 +D,lc1:2,n:2,ds:51,mo:1,lm:1
/exp/pberck/wopr/wopr -s do_pdt2.wopr_script -p file0:../nyt.3e7.5000,lc0:5,id:PDT3_50062,timbl0:-a1 +D,dl:5,test:nyt.tail1000,file1:../nyt.3e7.5000,timbl1:-a1 +D,lc1:2,n:4,ds:5111,mo:1,lm:1
/exp/pberck/wopr/wopr -s do_pdt2.wopr_script -p file0:../nyt.3e7.5000,lc0:5,id:PDT3_50063,timbl0:-a1 +D,dl:5,test:nyt.tail1000,file1:../nyt.3e7.5000,timbl1:-a1 +D,lc1:2,n:5,ds:51111,mo:1,lm:1
/exp/pberck/wopr/wopr -s do_pdt2.wopr_script -p file0:../nyt.3e7.5000,lc0:5,id:PDT3_50064,timbl0:-a1 +D,dl:5,test:nyt.tail1000,file1:../nyt.3e7.5000,timbl1:-a1 +D,lc1:2,n:6,ds:511111,mo:1,lm:1
/exp/pberck/wopr/wopr -s do_pdt2.wopr_script -p file0:../nyt.3e7.5000,lc0:6,id:PDT3_50065,timbl0:-a1 +D,dl:5,test:nyt.tail1000,file1:../nyt.3e7.5000,timbl1:-a1 +D,lc1:2,n:1,ds:5,mo:1,lm:1
/exp/pberck/wopr/wopr -s do_pdt2.wopr_script -p file0:../nyt.3e7.5000,lc0:6,id:PDT3_50066,timbl0:-a1 +D,dl:5,test:nyt.tail1000,file1:../nyt.3e7.5000,timbl1:-a1 +D,lc1:2,n:2,ds:51,mo:1,lm:1
/exp/pberck/wopr/wopr -s do_pdt2.wopr_script -p file0:../nyt.3e7.5000,lc0:6,id:PDT3_50067,timbl0:-a1 +D,dl:5,test:nyt.tail1000,file1:../nyt.3e7.5000,timbl1:-a1 +D,lc1:2,n:4,ds:5111,mo:1,lm:1
/exp/pberck/wopr/wopr -s do_pdt2.wopr_script -p file0:../nyt.3e7.5000,lc0:6,id:PDT3_50068,timbl0:-a1 +D,dl:5,test:nyt.tail1000,file1:../nyt.3e7.5000,timbl1:-a1 +D,lc1:2,n:5,ds:51111,mo:1,lm:1
/exp/pberck/wopr/wopr -s do_pdt2.wopr_script -p file0:../nyt.3e7.5000,lc0:6,id:PDT3_50069,timbl0:-a1 +D,dl:5,test:nyt.tail1000,file1:../nyt.3e7.5000,timbl1:-a1 +D,lc1:2,n:6,ds:511111,mo:1,lm:1
/exp/pberck/wopr/wopr -s do_pdt2.wopr_script -p file0:../nyt.3e7.5000,lc0:8,id:PDT3_50070,timbl0:-a1 +D,dl:5,test:nyt.tail1000,file1:../nyt.3e7.5000,timbl1:-a1 +D,lc1:2,n:1,ds:5,mo:1,lm:1
/exp/pberck/wopr/wopr -s do_pdt2.wopr_script -p file0:../nyt.3e7.5000,lc0:8,id:PDT3_50071,timbl0:-a1 +D,dl:5,test:nyt.tail1000,file1:../nyt.3e7.5000,timbl1:-a1 +D,lc1:2,n:2,ds:51,mo:1,lm:1
/exp/pberck/wopr/wopr -s do_pdt2.wopr_script -p file0:../nyt.3e7.5000,lc0:8,id:PDT3_50072,timbl0:-a1 +D,dl:5,test:nyt.tail1000,file1:../nyt.3e7.5000,timbl1:-a1 +D,lc1:2,n:4,ds:5111,mo:1,lm:1
/exp/pberck/wopr/wopr -s do_pdt2.wopr_script -p file0:../nyt.3e7.5000,lc0:8,id:PDT3_50073,timbl0:-a1 +D,dl:5,test:nyt.tail1000,file1:../nyt.3e7.5000,timbl1:-a1 +D,lc1:2,n:5,ds:51111,mo:1,lm:1
/exp/pberck/wopr/wopr -s do_pdt2.wopr_script -p file0:../nyt.3e7.5000,lc0:8,id:PDT3_50074,timbl0:-a1 +D,dl:5,test:nyt.tail1000,file1:../nyt.3e7.5000,timbl1:-a1 +D,lc1:2,n:6,ds:511111,mo:1,lm:1
/exp/pberck/wopr/wopr -s do_pdt2.wopr_script -p file0:../nyt.3e7.5000,lc0:10,id:PDT3_50075,timbl0:-a1 +D,dl:5,test:nyt.tail1000,file1:../nyt.3e7.5000,timbl1:-a1 +D,lc1:2,n:1,ds:5,mo:1,lm:1
/exp/pberck/wopr/wopr -s do_pdt2.wopr_script -p file0:../nyt.3e7.5000,lc0:10,id:PDT3_50076,timbl0:-a1 +D,dl:5,test:nyt.tail1000,file1:../nyt.3e7.5000,timbl1:-a1 +D,lc1:2,n:2,ds:51,mo:1,lm:1
/exp/pberck/wopr/wopr -s do_pdt2.wopr_script -p file0:../nyt.3e7.5000,lc0:10,id:PDT3_50077,timbl0:-a1 +D,dl:5,test:nyt.tail1000,file1:../nyt.3e7.5000,timbl1:-a1 +D,lc1:2,n:4,ds:5111,mo:1,lm:1
/exp/pberck/wopr/wopr -s do_pdt2.wopr_script -p file0:../nyt.3e7.5000,lc0:10,id:PDT3_50078,timbl0:-a1 +D,dl:5,test:nyt.tail1000,file1:../nyt.3e7.5000,timbl1:-a1 +D,lc1:2,n:5,ds:51111,mo:1,lm:1
/exp/pberck/wopr/wopr -s do_pdt2.wopr_script -p file0:../nyt.3e7.5000,lc0:10,id:PDT3_50079,timbl0:-a1 +D,dl:5,test:nyt.tail1000,file1:../nyt.3e7.5000,timbl1:-a1 +D,lc1:2,n:6,ds:511111,mo:1,lm:1
/exp/pberck/wopr/wopr -s do_pdt2.wopr_script -p file0:../nyt.3e7.5000,lc0:12,id:PDT3_50080,timbl0:-a1 +D,dl:5,test:nyt.tail1000,file1:../nyt.3e7.5000,timbl1:-a1 +D,lc1:2,n:1,ds:5,mo:1,lm:1
/exp/pberck/wopr/wopr -s do_pdt2.wopr_script -p file0:../nyt.3e7.5000,lc0:12,id:PDT3_50081,timbl0:-a1 +D,dl:5,test:nyt.tail1000,file1:../nyt.3e7.5000,timbl1:-a1 +D,lc1:2,n:2,ds:51,mo:1,lm:1
/exp/pberck/wopr/wopr -s do_pdt2.wopr_script -p file0:../nyt.3e7.5000,lc0:12,id:PDT3_50082,timbl0:-a1 +D,dl:5,test:nyt.tail1000,file1:../nyt.3e7.5000,timbl1:-a1 +D,lc1:2,n:4,ds:5111,mo:1,lm:1
/exp/pberck/wopr/wopr -s do_pdt2.wopr_script -p file0:../nyt.3e7.5000,lc0:12,id:PDT3_50083,timbl0:-a1 +D,dl:5,test:nyt.tail1000,file1:../nyt.3e7.5000,timbl1:-a1 +D,lc1:2,n:5,ds:51111,mo:1,lm:1
/exp/pberck/wopr/wopr -s do_pdt2.wopr_script -p file0:../nyt.3e7.5000,lc0:12,id:PDT3_50084,timbl0:-a1 +D,dl:5,test:nyt.tail1000,file1:../nyt.3e7.5000,timbl1:-a1 +D,lc1:2,n:6,ds:511111,mo:1,lm:1
/exp/pberck/wopr/wopr -s do_pdt2.wopr_script -p file0:../nyt.3e7.5000,lc0:16,id:PDT3_50085,timbl0:-a1 +D,dl:5,test:nyt.tail1000,file1:../nyt.3e7.5000,timbl1:-a1 +D,lc1:2,n:1,ds:5,mo:1,lm:1
/exp/pberck/wopr/wopr -s do_pdt2.wopr_script -p file0:../nyt.3e7.5000,lc0:16,id:PDT3_50086,timbl0:-a1 +D,dl:5,test:nyt.tail1000,file1:../nyt.3e7.5000,timbl1:-a1 +D,lc1:2,n:2,ds:51,mo:1,lm:1
/exp/pberck/wopr/wopr -s do_pdt2.wopr_script -p file0:../nyt.3e7.5000,lc0:16,id:PDT3_50087,timbl0:-a1 +D,dl:5,test:nyt.tail1000,file1:../nyt.3e7.5000,timbl1:-a1 +D,lc1:2,n:4,ds:5111,mo:1,lm:1
/exp/pberck/wopr/wopr -s do_pdt2.wopr_script -p file0:../nyt.3e7.5000,lc0:16,id:PDT3_50088,timbl0:-a1 +D,dl:5,test:nyt.tail1000,file1:../nyt.3e7.5000,timbl1:-a1 +D,lc1:2,n:5,ds:51111,mo:1,lm:1
/exp/pberck/wopr/wopr -s do_pdt2.wopr_script -p file0:../nyt.3e7.5000,lc0:16,id:PDT3_50089,timbl0:-a1 +D,dl:5,test:nyt.tail1000,file1:../nyt.3e7.5000,timbl1:-a1 +D,lc1:2,n:6,ds:511111,mo:1,lm:1
/exp/pberck/wopr/wopr -s do_pdt2.wopr_script -p file0:../nyt.3e7.10000,lc0:2,id:PDT3_50090,timbl0:-a1 +D,dl:5,test:nyt.tail1000,file1:../nyt.3e7.10000,timbl1:-a1 +D,lc1:2,n:1,ds:5,mo:1,lm:1
/exp/pberck/wopr/wopr -s do_pdt2.wopr_script -p file0:../nyt.3e7.10000,lc0:2,id:PDT3_50091,timbl0:-a1 +D,dl:5,test:nyt.tail1000,file1:../nyt.3e7.10000,timbl1:-a1 +D,lc1:2,n:2,ds:51,mo:1,lm:1
/exp/pberck/wopr/wopr -s do_pdt2.wopr_script -p file0:../nyt.3e7.10000,lc0:2,id:PDT3_50092,timbl0:-a1 +D,dl:5,test:nyt.tail1000,file1:../nyt.3e7.10000,timbl1:-a1 +D,lc1:2,n:4,ds:5111,mo:1,lm:1
/exp/pberck/wopr/wopr -s do_pdt2.wopr_script -p file0:../nyt.3e7.10000,lc0:2,id:PDT3_50093,timbl0:-a1 +D,dl:5,test:nyt.tail1000,file1:../nyt.3e7.10000,timbl1:-a1 +D,lc1:2,n:5,ds:51111,mo:1,lm:1
/exp/pberck/wopr/wopr -s do_pdt2.wopr_script -p file0:../nyt.3e7.10000,lc0:2,id:PDT3_50094,timbl0:-a1 +D,dl:5,test:nyt.tail1000,file1:../nyt.3e7.10000,timbl1:-a1 +D,lc1:2,n:6,ds:511111,mo:1,lm:1
/exp/pberck/wopr/wopr -s do_pdt2.wopr_script -p file0:../nyt.3e7.10000,lc0:3,id:PDT3_50095,timbl0:-a1 +D,dl:5,test:nyt.tail1000,file1:../nyt.3e7.10000,timbl1:-a1 +D,lc1:2,n:1,ds:5,mo:1,lm:1
/exp/pberck/wopr/wopr -s do_pdt2.wopr_script -p file0:../nyt.3e7.10000,lc0:3,id:PDT3_50096,timbl0:-a1 +D,dl:5,test:nyt.tail1000,file1:../nyt.3e7.10000,timbl1:-a1 +D,lc1:2,n:2,ds:51,mo:1,lm:1
/exp/pberck/wopr/wopr -s do_pdt2.wopr_script -p file0:../nyt.3e7.10000,lc0:3,id:PDT3_50097,timbl0:-a1 +D,dl:5,test:nyt.tail1000,file1:../nyt.3e7.10000,timbl1:-a1 +D,lc1:2,n:4,ds:5111,mo:1,lm:1
/exp/pberck/wopr/wopr -s do_pdt2.wopr_script -p file0:../nyt.3e7.10000,lc0:3,id:PDT3_50098,timbl0:-a1 +D,dl:5,test:nyt.tail1000,file1:../nyt.3e7.10000,timbl1:-a1 +D,lc1:2,n:5,ds:51111,mo:1,lm:1
/exp/pberck/wopr/wopr -s do_pdt2.wopr_script -p file0:../nyt.3e7.10000,lc0:3,id:PDT3_50099,timbl0:-a1 +D,dl:5,test:nyt.tail1000,file1:../nyt.3e7.10000,timbl1:-a1 +D,lc1:2,n:6,ds:511111,mo:1,lm:1
/exp/pberck/wopr/wopr -s do_pdt2.wopr_script -p file0:../nyt.3e7.10000,lc0:4,id:PDT3_50100,timbl0:-a1 +D,dl:5,test:nyt.tail1000,file1:../nyt.3e7.10000,timbl1:-a1 +D,lc1:2,n:1,ds:5,mo:1,lm:1
/exp/pberck/wopr/wopr -s do_pdt2.wopr_script -p file0:../nyt.3e7.10000,lc0:4,id:PDT3_50101,timbl0:-a1 +D,dl:5,test:nyt.tail1000,file1:../nyt.3e7.10000,timbl1:-a1 +D,lc1:2,n:2,ds:51,mo:1,lm:1
/exp/pberck/wopr/wopr -s do_pdt2.wopr_script -p file0:../nyt.3e7.10000,lc0:4,id:PDT3_50102,timbl0:-a1 +D,dl:5,test:nyt.tail1000,file1:../nyt.3e7.10000,timbl1:-a1 +D,lc1:2,n:4,ds:5111,mo:1,lm:1
/exp/pberck/wopr/wopr -s do_pdt2.wopr_script -p file0:../nyt.3e7.10000,lc0:4,id:PDT3_50103,timbl0:-a1 +D,dl:5,test:nyt.tail1000,file1:../nyt.3e7.10000,timbl1:-a1 +D,lc1:2,n:5,ds:51111,mo:1,lm:1
/exp/pberck/wopr/wopr -s do_pdt2.wopr_script -p file0:../nyt.3e7.10000,lc0:4,id:PDT3_50104,timbl0:-a1 +D,dl:5,test:nyt.tail1000,file1:../nyt.3e7.10000,timbl1:-a1 +D,lc1:2,n:6,ds:511111,mo:1,lm:1
/exp/pberck/wopr/wopr -s do_pdt2.wopr_script -p file0:../nyt.3e7.10000,lc0:5,id:PDT3_50105,timbl0:-a1 +D,dl:5,test:nyt.tail1000,file1:../nyt.3e7.10000,timbl1:-a1 +D,lc1:2,n:1,ds:5,mo:1,lm:1
/exp/pberck/wopr/wopr -s do_pdt2.wopr_script -p file0:../nyt.3e7.10000,lc0:5,id:PDT3_50106,timbl0:-a1 +D,dl:5,test:nyt.tail1000,file1:../nyt.3e7.10000,timbl1:-a1 +D,lc1:2,n:2,ds:51,mo:1,lm:1
/exp/pberck/wopr/wopr -s do_pdt2.wopr_script -p file0:../nyt.3e7.10000,lc0:5,id:PDT3_50107,timbl0:-a1 +D,dl:5,test:nyt.tail1000,file1:../nyt.3e7.10000,timbl1:-a1 +D,lc1:2,n:4,ds:5111,mo:1,lm:1
/exp/pberck/wopr/wopr -s do_pdt2.wopr_script -p file0:../nyt.3e7.10000,lc0:5,id:PDT3_50108,timbl0:-a1 +D,dl:5,test:nyt.tail1000,file1:../nyt.3e7.10000,timbl1:-a1 +D,lc1:2,n:5,ds:51111,mo:1,lm:1
/exp/pberck/wopr/wopr -s do_pdt2.wopr_script -p file0:../nyt.3e7.10000,lc0:5,id:PDT3_50109,timbl0:-a1 +D,dl:5,test:nyt.tail1000,file1:../nyt.3e7.10000,timbl1:-a1 +D,lc1:2,n:6,ds:511111,mo:1,lm:1
/exp/pberck/wopr/wopr -s do_pdt2.wopr_script -p file0:../nyt.3e7.10000,lc0:6,id:PDT3_50110,timbl0:-a1 +D,dl:5,test:nyt.tail1000,file1:../nyt.3e7.10000,timbl1:-a1 +D,lc1:2,n:1,ds:5,mo:1,lm:1
/exp/pberck/wopr/wopr -s do_pdt2.wopr_script -p file0:../nyt.3e7.10000,lc0:6,id:PDT3_50111,timbl0:-a1 +D,dl:5,test:nyt.tail1000,file1:../nyt.3e7.10000,timbl1:-a1 +D,lc1:2,n:2,ds:51,mo:1,lm:1
/exp/pberck/wopr/wopr -s do_pdt2.wopr_script -p file0:../nyt.3e7.10000,lc0:6,id:PDT3_50112,timbl0:-a1 +D,dl:5,test:nyt.tail1000,file1:../nyt.3e7.10000,timbl1:-a1 +D,lc1:2,n:4,ds:5111,mo:1,lm:1
/exp/pberck/wopr/wopr -s do_pdt2.wopr_script -p file0:../nyt.3e7.10000,lc0:6,id:PDT3_50113,timbl0:-a1 +D,dl:5,test:nyt.tail1000,file1:../nyt.3e7.10000,timbl1:-a1 +D,lc1:2,n:5,ds:51111,mo:1,lm:1
/exp/pberck/wopr/wopr -s do_pdt2.wopr_script -p file0:../nyt.3e7.10000,lc0:6,id:PDT3_50114,timbl0:-a1 +D,dl:5,test:nyt.tail1000,file1:../nyt.3e7.10000,timbl1:-a1 +D,lc1:2,n:6,ds:511111,mo:1,lm:1
/exp/pberck/wopr/wopr -s do_pdt2.wopr_script -p file0:../nyt.3e7.10000,lc0:8,id:PDT3_50115,timbl0:-a1 +D,dl:5,test:nyt.tail1000,file1:../nyt.3e7.10000,timbl1:-a1 +D,lc1:2,n:1,ds:5,mo:1,lm:1
/exp/pberck/wopr/wopr -s do_pdt2.wopr_script -p file0:../nyt.3e7.10000,lc0:8,id:PDT3_50116,timbl0:-a1 +D,dl:5,test:nyt.tail1000,file1:../nyt.3e7.10000,timbl1:-a1 +D,lc1:2,n:2,ds:51,mo:1,lm:1
/exp/pberck/wopr/wopr -s do_pdt2.wopr_script -p file0:../nyt.3e7.10000,lc0:8,id:PDT3_50117,timbl0:-a1 +D,dl:5,test:nyt.tail1000,file1:../nyt.3e7.10000,timbl1:-a1 +D,lc1:2,n:4,ds:5111,mo:1,lm:1
/exp/pberck/wopr/wopr -s do_pdt2.wopr_script -p file0:../nyt.3e7.10000,lc0:8,id:PDT3_50118,timbl0:-a1 +D,dl:5,test:nyt.tail1000,file1:../nyt.3e7.10000,timbl1:-a1 +D,lc1:2,n:5,ds:51111,mo:1,lm:1
/exp/pberck/wopr/wopr -s do_pdt2.wopr_script -p file0:../nyt.3e7.10000,lc0:8,id:PDT3_50119,timbl0:-a1 +D,dl:5,test:nyt.tail1000,file1:../nyt.3e7.10000,timbl1:-a1 +D,lc1:2,n:6,ds:511111,mo:1,lm:1
/exp/pberck/wopr/wopr -s do_pdt2.wopr_script -p file0:../nyt.3e7.10000,lc0:10,id:PDT3_50120,timbl0:-a1 +D,dl:5,test:nyt.tail1000,file1:../nyt.3e7.10000,timbl1:-a1 +D,lc1:2,n:1,ds:5,mo:1,lm:1
/exp/pberck/wopr/wopr -s do_pdt2.wopr_script -p file0:../nyt.3e7.10000,lc0:10,id:PDT3_50121,timbl0:-a1 +D,dl:5,test:nyt.tail1000,file1:../nyt.3e7.10000,timbl1:-a1 +D,lc1:2,n:2,ds:51,mo:1,lm:1
/exp/pberck/wopr/wopr -s do_pdt2.wopr_script -p file0:../nyt.3e7.10000,lc0:10,id:PDT3_50122,timbl0:-a1 +D,dl:5,test:nyt.tail1000,file1:../nyt.3e7.10000,timbl1:-a1 +D,lc1:2,n:4,ds:5111,mo:1,lm:1
/exp/pberck/wopr/wopr -s do_pdt2.wopr_script -p file0:../nyt.3e7.10000,lc0:10,id:PDT3_50123,timbl0:-a1 +D,dl:5,test:nyt.tail1000,file1:../nyt.3e7.10000,timbl1:-a1 +D,lc1:2,n:5,ds:51111,mo:1,lm:1
/exp/pberck/wopr/wopr -s do_pdt2.wopr_script -p file0:../nyt.3e7.10000,lc0:10,id:PDT3_50124,timbl0:-a1 +D,dl:5,test:nyt.tail1000,file1:../nyt.3e7.10000,timbl1:-a1 +D,lc1:2,n:6,ds:511111,mo:1,lm:1
/exp/pberck/wopr/wopr -s do_pdt2.wopr_script -p file0:../nyt.3e7.10000,lc0:12,id:PDT3_50125,timbl0:-a1 +D,dl:5,test:nyt.tail1000,file1:../nyt.3e7.10000,timbl1:-a1 +D,lc1:2,n:1,ds:5,mo:1,lm:1
/exp/pberck/wopr/wopr -s do_pdt2.wopr_script -p file0:../nyt.3e7.10000,lc0:12,id:PDT3_50126,timbl0:-a1 +D,dl:5,test:nyt.tail1000,file1:../nyt.3e7.10000,timbl1:-a1 +D,lc1:2,n:2,ds:51,mo:1,lm:1
/exp/pberck/wopr/wopr -s do_pdt2.wopr_script -p file0:../nyt.3e7.10000,lc0:12,id:PDT3_50127,timbl0:-a1 +D,dl:5,test:nyt.tail1000,file1:../nyt.3e7.10000,timbl1:-a1 +D,lc1:2,n:4,ds:5111,mo:1,lm:1
/exp/pberck/wopr/wopr -s do_pdt2.wopr_script -p file0:../nyt.3e7.10000,lc0:12,id:PDT3_50128,timbl0:-a1 +D,dl:5,test:nyt.tail1000,file1:../nyt.3e7.10000,timbl1:-a1 +D,lc1:2,n:5,ds:51111,mo:1,lm:1
/exp/pberck/wopr/wopr -s do_pdt2.wopr_script -p file0:../nyt.3e7.10000,lc0:12,id:PDT3_50129,timbl0:-a1 +D,dl:5,test:nyt.tail1000,file1:../nyt.3e7.10000,timbl1:-a1 +D,lc1:2,n:6,ds:511111,mo:1,lm:1
/exp/pberck/wopr/wopr -s do_pdt2.wopr_script -p file0:../nyt.3e7.10000,lc0:16,id:PDT3_50130,timbl0:-a1 +D,dl:5,test:nyt.tail1000,file1:../nyt.3e7.10000,timbl1:-a1 +D,lc1:2,n:1,ds:5,mo:1,lm:1
/exp/pberck/wopr/wopr -s do_pdt2.wopr_script -p file0:../nyt.3e7.10000,lc0:16,id:PDT3_50131,timbl0:-a1 +D,dl:5,test:nyt.tail1000,file1:../nyt.3e7.10000,timbl1:-a1 +D,lc1:2,n:2,ds:51,mo:1,lm:1
/exp/pberck/wopr/wopr -s do_pdt2.wopr_script -p file0:../nyt.3e7.10000,lc0:16,id:PDT3_50132,timbl0:-a1 +D,dl:5,test:nyt.tail1000,file1:../nyt.3e7.10000,timbl1:-a1 +D,lc1:2,n:4,ds:5111,mo:1,lm:1
/exp/pberck/wopr/wopr -s do_pdt2.wopr_script -p file0:../nyt.3e7.10000,lc0:16,id:PDT3_50133,timbl0:-a1 +D,dl:5,test:nyt.tail1000,file1:../nyt.3e7.10000,timbl1:-a1 +D,lc1:2,n:5,ds:51111,mo:1,lm:1
/exp/pberck/wopr/wopr -s do_pdt2.wopr_script -p file0:../nyt.3e7.10000,lc0:16,id:PDT3_50134,timbl0:-a1 +D,dl:5,test:nyt.tail1000,file1:../nyt.3e7.10000,timbl1:-a1 +D,lc1:2,n:6,ds:511111,mo:1,lm:1
/exp/pberck/wopr/wopr -s do_pdt2.wopr_script -p file0:../nyt.3e7.50000,lc0:2,id:PDT3_50135,timbl0:-a1 +D,dl:5,test:nyt.tail1000,file1:../nyt.3e7.50000,timbl1:-a1 +D,lc1:2,n:1,ds:5,mo:1,lm:1
/exp/pberck/wopr/wopr -s do_pdt2.wopr_script -p file0:../nyt.3e7.50000,lc0:2,id:PDT3_50136,timbl0:-a1 +D,dl:5,test:nyt.tail1000,file1:../nyt.3e7.50000,timbl1:-a1 +D,lc1:2,n:2,ds:51,mo:1,lm:1
/exp/pberck/wopr/wopr -s do_pdt2.wopr_script -p file0:../nyt.3e7.50000,lc0:2,id:PDT3_50137,timbl0:-a1 +D,dl:5,test:nyt.tail1000,file1:../nyt.3e7.50000,timbl1:-a1 +D,lc1:2,n:4,ds:5111,mo:1,lm:1
/exp/pberck/wopr/wopr -s do_pdt2.wopr_script -p file0:../nyt.3e7.50000,lc0:2,id:PDT3_50138,timbl0:-a1 +D,dl:5,test:nyt.tail1000,file1:../nyt.3e7.50000,timbl1:-a1 +D,lc1:2,n:5,ds:51111,mo:1,lm:1
/exp/pberck/wopr/wopr -s do_pdt2.wopr_script -p file0:../nyt.3e7.50000,lc0:2,id:PDT3_50139,timbl0:-a1 +D,dl:5,test:nyt.tail1000,file1:../nyt.3e7.50000,timbl1:-a1 +D,lc1:2,n:6,ds:511111,mo:1,lm:1
/exp/pberck/wopr/wopr -s do_pdt2.wopr_script -p file0:../nyt.3e7.50000,lc0:3,id:PDT3_50140,timbl0:-a1 +D,dl:5,test:nyt.tail1000,file1:../nyt.3e7.50000,timbl1:-a1 +D,lc1:2,n:1,ds:5,mo:1,lm:1
/exp/pberck/wopr/wopr -s do_pdt2.wopr_script -p file0:../nyt.3e7.50000,lc0:3,id:PDT3_50141,timbl0:-a1 +D,dl:5,test:nyt.tail1000,file1:../nyt.3e7.50000,timbl1:-a1 +D,lc1:2,n:2,ds:51,mo:1,lm:1
/exp/pberck/wopr/wopr -s do_pdt2.wopr_script -p file0:../nyt.3e7.50000,lc0:3,id:PDT3_50142,timbl0:-a1 +D,dl:5,test:nyt.tail1000,file1:../nyt.3e7.50000,timbl1:-a1 +D,lc1:2,n:4,ds:5111,mo:1,lm:1
/exp/pberck/wopr/wopr -s do_pdt2.wopr_script -p file0:../nyt.3e7.50000,lc0:3,id:PDT3_50143,timbl0:-a1 +D,dl:5,test:nyt.tail1000,file1:../nyt.3e7.50000,timbl1:-a1 +D,lc1:2,n:5,ds:51111,mo:1,lm:1
/exp/pberck/wopr/wopr -s do_pdt2.wopr_script -p file0:../nyt.3e7.50000,lc0:3,id:PDT3_50144,timbl0:-a1 +D,dl:5,test:nyt.tail1000,file1:../nyt.3e7.50000,timbl1:-a1 +D,lc1:2,n:6,ds:511111,mo:1,lm:1
/exp/pberck/wopr/wopr -s do_pdt2.wopr_script -p file0:../nyt.3e7.50000,lc0:4,id:PDT3_50145,timbl0:-a1 +D,dl:5,test:nyt.tail1000,file1:../nyt.3e7.50000,timbl1:-a1 +D,lc1:2,n:1,ds:5,mo:1,lm:1
/exp/pberck/wopr/wopr -s do_pdt2.wopr_script -p file0:../nyt.3e7.50000,lc0:4,id:PDT3_50146,timbl0:-a1 +D,dl:5,test:nyt.tail1000,file1:../nyt.3e7.50000,timbl1:-a1 +D,lc1:2,n:2,ds:51,mo:1,lm:1
/exp/pberck/wopr/wopr -s do_pdt2.wopr_script -p file0:../nyt.3e7.50000,lc0:4,id:PDT3_50147,timbl0:-a1 +D,dl:5,test:nyt.tail1000,file1:../nyt.3e7.50000,timbl1:-a1 +D,lc1:2,n:4,ds:5111,mo:1,lm:1
/exp/pberck/wopr/wopr -s do_pdt2.wopr_script -p file0:../nyt.3e7.50000,lc0:4,id:PDT3_50148,timbl0:-a1 +D,dl:5,test:nyt.tail1000,file1:../nyt.3e7.50000,timbl1:-a1 +D,lc1:2,n:5,ds:51111,mo:1,lm:1
/exp/pberck/wopr/wopr -s do_pdt2.wopr_script -p file0:../nyt.3e7.50000,lc0:4,id:PDT3_50149,timbl0:-a1 +D,dl:5,test:nyt.tail1000,file1:../nyt.3e7.50000,timbl1:-a1 +D,lc1:2,n:6,ds:511111,mo:1,lm:1
/exp/pberck/wopr/wopr -s do_pdt2.wopr_script -p file0:../nyt.3e7.50000,lc0:5,id:PDT3_50150,timbl0:-a1 +D,dl:5,test:nyt.tail1000,file1:../nyt.3e7.50000,timbl1:-a1 +D,lc1:2,n:1,ds:5,mo:1,lm:1
/exp/pberck/wopr/wopr -s do_pdt2.wopr_script -p file0:../nyt.3e7.50000,lc0:5,id:PDT3_50151,timbl0:-a1 +D,dl:5,test:nyt.tail1000,file1:../nyt.3e7.50000,timbl1:-a1 +D,lc1:2,n:2,ds:51,mo:1,lm:1
/exp/pberck/wopr/wopr -s do_pdt2.wopr_script -p file0:../nyt.3e7.50000,lc0:5,id:PDT3_50152,timbl0:-a1 +D,dl:5,test:nyt.tail1000,file1:../nyt.3e7.50000,timbl1:-a1 +D,lc1:2,n:4,ds:5111,mo:1,lm:1
/exp/pberck/wopr/wopr -s do_pdt2.wopr_script -p file0:../nyt.3e7.50000,lc0:5,id:PDT3_50153,timbl0:-a1 +D,dl:5,test:nyt.tail1000,file1:../nyt.3e7.50000,timbl1:-a1 +D,lc1:2,n:5,ds:51111,mo:1,lm:1
/exp/pberck/wopr/wopr -s do_pdt2.wopr_script -p file0:../nyt.3e7.50000,lc0:5,id:PDT3_50154,timbl0:-a1 +D,dl:5,test:nyt.tail1000,file1:../nyt.3e7.50000,timbl1:-a1 +D,lc1:2,n:6,ds:511111,mo:1,lm:1
/exp/pberck/wopr/wopr -s do_pdt2.wopr_script -p file0:../nyt.3e7.50000,lc0:6,id:PDT3_50155,timbl0:-a1 +D,dl:5,test:nyt.tail1000,file1:../nyt.3e7.50000,timbl1:-a1 +D,lc1:2,n:1,ds:5,mo:1,lm:1
/exp/pberck/wopr/wopr -s do_pdt2.wopr_script -p file0:../nyt.3e7.50000,lc0:6,id:PDT3_50156,timbl0:-a1 +D,dl:5,test:nyt.tail1000,file1:../nyt.3e7.50000,timbl1:-a1 +D,lc1:2,n:2,ds:51,mo:1,lm:1
/exp/pberck/wopr/wopr -s do_pdt2.wopr_script -p file0:../nyt.3e7.50000,lc0:6,id:PDT3_50157,timbl0:-a1 +D,dl:5,test:nyt.tail1000,file1:../nyt.3e7.50000,timbl1:-a1 +D,lc1:2,n:4,ds:5111,mo:1,lm:1
/exp/pberck/wopr/wopr -s do_pdt2.wopr_script -p file0:../nyt.3e7.50000,lc0:6,id:PDT3_50158,timbl0:-a1 +D,dl:5,test:nyt.tail1000,file1:../nyt.3e7.50000,timbl1:-a1 +D,lc1:2,n:5,ds:51111,mo:1,lm:1
/exp/pberck/wopr/wopr -s do_pdt2.wopr_script -p file0:../nyt.3e7.50000,lc0:6,id:PDT3_50159,timbl0:-a1 +D,dl:5,test:nyt.tail1000,file1:../nyt.3e7.50000,timbl1:-a1 +D,lc1:2,n:6,ds:511111,mo:1,lm:1
/exp/pberck/wopr/wopr -s do_pdt2.wopr_script -p file0:../nyt.3e7.50000,lc0:8,id:PDT3_50160,timbl0:-a1 +D,dl:5,test:nyt.tail1000,file1:../nyt.3e7.50000,timbl1:-a1 +D,lc1:2,n:1,ds:5,mo:1,lm:1
/exp/pberck/wopr/wopr -s do_pdt2.wopr_script -p file0:../nyt.3e7.50000,lc0:8,id:PDT3_50161,timbl0:-a1 +D,dl:5,test:nyt.tail1000,file1:../nyt.3e7.50000,timbl1:-a1 +D,lc1:2,n:2,ds:51,mo:1,lm:1
/exp/pberck/wopr/wopr -s do_pdt2.wopr_script -p file0:../nyt.3e7.50000,lc0:8,id:PDT3_50162,timbl0:-a1 +D,dl:5,test:nyt.tail1000,file1:../nyt.3e7.50000,timbl1:-a1 +D,lc1:2,n:4,ds:5111,mo:1,lm:1
/exp/pberck/wopr/wopr -s do_pdt2.wopr_script -p file0:../nyt.3e7.50000,lc0:8,id:PDT3_50163,timbl0:-a1 +D,dl:5,test:nyt.tail1000,file1:../nyt.3e7.50000,timbl1:-a1 +D,lc1:2,n:5,ds:51111,mo:1,lm:1
/exp/pberck/wopr/wopr -s do_pdt2.wopr_script -p file0:../nyt.3e7.50000,lc0:8,id:PDT3_50164,timbl0:-a1 +D,dl:5,test:nyt.tail1000,file1:../nyt.3e7.50000,timbl1:-a1 +D,lc1:2,n:6,ds:511111,mo:1,lm:1
/exp/pberck/wopr/wopr -s do_pdt2.wopr_script -p file0:../nyt.3e7.50000,lc0:10,id:PDT3_50165,timbl0:-a1 +D,dl:5,test:nyt.tail1000,file1:../nyt.3e7.50000,timbl1:-a1 +D,lc1:2,n:1,ds:5,mo:1,lm:1
/exp/pberck/wopr/wopr -s do_pdt2.wopr_script -p file0:../nyt.3e7.50000,lc0:10,id:PDT3_50166,timbl0:-a1 +D,dl:5,test:nyt.tail1000,file1:../nyt.3e7.50000,timbl1:-a1 +D,lc1:2,n:2,ds:51,mo:1,lm:1
/exp/pberck/wopr/wopr -s do_pdt2.wopr_script -p file0:../nyt.3e7.50000,lc0:10,id:PDT3_50167,timbl0:-a1 +D,dl:5,test:nyt.tail1000,file1:../nyt.3e7.50000,timbl1:-a1 +D,lc1:2,n:4,ds:5111,mo:1,lm:1
/exp/pberck/wopr/wopr -s do_pdt2.wopr_script -p file0:../nyt.3e7.50000,lc0:10,id:PDT3_50168,timbl0:-a1 +D,dl:5,test:nyt.tail1000,file1:../nyt.3e7.50000,timbl1:-a1 +D,lc1:2,n:5,ds:51111,mo:1,lm:1
/exp/pberck/wopr/wopr -s do_pdt2.wopr_script -p file0:../nyt.3e7.50000,lc0:10,id:PDT3_50169,timbl0:-a1 +D,dl:5,test:nyt.tail1000,file1:../nyt.3e7.50000,timbl1:-a1 +D,lc1:2,n:6,ds:511111,mo:1,lm:1
/exp/pberck/wopr/wopr -s do_pdt2.wopr_script -p file0:../nyt.3e7.50000,lc0:12,id:PDT3_50170,timbl0:-a1 +D,dl:5,test:nyt.tail1000,file1:../nyt.3e7.50000,timbl1:-a1 +D,lc1:2,n:1,ds:5,mo:1,lm:1
/exp/pberck/wopr/wopr -s do_pdt2.wopr_script -p file0:../nyt.3e7.50000,lc0:12,id:PDT3_50171,timbl0:-a1 +D,dl:5,test:nyt.tail1000,file1:../nyt.3e7.50000,timbl1:-a1 +D,lc1:2,n:2,ds:51,mo:1,lm:1
/exp/pberck/wopr/wopr -s do_pdt2.wopr_script -p file0:../nyt.3e7.50000,lc0:12,id:PDT3_50172,timbl0:-a1 +D,dl:5,test:nyt.tail1000,file1:../nyt.3e7.50000,timbl1:-a1 +D,lc1:2,n:4,ds:5111,mo:1,lm:1
/exp/pberck/wopr/wopr -s do_pdt2.wopr_script -p file0:../nyt.3e7.50000,lc0:12,id:PDT3_50173,timbl0:-a1 +D,dl:5,test:nyt.tail1000,file1:../nyt.3e7.50000,timbl1:-a1 +D,lc1:2,n:5,ds:51111,mo:1,lm:1
/exp/pberck/wopr/wopr -s do_pdt2.wopr_script -p file0:../nyt.3e7.50000,lc0:12,id:PDT3_50174,timbl0:-a1 +D,dl:5,test:nyt.tail1000,file1:../nyt.3e7.50000,timbl1:-a1 +D,lc1:2,n:6,ds:511111,mo:1,lm:1
/exp/pberck/wopr/wopr -s do_pdt2.wopr_script -p file0:../nyt.3e7.50000,lc0:16,id:PDT3_50175,timbl0:-a1 +D,dl:5,test:nyt.tail1000,file1:../nyt.3e7.50000,timbl1:-a1 +D,lc1:2,n:1,ds:5,mo:1,lm:1
/exp/pberck/wopr/wopr -s do_pdt2.wopr_script -p file0:../nyt.3e7.50000,lc0:16,id:PDT3_50176,timbl0:-a1 +D,dl:5,test:nyt.tail1000,file1:../nyt.3e7.50000,timbl1:-a1 +D,lc1:2,n:2,ds:51,mo:1,lm:1
/exp/pberck/wopr/wopr -s do_pdt2.wopr_script -p file0:../nyt.3e7.50000,lc0:16,id:PDT3_50177,timbl0:-a1 +D,dl:5,test:nyt.tail1000,file1:../nyt.3e7.50000,timbl1:-a1 +D,lc1:2,n:4,ds:5111,mo:1,lm:1
/exp/pberck/wopr/wopr -s do_pdt2.wopr_script -p file0:../nyt.3e7.50000,lc0:16,id:PDT3_50178,timbl0:-a1 +D,dl:5,test:nyt.tail1000,file1:../nyt.3e7.50000,timbl1:-a1 +D,lc1:2,n:5,ds:51111,mo:1,lm:1
/exp/pberck/wopr/wopr -s do_pdt2.wopr_script -p file0:../nyt.3e7.50000,lc0:16,id:PDT3_50179,timbl0:-a1 +D,dl:5,test:nyt.tail1000,file1:../nyt.3e7.50000,timbl1:-a1 +D,lc1:2,n:6,ds:511111,mo:1,lm:1
/exp/pberck/wopr/wopr -s do_pdt2.wopr_script -p file0:../nyt.3e7.100000,lc0:2,id:PDT3_50180,timbl0:-a1 +D,dl:5,test:nyt.tail1000,file1:../nyt.3e7.100000,timbl1:-a1 +D,lc1:2,n:1,ds:5,mo:1,lm:1
/exp/pberck/wopr/wopr -s do_pdt2.wopr_script -p file0:../nyt.3e7.100000,lc0:2,id:PDT3_50181,timbl0:-a1 +D,dl:5,test:nyt.tail1000,file1:../nyt.3e7.100000,timbl1:-a1 +D,lc1:2,n:2,ds:51,mo:1,lm:1
/exp/pberck/wopr/wopr -s do_pdt2.wopr_script -p file0:../nyt.3e7.100000,lc0:2,id:PDT3_50182,timbl0:-a1 +D,dl:5,test:nyt.tail1000,file1:../nyt.3e7.100000,timbl1:-a1 +D,lc1:2,n:4,ds:5111,mo:1,lm:1
/exp/pberck/wopr/wopr -s do_pdt2.wopr_script -p file0:../nyt.3e7.100000,lc0:2,id:PDT3_50183,timbl0:-a1 +D,dl:5,test:nyt.tail1000,file1:../nyt.3e7.100000,timbl1:-a1 +D,lc1:2,n:5,ds:51111,mo:1,lm:1
/exp/pberck/wopr/wopr -s do_pdt2.wopr_script -p file0:../nyt.3e7.100000,lc0:2,id:PDT3_50184,timbl0:-a1 +D,dl:5,test:nyt.tail1000,file1:../nyt.3e7.100000,timbl1:-a1 +D,lc1:2,n:6,ds:511111,mo:1,lm:1
/exp/pberck/wopr/wopr -s do_pdt2.wopr_script -p file0:../nyt.3e7.100000,lc0:3,id:PDT3_50185,timbl0:-a1 +D,dl:5,test:nyt.tail1000,file1:../nyt.3e7.100000,timbl1:-a1 +D,lc1:2,n:1,ds:5,mo:1,lm:1
/exp/pberck/wopr/wopr -s do_pdt2.wopr_script -p file0:../nyt.3e7.100000,lc0:3,id:PDT3_50186,timbl0:-a1 +D,dl:5,test:nyt.tail1000,file1:../nyt.3e7.100000,timbl1:-a1 +D,lc1:2,n:2,ds:51,mo:1,lm:1
/exp/pberck/wopr/wopr -s do_pdt2.wopr_script -p file0:../nyt.3e7.100000,lc0:3,id:PDT3_50187,timbl0:-a1 +D,dl:5,test:nyt.tail1000,file1:../nyt.3e7.100000,timbl1:-a1 +D,lc1:2,n:4,ds:5111,mo:1,lm:1
/exp/pberck/wopr/wopr -s do_pdt2.wopr_script -p file0:../nyt.3e7.100000,lc0:3,id:PDT3_50188,timbl0:-a1 +D,dl:5,test:nyt.tail1000,file1:../nyt.3e7.100000,timbl1:-a1 +D,lc1:2,n:5,ds:51111,mo:1,lm:1
/exp/pberck/wopr/wopr -s do_pdt2.wopr_script -p file0:../nyt.3e7.100000,lc0:3,id:PDT3_50189,timbl0:-a1 +D,dl:5,test:nyt.tail1000,file1:../nyt.3e7.100000,timbl1:-a1 +D,lc1:2,n:6,ds:511111,mo:1,lm:1
/exp/pberck/wopr/wopr -s do_pdt2.wopr_script -p file0:../nyt.3e7.100000,lc0:4,id:PDT3_50190,timbl0:-a1 +D,dl:5,test:nyt.tail1000,file1:../nyt.3e7.100000,timbl1:-a1 +D,lc1:2,n:1,ds:5,mo:1,lm:1
/exp/pberck/wopr/wopr -s do_pdt2.wopr_script -p file0:../nyt.3e7.100000,lc0:4,id:PDT3_50191,timbl0:-a1 +D,dl:5,test:nyt.tail1000,file1:../nyt.3e7.100000,timbl1:-a1 +D,lc1:2,n:2,ds:51,mo:1,lm:1
/exp/pberck/wopr/wopr -s do_pdt2.wopr_script -p file0:../nyt.3e7.100000,lc0:4,id:PDT3_50192,timbl0:-a1 +D,dl:5,test:nyt.tail1000,file1:../nyt.3e7.100000,timbl1:-a1 +D,lc1:2,n:4,ds:5111,mo:1,lm:1
/exp/pberck/wopr/wopr -s do_pdt2.wopr_script -p file0:../nyt.3e7.100000,lc0:4,id:PDT3_50193,timbl0:-a1 +D,dl:5,test:nyt.tail1000,file1:../nyt.3e7.100000,timbl1:-a1 +D,lc1:2,n:5,ds:51111,mo:1,lm:1
/exp/pberck/wopr/wopr -s do_pdt2.wopr_script -p file0:../nyt.3e7.100000,lc0:4,id:PDT3_50194,timbl0:-a1 +D,dl:5,test:nyt.tail1000,file1:../nyt.3e7.100000,timbl1:-a1 +D,lc1:2,n:6,ds:511111,mo:1,lm:1
/exp/pberck/wopr/wopr -s do_pdt2.wopr_script -p file0:../nyt.3e7.100000,lc0:5,id:PDT3_50195,timbl0:-a1 +D,dl:5,test:nyt.tail1000,file1:../nyt.3e7.100000,timbl1:-a1 +D,lc1:2,n:1,ds:5,mo:1,lm:1
/exp/pberck/wopr/wopr -s do_pdt2.wopr_script -p file0:../nyt.3e7.100000,lc0:5,id:PDT3_50196,timbl0:-a1 +D,dl:5,test:nyt.tail1000,file1:../nyt.3e7.100000,timbl1:-a1 +D,lc1:2,n:2,ds:51,mo:1,lm:1
/exp/pberck/wopr/wopr -s do_pdt2.wopr_script -p file0:../nyt.3e7.100000,lc0:5,id:PDT3_50197,timbl0:-a1 +D,dl:5,test:nyt.tail1000,file1:../nyt.3e7.100000,timbl1:-a1 +D,lc1:2,n:4,ds:5111,mo:1,lm:1
/exp/pberck/wopr/wopr -s do_pdt2.wopr_script -p file0:../nyt.3e7.100000,lc0:5,id:PDT3_50198,timbl0:-a1 +D,dl:5,test:nyt.tail1000,file1:../nyt.3e7.100000,timbl1:-a1 +D,lc1:2,n:5,ds:51111,mo:1,lm:1
/exp/pberck/wopr/wopr -s do_pdt2.wopr_script -p file0:../nyt.3e7.100000,lc0:5,id:PDT3_50199,timbl0:-a1 +D,dl:5,test:nyt.tail1000,file1:../nyt.3e7.100000,timbl1:-a1 +D,lc1:2,n:6,ds:511111,mo:1,lm:1
/exp/pberck/wopr/wopr -s do_pdt2.wopr_script -p file0:../nyt.3e7.100000,lc0:6,id:PDT3_50200,timbl0:-a1 +D,dl:5,test:nyt.tail1000,file1:../nyt.3e7.100000,timbl1:-a1 +D,lc1:2,n:1,ds:5,mo:1,lm:1
/exp/pberck/wopr/wopr -s do_pdt2.wopr_script -p file0:../nyt.3e7.100000,lc0:6,id:PDT3_50201,timbl0:-a1 +D,dl:5,test:nyt.tail1000,file1:../nyt.3e7.100000,timbl1:-a1 +D,lc1:2,n:2,ds:51,mo:1,lm:1
/exp/pberck/wopr/wopr -s do_pdt2.wopr_script -p file0:../nyt.3e7.100000,lc0:6,id:PDT3_50202,timbl0:-a1 +D,dl:5,test:nyt.tail1000,file1:../nyt.3e7.100000,timbl1:-a1 +D,lc1:2,n:4,ds:5111,mo:1,lm:1
/exp/pberck/wopr/wopr -s do_pdt2.wopr_script -p file0:../nyt.3e7.100000,lc0:6,id:PDT3_50203,timbl0:-a1 +D,dl:5,test:nyt.tail1000,file1:../nyt.3e7.100000,timbl1:-a1 +D,lc1:2,n:5,ds:51111,mo:1,lm:1
/exp/pberck/wopr/wopr -s do_pdt2.wopr_script -p file0:../nyt.3e7.100000,lc0:6,id:PDT3_50204,timbl0:-a1 +D,dl:5,test:nyt.tail1000,file1:../nyt.3e7.100000,timbl1:-a1 +D,lc1:2,n:6,ds:511111,mo:1,lm:1
/exp/pberck/wopr/wopr -s do_pdt2.wopr_script -p file0:../nyt.3e7.100000,lc0:8,id:PDT3_50205,timbl0:-a1 +D,dl:5,test:nyt.tail1000,file1:../nyt.3e7.100000,timbl1:-a1 +D,lc1:2,n:1,ds:5,mo:1,lm:1
/exp/pberck/wopr/wopr -s do_pdt2.wopr_script -p file0:../nyt.3e7.100000,lc0:8,id:PDT3_50206,timbl0:-a1 +D,dl:5,test:nyt.tail1000,file1:../nyt.3e7.100000,timbl1:-a1 +D,lc1:2,n:2,ds:51,mo:1,lm:1
/exp/pberck/wopr/wopr -s do_pdt2.wopr_script -p file0:../nyt.3e7.100000,lc0:8,id:PDT3_50207,timbl0:-a1 +D,dl:5,test:nyt.tail1000,file1:../nyt.3e7.100000,timbl1:-a1 +D,lc1:2,n:4,ds:5111,mo:1,lm:1
/exp/pberck/wopr/wopr -s do_pdt2.wopr_script -p file0:../nyt.3e7.100000,lc0:8,id:PDT3_50208,timbl0:-a1 +D,dl:5,test:nyt.tail1000,file1:../nyt.3e7.100000,timbl1:-a1 +D,lc1:2,n:5,ds:51111,mo:1,lm:1
/exp/pberck/wopr/wopr -s do_pdt2.wopr_script -p file0:../nyt.3e7.100000,lc0:8,id:PDT3_50209,timbl0:-a1 +D,dl:5,test:nyt.tail1000,file1:../nyt.3e7.100000,timbl1:-a1 +D,lc1:2,n:6,ds:511111,mo:1,lm:1
/exp/pberck/wopr/wopr -s do_pdt2.wopr_script -p file0:../nyt.3e7.100000,lc0:10,id:PDT3_50210,timbl0:-a1 +D,dl:5,test:nyt.tail1000,file1:../nyt.3e7.100000,timbl1:-a1 +D,lc1:2,n:1,ds:5,mo:1,lm:1
/exp/pberck/wopr/wopr -s do_pdt2.wopr_script -p file0:../nyt.3e7.100000,lc0:10,id:PDT3_50211,timbl0:-a1 +D,dl:5,test:nyt.tail1000,file1:../nyt.3e7.100000,timbl1:-a1 +D,lc1:2,n:2,ds:51,mo:1,lm:1
/exp/pberck/wopr/wopr -s do_pdt2.wopr_script -p file0:../nyt.3e7.100000,lc0:10,id:PDT3_50212,timbl0:-a1 +D,dl:5,test:nyt.tail1000,file1:../nyt.3e7.100000,timbl1:-a1 +D,lc1:2,n:4,ds:5111,mo:1,lm:1
/exp/pberck/wopr/wopr -s do_pdt2.wopr_script -p file0:../nyt.3e7.100000,lc0:10,id:PDT3_50213,timbl0:-a1 +D,dl:5,test:nyt.tail1000,file1:../nyt.3e7.100000,timbl1:-a1 +D,lc1:2,n:5,ds:51111,mo:1,lm:1
/exp/pberck/wopr/wopr -s do_pdt2.wopr_script -p file0:../nyt.3e7.100000,lc0:10,id:PDT3_50214,timbl0:-a1 +D,dl:5,test:nyt.tail1000,file1:../nyt.3e7.100000,timbl1:-a1 +D,lc1:2,n:6,ds:511111,mo:1,lm:1
/exp/pberck/wopr/wopr -s do_pdt2.wopr_script -p file0:../nyt.3e7.100000,lc0:12,id:PDT3_50215,timbl0:-a1 +D,dl:5,test:nyt.tail1000,file1:../nyt.3e7.100000,timbl1:-a1 +D,lc1:2,n:1,ds:5,mo:1,lm:1
/exp/pberck/wopr/wopr -s do_pdt2.wopr_script -p file0:../nyt.3e7.100000,lc0:12,id:PDT3_50216,timbl0:-a1 +D,dl:5,test:nyt.tail1000,file1:../nyt.3e7.100000,timbl1:-a1 +D,lc1:2,n:2,ds:51,mo:1,lm:1
/exp/pberck/wopr/wopr -s do_pdt2.wopr_script -p file0:../nyt.3e7.100000,lc0:12,id:PDT3_50217,timbl0:-a1 +D,dl:5,test:nyt.tail1000,file1:../nyt.3e7.100000,timbl1:-a1 +D,lc1:2,n:4,ds:5111,mo:1,lm:1
/exp/pberck/wopr/wopr -s do_pdt2.wopr_script -p file0:../nyt.3e7.100000,lc0:12,id:PDT3_50218,timbl0:-a1 +D,dl:5,test:nyt.tail1000,file1:../nyt.3e7.100000,timbl1:-a1 +D,lc1:2,n:5,ds:51111,mo:1,lm:1
/exp/pberck/wopr/wopr -s do_pdt2.wopr_script -p file0:../nyt.3e7.100000,lc0:12,id:PDT3_50219,timbl0:-a1 +D,dl:5,test:nyt.tail1000,file1:../nyt.3e7.100000,timbl1:-a1 +D,lc1:2,n:6,ds:511111,mo:1,lm:1
/exp/pberck/wopr/wopr -s do_pdt2.wopr_script -p file0:../nyt.3e7.100000,lc0:16,id:PDT3_50220,timbl0:-a1 +D,dl:5,test:nyt.tail1000,file1:../nyt.3e7.100000,timbl1:-a1 +D,lc1:2,n:1,ds:5,mo:1,lm:1
/exp/pberck/wopr/wopr -s do_pdt2.wopr_script -p file0:../nyt.3e7.100000,lc0:16,id:PDT3_50221,timbl0:-a1 +D,dl:5,test:nyt.tail1000,file1:../nyt.3e7.100000,timbl1:-a1 +D,lc1:2,n:2,ds:51,mo:1,lm:1
/exp/pberck/wopr/wopr -s do_pdt2.wopr_script -p file0:../nyt.3e7.100000,lc0:16,id:PDT3_50222,timbl0:-a1 +D,dl:5,test:nyt.tail1000,file1:../nyt.3e7.100000,timbl1:-a1 +D,lc1:2,n:4,ds:5111,mo:1,lm:1
/exp/pberck/wopr/wopr -s do_pdt2.wopr_script -p file0:../nyt.3e7.100000,lc0:16,id:PDT3_50223,timbl0:-a1 +D,dl:5,test:nyt.tail1000,file1:../nyt.3e7.100000,timbl1:-a1 +D,lc1:2,n:5,ds:51111,mo:1,lm:1
/exp/pberck/wopr/wopr -s do_pdt2.wopr_script -p file0:../nyt.3e7.100000,lc0:16,id:PDT3_50224,timbl0:-a1 +D,dl:5,test:nyt.tail1000,file1:../nyt.3e7.100000,timbl1:-a1 +D,lc1:2,n:6,ds:511111,mo:1,lm:1
/exp/pberck/wopr/wopr -s do_pdt2.wopr_script -p file0:../nyt.3e7.500000,lc0:2,id:PDT3_50225,timbl0:-a1 +D,dl:5,test:nyt.tail1000,file1:../nyt.3e7.500000,timbl1:-a1 +D,lc1:2,n:1,ds:5,mo:1,lm:1
/exp/pberck/wopr/wopr -s do_pdt2.wopr_script -p file0:../nyt.3e7.500000,lc0:2,id:PDT3_50226,timbl0:-a1 +D,dl:5,test:nyt.tail1000,file1:../nyt.3e7.500000,timbl1:-a1 +D,lc1:2,n:2,ds:51,mo:1,lm:1
/exp/pberck/wopr/wopr -s do_pdt2.wopr_script -p file0:../nyt.3e7.500000,lc0:2,id:PDT3_50227,timbl0:-a1 +D,dl:5,test:nyt.tail1000,file1:../nyt.3e7.500000,timbl1:-a1 +D,lc1:2,n:4,ds:5111,mo:1,lm:1
/exp/pberck/wopr/wopr -s do_pdt2.wopr_script -p file0:../nyt.3e7.500000,lc0:2,id:PDT3_50228,timbl0:-a1 +D,dl:5,test:nyt.tail1000,file1:../nyt.3e7.500000,timbl1:-a1 +D,lc1:2,n:5,ds:51111,mo:1,lm:1
/exp/pberck/wopr/wopr -s do_pdt2.wopr_script -p file0:../nyt.3e7.500000,lc0:2,id:PDT3_50229,timbl0:-a1 +D,dl:5,test:nyt.tail1000,file1:../nyt.3e7.500000,timbl1:-a1 +D,lc1:2,n:6,ds:511111,mo:1,lm:1
/exp/pberck/wopr/wopr -s do_pdt2.wopr_script -p file0:../nyt.3e7.500000,lc0:3,id:PDT3_50230,timbl0:-a1 +D,dl:5,test:nyt.tail1000,file1:../nyt.3e7.500000,timbl1:-a1 +D,lc1:2,n:1,ds:5,mo:1,lm:1
/exp/pberck/wopr/wopr -s do_pdt2.wopr_script -p file0:../nyt.3e7.500000,lc0:3,id:PDT3_50231,timbl0:-a1 +D,dl:5,test:nyt.tail1000,file1:../nyt.3e7.500000,timbl1:-a1 +D,lc1:2,n:2,ds:51,mo:1,lm:1
/exp/pberck/wopr/wopr -s do_pdt2.wopr_script -p file0:../nyt.3e7.500000,lc0:3,id:PDT3_50232,timbl0:-a1 +D,dl:5,test:nyt.tail1000,file1:../nyt.3e7.500000,timbl1:-a1 +D,lc1:2,n:4,ds:5111,mo:1,lm:1
/exp/pberck/wopr/wopr -s do_pdt2.wopr_script -p file0:../nyt.3e7.500000,lc0:3,id:PDT3_50233,timbl0:-a1 +D,dl:5,test:nyt.tail1000,file1:../nyt.3e7.500000,timbl1:-a1 +D,lc1:2,n:5,ds:51111,mo:1,lm:1
/exp/pberck/wopr/wopr -s do_pdt2.wopr_script -p file0:../nyt.3e7.500000,lc0:3,id:PDT3_50234,timbl0:-a1 +D,dl:5,test:nyt.tail1000,file1:../nyt.3e7.500000,timbl1:-a1 +D,lc1:2,n:6,ds:511111,mo:1,lm:1
/exp/pberck/wopr/wopr -s do_pdt2.wopr_script -p file0:../nyt.3e7.500000,lc0:4,id:PDT3_50235,timbl0:-a1 +D,dl:5,test:nyt.tail1000,file1:../nyt.3e7.500000,timbl1:-a1 +D,lc1:2,n:1,ds:5,mo:1,lm:1
/exp/pberck/wopr/wopr -s do_pdt2.wopr_script -p file0:../nyt.3e7.500000,lc0:4,id:PDT3_50236,timbl0:-a1 +D,dl:5,test:nyt.tail1000,file1:../nyt.3e7.500000,timbl1:-a1 +D,lc1:2,n:2,ds:51,mo:1,lm:1
/exp/pberck/wopr/wopr -s do_pdt2.wopr_script -p file0:../nyt.3e7.500000,lc0:4,id:PDT3_50237,timbl0:-a1 +D,dl:5,test:nyt.tail1000,file1:../nyt.3e7.500000,timbl1:-a1 +D,lc1:2,n:4,ds:5111,mo:1,lm:1
/exp/pberck/wopr/wopr -s do_pdt2.wopr_script -p file0:../nyt.3e7.500000,lc0:4,id:PDT3_50238,timbl0:-a1 +D,dl:5,test:nyt.tail1000,file1:../nyt.3e7.500000,timbl1:-a1 +D,lc1:2,n:5,ds:51111,mo:1,lm:1
/exp/pberck/wopr/wopr -s do_pdt2.wopr_script -p file0:../nyt.3e7.500000,lc0:4,id:PDT3_50239,timbl0:-a1 +D,dl:5,test:nyt.tail1000,file1:../nyt.3e7.500000,timbl1:-a1 +D,lc1:2,n:6,ds:511111,mo:1,lm:1
/exp/pberck/wopr/wopr -s do_pdt2.wopr_script -p file0:../nyt.3e7.500000,lc0:5,id:PDT3_50240,timbl0:-a1 +D,dl:5,test:nyt.tail1000,file1:../nyt.3e7.500000,timbl1:-a1 +D,lc1:2,n:1,ds:5,mo:1,lm:1
/exp/pberck/wopr/wopr -s do_pdt2.wopr_script -p file0:../nyt.3e7.500000,lc0:5,id:PDT3_50241,timbl0:-a1 +D,dl:5,test:nyt.tail1000,file1:../nyt.3e7.500000,timbl1:-a1 +D,lc1:2,n:2,ds:51,mo:1,lm:1
/exp/pberck/wopr/wopr -s do_pdt2.wopr_script -p file0:../nyt.3e7.500000,lc0:5,id:PDT3_50242,timbl0:-a1 +D,dl:5,test:nyt.tail1000,file1:../nyt.3e7.500000,timbl1:-a1 +D,lc1:2,n:4,ds:5111,mo:1,lm:1
/exp/pberck/wopr/wopr -s do_pdt2.wopr_script -p file0:../nyt.3e7.500000,lc0:5,id:PDT3_50243,timbl0:-a1 +D,dl:5,test:nyt.tail1000,file1:../nyt.3e7.500000,timbl1:-a1 +D,lc1:2,n:5,ds:51111,mo:1,lm:1
/exp/pberck/wopr/wopr -s do_pdt2.wopr_script -p file0:../nyt.3e7.500000,lc0:5,id:PDT3_50244,timbl0:-a1 +D,dl:5,test:nyt.tail1000,file1:../nyt.3e7.500000,timbl1:-a1 +D,lc1:2,n:6,ds:511111,mo:1,lm:1
/exp/pberck/wopr/wopr -s do_pdt2.wopr_script -p file0:../nyt.3e7.500000,lc0:6,id:PDT3_50245,timbl0:-a1 +D,dl:5,test:nyt.tail1000,file1:../nyt.3e7.500000,timbl1:-a1 +D,lc1:2,n:1,ds:5,mo:1,lm:1
/exp/pberck/wopr/wopr -s do_pdt2.wopr_script -p file0:../nyt.3e7.500000,lc0:6,id:PDT3_50246,timbl0:-a1 +D,dl:5,test:nyt.tail1000,file1:../nyt.3e7.500000,timbl1:-a1 +D,lc1:2,n:2,ds:51,mo:1,lm:1
/exp/pberck/wopr/wopr -s do_pdt2.wopr_script -p file0:../nyt.3e7.500000,lc0:6,id:PDT3_50247,timbl0:-a1 +D,dl:5,test:nyt.tail1000,file1:../nyt.3e7.500000,timbl1:-a1 +D,lc1:2,n:4,ds:5111,mo:1,lm:1
/exp/pberck/wopr/wopr -s do_pdt2.wopr_script -p file0:../nyt.3e7.500000,lc0:6,id:PDT3_50248,timbl0:-a1 +D,dl:5,test:nyt.tail1000,file1:../nyt.3e7.500000,timbl1:-a1 +D,lc1:2,n:5,ds:51111,mo:1,lm:1
/exp/pberck/wopr/wopr -s do_pdt2.wopr_script -p file0:../nyt.3e7.500000,lc0:6,id:PDT3_50249,timbl0:-a1 +D,dl:5,test:nyt.tail1000,file1:../nyt.3e7.500000,timbl1:-a1 +D,lc1:2,n:6,ds:511111,mo:1,lm:1
/exp/pberck/wopr/wopr -s do_pdt2.wopr_script -p file0:../nyt.3e7.500000,lc0:8,id:PDT3_50250,timbl0:-a1 +D,dl:5,test:nyt.tail1000,file1:../nyt.3e7.500000,timbl1:-a1 +D,lc1:2,n:1,ds:5,mo:1,lm:1
/exp/pberck/wopr/wopr -s do_pdt2.wopr_script -p file0:../nyt.3e7.500000,lc0:8,id:PDT3_50251,timbl0:-a1 +D,dl:5,test:nyt.tail1000,file1:../nyt.3e7.500000,timbl1:-a1 +D,lc1:2,n:2,ds:51,mo:1,lm:1
/exp/pberck/wopr/wopr -s do_pdt2.wopr_script -p file0:../nyt.3e7.500000,lc0:8,id:PDT3_50252,timbl0:-a1 +D,dl:5,test:nyt.tail1000,file1:../nyt.3e7.500000,timbl1:-a1 +D,lc1:2,n:4,ds:5111,mo:1,lm:1
/exp/pberck/wopr/wopr -s do_pdt2.wopr_script -p file0:../nyt.3e7.500000,lc0:8,id:PDT3_50253,timbl0:-a1 +D,dl:5,test:nyt.tail1000,file1:../nyt.3e7.500000,timbl1:-a1 +D,lc1:2,n:5,ds:51111,mo:1,lm:1
/exp/pberck/wopr/wopr -s do_pdt2.wopr_script -p file0:../nyt.3e7.500000,lc0:8,id:PDT3_50254,timbl0:-a1 +D,dl:5,test:nyt.tail1000,file1:../nyt.3e7.500000,timbl1:-a1 +D,lc1:2,n:6,ds:511111,mo:1,lm:1
/exp/pberck/wopr/wopr -s do_pdt2.wopr_script -p file0:../nyt.3e7.500000,lc0:10,id:PDT3_50255,timbl0:-a1 +D,dl:5,test:nyt.tail1000,file1:../nyt.3e7.500000,timbl1:-a1 +D,lc1:2,n:1,ds:5,mo:1,lm:1
/exp/pberck/wopr/wopr -s do_pdt2.wopr_script -p file0:../nyt.3e7.500000,lc0:10,id:PDT3_50256,timbl0:-a1 +D,dl:5,test:nyt.tail1000,file1:../nyt.3e7.500000,timbl1:-a1 +D,lc1:2,n:2,ds:51,mo:1,lm:1
/exp/pberck/wopr/wopr -s do_pdt2.wopr_script -p file0:../nyt.3e7.500000,lc0:10,id:PDT3_50257,timbl0:-a1 +D,dl:5,test:nyt.tail1000,file1:../nyt.3e7.500000,timbl1:-a1 +D,lc1:2,n:4,ds:5111,mo:1,lm:1
/exp/pberck/wopr/wopr -s do_pdt2.wopr_script -p file0:../nyt.3e7.500000,lc0:10,id:PDT3_50258,timbl0:-a1 +D,dl:5,test:nyt.tail1000,file1:../nyt.3e7.500000,timbl1:-a1 +D,lc1:2,n:5,ds:51111,mo:1,lm:1
/exp/pberck/wopr/wopr -s do_pdt2.wopr_script -p file0:../nyt.3e7.500000,lc0:10,id:PDT3_50259,timbl0:-a1 +D,dl:5,test:nyt.tail1000,file1:../nyt.3e7.500000,timbl1:-a1 +D,lc1:2,n:6,ds:511111,mo:1,lm:1
/exp/pberck/wopr/wopr -s do_pdt2.wopr_script -p file0:../nyt.3e7.500000,lc0:12,id:PDT3_50260,timbl0:-a1 +D,dl:5,test:nyt.tail1000,file1:../nyt.3e7.500000,timbl1:-a1 +D,lc1:2,n:1,ds:5,mo:1,lm:1
/exp/pberck/wopr/wopr -s do_pdt2.wopr_script -p file0:../nyt.3e7.500000,lc0:12,id:PDT3_50261,timbl0:-a1 +D,dl:5,test:nyt.tail1000,file1:../nyt.3e7.500000,timbl1:-a1 +D,lc1:2,n:2,ds:51,mo:1,lm:1
/exp/pberck/wopr/wopr -s do_pdt2.wopr_script -p file0:../nyt.3e7.500000,lc0:12,id:PDT3_50262,timbl0:-a1 +D,dl:5,test:nyt.tail1000,file1:../nyt.3e7.500000,timbl1:-a1 +D,lc1:2,n:4,ds:5111,mo:1,lm:1
/exp/pberck/wopr/wopr -s do_pdt2.wopr_script -p file0:../nyt.3e7.500000,lc0:12,id:PDT3_50263,timbl0:-a1 +D,dl:5,test:nyt.tail1000,file1:../nyt.3e7.500000,timbl1:-a1 +D,lc1:2,n:5,ds:51111,mo:1,lm:1
/exp/pberck/wopr/wopr -s do_pdt2.wopr_script -p file0:../nyt.3e7.500000,lc0:12,id:PDT3_50264,timbl0:-a1 +D,dl:5,test:nyt.tail1000,file1:../nyt.3e7.500000,timbl1:-a1 +D,lc1:2,n:6,ds:511111,mo:1,lm:1
/exp/pberck/wopr/wopr -s do_pdt2.wopr_script -p file0:../nyt.3e7.500000,lc0:16,id:PDT3_50265,timbl0:-a1 +D,dl:5,test:nyt.tail1000,file1:../nyt.3e7.500000,timbl1:-a1 +D,lc1:2,n:1,ds:5,mo:1,lm:1
/exp/pberck/wopr/wopr -s do_pdt2.wopr_script -p file0:../nyt.3e7.500000,lc0:16,id:PDT3_50266,timbl0:-a1 +D,dl:5,test:nyt.tail1000,file1:../nyt.3e7.500000,timbl1:-a1 +D,lc1:2,n:2,ds:51,mo:1,lm:1
/exp/pberck/wopr/wopr -s do_pdt2.wopr_script -p file0:../nyt.3e7.500000,lc0:16,id:PDT3_50267,timbl0:-a1 +D,dl:5,test:nyt.tail1000,file1:../nyt.3e7.500000,timbl1:-a1 +D,lc1:2,n:4,ds:5111,mo:1,lm:1
/exp/pberck/wopr/wopr -s do_pdt2.wopr_script -p file0:../nyt.3e7.500000,lc0:16,id:PDT3_50268,timbl0:-a1 +D,dl:5,test:nyt.tail1000,file1:../nyt.3e7.500000,timbl1:-a1 +D,lc1:2,n:5,ds:51111,mo:1,lm:1
/exp/pberck/wopr/wopr -s do_pdt2.wopr_script -p file0:../nyt.3e7.500000,lc0:16,id:PDT3_50269,timbl0:-a1 +D,dl:5,test:nyt.tail1000,file1:../nyt.3e7.500000,timbl1:-a1 +D,lc1:2,n:6,ds:511111,mo:1,lm:1
/exp/pberck/wopr/wopr -s do_pdt2.wopr_script -p file0:../nyt.3e7.1000000,lc0:2,id:PDT3_50270,timbl0:-a1 +D,dl:5,test:nyt.tail1000,file1:../nyt.3e7.1000000,timbl1:-a1 +D,lc1:2,n:1,ds:5,mo:1,lm:1
/exp/pberck/wopr/wopr -s do_pdt2.wopr_script -p file0:../nyt.3e7.1000000,lc0:2,id:PDT3_50271,timbl0:-a1 +D,dl:5,test:nyt.tail1000,file1:../nyt.3e7.1000000,timbl1:-a1 +D,lc1:2,n:2,ds:51,mo:1,lm:1
/exp/pberck/wopr/wopr -s do_pdt2.wopr_script -p file0:../nyt.3e7.1000000,lc0:2,id:PDT3_50272,timbl0:-a1 +D,dl:5,test:nyt.tail1000,file1:../nyt.3e7.1000000,timbl1:-a1 +D,lc1:2,n:4,ds:5111,mo:1,lm:1
/exp/pberck/wopr/wopr -s do_pdt2.wopr_script -p file0:../nyt.3e7.1000000,lc0:2,id:PDT3_50273,timbl0:-a1 +D,dl:5,test:nyt.tail1000,file1:../nyt.3e7.1000000,timbl1:-a1 +D,lc1:2,n:5,ds:51111,mo:1,lm:1
/exp/pberck/wopr/wopr -s do_pdt2.wopr_script -p file0:../nyt.3e7.1000000,lc0:2,id:PDT3_50274,timbl0:-a1 +D,dl:5,test:nyt.tail1000,file1:../nyt.3e7.1000000,timbl1:-a1 +D,lc1:2,n:6,ds:511111,mo:1,lm:1
/exp/pberck/wopr/wopr -s do_pdt2.wopr_script -p file0:../nyt.3e7.1000000,lc0:3,id:PDT3_50275,timbl0:-a1 +D,dl:5,test:nyt.tail1000,file1:../nyt.3e7.1000000,timbl1:-a1 +D,lc1:2,n:1,ds:5,mo:1,lm:1
/exp/pberck/wopr/wopr -s do_pdt2.wopr_script -p file0:../nyt.3e7.1000000,lc0:3,id:PDT3_50276,timbl0:-a1 +D,dl:5,test:nyt.tail1000,file1:../nyt.3e7.1000000,timbl1:-a1 +D,lc1:2,n:2,ds:51,mo:1,lm:1
/exp/pberck/wopr/wopr -s do_pdt2.wopr_script -p file0:../nyt.3e7.1000000,lc0:3,id:PDT3_50277,timbl0:-a1 +D,dl:5,test:nyt.tail1000,file1:../nyt.3e7.1000000,timbl1:-a1 +D,lc1:2,n:4,ds:5111,mo:1,lm:1
/exp/pberck/wopr/wopr -s do_pdt2.wopr_script -p file0:../nyt.3e7.1000000,lc0:3,id:PDT3_50278,timbl0:-a1 +D,dl:5,test:nyt.tail1000,file1:../nyt.3e7.1000000,timbl1:-a1 +D,lc1:2,n:5,ds:51111,mo:1,lm:1
/exp/pberck/wopr/wopr -s do_pdt2.wopr_script -p file0:../nyt.3e7.1000000,lc0:3,id:PDT3_50279,timbl0:-a1 +D,dl:5,test:nyt.tail1000,file1:../nyt.3e7.1000000,timbl1:-a1 +D,lc1:2,n:6,ds:511111,mo:1,lm:1
/exp/pberck/wopr/wopr -s do_pdt2.wopr_script -p file0:../nyt.3e7.1000000,lc0:4,id:PDT3_50280,timbl0:-a1 +D,dl:5,test:nyt.tail1000,file1:../nyt.3e7.1000000,timbl1:-a1 +D,lc1:2,n:1,ds:5,mo:1,lm:1
/exp/pberck/wopr/wopr -s do_pdt2.wopr_script -p file0:../nyt.3e7.1000000,lc0:4,id:PDT3_50281,timbl0:-a1 +D,dl:5,test:nyt.tail1000,file1:../nyt.3e7.1000000,timbl1:-a1 +D,lc1:2,n:2,ds:51,mo:1,lm:1
/exp/pberck/wopr/wopr -s do_pdt2.wopr_script -p file0:../nyt.3e7.1000000,lc0:4,id:PDT3_50282,timbl0:-a1 +D,dl:5,test:nyt.tail1000,file1:../nyt.3e7.1000000,timbl1:-a1 +D,lc1:2,n:4,ds:5111,mo:1,lm:1
/exp/pberck/wopr/wopr -s do_pdt2.wopr_script -p file0:../nyt.3e7.1000000,lc0:4,id:PDT3_50283,timbl0:-a1 +D,dl:5,test:nyt.tail1000,file1:../nyt.3e7.1000000,timbl1:-a1 +D,lc1:2,n:5,ds:51111,mo:1,lm:1
/exp/pberck/wopr/wopr -s do_pdt2.wopr_script -p file0:../nyt.3e7.1000000,lc0:4,id:PDT3_50284,timbl0:-a1 +D,dl:5,test:nyt.tail1000,file1:../nyt.3e7.1000000,timbl1:-a1 +D,lc1:2,n:6,ds:511111,mo:1,lm:1
/exp/pberck/wopr/wopr -s do_pdt2.wopr_script -p file0:../nyt.3e7.1000000,lc0:5,id:PDT3_50285,timbl0:-a1 +D,dl:5,test:nyt.tail1000,file1:../nyt.3e7.1000000,timbl1:-a1 +D,lc1:2,n:1,ds:5,mo:1,lm:1
/exp/pberck/wopr/wopr -s do_pdt2.wopr_script -p file0:../nyt.3e7.1000000,lc0:5,id:PDT3_50286,timbl0:-a1 +D,dl:5,test:nyt.tail1000,file1:../nyt.3e7.1000000,timbl1:-a1 +D,lc1:2,n:2,ds:51,mo:1,lm:1
/exp/pberck/wopr/wopr -s do_pdt2.wopr_script -p file0:../nyt.3e7.1000000,lc0:5,id:PDT3_50287,timbl0:-a1 +D,dl:5,test:nyt.tail1000,file1:../nyt.3e7.1000000,timbl1:-a1 +D,lc1:2,n:4,ds:5111,mo:1,lm:1
/exp/pberck/wopr/wopr -s do_pdt2.wopr_script -p file0:../nyt.3e7.1000000,lc0:5,id:PDT3_50288,timbl0:-a1 +D,dl:5,test:nyt.tail1000,file1:../nyt.3e7.1000000,timbl1:-a1 +D,lc1:2,n:5,ds:51111,mo:1,lm:1
/exp/pberck/wopr/wopr -s do_pdt2.wopr_script -p file0:../nyt.3e7.1000000,lc0:5,id:PDT3_50289,timbl0:-a1 +D,dl:5,test:nyt.tail1000,file1:../nyt.3e7.1000000,timbl1:-a1 +D,lc1:2,n:6,ds:511111,mo:1,lm:1
/exp/pberck/wopr/wopr -s do_pdt2.wopr_script -p file0:../nyt.3e7.1000000,lc0:6,id:PDT3_50290,timbl0:-a1 +D,dl:5,test:nyt.tail1000,file1:../nyt.3e7.1000000,timbl1:-a1 +D,lc1:2,n:1,ds:5,mo:1,lm:1
/exp/pberck/wopr/wopr -s do_pdt2.wopr_script -p file0:../nyt.3e7.1000000,lc0:6,id:PDT3_50291,timbl0:-a1 +D,dl:5,test:nyt.tail1000,file1:../nyt.3e7.1000000,timbl1:-a1 +D,lc1:2,n:2,ds:51,mo:1,lm:1
/exp/pberck/wopr/wopr -s do_pdt2.wopr_script -p file0:../nyt.3e7.1000000,lc0:6,id:PDT3_50292,timbl0:-a1 +D,dl:5,test:nyt.tail1000,file1:../nyt.3e7.1000000,timbl1:-a1 +D,lc1:2,n:4,ds:5111,mo:1,lm:1
/exp/pberck/wopr/wopr -s do_pdt2.wopr_script -p file0:../nyt.3e7.1000000,lc0:6,id:PDT3_50293,timbl0:-a1 +D,dl:5,test:nyt.tail1000,file1:../nyt.3e7.1000000,timbl1:-a1 +D,lc1:2,n:5,ds:51111,mo:1,lm:1
/exp/pberck/wopr/wopr -s do_pdt2.wopr_script -p file0:../nyt.3e7.1000000,lc0:6,id:PDT3_50294,timbl0:-a1 +D,dl:5,test:nyt.tail1000,file1:../nyt.3e7.1000000,timbl1:-a1 +D,lc1:2,n:6,ds:511111,mo:1,lm:1
/exp/pberck/wopr/wopr -s do_pdt2.wopr_script -p file0:../nyt.3e7.1000000,lc0:8,id:PDT3_50295,timbl0:-a1 +D,dl:5,test:nyt.tail1000,file1:../nyt.3e7.1000000,timbl1:-a1 +D,lc1:2,n:1,ds:5,mo:1,lm:1
/exp/pberck/wopr/wopr -s do_pdt2.wopr_script -p file0:../nyt.3e7.1000000,lc0:8,id:PDT3_50296,timbl0:-a1 +D,dl:5,test:nyt.tail1000,file1:../nyt.3e7.1000000,timbl1:-a1 +D,lc1:2,n:2,ds:51,mo:1,lm:1
/exp/pberck/wopr/wopr -s do_pdt2.wopr_script -p file0:../nyt.3e7.1000000,lc0:8,id:PDT3_50297,timbl0:-a1 +D,dl:5,test:nyt.tail1000,file1:../nyt.3e7.1000000,timbl1:-a1 +D,lc1:2,n:4,ds:5111,mo:1,lm:1
/exp/pberck/wopr/wopr -s do_pdt2.wopr_script -p file0:../nyt.3e7.1000000,lc0:8,id:PDT3_50298,timbl0:-a1 +D,dl:5,test:nyt.tail1000,file1:../nyt.3e7.1000000,timbl1:-a1 +D,lc1:2,n:5,ds:51111,mo:1,lm:1
/exp/pberck/wopr/wopr -s do_pdt2.wopr_script -p file0:../nyt.3e7.1000000,lc0:8,id:PDT3_50299,timbl0:-a1 +D,dl:5,test:nyt.tail1000,file1:../nyt.3e7.1000000,timbl1:-a1 +D,lc1:2,n:6,ds:511111,mo:1,lm:1
/exp/pberck/wopr/wopr -s do_pdt2.wopr_script -p file0:../nyt.3e7.1000000,lc0:10,id:PDT3_50300,timbl0:-a1 +D,dl:5,test:nyt.tail1000,file1:../nyt.3e7.1000000,timbl1:-a1 +D,lc1:2,n:1,ds:5,mo:1,lm:1
/exp/pberck/wopr/wopr -s do_pdt2.wopr_script -p file0:../nyt.3e7.1000000,lc0:10,id:PDT3_50301,timbl0:-a1 +D,dl:5,test:nyt.tail1000,file1:../nyt.3e7.1000000,timbl1:-a1 +D,lc1:2,n:2,ds:51,mo:1,lm:1
/exp/pberck/wopr/wopr -s do_pdt2.wopr_script -p file0:../nyt.3e7.1000000,lc0:10,id:PDT3_50302,timbl0:-a1 +D,dl:5,test:nyt.tail1000,file1:../nyt.3e7.1000000,timbl1:-a1 +D,lc1:2,n:4,ds:5111,mo:1,lm:1
/exp/pberck/wopr/wopr -s do_pdt2.wopr_script -p file0:../nyt.3e7.1000000,lc0:10,id:PDT3_50303,timbl0:-a1 +D,dl:5,test:nyt.tail1000,file1:../nyt.3e7.1000000,timbl1:-a1 +D,lc1:2,n:5,ds:51111,mo:1,lm:1
/exp/pberck/wopr/wopr -s do_pdt2.wopr_script -p file0:../nyt.3e7.1000000,lc0:10,id:PDT3_50304,timbl0:-a1 +D,dl:5,test:nyt.tail1000,file1:../nyt.3e7.1000000,timbl1:-a1 +D,lc1:2,n:6,ds:511111,mo:1,lm:1
/exp/pberck/wopr/wopr -s do_pdt2.wopr_script -p file0:../nyt.3e7.1000000,lc0:12,id:PDT3_50305,timbl0:-a1 +D,dl:5,test:nyt.tail1000,file1:../nyt.3e7.1000000,timbl1:-a1 +D,lc1:2,n:1,ds:5,mo:1,lm:1
/exp/pberck/wopr/wopr -s do_pdt2.wopr_script -p file0:../nyt.3e7.1000000,lc0:12,id:PDT3_50306,timbl0:-a1 +D,dl:5,test:nyt.tail1000,file1:../nyt.3e7.1000000,timbl1:-a1 +D,lc1:2,n:2,ds:51,mo:1,lm:1
/exp/pberck/wopr/wopr -s do_pdt2.wopr_script -p file0:../nyt.3e7.1000000,lc0:12,id:PDT3_50307,timbl0:-a1 +D,dl:5,test:nyt.tail1000,file1:../nyt.3e7.1000000,timbl1:-a1 +D,lc1:2,n:4,ds:5111,mo:1,lm:1
/exp/pberck/wopr/wopr -s do_pdt2.wopr_script -p file0:../nyt.3e7.1000000,lc0:12,id:PDT3_50308,timbl0:-a1 +D,dl:5,test:nyt.tail1000,file1:../nyt.3e7.1000000,timbl1:-a1 +D,lc1:2,n:5,ds:51111,mo:1,lm:1
/exp/pberck/wopr/wopr -s do_pdt2.wopr_script -p file0:../nyt.3e7.1000000,lc0:12,id:PDT3_50309,timbl0:-a1 +D,dl:5,test:nyt.tail1000,file1:../nyt.3e7.1000000,timbl1:-a1 +D,lc1:2,n:6,ds:511111,mo:1,lm:1
/exp/pberck/wopr/wopr -s do_pdt2.wopr_script -p file0:../nyt.3e7.1000000,lc0:16,id:PDT3_50310,timbl0:-a1 +D,dl:5,test:nyt.tail1000,file1:../nyt.3e7.1000000,timbl1:-a1 +D,lc1:2,n:1,ds:5,mo:1,lm:1
/exp/pberck/wopr/wopr -s do_pdt2.wopr_script -p file0:../nyt.3e7.1000000,lc0:16,id:PDT3_50311,timbl0:-a1 +D,dl:5,test:nyt.tail1000,file1:../nyt.3e7.1000000,timbl1:-a1 +D,lc1:2,n:2,ds:51,mo:1,lm:1
/exp/pberck/wopr/wopr -s do_pdt2.wopr_script -p file0:../nyt.3e7.1000000,lc0:16,id:PDT3_50312,timbl0:-a1 +D,dl:5,test:nyt.tail1000,file1:../nyt.3e7.1000000,timbl1:-a1 +D,lc1:2,n:4,ds:5111,mo:1,lm:1
/exp/pberck/wopr/wopr -s do_pdt2.wopr_script -p file0:../nyt.3e7.1000000,lc0:16,id:PDT3_50313,timbl0:-a1 +D,dl:5,test:nyt.tail1000,file1:../nyt.3e7.1000000,timbl1:-a1 +D,lc1:2,n:5,ds:51111,mo:1,lm:1
/exp/pberck/wopr/wopr -s do_pdt2.wopr_script -p file0:../nyt.3e7.1000000,lc0:16,id:PDT3_50314,timbl0:-a1 +D,dl:5,test:nyt.tail1000,file1:../nyt.3e7.1000000,timbl1:-a1 +D,lc1:2,n:6,ds:511111,mo:1,lm:1
/exp/pberck/wopr/wopr -s do_pdt2.wopr_script -p file0:../nyt.3e7.1000000,lc0:2,id:PDT3_50315,timbl0:-a1 +D,dl:5,test:nyt.tail1000,file1:../nyt.3e7.5000000,timbl1:-a1 +D,lc1:2,n:1,ds:5,mo:1,lm:1
/exp/pberck/wopr/wopr -s do_pdt2.wopr_script -p file0:../nyt.3e7.1000000,lc0:2,id:PDT3_50316,timbl0:-a1 +D,dl:5,test:nyt.tail1000,file1:../nyt.3e7.5000000,timbl1:-a1 +D,lc1:2,n:2,ds:51,mo:1,lm:1
/exp/pberck/wopr/wopr -s do_pdt2.wopr_script -p file0:../nyt.3e7.1000000,lc0:2,id:PDT3_50317,timbl0:-a1 +D,dl:5,test:nyt.tail1000,file1:../nyt.3e7.5000000,timbl1:-a1 +D,lc1:2,n:4,ds:5111,mo:1,lm:1
/exp/pberck/wopr/wopr -s do_pdt2.wopr_script -p file0:../nyt.3e7.1000000,lc0:2,id:PDT3_50318,timbl0:-a1 +D,dl:5,test:nyt.tail1000,file1:../nyt.3e7.5000000,timbl1:-a1 +D,lc1:2,n:5,ds:51111,mo:1,lm:1
/exp/pberck/wopr/wopr -s do_pdt2.wopr_script -p file0:../nyt.3e7.1000000,lc0:2,id:PDT3_50319,timbl0:-a1 +D,dl:5,test:nyt.tail1000,file1:../nyt.3e7.5000000,timbl1:-a1 +D,lc1:2,n:6,ds:511111,mo:1,lm:1
/exp/pberck/wopr/wopr -s do_pdt2.wopr_script -p file0:../nyt.3e7.1000000,lc0:3,id:PDT3_50320,timbl0:-a1 +D,dl:5,test:nyt.tail1000,file1:../nyt.3e7.5000000,timbl1:-a1 +D,lc1:2,n:1,ds:5,mo:1,lm:1
/exp/pberck/wopr/wopr -s do_pdt2.wopr_script -p file0:../nyt.3e7.1000000,lc0:3,id:PDT3_50321,timbl0:-a1 +D,dl:5,test:nyt.tail1000,file1:../nyt.3e7.5000000,timbl1:-a1 +D,lc1:2,n:2,ds:51,mo:1,lm:1
/exp/pberck/wopr/wopr -s do_pdt2.wopr_script -p file0:../nyt.3e7.1000000,lc0:3,id:PDT3_50322,timbl0:-a1 +D,dl:5,test:nyt.tail1000,file1:../nyt.3e7.5000000,timbl1:-a1 +D,lc1:2,n:4,ds:5111,mo:1,lm:1
/exp/pberck/wopr/wopr -s do_pdt2.wopr_script -p file0:../nyt.3e7.1000000,lc0:3,id:PDT3_50323,timbl0:-a1 +D,dl:5,test:nyt.tail1000,file1:../nyt.3e7.5000000,timbl1:-a1 +D,lc1:2,n:5,ds:51111,mo:1,lm:1
/exp/pberck/wopr/wopr -s do_pdt2.wopr_script -p file0:../nyt.3e7.1000000,lc0:3,id:PDT3_50324,timbl0:-a1 +D,dl:5,test:nyt.tail1000,file1:../nyt.3e7.5000000,timbl1:-a1 +D,lc1:2,n:6,ds:511111,mo:1,lm:1
/exp/pberck/wopr/wopr -s do_pdt2.wopr_script -p file0:../nyt.3e7.1000000,lc0:4,id:PDT3_50325,timbl0:-a1 +D,dl:5,test:nyt.tail1000,file1:../nyt.3e7.5000000,timbl1:-a1 +D,lc1:2,n:1,ds:5,mo:1,lm:1
/exp/pberck/wopr/wopr -s do_pdt2.wopr_script -p file0:../nyt.3e7.1000000,lc0:4,id:PDT3_50326,timbl0:-a1 +D,dl:5,test:nyt.tail1000,file1:../nyt.3e7.5000000,timbl1:-a1 +D,lc1:2,n:2,ds:51,mo:1,lm:1
/exp/pberck/wopr/wopr -s do_pdt2.wopr_script -p file0:../nyt.3e7.1000000,lc0:4,id:PDT3_50327,timbl0:-a1 +D,dl:5,test:nyt.tail1000,file1:../nyt.3e7.5000000,timbl1:-a1 +D,lc1:2,n:4,ds:5111,mo:1,lm:1
/exp/pberck/wopr/wopr -s do_pdt2.wopr_script -p file0:../nyt.3e7.1000000,lc0:4,id:PDT3_50328,timbl0:-a1 +D,dl:5,test:nyt.tail1000,file1:../nyt.3e7.5000000,timbl1:-a1 +D,lc1:2,n:5,ds:51111,mo:1,lm:1
/exp/pberck/wopr/wopr -s do_pdt2.wopr_script -p file0:../nyt.3e7.1000000,lc0:4,id:PDT3_50329,timbl0:-a1 +D,dl:5,test:nyt.tail1000,file1:../nyt.3e7.5000000,timbl1:-a1 +D,lc1:2,n:6,ds:511111,mo:1,lm:1
/exp/pberck/wopr/wopr -s do_pdt2.wopr_script -p file0:../nyt.3e7.1000000,lc0:5,id:PDT3_50330,timbl0:-a1 +D,dl:5,test:nyt.tail1000,file1:../nyt.3e7.5000000,timbl1:-a1 +D,lc1:2,n:1,ds:5,mo:1,lm:1
/exp/pberck/wopr/wopr -s do_pdt2.wopr_script -p file0:../nyt.3e7.1000000,lc0:5,id:PDT3_50331,timbl0:-a1 +D,dl:5,test:nyt.tail1000,file1:../nyt.3e7.5000000,timbl1:-a1 +D,lc1:2,n:2,ds:51,mo:1,lm:1
/exp/pberck/wopr/wopr -s do_pdt2.wopr_script -p file0:../nyt.3e7.1000000,lc0:5,id:PDT3_50332,timbl0:-a1 +D,dl:5,test:nyt.tail1000,file1:../nyt.3e7.5000000,timbl1:-a1 +D,lc1:2,n:4,ds:5111,mo:1,lm:1
/exp/pberck/wopr/wopr -s do_pdt2.wopr_script -p file0:../nyt.3e7.1000000,lc0:5,id:PDT3_50333,timbl0:-a1 +D,dl:5,test:nyt.tail1000,file1:../nyt.3e7.5000000,timbl1:-a1 +D,lc1:2,n:5,ds:51111,mo:1,lm:1
/exp/pberck/wopr/wopr -s do_pdt2.wopr_script -p file0:../nyt.3e7.1000000,lc0:5,id:PDT3_50334,timbl0:-a1 +D,dl:5,test:nyt.tail1000,file1:../nyt.3e7.5000000,timbl1:-a1 +D,lc1:2,n:6,ds:511111,mo:1,lm:1
/exp/pberck/wopr/wopr -s do_pdt2.wopr_script -p file0:../nyt.3e7.1000000,lc0:6,id:PDT3_50335,timbl0:-a1 +D,dl:5,test:nyt.tail1000,file1:../nyt.3e7.5000000,timbl1:-a1 +D,lc1:2,n:1,ds:5,mo:1,lm:1
/exp/pberck/wopr/wopr -s do_pdt2.wopr_script -p file0:../nyt.3e7.1000000,lc0:6,id:PDT3_50336,timbl0:-a1 +D,dl:5,test:nyt.tail1000,file1:../nyt.3e7.5000000,timbl1:-a1 +D,lc1:2,n:2,ds:51,mo:1,lm:1
/exp/pberck/wopr/wopr -s do_pdt2.wopr_script -p file0:../nyt.3e7.1000000,lc0:6,id:PDT3_50337,timbl0:-a1 +D,dl:5,test:nyt.tail1000,file1:../nyt.3e7.5000000,timbl1:-a1 +D,lc1:2,n:4,ds:5111,mo:1,lm:1
/exp/pberck/wopr/wopr -s do_pdt2.wopr_script -p file0:../nyt.3e7.1000000,lc0:6,id:PDT3_50338,timbl0:-a1 +D,dl:5,test:nyt.tail1000,file1:../nyt.3e7.5000000,timbl1:-a1 +D,lc1:2,n:5,ds:51111,mo:1,lm:1
/exp/pberck/wopr/wopr -s do_pdt2.wopr_script -p file0:../nyt.3e7.1000000,lc0:6,id:PDT3_50339,timbl0:-a1 +D,dl:5,test:nyt.tail1000,file1:../nyt.3e7.5000000,timbl1:-a1 +D,lc1:2,n:6,ds:511111,mo:1,lm:1
/exp/pberck/wopr/wopr -s do_pdt2.wopr_script -p file0:../nyt.3e7.1000000,lc0:8,id:PDT3_50340,timbl0:-a1 +D,dl:5,test:nyt.tail1000,file1:../nyt.3e7.5000000,timbl1:-a1 +D,lc1:2,n:1,ds:5,mo:1,lm:1
/exp/pberck/wopr/wopr -s do_pdt2.wopr_script -p file0:../nyt.3e7.1000000,lc0:8,id:PDT3_50341,timbl0:-a1 +D,dl:5,test:nyt.tail1000,file1:../nyt.3e7.5000000,timbl1:-a1 +D,lc1:2,n:2,ds:51,mo:1,lm:1
/exp/pberck/wopr/wopr -s do_pdt2.wopr_script -p file0:../nyt.3e7.1000000,lc0:8,id:PDT3_50342,timbl0:-a1 +D,dl:5,test:nyt.tail1000,file1:../nyt.3e7.5000000,timbl1:-a1 +D,lc1:2,n:4,ds:5111,mo:1,lm:1
/exp/pberck/wopr/wopr -s do_pdt2.wopr_script -p file0:../nyt.3e7.1000000,lc0:8,id:PDT3_50343,timbl0:-a1 +D,dl:5,test:nyt.tail1000,file1:../nyt.3e7.5000000,timbl1:-a1 +D,lc1:2,n:5,ds:51111,mo:1,lm:1
/exp/pberck/wopr/wopr -s do_pdt2.wopr_script -p file0:../nyt.3e7.1000000,lc0:8,id:PDT3_50344,timbl0:-a1 +D,dl:5,test:nyt.tail1000,file1:../nyt.3e7.5000000,timbl1:-a1 +D,lc1:2,n:6,ds:511111,mo:1,lm:1
/exp/pberck/wopr/wopr -s do_pdt2.wopr_script -p file0:../nyt.3e7.1000000,lc0:10,id:PDT3_50345,timbl0:-a1 +D,dl:5,test:nyt.tail1000,file1:../nyt.3e7.5000000,timbl1:-a1 +D,lc1:2,n:1,ds:5,mo:1,lm:1
/exp/pberck/wopr/wopr -s do_pdt2.wopr_script -p file0:../nyt.3e7.1000000,lc0:10,id:PDT3_50346,timbl0:-a1 +D,dl:5,test:nyt.tail1000,file1:../nyt.3e7.5000000,timbl1:-a1 +D,lc1:2,n:2,ds:51,mo:1,lm:1
/exp/pberck/wopr/wopr -s do_pdt2.wopr_script -p file0:../nyt.3e7.1000000,lc0:10,id:PDT3_50347,timbl0:-a1 +D,dl:5,test:nyt.tail1000,file1:../nyt.3e7.5000000,timbl1:-a1 +D,lc1:2,n:4,ds:5111,mo:1,lm:1
/exp/pberck/wopr/wopr -s do_pdt2.wopr_script -p file0:../nyt.3e7.1000000,lc0:10,id:PDT3_50348,timbl0:-a1 +D,dl:5,test:nyt.tail1000,file1:../nyt.3e7.5000000,timbl1:-a1 +D,lc1:2,n:5,ds:51111,mo:1,lm:1
/exp/pberck/wopr/wopr -s do_pdt2.wopr_script -p file0:../nyt.3e7.1000000,lc0:10,id:PDT3_50349,timbl0:-a1 +D,dl:5,test:nyt.tail1000,file1:../nyt.3e7.5000000,timbl1:-a1 +D,lc1:2,n:6,ds:511111,mo:1,lm:1
/exp/pberck/wopr/wopr -s do_pdt2.wopr_script -p file0:../nyt.3e7.1000000,lc0:12,id:PDT3_50350,timbl0:-a1 +D,dl:5,test:nyt.tail1000,file1:../nyt.3e7.5000000,timbl1:-a1 +D,lc1:2,n:1,ds:5,mo:1,lm:1
/exp/pberck/wopr/wopr -s do_pdt2.wopr_script -p file0:../nyt.3e7.1000000,lc0:12,id:PDT3_50351,timbl0:-a1 +D,dl:5,test:nyt.tail1000,file1:../nyt.3e7.5000000,timbl1:-a1 +D,lc1:2,n:2,ds:51,mo:1,lm:1
/exp/pberck/wopr/wopr -s do_pdt2.wopr_script -p file0:../nyt.3e7.1000000,lc0:12,id:PDT3_50352,timbl0:-a1 +D,dl:5,test:nyt.tail1000,file1:../nyt.3e7.5000000,timbl1:-a1 +D,lc1:2,n:4,ds:5111,mo:1,lm:1
/exp/pberck/wopr/wopr -s do_pdt2.wopr_script -p file0:../nyt.3e7.1000000,lc0:12,id:PDT3_50353,timbl0:-a1 +D,dl:5,test:nyt.tail1000,file1:../nyt.3e7.5000000,timbl1:-a1 +D,lc1:2,n:5,ds:51111,mo:1,lm:1
/exp/pberck/wopr/wopr -s do_pdt2.wopr_script -p file0:../nyt.3e7.1000000,lc0:12,id:PDT3_50354,timbl0:-a1 +D,dl:5,test:nyt.tail1000,file1:../nyt.3e7.5000000,timbl1:-a1 +D,lc1:2,n:6,ds:511111,mo:1,lm:1
/exp/pberck/wopr/wopr -s do_pdt2.wopr_script -p file0:../nyt.3e7.1000000,lc0:16,id:PDT3_50355,timbl0:-a1 +D,dl:5,test:nyt.tail1000,file1:../nyt.3e7.5000000,timbl1:-a1 +D,lc1:2,n:1,ds:5,mo:1,lm:1
/exp/pberck/wopr/wopr -s do_pdt2.wopr_script -p file0:../nyt.3e7.1000000,lc0:16,id:PDT3_50356,timbl0:-a1 +D,dl:5,test:nyt.tail1000,file1:../nyt.3e7.5000000,timbl1:-a1 +D,lc1:2,n:2,ds:51,mo:1,lm:1
/exp/pberck/wopr/wopr -s do_pdt2.wopr_script -p file0:../nyt.3e7.1000000,lc0:16,id:PDT3_50357,timbl0:-a1 +D,dl:5,test:nyt.tail1000,file1:../nyt.3e7.5000000,timbl1:-a1 +D,lc1:2,n:4,ds:5111,mo:1,lm:1
/exp/pberck/wopr/wopr -s do_pdt2.wopr_script -p file0:../nyt.3e7.1000000,lc0:16,id:PDT3_50358,timbl0:-a1 +D,dl:5,test:nyt.tail1000,file1:../nyt.3e7.5000000,timbl1:-a1 +D,lc1:2,n:5,ds:51111,mo:1,lm:1
/exp/pberck/wopr/wopr -s do_pdt2.wopr_script -p file0:../nyt.3e7.1000000,lc0:16,id:PDT3_50359,timbl0:-a1 +D,dl:5,test:nyt.tail1000,file1:../nyt.3e7.5000000,timbl1:-a1 +D,lc1:2,n:6,ds:511111,mo:1,lm:1
/exp/pberck/wopr/wopr -s do_pdt2.wopr_script -p file0:../nyt.3e7.1000000,lc0:2,id:PDT3_50360,timbl0:-a1 +D,dl:5,test:nyt.tail1000,file1:../nyt.3e7.10000000,timbl1:-a1 +D,lc1:2,n:1,ds:5,mo:1,lm:1
/exp/pberck/wopr/wopr -s do_pdt2.wopr_script -p file0:../nyt.3e7.1000000,lc0:2,id:PDT3_50361,timbl0:-a1 +D,dl:5,test:nyt.tail1000,file1:../nyt.3e7.10000000,timbl1:-a1 +D,lc1:2,n:2,ds:51,mo:1,lm:1
/exp/pberck/wopr/wopr -s do_pdt2.wopr_script -p file0:../nyt.3e7.1000000,lc0:2,id:PDT3_50362,timbl0:-a1 +D,dl:5,test:nyt.tail1000,file1:../nyt.3e7.10000000,timbl1:-a1 +D,lc1:2,n:4,ds:5111,mo:1,lm:1
/exp/pberck/wopr/wopr -s do_pdt2.wopr_script -p file0:../nyt.3e7.1000000,lc0:2,id:PDT3_50363,timbl0:-a1 +D,dl:5,test:nyt.tail1000,file1:../nyt.3e7.10000000,timbl1:-a1 +D,lc1:2,n:5,ds:51111,mo:1,lm:1
/exp/pberck/wopr/wopr -s do_pdt2.wopr_script -p file0:../nyt.3e7.1000000,lc0:2,id:PDT3_50364,timbl0:-a1 +D,dl:5,test:nyt.tail1000,file1:../nyt.3e7.10000000,timbl1:-a1 +D,lc1:2,n:6,ds:511111,mo:1,lm:1
/exp/pberck/wopr/wopr -s do_pdt2.wopr_script -p file0:../nyt.3e7.1000000,lc0:3,id:PDT3_50365,timbl0:-a1 +D,dl:5,test:nyt.tail1000,file1:../nyt.3e7.10000000,timbl1:-a1 +D,lc1:2,n:1,ds:5,mo:1,lm:1
/exp/pberck/wopr/wopr -s do_pdt2.wopr_script -p file0:../nyt.3e7.1000000,lc0:3,id:PDT3_50366,timbl0:-a1 +D,dl:5,test:nyt.tail1000,file1:../nyt.3e7.10000000,timbl1:-a1 +D,lc1:2,n:2,ds:51,mo:1,lm:1
/exp/pberck/wopr/wopr -s do_pdt2.wopr_script -p file0:../nyt.3e7.1000000,lc0:3,id:PDT3_50367,timbl0:-a1 +D,dl:5,test:nyt.tail1000,file1:../nyt.3e7.10000000,timbl1:-a1 +D,lc1:2,n:4,ds:5111,mo:1,lm:1
/exp/pberck/wopr/wopr -s do_pdt2.wopr_script -p file0:../nyt.3e7.1000000,lc0:3,id:PDT3_50368,timbl0:-a1 +D,dl:5,test:nyt.tail1000,file1:../nyt.3e7.10000000,timbl1:-a1 +D,lc1:2,n:5,ds:51111,mo:1,lm:1
/exp/pberck/wopr/wopr -s do_pdt2.wopr_script -p file0:../nyt.3e7.1000000,lc0:3,id:PDT3_50369,timbl0:-a1 +D,dl:5,test:nyt.tail1000,file1:../nyt.3e7.10000000,timbl1:-a1 +D,lc1:2,n:6,ds:511111,mo:1,lm:1
/exp/pberck/wopr/wopr -s do_pdt2.wopr_script -p file0:../nyt.3e7.1000000,lc0:4,id:PDT3_50370,timbl0:-a1 +D,dl:5,test:nyt.tail1000,file1:../nyt.3e7.10000000,timbl1:-a1 +D,lc1:2,n:1,ds:5,mo:1,lm:1
/exp/pberck/wopr/wopr -s do_pdt2.wopr_script -p file0:../nyt.3e7.1000000,lc0:4,id:PDT3_50371,timbl0:-a1 +D,dl:5,test:nyt.tail1000,file1:../nyt.3e7.10000000,timbl1:-a1 +D,lc1:2,n:2,ds:51,mo:1,lm:1
/exp/pberck/wopr/wopr -s do_pdt2.wopr_script -p file0:../nyt.3e7.1000000,lc0:4,id:PDT3_50372,timbl0:-a1 +D,dl:5,test:nyt.tail1000,file1:../nyt.3e7.10000000,timbl1:-a1 +D,lc1:2,n:4,ds:5111,mo:1,lm:1
/exp/pberck/wopr/wopr -s do_pdt2.wopr_script -p file0:../nyt.3e7.1000000,lc0:4,id:PDT3_50373,timbl0:-a1 +D,dl:5,test:nyt.tail1000,file1:../nyt.3e7.10000000,timbl1:-a1 +D,lc1:2,n:5,ds:51111,mo:1,lm:1
/exp/pberck/wopr/wopr -s do_pdt2.wopr_script -p file0:../nyt.3e7.1000000,lc0:4,id:PDT3_50374,timbl0:-a1 +D,dl:5,test:nyt.tail1000,file1:../nyt.3e7.10000000,timbl1:-a1 +D,lc1:2,n:6,ds:511111,mo:1,lm:1
/exp/pberck/wopr/wopr -s do_pdt2.wopr_script -p file0:../nyt.3e7.1000000,lc0:5,id:PDT3_50375,timbl0:-a1 +D,dl:5,test:nyt.tail1000,file1:../nyt.3e7.10000000,timbl1:-a1 +D,lc1:2,n:1,ds:5,mo:1,lm:1
/exp/pberck/wopr/wopr -s do_pdt2.wopr_script -p file0:../nyt.3e7.1000000,lc0:5,id:PDT3_50376,timbl0:-a1 +D,dl:5,test:nyt.tail1000,file1:../nyt.3e7.10000000,timbl1:-a1 +D,lc1:2,n:2,ds:51,mo:1,lm:1
/exp/pberck/wopr/wopr -s do_pdt2.wopr_script -p file0:../nyt.3e7.1000000,lc0:5,id:PDT3_50377,timbl0:-a1 +D,dl:5,test:nyt.tail1000,file1:../nyt.3e7.10000000,timbl1:-a1 +D,lc1:2,n:4,ds:5111,mo:1,lm:1
/exp/pberck/wopr/wopr -s do_pdt2.wopr_script -p file0:../nyt.3e7.1000000,lc0:5,id:PDT3_50378,timbl0:-a1 +D,dl:5,test:nyt.tail1000,file1:../nyt.3e7.10000000,timbl1:-a1 +D,lc1:2,n:5,ds:51111,mo:1,lm:1
/exp/pberck/wopr/wopr -s do_pdt2.wopr_script -p file0:../nyt.3e7.1000000,lc0:5,id:PDT3_50379,timbl0:-a1 +D,dl:5,test:nyt.tail1000,file1:../nyt.3e7.10000000,timbl1:-a1 +D,lc1:2,n:6,ds:511111,mo:1,lm:1
/exp/pberck/wopr/wopr -s do_pdt2.wopr_script -p file0:../nyt.3e7.1000000,lc0:6,id:PDT3_50380,timbl0:-a1 +D,dl:5,test:nyt.tail1000,file1:../nyt.3e7.10000000,timbl1:-a1 +D,lc1:2,n:1,ds:5,mo:1,lm:1
/exp/pberck/wopr/wopr -s do_pdt2.wopr_script -p file0:../nyt.3e7.1000000,lc0:6,id:PDT3_50381,timbl0:-a1 +D,dl:5,test:nyt.tail1000,file1:../nyt.3e7.10000000,timbl1:-a1 +D,lc1:2,n:2,ds:51,mo:1,lm:1
/exp/pberck/wopr/wopr -s do_pdt2.wopr_script -p file0:../nyt.3e7.1000000,lc0:6,id:PDT3_50382,timbl0:-a1 +D,dl:5,test:nyt.tail1000,file1:../nyt.3e7.10000000,timbl1:-a1 +D,lc1:2,n:4,ds:5111,mo:1,lm:1
/exp/pberck/wopr/wopr -s do_pdt2.wopr_script -p file0:../nyt.3e7.1000000,lc0:6,id:PDT3_50383,timbl0:-a1 +D,dl:5,test:nyt.tail1000,file1:../nyt.3e7.10000000,timbl1:-a1 +D,lc1:2,n:5,ds:51111,mo:1,lm:1
/exp/pberck/wopr/wopr -s do_pdt2.wopr_script -p file0:../nyt.3e7.1000000,lc0:6,id:PDT3_50384,timbl0:-a1 +D,dl:5,test:nyt.tail1000,file1:../nyt.3e7.10000000,timbl1:-a1 +D,lc1:2,n:6,ds:511111,mo:1,lm:1
/exp/pberck/wopr/wopr -s do_pdt2.wopr_script -p file0:../nyt.3e7.1000000,lc0:8,id:PDT3_50385,timbl0:-a1 +D,dl:5,test:nyt.tail1000,file1:../nyt.3e7.10000000,timbl1:-a1 +D,lc1:2,n:1,ds:5,mo:1,lm:1
/exp/pberck/wopr/wopr -s do_pdt2.wopr_script -p file0:../nyt.3e7.1000000,lc0:8,id:PDT3_50386,timbl0:-a1 +D,dl:5,test:nyt.tail1000,file1:../nyt.3e7.10000000,timbl1:-a1 +D,lc1:2,n:2,ds:51,mo:1,lm:1
/exp/pberck/wopr/wopr -s do_pdt2.wopr_script -p file0:../nyt.3e7.1000000,lc0:8,id:PDT3_50387,timbl0:-a1 +D,dl:5,test:nyt.tail1000,file1:../nyt.3e7.10000000,timbl1:-a1 +D,lc1:2,n:4,ds:5111,mo:1,lm:1
/exp/pberck/wopr/wopr -s do_pdt2.wopr_script -p file0:../nyt.3e7.1000000,lc0:8,id:PDT3_50388,timbl0:-a1 +D,dl:5,test:nyt.tail1000,file1:../nyt.3e7.10000000,timbl1:-a1 +D,lc1:2,n:5,ds:51111,mo:1,lm:1
/exp/pberck/wopr/wopr -s do_pdt2.wopr_script -p file0:../nyt.3e7.1000000,lc0:8,id:PDT3_50389,timbl0:-a1 +D,dl:5,test:nyt.tail1000,file1:../nyt.3e7.10000000,timbl1:-a1 +D,lc1:2,n:6,ds:511111,mo:1,lm:1
/exp/pberck/wopr/wopr -s do_pdt2.wopr_script -p file0:../nyt.3e7.1000000,lc0:10,id:PDT3_50390,timbl0:-a1 +D,dl:5,test:nyt.tail1000,file1:../nyt.3e7.10000000,timbl1:-a1 +D,lc1:2,n:1,ds:5,mo:1,lm:1
/exp/pberck/wopr/wopr -s do_pdt2.wopr_script -p file0:../nyt.3e7.1000000,lc0:10,id:PDT3_50391,timbl0:-a1 +D,dl:5,test:nyt.tail1000,file1:../nyt.3e7.10000000,timbl1:-a1 +D,lc1:2,n:2,ds:51,mo:1,lm:1
/exp/pberck/wopr/wopr -s do_pdt2.wopr_script -p file0:../nyt.3e7.1000000,lc0:10,id:PDT3_50392,timbl0:-a1 +D,dl:5,test:nyt.tail1000,file1:../nyt.3e7.10000000,timbl1:-a1 +D,lc1:2,n:4,ds:5111,mo:1,lm:1
/exp/pberck/wopr/wopr -s do_pdt2.wopr_script -p file0:../nyt.3e7.1000000,lc0:10,id:PDT3_50393,timbl0:-a1 +D,dl:5,test:nyt.tail1000,file1:../nyt.3e7.10000000,timbl1:-a1 +D,lc1:2,n:5,ds:51111,mo:1,lm:1
/exp/pberck/wopr/wopr -s do_pdt2.wopr_script -p file0:../nyt.3e7.1000000,lc0:10,id:PDT3_50394,timbl0:-a1 +D,dl:5,test:nyt.tail1000,file1:../nyt.3e7.10000000,timbl1:-a1 +D,lc1:2,n:6,ds:511111,mo:1,lm:1
/exp/pberck/wopr/wopr -s do_pdt2.wopr_script -p file0:../nyt.3e7.1000000,lc0:12,id:PDT3_50395,timbl0:-a1 +D,dl:5,test:nyt.tail1000,file1:../nyt.3e7.10000000,timbl1:-a1 +D,lc1:2,n:1,ds:5,mo:1,lm:1
/exp/pberck/wopr/wopr -s do_pdt2.wopr_script -p file0:../nyt.3e7.1000000,lc0:12,id:PDT3_50396,timbl0:-a1 +D,dl:5,test:nyt.tail1000,file1:../nyt.3e7.10000000,timbl1:-a1 +D,lc1:2,n:2,ds:51,mo:1,lm:1
/exp/pberck/wopr/wopr -s do_pdt2.wopr_script -p file0:../nyt.3e7.1000000,lc0:12,id:PDT3_50397,timbl0:-a1 +D,dl:5,test:nyt.tail1000,file1:../nyt.3e7.10000000,timbl1:-a1 +D,lc1:2,n:4,ds:5111,mo:1,lm:1
/exp/pberck/wopr/wopr -s do_pdt2.wopr_script -p file0:../nyt.3e7.1000000,lc0:12,id:PDT3_50398,timbl0:-a1 +D,dl:5,test:nyt.tail1000,file1:../nyt.3e7.10000000,timbl1:-a1 +D,lc1:2,n:5,ds:51111,mo:1,lm:1
/exp/pberck/wopr/wopr -s do_pdt2.wopr_script -p file0:../nyt.3e7.1000000,lc0:12,id:PDT3_50399,timbl0:-a1 +D,dl:5,test:nyt.tail1000,file1:../nyt.3e7.10000000,timbl1:-a1 +D,lc1:2,n:6,ds:511111,mo:1,lm:1
/exp/pberck/wopr/wopr -s do_pdt2.wopr_script -p file0:../nyt.3e7.1000000,lc0:16,id:PDT3_50400,timbl0:-a1 +D,dl:5,test:nyt.tail1000,file1:../nyt.3e7.10000000,timbl1:-a1 +D,lc1:2,n:1,ds:5,mo:1,lm:1
/exp/pberck/wopr/wopr -s do_pdt2.wopr_script -p file0:../nyt.3e7.1000000,lc0:16,id:PDT3_50401,timbl0:-a1 +D,dl:5,test:nyt.tail1000,file1:../nyt.3e7.10000000,timbl1:-a1 +D,lc1:2,n:2,ds:51,mo:1,lm:1
/exp/pberck/wopr/wopr -s do_pdt2.wopr_script -p file0:../nyt.3e7.1000000,lc0:16,id:PDT3_50402,timbl0:-a1 +D,dl:5,test:nyt.tail1000,file1:../nyt.3e7.10000000,timbl1:-a1 +D,lc1:2,n:4,ds:5111,mo:1,lm:1
/exp/pberck/wopr/wopr -s do_pdt2.wopr_script -p file0:../nyt.3e7.1000000,lc0:16,id:PDT3_50403,timbl0:-a1 +D,dl:5,test:nyt.tail1000,file1:../nyt.3e7.10000000,timbl1:-a1 +D,lc1:2,n:5,ds:51111,mo:1,lm:1
/exp/pberck/wopr/wopr -s do_pdt2.wopr_script -p file0:../nyt.3e7.1000000,lc0:16,id:PDT3_50404,timbl0:-a1 +D,dl:5,test:nyt.tail1000,file1:../nyt.3e7.10000000,timbl1:-a1 +D,lc1:2,n:6,ds:511111,mo:1,lm:1
