#2012-01-14 23:13:23
/exp/pberck/wopr/wopr_new -s do_pdt2.wopr_script -p file0:../nyt.3e7.1000,lc0:2,id:PDTT92000,timbl0:-a1 +D,dl:3,test:nyt.tail1000,file1:../nyt.3e7.1000,timbl1:-a1 +D,lc1:2,n:0,ds:,mo:1,lm:1
/exp/pberck/wopr/wopr_new -s do_pdt2.wopr_script -p file0:../nyt.3e7.1000,lc0:3,id:PDTT92001,timbl0:-a1 +D,dl:3,test:nyt.tail1000,file1:../nyt.3e7.1000,timbl1:-a1 +D,lc1:2,n:0,ds:,mo:1,lm:1
/exp/pberck/wopr/wopr_new -s do_pdt2.wopr_script -p file0:../nyt.3e7.1000,lc0:4,id:PDTT92002,timbl0:-a1 +D,dl:3,test:nyt.tail1000,file1:../nyt.3e7.1000,timbl1:-a1 +D,lc1:2,n:0,ds:,mo:1,lm:1
/exp/pberck/wopr/wopr_new -s do_pdt2.wopr_script -p file0:../nyt.3e7.1000,lc0:8,id:PDTT92003,timbl0:-a1 +D,dl:3,test:nyt.tail1000,file1:../nyt.3e7.1000,timbl1:-a1 +D,lc1:2,n:0,ds:,mo:1,lm:1
/exp/pberck/wopr/wopr_new -s do_pdt2.wopr_script -p file0:../nyt.3e7.1000,lc0:12,id:PDTT92004,timbl0:-a1 +D,dl:3,test:nyt.tail1000,file1:../nyt.3e7.1000,timbl1:-a1 +D,lc1:2,n:0,ds:,mo:1,lm:1
/exp/pberck/wopr/wopr_new -s do_pdt2.wopr_script -p file0:../nyt.3e7.1000,lc0:16,id:PDTT92005,timbl0:-a1 +D,dl:3,test:nyt.tail1000,file1:../nyt.3e7.1000,timbl1:-a1 +D,lc1:2,n:0,ds:,mo:1,lm:1
/exp/pberck/wopr/wopr_new -s do_pdt2.wopr_script -p file0:../nyt.3e7.1000,lc0:2,id:PDTT92006,timbl0:-a4 +D,dl:3,test:nyt.tail1000,file1:../nyt.3e7.1000,timbl1:-a1 +D,lc1:2,n:0,ds:,mo:1,lm:1
/exp/pberck/wopr/wopr_new -s do_pdt2.wopr_script -p file0:../nyt.3e7.1000,lc0:3,id:PDTT92007,timbl0:-a4 +D,dl:3,test:nyt.tail1000,file1:../nyt.3e7.1000,timbl1:-a1 +D,lc1:2,n:0,ds:,mo:1,lm:1
/exp/pberck/wopr/wopr_new -s do_pdt2.wopr_script -p file0:../nyt.3e7.1000,lc0:4,id:PDTT92008,timbl0:-a4 +D,dl:3,test:nyt.tail1000,file1:../nyt.3e7.1000,timbl1:-a1 +D,lc1:2,n:0,ds:,mo:1,lm:1
/exp/pberck/wopr/wopr_new -s do_pdt2.wopr_script -p file0:../nyt.3e7.1000,lc0:8,id:PDTT92009,timbl0:-a4 +D,dl:3,test:nyt.tail1000,file1:../nyt.3e7.1000,timbl1:-a1 +D,lc1:2,n:0,ds:,mo:1,lm:1
/exp/pberck/wopr/wopr_new -s do_pdt2.wopr_script -p file0:../nyt.3e7.1000,lc0:12,id:PDTT92010,timbl0:-a4 +D,dl:3,test:nyt.tail1000,file1:../nyt.3e7.1000,timbl1:-a1 +D,lc1:2,n:0,ds:,mo:1,lm:1
/exp/pberck/wopr/wopr_new -s do_pdt2.wopr_script -p file0:../nyt.3e7.1000,lc0:16,id:PDTT92011,timbl0:-a4 +D,dl:3,test:nyt.tail1000,file1:../nyt.3e7.1000,timbl1:-a1 +D,lc1:2,n:0,ds:,mo:1,lm:1
/exp/pberck/wopr/wopr_new -s do_pdt2.wopr_script -p file0:../nyt.3e7.5000,lc0:2,id:PDTT92012,timbl0:-a1 +D,dl:3,test:nyt.tail1000,file1:../nyt.3e7.1000,timbl1:-a1 +D,lc1:2,n:0,ds:,mo:1,lm:1
/exp/pberck/wopr/wopr_new -s do_pdt2.wopr_script -p file0:../nyt.3e7.5000,lc0:3,id:PDTT92013,timbl0:-a1 +D,dl:3,test:nyt.tail1000,file1:../nyt.3e7.1000,timbl1:-a1 +D,lc1:2,n:0,ds:,mo:1,lm:1
/exp/pberck/wopr/wopr_new -s do_pdt2.wopr_script -p file0:../nyt.3e7.5000,lc0:4,id:PDTT92014,timbl0:-a1 +D,dl:3,test:nyt.tail1000,file1:../nyt.3e7.1000,timbl1:-a1 +D,lc1:2,n:0,ds:,mo:1,lm:1
/exp/pberck/wopr/wopr_new -s do_pdt2.wopr_script -p file0:../nyt.3e7.5000,lc0:8,id:PDTT92015,timbl0:-a1 +D,dl:3,test:nyt.tail1000,file1:../nyt.3e7.1000,timbl1:-a1 +D,lc1:2,n:0,ds:,mo:1,lm:1
/exp/pberck/wopr/wopr_new -s do_pdt2.wopr_script -p file0:../nyt.3e7.5000,lc0:12,id:PDTT92016,timbl0:-a1 +D,dl:3,test:nyt.tail1000,file1:../nyt.3e7.1000,timbl1:-a1 +D,lc1:2,n:0,ds:,mo:1,lm:1
/exp/pberck/wopr/wopr_new -s do_pdt2.wopr_script -p file0:../nyt.3e7.5000,lc0:16,id:PDTT92017,timbl0:-a1 +D,dl:3,test:nyt.tail1000,file1:../nyt.3e7.1000,timbl1:-a1 +D,lc1:2,n:0,ds:,mo:1,lm:1
/exp/pberck/wopr/wopr_new -s do_pdt2.wopr_script -p file0:../nyt.3e7.5000,lc0:2,id:PDTT92018,timbl0:-a4 +D,dl:3,test:nyt.tail1000,file1:../nyt.3e7.1000,timbl1:-a1 +D,lc1:2,n:0,ds:,mo:1,lm:1
/exp/pberck/wopr/wopr_new -s do_pdt2.wopr_script -p file0:../nyt.3e7.5000,lc0:3,id:PDTT92019,timbl0:-a4 +D,dl:3,test:nyt.tail1000,file1:../nyt.3e7.1000,timbl1:-a1 +D,lc1:2,n:0,ds:,mo:1,lm:1
/exp/pberck/wopr/wopr_new -s do_pdt2.wopr_script -p file0:../nyt.3e7.5000,lc0:4,id:PDTT92020,timbl0:-a4 +D,dl:3,test:nyt.tail1000,file1:../nyt.3e7.1000,timbl1:-a1 +D,lc1:2,n:0,ds:,mo:1,lm:1
/exp/pberck/wopr/wopr_new -s do_pdt2.wopr_script -p file0:../nyt.3e7.5000,lc0:8,id:PDTT92021,timbl0:-a4 +D,dl:3,test:nyt.tail1000,file1:../nyt.3e7.1000,timbl1:-a1 +D,lc1:2,n:0,ds:,mo:1,lm:1
/exp/pberck/wopr/wopr_new -s do_pdt2.wopr_script -p file0:../nyt.3e7.5000,lc0:12,id:PDTT92022,timbl0:-a4 +D,dl:3,test:nyt.tail1000,file1:../nyt.3e7.1000,timbl1:-a1 +D,lc1:2,n:0,ds:,mo:1,lm:1
/exp/pberck/wopr/wopr_new -s do_pdt2.wopr_script -p file0:../nyt.3e7.5000,lc0:16,id:PDTT92023,timbl0:-a4 +D,dl:3,test:nyt.tail1000,file1:../nyt.3e7.1000,timbl1:-a1 +D,lc1:2,n:0,ds:,mo:1,lm:1
/exp/pberck/wopr/wopr_new -s do_pdt2.wopr_script -p file0:../nyt.3e7.10000,lc0:2,id:PDTT92024,timbl0:-a1 +D,dl:3,test:nyt.tail1000,file1:../nyt.3e7.1000,timbl1:-a1 +D,lc1:2,n:0,ds:,mo:1,lm:1
/exp/pberck/wopr/wopr_new -s do_pdt2.wopr_script -p file0:../nyt.3e7.10000,lc0:3,id:PDTT92025,timbl0:-a1 +D,dl:3,test:nyt.tail1000,file1:../nyt.3e7.1000,timbl1:-a1 +D,lc1:2,n:0,ds:,mo:1,lm:1
/exp/pberck/wopr/wopr_new -s do_pdt2.wopr_script -p file0:../nyt.3e7.10000,lc0:4,id:PDTT92026,timbl0:-a1 +D,dl:3,test:nyt.tail1000,file1:../nyt.3e7.1000,timbl1:-a1 +D,lc1:2,n:0,ds:,mo:1,lm:1
/exp/pberck/wopr/wopr_new -s do_pdt2.wopr_script -p file0:../nyt.3e7.10000,lc0:8,id:PDTT92027,timbl0:-a1 +D,dl:3,test:nyt.tail1000,file1:../nyt.3e7.1000,timbl1:-a1 +D,lc1:2,n:0,ds:,mo:1,lm:1
/exp/pberck/wopr/wopr_new -s do_pdt2.wopr_script -p file0:../nyt.3e7.10000,lc0:12,id:PDTT92028,timbl0:-a1 +D,dl:3,test:nyt.tail1000,file1:../nyt.3e7.1000,timbl1:-a1 +D,lc1:2,n:0,ds:,mo:1,lm:1
/exp/pberck/wopr/wopr_new -s do_pdt2.wopr_script -p file0:../nyt.3e7.10000,lc0:16,id:PDTT92029,timbl0:-a1 +D,dl:3,test:nyt.tail1000,file1:../nyt.3e7.1000,timbl1:-a1 +D,lc1:2,n:0,ds:,mo:1,lm:1
/exp/pberck/wopr/wopr_new -s do_pdt2.wopr_script -p file0:../nyt.3e7.10000,lc0:2,id:PDTT92030,timbl0:-a4 +D,dl:3,test:nyt.tail1000,file1:../nyt.3e7.1000,timbl1:-a1 +D,lc1:2,n:0,ds:,mo:1,lm:1
/exp/pberck/wopr/wopr_new -s do_pdt2.wopr_script -p file0:../nyt.3e7.10000,lc0:3,id:PDTT92031,timbl0:-a4 +D,dl:3,test:nyt.tail1000,file1:../nyt.3e7.1000,timbl1:-a1 +D,lc1:2,n:0,ds:,mo:1,lm:1
/exp/pberck/wopr/wopr_new -s do_pdt2.wopr_script -p file0:../nyt.3e7.10000,lc0:4,id:PDTT92032,timbl0:-a4 +D,dl:3,test:nyt.tail1000,file1:../nyt.3e7.1000,timbl1:-a1 +D,lc1:2,n:0,ds:,mo:1,lm:1
/exp/pberck/wopr/wopr_new -s do_pdt2.wopr_script -p file0:../nyt.3e7.10000,lc0:8,id:PDTT92033,timbl0:-a4 +D,dl:3,test:nyt.tail1000,file1:../nyt.3e7.1000,timbl1:-a1 +D,lc1:2,n:0,ds:,mo:1,lm:1
/exp/pberck/wopr/wopr_new -s do_pdt2.wopr_script -p file0:../nyt.3e7.10000,lc0:12,id:PDTT92034,timbl0:-a4 +D,dl:3,test:nyt.tail1000,file1:../nyt.3e7.1000,timbl1:-a1 +D,lc1:2,n:0,ds:,mo:1,lm:1
/exp/pberck/wopr/wopr_new -s do_pdt2.wopr_script -p file0:../nyt.3e7.10000,lc0:16,id:PDTT92035,timbl0:-a4 +D,dl:3,test:nyt.tail1000,file1:../nyt.3e7.1000,timbl1:-a1 +D,lc1:2,n:0,ds:,mo:1,lm:1
/exp/pberck/wopr/wopr_new -s do_pdt2.wopr_script -p file0:../nyt.3e7.50000,lc0:2,id:PDTT92036,timbl0:-a1 +D,dl:3,test:nyt.tail1000,file1:../nyt.3e7.1000,timbl1:-a1 +D,lc1:2,n:0,ds:,mo:1,lm:1
/exp/pberck/wopr/wopr_new -s do_pdt2.wopr_script -p file0:../nyt.3e7.50000,lc0:3,id:PDTT92037,timbl0:-a1 +D,dl:3,test:nyt.tail1000,file1:../nyt.3e7.1000,timbl1:-a1 +D,lc1:2,n:0,ds:,mo:1,lm:1
/exp/pberck/wopr/wopr_new -s do_pdt2.wopr_script -p file0:../nyt.3e7.50000,lc0:4,id:PDTT92038,timbl0:-a1 +D,dl:3,test:nyt.tail1000,file1:../nyt.3e7.1000,timbl1:-a1 +D,lc1:2,n:0,ds:,mo:1,lm:1
/exp/pberck/wopr/wopr_new -s do_pdt2.wopr_script -p file0:../nyt.3e7.50000,lc0:8,id:PDTT92039,timbl0:-a1 +D,dl:3,test:nyt.tail1000,file1:../nyt.3e7.1000,timbl1:-a1 +D,lc1:2,n:0,ds:,mo:1,lm:1
/exp/pberck/wopr/wopr_new -s do_pdt2.wopr_script -p file0:../nyt.3e7.50000,lc0:12,id:PDTT92040,timbl0:-a1 +D,dl:3,test:nyt.tail1000,file1:../nyt.3e7.1000,timbl1:-a1 +D,lc1:2,n:0,ds:,mo:1,lm:1
/exp/pberck/wopr/wopr_new -s do_pdt2.wopr_script -p file0:../nyt.3e7.50000,lc0:16,id:PDTT92041,timbl0:-a1 +D,dl:3,test:nyt.tail1000,file1:../nyt.3e7.1000,timbl1:-a1 +D,lc1:2,n:0,ds:,mo:1,lm:1
/exp/pberck/wopr/wopr_new -s do_pdt2.wopr_script -p file0:../nyt.3e7.50000,lc0:2,id:PDTT92042,timbl0:-a4 +D,dl:3,test:nyt.tail1000,file1:../nyt.3e7.1000,timbl1:-a1 +D,lc1:2,n:0,ds:,mo:1,lm:1
/exp/pberck/wopr/wopr_new -s do_pdt2.wopr_script -p file0:../nyt.3e7.50000,lc0:3,id:PDTT92043,timbl0:-a4 +D,dl:3,test:nyt.tail1000,file1:../nyt.3e7.1000,timbl1:-a1 +D,lc1:2,n:0,ds:,mo:1,lm:1
/exp/pberck/wopr/wopr_new -s do_pdt2.wopr_script -p file0:../nyt.3e7.50000,lc0:4,id:PDTT92044,timbl0:-a4 +D,dl:3,test:nyt.tail1000,file1:../nyt.3e7.1000,timbl1:-a1 +D,lc1:2,n:0,ds:,mo:1,lm:1
/exp/pberck/wopr/wopr_new -s do_pdt2.wopr_script -p file0:../nyt.3e7.50000,lc0:8,id:PDTT92045,timbl0:-a4 +D,dl:3,test:nyt.tail1000,file1:../nyt.3e7.1000,timbl1:-a1 +D,lc1:2,n:0,ds:,mo:1,lm:1
/exp/pberck/wopr/wopr_new -s do_pdt2.wopr_script -p file0:../nyt.3e7.50000,lc0:12,id:PDTT92046,timbl0:-a4 +D,dl:3,test:nyt.tail1000,file1:../nyt.3e7.1000,timbl1:-a1 +D,lc1:2,n:0,ds:,mo:1,lm:1
/exp/pberck/wopr/wopr_new -s do_pdt2.wopr_script -p file0:../nyt.3e7.50000,lc0:16,id:PDTT92047,timbl0:-a4 +D,dl:3,test:nyt.tail1000,file1:../nyt.3e7.1000,timbl1:-a1 +D,lc1:2,n:0,ds:,mo:1,lm:1
/exp/pberck/wopr/wopr_new -s do_pdt2.wopr_script -p file0:../nyt.3e7.100000,lc0:2,id:PDTT92048,timbl0:-a1 +D,dl:3,test:nyt.tail1000,file1:../nyt.3e7.1000,timbl1:-a1 +D,lc1:2,n:0,ds:,mo:1,lm:1
/exp/pberck/wopr/wopr_new -s do_pdt2.wopr_script -p file0:../nyt.3e7.100000,lc0:3,id:PDTT92049,timbl0:-a1 +D,dl:3,test:nyt.tail1000,file1:../nyt.3e7.1000,timbl1:-a1 +D,lc1:2,n:0,ds:,mo:1,lm:1
/exp/pberck/wopr/wopr_new -s do_pdt2.wopr_script -p file0:../nyt.3e7.100000,lc0:4,id:PDTT92050,timbl0:-a1 +D,dl:3,test:nyt.tail1000,file1:../nyt.3e7.1000,timbl1:-a1 +D,lc1:2,n:0,ds:,mo:1,lm:1
/exp/pberck/wopr/wopr_new -s do_pdt2.wopr_script -p file0:../nyt.3e7.100000,lc0:8,id:PDTT92051,timbl0:-a1 +D,dl:3,test:nyt.tail1000,file1:../nyt.3e7.1000,timbl1:-a1 +D,lc1:2,n:0,ds:,mo:1,lm:1
/exp/pberck/wopr/wopr_new -s do_pdt2.wopr_script -p file0:../nyt.3e7.100000,lc0:12,id:PDTT92052,timbl0:-a1 +D,dl:3,test:nyt.tail1000,file1:../nyt.3e7.1000,timbl1:-a1 +D,lc1:2,n:0,ds:,mo:1,lm:1
/exp/pberck/wopr/wopr_new -s do_pdt2.wopr_script -p file0:../nyt.3e7.100000,lc0:16,id:PDTT92053,timbl0:-a1 +D,dl:3,test:nyt.tail1000,file1:../nyt.3e7.1000,timbl1:-a1 +D,lc1:2,n:0,ds:,mo:1,lm:1
/exp/pberck/wopr/wopr_new -s do_pdt2.wopr_script -p file0:../nyt.3e7.100000,lc0:2,id:PDTT92054,timbl0:-a4 +D,dl:3,test:nyt.tail1000,file1:../nyt.3e7.1000,timbl1:-a1 +D,lc1:2,n:0,ds:,mo:1,lm:1
/exp/pberck/wopr/wopr_new -s do_pdt2.wopr_script -p file0:../nyt.3e7.100000,lc0:3,id:PDTT92055,timbl0:-a4 +D,dl:3,test:nyt.tail1000,file1:../nyt.3e7.1000,timbl1:-a1 +D,lc1:2,n:0,ds:,mo:1,lm:1
/exp/pberck/wopr/wopr_new -s do_pdt2.wopr_script -p file0:../nyt.3e7.100000,lc0:4,id:PDTT92056,timbl0:-a4 +D,dl:3,test:nyt.tail1000,file1:../nyt.3e7.1000,timbl1:-a1 +D,lc1:2,n:0,ds:,mo:1,lm:1
/exp/pberck/wopr/wopr_new -s do_pdt2.wopr_script -p file0:../nyt.3e7.100000,lc0:8,id:PDTT92057,timbl0:-a4 +D,dl:3,test:nyt.tail1000,file1:../nyt.3e7.1000,timbl1:-a1 +D,lc1:2,n:0,ds:,mo:1,lm:1
/exp/pberck/wopr/wopr_new -s do_pdt2.wopr_script -p file0:../nyt.3e7.100000,lc0:12,id:PDTT92058,timbl0:-a4 +D,dl:3,test:nyt.tail1000,file1:../nyt.3e7.1000,timbl1:-a1 +D,lc1:2,n:0,ds:,mo:1,lm:1
/exp/pberck/wopr/wopr_new -s do_pdt2.wopr_script -p file0:../nyt.3e7.100000,lc0:16,id:PDTT92059,timbl0:-a4 +D,dl:3,test:nyt.tail1000,file1:../nyt.3e7.1000,timbl1:-a1 +D,lc1:2,n:0,ds:,mo:1,lm:1
/exp/pberck/wopr/wopr_new -s do_pdt2.wopr_script -p file0:../nyt.3e7.500000,lc0:2,id:PDTT92060,timbl0:-a1 +D,dl:3,test:nyt.tail1000,file1:../nyt.3e7.1000,timbl1:-a1 +D,lc1:2,n:0,ds:,mo:1,lm:1
/exp/pberck/wopr/wopr_new -s do_pdt2.wopr_script -p file0:../nyt.3e7.500000,lc0:3,id:PDTT92061,timbl0:-a1 +D,dl:3,test:nyt.tail1000,file1:../nyt.3e7.1000,timbl1:-a1 +D,lc1:2,n:0,ds:,mo:1,lm:1
/exp/pberck/wopr/wopr_new -s do_pdt2.wopr_script -p file0:../nyt.3e7.500000,lc0:4,id:PDTT92062,timbl0:-a1 +D,dl:3,test:nyt.tail1000,file1:../nyt.3e7.1000,timbl1:-a1 +D,lc1:2,n:0,ds:,mo:1,lm:1
/exp/pberck/wopr/wopr_new -s do_pdt2.wopr_script -p file0:../nyt.3e7.500000,lc0:8,id:PDTT92063,timbl0:-a1 +D,dl:3,test:nyt.tail1000,file1:../nyt.3e7.1000,timbl1:-a1 +D,lc1:2,n:0,ds:,mo:1,lm:1
/exp/pberck/wopr/wopr_new -s do_pdt2.wopr_script -p file0:../nyt.3e7.500000,lc0:12,id:PDTT92064,timbl0:-a1 +D,dl:3,test:nyt.tail1000,file1:../nyt.3e7.1000,timbl1:-a1 +D,lc1:2,n:0,ds:,mo:1,lm:1
/exp/pberck/wopr/wopr_new -s do_pdt2.wopr_script -p file0:../nyt.3e7.500000,lc0:16,id:PDTT92065,timbl0:-a1 +D,dl:3,test:nyt.tail1000,file1:../nyt.3e7.1000,timbl1:-a1 +D,lc1:2,n:0,ds:,mo:1,lm:1
/exp/pberck/wopr/wopr_new -s do_pdt2.wopr_script -p file0:../nyt.3e7.500000,lc0:2,id:PDTT92066,timbl0:-a4 +D,dl:3,test:nyt.tail1000,file1:../nyt.3e7.1000,timbl1:-a1 +D,lc1:2,n:0,ds:,mo:1,lm:1
/exp/pberck/wopr/wopr_new -s do_pdt2.wopr_script -p file0:../nyt.3e7.500000,lc0:3,id:PDTT92067,timbl0:-a4 +D,dl:3,test:nyt.tail1000,file1:../nyt.3e7.1000,timbl1:-a1 +D,lc1:2,n:0,ds:,mo:1,lm:1
/exp/pberck/wopr/wopr_new -s do_pdt2.wopr_script -p file0:../nyt.3e7.500000,lc0:4,id:PDTT92068,timbl0:-a4 +D,dl:3,test:nyt.tail1000,file1:../nyt.3e7.1000,timbl1:-a1 +D,lc1:2,n:0,ds:,mo:1,lm:1
/exp/pberck/wopr/wopr_new -s do_pdt2.wopr_script -p file0:../nyt.3e7.500000,lc0:8,id:PDTT92069,timbl0:-a4 +D,dl:3,test:nyt.tail1000,file1:../nyt.3e7.1000,timbl1:-a1 +D,lc1:2,n:0,ds:,mo:1,lm:1
/exp/pberck/wopr/wopr_new -s do_pdt2.wopr_script -p file0:../nyt.3e7.500000,lc0:12,id:PDTT92070,timbl0:-a4 +D,dl:3,test:nyt.tail1000,file1:../nyt.3e7.1000,timbl1:-a1 +D,lc1:2,n:0,ds:,mo:1,lm:1
/exp/pberck/wopr/wopr_new -s do_pdt2.wopr_script -p file0:../nyt.3e7.500000,lc0:16,id:PDTT92071,timbl0:-a4 +D,dl:3,test:nyt.tail1000,file1:../nyt.3e7.1000,timbl1:-a1 +D,lc1:2,n:0,ds:,mo:1,lm:1
/exp/pberck/wopr/wopr_new -s do_pdt2.wopr_script -p file0:../nyt.3e7.1000000,lc0:2,id:PDTT92072,timbl0:-a1 +D,dl:3,test:nyt.tail1000,file1:../nyt.3e7.1000,timbl1:-a1 +D,lc1:2,n:0,ds:,mo:1,lm:1
/exp/pberck/wopr/wopr_new -s do_pdt2.wopr_script -p file0:../nyt.3e7.1000000,lc0:3,id:PDTT92073,timbl0:-a1 +D,dl:3,test:nyt.tail1000,file1:../nyt.3e7.1000,timbl1:-a1 +D,lc1:2,n:0,ds:,mo:1,lm:1
/exp/pberck/wopr/wopr_new -s do_pdt2.wopr_script -p file0:../nyt.3e7.1000000,lc0:4,id:PDTT92074,timbl0:-a1 +D,dl:3,test:nyt.tail1000,file1:../nyt.3e7.1000,timbl1:-a1 +D,lc1:2,n:0,ds:,mo:1,lm:1
/exp/pberck/wopr/wopr_new -s do_pdt2.wopr_script -p file0:../nyt.3e7.1000000,lc0:8,id:PDTT92075,timbl0:-a1 +D,dl:3,test:nyt.tail1000,file1:../nyt.3e7.1000,timbl1:-a1 +D,lc1:2,n:0,ds:,mo:1,lm:1
/exp/pberck/wopr/wopr_new -s do_pdt2.wopr_script -p file0:../nyt.3e7.1000000,lc0:12,id:PDTT92076,timbl0:-a1 +D,dl:3,test:nyt.tail1000,file1:../nyt.3e7.1000,timbl1:-a1 +D,lc1:2,n:0,ds:,mo:1,lm:1
/exp/pberck/wopr/wopr_new -s do_pdt2.wopr_script -p file0:../nyt.3e7.1000000,lc0:16,id:PDTT92077,timbl0:-a1 +D,dl:3,test:nyt.tail1000,file1:../nyt.3e7.1000,timbl1:-a1 +D,lc1:2,n:0,ds:,mo:1,lm:1
/exp/pberck/wopr/wopr_new -s do_pdt2.wopr_script -p file0:../nyt.3e7.1000000,lc0:2,id:PDTT92078,timbl0:-a4 +D,dl:3,test:nyt.tail1000,file1:../nyt.3e7.1000,timbl1:-a1 +D,lc1:2,n:0,ds:,mo:1,lm:1
/exp/pberck/wopr/wopr_new -s do_pdt2.wopr_script -p file0:../nyt.3e7.1000000,lc0:3,id:PDTT92079,timbl0:-a4 +D,dl:3,test:nyt.tail1000,file1:../nyt.3e7.1000,timbl1:-a1 +D,lc1:2,n:0,ds:,mo:1,lm:1
/exp/pberck/wopr/wopr_new -s do_pdt2.wopr_script -p file0:../nyt.3e7.1000000,lc0:4,id:PDTT92080,timbl0:-a4 +D,dl:3,test:nyt.tail1000,file1:../nyt.3e7.1000,timbl1:-a1 +D,lc1:2,n:0,ds:,mo:1,lm:1
/exp/pberck/wopr/wopr_new -s do_pdt2.wopr_script -p file0:../nyt.3e7.1000000,lc0:8,id:PDTT92081,timbl0:-a4 +D,dl:3,test:nyt.tail1000,file1:../nyt.3e7.1000,timbl1:-a1 +D,lc1:2,n:0,ds:,mo:1,lm:1
/exp/pberck/wopr/wopr_new -s do_pdt2.wopr_script -p file0:../nyt.3e7.1000000,lc0:12,id:PDTT92082,timbl0:-a4 +D,dl:3,test:nyt.tail1000,file1:../nyt.3e7.1000,timbl1:-a1 +D,lc1:2,n:0,ds:,mo:1,lm:1
/exp/pberck/wopr/wopr_new -s do_pdt2.wopr_script -p file0:../nyt.3e7.1000000,lc0:16,id:PDTT92083,timbl0:-a4 +D,dl:3,test:nyt.tail1000,file1:../nyt.3e7.1000,timbl1:-a1 +D,lc1:2,n:0,ds:,mo:1,lm:1
