#2012-01-06 14:01:43
/exp/pberck/wopr/wopr -s do_pdt2.wopr_script -p file0:../nyt.3e7.50000,lc0:4,id:PDTT70000,timbl0:-a1 +D,dl:5,test:nyt.tail1000,file1:../nyt.3e7.1000,timbl1:-a1 +D,lc1:2,n:4,ds:1111,mo:1
/exp/pberck/wopr/wopr -s do_pdt2.wopr_script -p file0:../nyt.3e7.50000,lc0:8,id:PDTT70001,timbl0:-a1 +D,dl:5,test:nyt.tail1000,file1:../nyt.3e7.1000,timbl1:-a1 +D,lc1:2,n:4,ds:1111,mo:1
/exp/pberck/wopr/wopr -s do_pdt2.wopr_script -p file0:../nyt.3e7.50000,lc0:12,id:PDTT70002,timbl0:-a1 +D,dl:5,test:nyt.tail1000,file1:../nyt.3e7.1000,timbl1:-a1 +D,lc1:2,n:4,ds:1111,mo:1
/exp/pberck/wopr/wopr -s do_pdt2.wopr_script -p file0:../nyt.3e7.50000,lc0:16,id:PDTT70003,timbl0:-a1 +D,dl:5,test:nyt.tail1000,file1:../nyt.3e7.1000,timbl1:-a1 +D,lc1:2,n:4,ds:1111,mo:1
/exp/pberck/wopr/wopr -s do_pdt2.wopr_script -p file0:../nyt.3e7.50000,lc0:4,id:PDTT70004,timbl0:-a1 +D,dl:5,test:nyt.tail1000,file1:../nyt.3e7.5000,timbl1:-a1 +D,lc1:2,n:4,ds:1111,mo:1
/exp/pberck/wopr/wopr -s do_pdt2.wopr_script -p file0:../nyt.3e7.50000,lc0:8,id:PDTT70005,timbl0:-a1 +D,dl:5,test:nyt.tail1000,file1:../nyt.3e7.5000,timbl1:-a1 +D,lc1:2,n:4,ds:1111,mo:1
/exp/pberck/wopr/wopr -s do_pdt2.wopr_script -p file0:../nyt.3e7.50000,lc0:12,id:PDTT70006,timbl0:-a1 +D,dl:5,test:nyt.tail1000,file1:../nyt.3e7.5000,timbl1:-a1 +D,lc1:2,n:4,ds:1111,mo:1
/exp/pberck/wopr/wopr -s do_pdt2.wopr_script -p file0:../nyt.3e7.50000,lc0:16,id:PDTT70007,timbl0:-a1 +D,dl:5,test:nyt.tail1000,file1:../nyt.3e7.5000,timbl1:-a1 +D,lc1:2,n:4,ds:1111,mo:1
/exp/pberck/wopr/wopr -s do_pdt2.wopr_script -p file0:../nyt.3e7.50000,lc0:4,id:PDTT70008,timbl0:-a1 +D,dl:5,test:nyt.tail1000,file1:../nyt.3e7.10000,timbl1:-a1 +D,lc1:2,n:4,ds:1111,mo:1
/exp/pberck/wopr/wopr -s do_pdt2.wopr_script -p file0:../nyt.3e7.50000,lc0:8,id:PDTT70009,timbl0:-a1 +D,dl:5,test:nyt.tail1000,file1:../nyt.3e7.10000,timbl1:-a1 +D,lc1:2,n:4,ds:1111,mo:1
/exp/pberck/wopr/wopr -s do_pdt2.wopr_script -p file0:../nyt.3e7.50000,lc0:12,id:PDTT70010,timbl0:-a1 +D,dl:5,test:nyt.tail1000,file1:../nyt.3e7.10000,timbl1:-a1 +D,lc1:2,n:4,ds:1111,mo:1
/exp/pberck/wopr/wopr -s do_pdt2.wopr_script -p file0:../nyt.3e7.50000,lc0:16,id:PDTT70011,timbl0:-a1 +D,dl:5,test:nyt.tail1000,file1:../nyt.3e7.10000,timbl1:-a1 +D,lc1:2,n:4,ds:1111,mo:1
/exp/pberck/wopr/wopr -s do_pdt2.wopr_script -p file0:../nyt.3e7.50000,lc0:4,id:PDTT70012,timbl0:-a1 +D,dl:5,test:nyt.tail1000,file1:../nyt.3e7.50000,timbl1:-a1 +D,lc1:2,n:4,ds:1111,mo:1
/exp/pberck/wopr/wopr -s do_pdt2.wopr_script -p file0:../nyt.3e7.50000,lc0:8,id:PDTT70013,timbl0:-a1 +D,dl:5,test:nyt.tail1000,file1:../nyt.3e7.50000,timbl1:-a1 +D,lc1:2,n:4,ds:1111,mo:1
/exp/pberck/wopr/wopr -s do_pdt2.wopr_script -p file0:../nyt.3e7.50000,lc0:12,id:PDTT70014,timbl0:-a1 +D,dl:5,test:nyt.tail1000,file1:../nyt.3e7.50000,timbl1:-a1 +D,lc1:2,n:4,ds:1111,mo:1
/exp/pberck/wopr/wopr -s do_pdt2.wopr_script -p file0:../nyt.3e7.50000,lc0:16,id:PDTT70015,timbl0:-a1 +D,dl:5,test:nyt.tail1000,file1:../nyt.3e7.50000,timbl1:-a1 +D,lc1:2,n:4,ds:1111,mo:1
/exp/pberck/wopr/wopr -s do_pdt2.wopr_script -p file0:../nyt.3e7.50000,lc0:4,id:PDTT70016,timbl0:-a1 +D,dl:5,test:nyt.tail1000,file1:../nyt.3e7.100000,timbl1:-a1 +D,lc1:2,n:4,ds:1111,mo:1
/exp/pberck/wopr/wopr -s do_pdt2.wopr_script -p file0:../nyt.3e7.50000,lc0:8,id:PDTT70017,timbl0:-a1 +D,dl:5,test:nyt.tail1000,file1:../nyt.3e7.100000,timbl1:-a1 +D,lc1:2,n:4,ds:1111,mo:1
/exp/pberck/wopr/wopr -s do_pdt2.wopr_script -p file0:../nyt.3e7.50000,lc0:12,id:PDTT70018,timbl0:-a1 +D,dl:5,test:nyt.tail1000,file1:../nyt.3e7.100000,timbl1:-a1 +D,lc1:2,n:4,ds:1111,mo:1
/exp/pberck/wopr/wopr -s do_pdt2.wopr_script -p file0:../nyt.3e7.50000,lc0:16,id:PDTT70019,timbl0:-a1 +D,dl:5,test:nyt.tail1000,file1:../nyt.3e7.100000,timbl1:-a1 +D,lc1:2,n:4,ds:1111,mo:1
/exp/pberck/wopr/wopr -s do_pdt2.wopr_script -p file0:../nyt.3e7.50000,lc0:4,id:PDTT70020,timbl0:-a1 +D,dl:5,test:nyt.tail1000,file1:../nyt.3e7.500000,timbl1:-a1 +D,lc1:2,n:4,ds:1111,mo:1
/exp/pberck/wopr/wopr -s do_pdt2.wopr_script -p file0:../nyt.3e7.50000,lc0:8,id:PDTT70021,timbl0:-a1 +D,dl:5,test:nyt.tail1000,file1:../nyt.3e7.500000,timbl1:-a1 +D,lc1:2,n:4,ds:1111,mo:1
/exp/pberck/wopr/wopr -s do_pdt2.wopr_script -p file0:../nyt.3e7.50000,lc0:12,id:PDTT70022,timbl0:-a1 +D,dl:5,test:nyt.tail1000,file1:../nyt.3e7.500000,timbl1:-a1 +D,lc1:2,n:4,ds:1111,mo:1
/exp/pberck/wopr/wopr -s do_pdt2.wopr_script -p file0:../nyt.3e7.50000,lc0:16,id:PDTT70023,timbl0:-a1 +D,dl:5,test:nyt.tail1000,file1:../nyt.3e7.500000,timbl1:-a1 +D,lc1:2,n:4,ds:1111,mo:1
/exp/pberck/wopr/wopr -s do_pdt2.wopr_script -p file0:../nyt.3e7.50000,lc0:4,id:PDTT70024,timbl0:-a1 +D,dl:5,test:nyt.tail1000,file1:../nyt.3e7.1000000,timbl1:-a1 +D,lc1:2,n:4,ds:1111,mo:1
/exp/pberck/wopr/wopr -s do_pdt2.wopr_script -p file0:../nyt.3e7.50000,lc0:8,id:PDTT70025,timbl0:-a1 +D,dl:5,test:nyt.tail1000,file1:../nyt.3e7.1000000,timbl1:-a1 +D,lc1:2,n:4,ds:1111,mo:1
/exp/pberck/wopr/wopr -s do_pdt2.wopr_script -p file0:../nyt.3e7.50000,lc0:12,id:PDTT70026,timbl0:-a1 +D,dl:5,test:nyt.tail1000,file1:../nyt.3e7.1000000,timbl1:-a1 +D,lc1:2,n:4,ds:1111,mo:1
/exp/pberck/wopr/wopr -s do_pdt2.wopr_script -p file0:../nyt.3e7.50000,lc0:16,id:PDTT70027,timbl0:-a1 +D,dl:5,test:nyt.tail1000,file1:../nyt.3e7.1000000,timbl1:-a1 +D,lc1:2,n:4,ds:1111,mo:1
/exp/pberck/wopr/wopr -s do_pdt2.wopr_script -p file0:../nyt.3e7.50000,lc0:4,id:PDTT70028,timbl0:-a1 +D,dl:5,test:nyt.tail1000,file1:../nyt.3e7.5000000,timbl1:-a1 +D,lc1:2,n:4,ds:1111,mo:1
/exp/pberck/wopr/wopr -s do_pdt2.wopr_script -p file0:../nyt.3e7.50000,lc0:8,id:PDTT70029,timbl0:-a1 +D,dl:5,test:nyt.tail1000,file1:../nyt.3e7.5000000,timbl1:-a1 +D,lc1:2,n:4,ds:1111,mo:1
/exp/pberck/wopr/wopr -s do_pdt2.wopr_script -p file0:../nyt.3e7.50000,lc0:12,id:PDTT70030,timbl0:-a1 +D,dl:5,test:nyt.tail1000,file1:../nyt.3e7.5000000,timbl1:-a1 +D,lc1:2,n:4,ds:1111,mo:1
/exp/pberck/wopr/wopr -s do_pdt2.wopr_script -p file0:../nyt.3e7.50000,lc0:16,id:PDTT70031,timbl0:-a1 +D,dl:5,test:nyt.tail1000,file1:../nyt.3e7.5000000,timbl1:-a1 +D,lc1:2,n:4,ds:1111,mo:1
/exp/pberck/wopr/wopr -s do_pdt2.wopr_script -p file0:../nyt.3e7.50000,lc0:4,id:PDTT70032,timbl0:-a1 +D,dl:5,test:nyt.tail1000,file1:../nyt.3e7.10000000,timbl1:-a1 +D,lc1:2,n:4,ds:1111,mo:1
/exp/pberck/wopr/wopr -s do_pdt2.wopr_script -p file0:../nyt.3e7.50000,lc0:8,id:PDTT70033,timbl0:-a1 +D,dl:5,test:nyt.tail1000,file1:../nyt.3e7.10000000,timbl1:-a1 +D,lc1:2,n:4,ds:1111,mo:1
/exp/pberck/wopr/wopr -s do_pdt2.wopr_script -p file0:../nyt.3e7.50000,lc0:12,id:PDTT70034,timbl0:-a1 +D,dl:5,test:nyt.tail1000,file1:../nyt.3e7.10000000,timbl1:-a1 +D,lc1:2,n:4,ds:1111,mo:1
/exp/pberck/wopr/wopr -s do_pdt2.wopr_script -p file0:../nyt.3e7.50000,lc0:16,id:PDTT70035,timbl0:-a1 +D,dl:5,test:nyt.tail1000,file1:../nyt.3e7.10000000,timbl1:-a1 +D,lc1:2,n:4,ds:1111,mo:1
