#2012-01-05 13:53:54
/exp/pberck/wopr/wopr -s do_pdt2.wopr_script -p file0:../nyt.3e7.10000,lc0:2,id:PDTT20000,timbl0:-a1 +D,dl:a,test:nyt.tail1000,file1:../nyt.3e7.1000,timbl1:-a1 +D,lc1:2,n:3,ds:511,mo:1
/exp/pberck/wopr/wopr -s do_pdt2.wopr_script -p file0:../nyt.3e7.10000,lc0:2,id:PDTT20001,timbl0:-a1 +D,dl:a,test:nyt.tail1000,file1:../nyt.3e7.1000,timbl1:-a1 +D,lc1:2,n:3,ds:521,mo:1
/exp/pberck/wopr/wopr -s do_pdt2.wopr_script -p file0:../nyt.3e7.10000,lc0:3,id:PDTT20002,timbl0:-a1 +D,dl:a,test:nyt.tail1000,file1:../nyt.3e7.1000,timbl1:-a1 +D,lc1:2,n:3,ds:511,mo:1
/exp/pberck/wopr/wopr -s do_pdt2.wopr_script -p file0:../nyt.3e7.10000,lc0:3,id:PDTT20003,timbl0:-a1 +D,dl:a,test:nyt.tail1000,file1:../nyt.3e7.1000,timbl1:-a1 +D,lc1:2,n:3,ds:521,mo:1
/exp/pberck/wopr/wopr -s do_pdt2.wopr_script -p file0:../nyt.3e7.10000,lc0:4,id:PDTT20004,timbl0:-a1 +D,dl:a,test:nyt.tail1000,file1:../nyt.3e7.1000,timbl1:-a1 +D,lc1:2,n:3,ds:511,mo:1
/exp/pberck/wopr/wopr -s do_pdt2.wopr_script -p file0:../nyt.3e7.10000,lc0:4,id:PDTT20005,timbl0:-a1 +D,dl:a,test:nyt.tail1000,file1:../nyt.3e7.1000,timbl1:-a1 +D,lc1:2,n:3,ds:521,mo:1
/exp/pberck/wopr/wopr -s do_pdt2.wopr_script -p file0:../nyt.3e7.10000,lc0:8,id:PDTT20006,timbl0:-a1 +D,dl:a,test:nyt.tail1000,file1:../nyt.3e7.1000,timbl1:-a1 +D,lc1:2,n:3,ds:511,mo:1
/exp/pberck/wopr/wopr -s do_pdt2.wopr_script -p file0:../nyt.3e7.10000,lc0:8,id:PDTT20007,timbl0:-a1 +D,dl:a,test:nyt.tail1000,file1:../nyt.3e7.1000,timbl1:-a1 +D,lc1:2,n:3,ds:521,mo:1
/exp/pberck/wopr/wopr -s do_pdt2.wopr_script -p file0:../nyt.3e7.10000,lc0:12,id:PDTT20008,timbl0:-a1 +D,dl:a,test:nyt.tail1000,file1:../nyt.3e7.1000,timbl1:-a1 +D,lc1:2,n:3,ds:511,mo:1
/exp/pberck/wopr/wopr -s do_pdt2.wopr_script -p file0:../nyt.3e7.10000,lc0:12,id:PDTT20009,timbl0:-a1 +D,dl:a,test:nyt.tail1000,file1:../nyt.3e7.1000,timbl1:-a1 +D,lc1:2,n:3,ds:521,mo:1
/exp/pberck/wopr/wopr -s do_pdt2.wopr_script -p file0:../nyt.3e7.10000,lc0:16,id:PDTT20010,timbl0:-a1 +D,dl:a,test:nyt.tail1000,file1:../nyt.3e7.1000,timbl1:-a1 +D,lc1:2,n:3,ds:511,mo:1
/exp/pberck/wopr/wopr -s do_pdt2.wopr_script -p file0:../nyt.3e7.10000,lc0:16,id:PDTT20011,timbl0:-a1 +D,dl:a,test:nyt.tail1000,file1:../nyt.3e7.1000,timbl1:-a1 +D,lc1:2,n:3,ds:521,mo:1
/exp/pberck/wopr/wopr -s do_pdt2.wopr_script -p file0:../nyt.3e7.10000,lc0:2,id:PDTT20012,timbl0:-a4 +D,dl:a,test:nyt.tail1000,file1:../nyt.3e7.1000,timbl1:-a1 +D,lc1:2,n:3,ds:511,mo:1
/exp/pberck/wopr/wopr -s do_pdt2.wopr_script -p file0:../nyt.3e7.10000,lc0:2,id:PDTT20013,timbl0:-a4 +D,dl:a,test:nyt.tail1000,file1:../nyt.3e7.1000,timbl1:-a1 +D,lc1:2,n:3,ds:521,mo:1
/exp/pberck/wopr/wopr -s do_pdt2.wopr_script -p file0:../nyt.3e7.10000,lc0:3,id:PDTT20014,timbl0:-a4 +D,dl:a,test:nyt.tail1000,file1:../nyt.3e7.1000,timbl1:-a1 +D,lc1:2,n:3,ds:511,mo:1
/exp/pberck/wopr/wopr -s do_pdt2.wopr_script -p file0:../nyt.3e7.10000,lc0:3,id:PDTT20015,timbl0:-a4 +D,dl:a,test:nyt.tail1000,file1:../nyt.3e7.1000,timbl1:-a1 +D,lc1:2,n:3,ds:521,mo:1
/exp/pberck/wopr/wopr -s do_pdt2.wopr_script -p file0:../nyt.3e7.10000,lc0:4,id:PDTT20016,timbl0:-a4 +D,dl:a,test:nyt.tail1000,file1:../nyt.3e7.1000,timbl1:-a1 +D,lc1:2,n:3,ds:511,mo:1
/exp/pberck/wopr/wopr -s do_pdt2.wopr_script -p file0:../nyt.3e7.10000,lc0:4,id:PDTT20017,timbl0:-a4 +D,dl:a,test:nyt.tail1000,file1:../nyt.3e7.1000,timbl1:-a1 +D,lc1:2,n:3,ds:521,mo:1
/exp/pberck/wopr/wopr -s do_pdt2.wopr_script -p file0:../nyt.3e7.10000,lc0:8,id:PDTT20018,timbl0:-a4 +D,dl:a,test:nyt.tail1000,file1:../nyt.3e7.1000,timbl1:-a1 +D,lc1:2,n:3,ds:511,mo:1
/exp/pberck/wopr/wopr -s do_pdt2.wopr_script -p file0:../nyt.3e7.10000,lc0:8,id:PDTT20019,timbl0:-a4 +D,dl:a,test:nyt.tail1000,file1:../nyt.3e7.1000,timbl1:-a1 +D,lc1:2,n:3,ds:521,mo:1
/exp/pberck/wopr/wopr -s do_pdt2.wopr_script -p file0:../nyt.3e7.10000,lc0:12,id:PDTT20020,timbl0:-a4 +D,dl:a,test:nyt.tail1000,file1:../nyt.3e7.1000,timbl1:-a1 +D,lc1:2,n:3,ds:511,mo:1
/exp/pberck/wopr/wopr -s do_pdt2.wopr_script -p file0:../nyt.3e7.10000,lc0:12,id:PDTT20021,timbl0:-a4 +D,dl:a,test:nyt.tail1000,file1:../nyt.3e7.1000,timbl1:-a1 +D,lc1:2,n:3,ds:521,mo:1
/exp/pberck/wopr/wopr -s do_pdt2.wopr_script -p file0:../nyt.3e7.10000,lc0:16,id:PDTT20022,timbl0:-a4 +D,dl:a,test:nyt.tail1000,file1:../nyt.3e7.1000,timbl1:-a1 +D,lc1:2,n:3,ds:511,mo:1
/exp/pberck/wopr/wopr -s do_pdt2.wopr_script -p file0:../nyt.3e7.10000,lc0:16,id:PDTT20023,timbl0:-a4 +D,dl:a,test:nyt.tail1000,file1:../nyt.3e7.1000,timbl1:-a1 +D,lc1:2,n:3,ds:521,mo:1
/exp/pberck/wopr/wopr -s do_pdt2.wopr_script -p file0:../nyt.3e7.10000,lc0:2,id:PDTT20024,timbl0:-a1 +D,dl:a,test:nyt.tail1000,file1:../nyt.3e7.5000,timbl1:-a1 +D,lc1:2,n:3,ds:511,mo:1
/exp/pberck/wopr/wopr -s do_pdt2.wopr_script -p file0:../nyt.3e7.10000,lc0:2,id:PDTT20025,timbl0:-a1 +D,dl:a,test:nyt.tail1000,file1:../nyt.3e7.5000,timbl1:-a1 +D,lc1:2,n:3,ds:521,mo:1
/exp/pberck/wopr/wopr -s do_pdt2.wopr_script -p file0:../nyt.3e7.10000,lc0:3,id:PDTT20026,timbl0:-a1 +D,dl:a,test:nyt.tail1000,file1:../nyt.3e7.5000,timbl1:-a1 +D,lc1:2,n:3,ds:511,mo:1
/exp/pberck/wopr/wopr -s do_pdt2.wopr_script -p file0:../nyt.3e7.10000,lc0:3,id:PDTT20027,timbl0:-a1 +D,dl:a,test:nyt.tail1000,file1:../nyt.3e7.5000,timbl1:-a1 +D,lc1:2,n:3,ds:521,mo:1
/exp/pberck/wopr/wopr -s do_pdt2.wopr_script -p file0:../nyt.3e7.10000,lc0:4,id:PDTT20028,timbl0:-a1 +D,dl:a,test:nyt.tail1000,file1:../nyt.3e7.5000,timbl1:-a1 +D,lc1:2,n:3,ds:511,mo:1
/exp/pberck/wopr/wopr -s do_pdt2.wopr_script -p file0:../nyt.3e7.10000,lc0:4,id:PDTT20029,timbl0:-a1 +D,dl:a,test:nyt.tail1000,file1:../nyt.3e7.5000,timbl1:-a1 +D,lc1:2,n:3,ds:521,mo:1
/exp/pberck/wopr/wopr -s do_pdt2.wopr_script -p file0:../nyt.3e7.10000,lc0:8,id:PDTT20030,timbl0:-a1 +D,dl:a,test:nyt.tail1000,file1:../nyt.3e7.5000,timbl1:-a1 +D,lc1:2,n:3,ds:511,mo:1
/exp/pberck/wopr/wopr -s do_pdt2.wopr_script -p file0:../nyt.3e7.10000,lc0:8,id:PDTT20031,timbl0:-a1 +D,dl:a,test:nyt.tail1000,file1:../nyt.3e7.5000,timbl1:-a1 +D,lc1:2,n:3,ds:521,mo:1
/exp/pberck/wopr/wopr -s do_pdt2.wopr_script -p file0:../nyt.3e7.10000,lc0:12,id:PDTT20032,timbl0:-a1 +D,dl:a,test:nyt.tail1000,file1:../nyt.3e7.5000,timbl1:-a1 +D,lc1:2,n:3,ds:511,mo:1
/exp/pberck/wopr/wopr -s do_pdt2.wopr_script -p file0:../nyt.3e7.10000,lc0:12,id:PDTT20033,timbl0:-a1 +D,dl:a,test:nyt.tail1000,file1:../nyt.3e7.5000,timbl1:-a1 +D,lc1:2,n:3,ds:521,mo:1
/exp/pberck/wopr/wopr -s do_pdt2.wopr_script -p file0:../nyt.3e7.10000,lc0:16,id:PDTT20034,timbl0:-a1 +D,dl:a,test:nyt.tail1000,file1:../nyt.3e7.5000,timbl1:-a1 +D,lc1:2,n:3,ds:511,mo:1
/exp/pberck/wopr/wopr -s do_pdt2.wopr_script -p file0:../nyt.3e7.10000,lc0:16,id:PDTT20035,timbl0:-a1 +D,dl:a,test:nyt.tail1000,file1:../nyt.3e7.5000,timbl1:-a1 +D,lc1:2,n:3,ds:521,mo:1
/exp/pberck/wopr/wopr -s do_pdt2.wopr_script -p file0:../nyt.3e7.10000,lc0:2,id:PDTT20036,timbl0:-a4 +D,dl:a,test:nyt.tail1000,file1:../nyt.3e7.5000,timbl1:-a1 +D,lc1:2,n:3,ds:511,mo:1
/exp/pberck/wopr/wopr -s do_pdt2.wopr_script -p file0:../nyt.3e7.10000,lc0:2,id:PDTT20037,timbl0:-a4 +D,dl:a,test:nyt.tail1000,file1:../nyt.3e7.5000,timbl1:-a1 +D,lc1:2,n:3,ds:521,mo:1
/exp/pberck/wopr/wopr -s do_pdt2.wopr_script -p file0:../nyt.3e7.10000,lc0:3,id:PDTT20038,timbl0:-a4 +D,dl:a,test:nyt.tail1000,file1:../nyt.3e7.5000,timbl1:-a1 +D,lc1:2,n:3,ds:511,mo:1
/exp/pberck/wopr/wopr -s do_pdt2.wopr_script -p file0:../nyt.3e7.10000,lc0:3,id:PDTT20039,timbl0:-a4 +D,dl:a,test:nyt.tail1000,file1:../nyt.3e7.5000,timbl1:-a1 +D,lc1:2,n:3,ds:521,mo:1
/exp/pberck/wopr/wopr -s do_pdt2.wopr_script -p file0:../nyt.3e7.10000,lc0:4,id:PDTT20040,timbl0:-a4 +D,dl:a,test:nyt.tail1000,file1:../nyt.3e7.5000,timbl1:-a1 +D,lc1:2,n:3,ds:511,mo:1
/exp/pberck/wopr/wopr -s do_pdt2.wopr_script -p file0:../nyt.3e7.10000,lc0:4,id:PDTT20041,timbl0:-a4 +D,dl:a,test:nyt.tail1000,file1:../nyt.3e7.5000,timbl1:-a1 +D,lc1:2,n:3,ds:521,mo:1
/exp/pberck/wopr/wopr -s do_pdt2.wopr_script -p file0:../nyt.3e7.10000,lc0:8,id:PDTT20042,timbl0:-a4 +D,dl:a,test:nyt.tail1000,file1:../nyt.3e7.5000,timbl1:-a1 +D,lc1:2,n:3,ds:511,mo:1
/exp/pberck/wopr/wopr -s do_pdt2.wopr_script -p file0:../nyt.3e7.10000,lc0:8,id:PDTT20043,timbl0:-a4 +D,dl:a,test:nyt.tail1000,file1:../nyt.3e7.5000,timbl1:-a1 +D,lc1:2,n:3,ds:521,mo:1
/exp/pberck/wopr/wopr -s do_pdt2.wopr_script -p file0:../nyt.3e7.10000,lc0:12,id:PDTT20044,timbl0:-a4 +D,dl:a,test:nyt.tail1000,file1:../nyt.3e7.5000,timbl1:-a1 +D,lc1:2,n:3,ds:511,mo:1
/exp/pberck/wopr/wopr -s do_pdt2.wopr_script -p file0:../nyt.3e7.10000,lc0:12,id:PDTT20045,timbl0:-a4 +D,dl:a,test:nyt.tail1000,file1:../nyt.3e7.5000,timbl1:-a1 +D,lc1:2,n:3,ds:521,mo:1
/exp/pberck/wopr/wopr -s do_pdt2.wopr_script -p file0:../nyt.3e7.10000,lc0:16,id:PDTT20046,timbl0:-a4 +D,dl:a,test:nyt.tail1000,file1:../nyt.3e7.5000,timbl1:-a1 +D,lc1:2,n:3,ds:511,mo:1
/exp/pberck/wopr/wopr -s do_pdt2.wopr_script -p file0:../nyt.3e7.10000,lc0:16,id:PDTT20047,timbl0:-a4 +D,dl:a,test:nyt.tail1000,file1:../nyt.3e7.5000,timbl1:-a1 +D,lc1:2,n:3,ds:521,mo:1
/exp/pberck/wopr/wopr -s do_pdt2.wopr_script -p file0:../nyt.3e7.10000,lc0:2,id:PDTT20048,timbl0:-a1 +D,dl:a,test:nyt.tail1000,file1:../nyt.3e7.10000,timbl1:-a1 +D,lc1:2,n:3,ds:511,mo:1
/exp/pberck/wopr/wopr -s do_pdt2.wopr_script -p file0:../nyt.3e7.10000,lc0:2,id:PDTT20049,timbl0:-a1 +D,dl:a,test:nyt.tail1000,file1:../nyt.3e7.10000,timbl1:-a1 +D,lc1:2,n:3,ds:521,mo:1
/exp/pberck/wopr/wopr -s do_pdt2.wopr_script -p file0:../nyt.3e7.10000,lc0:3,id:PDTT20050,timbl0:-a1 +D,dl:a,test:nyt.tail1000,file1:../nyt.3e7.10000,timbl1:-a1 +D,lc1:2,n:3,ds:511,mo:1
/exp/pberck/wopr/wopr -s do_pdt2.wopr_script -p file0:../nyt.3e7.10000,lc0:3,id:PDTT20051,timbl0:-a1 +D,dl:a,test:nyt.tail1000,file1:../nyt.3e7.10000,timbl1:-a1 +D,lc1:2,n:3,ds:521,mo:1
/exp/pberck/wopr/wopr -s do_pdt2.wopr_script -p file0:../nyt.3e7.10000,lc0:4,id:PDTT20052,timbl0:-a1 +D,dl:a,test:nyt.tail1000,file1:../nyt.3e7.10000,timbl1:-a1 +D,lc1:2,n:3,ds:511,mo:1
/exp/pberck/wopr/wopr -s do_pdt2.wopr_script -p file0:../nyt.3e7.10000,lc0:4,id:PDTT20053,timbl0:-a1 +D,dl:a,test:nyt.tail1000,file1:../nyt.3e7.10000,timbl1:-a1 +D,lc1:2,n:3,ds:521,mo:1
/exp/pberck/wopr/wopr -s do_pdt2.wopr_script -p file0:../nyt.3e7.10000,lc0:8,id:PDTT20054,timbl0:-a1 +D,dl:a,test:nyt.tail1000,file1:../nyt.3e7.10000,timbl1:-a1 +D,lc1:2,n:3,ds:511,mo:1
/exp/pberck/wopr/wopr -s do_pdt2.wopr_script -p file0:../nyt.3e7.10000,lc0:8,id:PDTT20055,timbl0:-a1 +D,dl:a,test:nyt.tail1000,file1:../nyt.3e7.10000,timbl1:-a1 +D,lc1:2,n:3,ds:521,mo:1
/exp/pberck/wopr/wopr -s do_pdt2.wopr_script -p file0:../nyt.3e7.10000,lc0:12,id:PDTT20056,timbl0:-a1 +D,dl:a,test:nyt.tail1000,file1:../nyt.3e7.10000,timbl1:-a1 +D,lc1:2,n:3,ds:511,mo:1
/exp/pberck/wopr/wopr -s do_pdt2.wopr_script -p file0:../nyt.3e7.10000,lc0:12,id:PDTT20057,timbl0:-a1 +D,dl:a,test:nyt.tail1000,file1:../nyt.3e7.10000,timbl1:-a1 +D,lc1:2,n:3,ds:521,mo:1
/exp/pberck/wopr/wopr -s do_pdt2.wopr_script -p file0:../nyt.3e7.10000,lc0:16,id:PDTT20058,timbl0:-a1 +D,dl:a,test:nyt.tail1000,file1:../nyt.3e7.10000,timbl1:-a1 +D,lc1:2,n:3,ds:511,mo:1
/exp/pberck/wopr/wopr -s do_pdt2.wopr_script -p file0:../nyt.3e7.10000,lc0:16,id:PDTT20059,timbl0:-a1 +D,dl:a,test:nyt.tail1000,file1:../nyt.3e7.10000,timbl1:-a1 +D,lc1:2,n:3,ds:521,mo:1
/exp/pberck/wopr/wopr -s do_pdt2.wopr_script -p file0:../nyt.3e7.10000,lc0:2,id:PDTT20060,timbl0:-a4 +D,dl:a,test:nyt.tail1000,file1:../nyt.3e7.10000,timbl1:-a1 +D,lc1:2,n:3,ds:511,mo:1
/exp/pberck/wopr/wopr -s do_pdt2.wopr_script -p file0:../nyt.3e7.10000,lc0:2,id:PDTT20061,timbl0:-a4 +D,dl:a,test:nyt.tail1000,file1:../nyt.3e7.10000,timbl1:-a1 +D,lc1:2,n:3,ds:521,mo:1
/exp/pberck/wopr/wopr -s do_pdt2.wopr_script -p file0:../nyt.3e7.10000,lc0:3,id:PDTT20062,timbl0:-a4 +D,dl:a,test:nyt.tail1000,file1:../nyt.3e7.10000,timbl1:-a1 +D,lc1:2,n:3,ds:511,mo:1
/exp/pberck/wopr/wopr -s do_pdt2.wopr_script -p file0:../nyt.3e7.10000,lc0:3,id:PDTT20063,timbl0:-a4 +D,dl:a,test:nyt.tail1000,file1:../nyt.3e7.10000,timbl1:-a1 +D,lc1:2,n:3,ds:521,mo:1
/exp/pberck/wopr/wopr -s do_pdt2.wopr_script -p file0:../nyt.3e7.10000,lc0:4,id:PDTT20064,timbl0:-a4 +D,dl:a,test:nyt.tail1000,file1:../nyt.3e7.10000,timbl1:-a1 +D,lc1:2,n:3,ds:511,mo:1
/exp/pberck/wopr/wopr -s do_pdt2.wopr_script -p file0:../nyt.3e7.10000,lc0:4,id:PDTT20065,timbl0:-a4 +D,dl:a,test:nyt.tail1000,file1:../nyt.3e7.10000,timbl1:-a1 +D,lc1:2,n:3,ds:521,mo:1
/exp/pberck/wopr/wopr -s do_pdt2.wopr_script -p file0:../nyt.3e7.10000,lc0:8,id:PDTT20066,timbl0:-a4 +D,dl:a,test:nyt.tail1000,file1:../nyt.3e7.10000,timbl1:-a1 +D,lc1:2,n:3,ds:511,mo:1
/exp/pberck/wopr/wopr -s do_pdt2.wopr_script -p file0:../nyt.3e7.10000,lc0:8,id:PDTT20067,timbl0:-a4 +D,dl:a,test:nyt.tail1000,file1:../nyt.3e7.10000,timbl1:-a1 +D,lc1:2,n:3,ds:521,mo:1
/exp/pberck/wopr/wopr -s do_pdt2.wopr_script -p file0:../nyt.3e7.10000,lc0:12,id:PDTT20068,timbl0:-a4 +D,dl:a,test:nyt.tail1000,file1:../nyt.3e7.10000,timbl1:-a1 +D,lc1:2,n:3,ds:511,mo:1
/exp/pberck/wopr/wopr -s do_pdt2.wopr_script -p file0:../nyt.3e7.10000,lc0:12,id:PDTT20069,timbl0:-a4 +D,dl:a,test:nyt.tail1000,file1:../nyt.3e7.10000,timbl1:-a1 +D,lc1:2,n:3,ds:521,mo:1
/exp/pberck/wopr/wopr -s do_pdt2.wopr_script -p file0:../nyt.3e7.10000,lc0:16,id:PDTT20070,timbl0:-a4 +D,dl:a,test:nyt.tail1000,file1:../nyt.3e7.10000,timbl1:-a1 +D,lc1:2,n:3,ds:511,mo:1
/exp/pberck/wopr/wopr -s do_pdt2.wopr_script -p file0:../nyt.3e7.10000,lc0:16,id:PDTT20071,timbl0:-a4 +D,dl:a,test:nyt.tail1000,file1:../nyt.3e7.10000,timbl1:-a1 +D,lc1:2,n:3,ds:521,mo:1
/exp/pberck/wopr/wopr -s do_pdt2.wopr_script -p file0:../nyt.3e7.10000,lc0:2,id:PDTT20072,timbl0:-a1 +D,dl:a,test:nyt.tail1000,file1:../nyt.3e7.50000,timbl1:-a1 +D,lc1:2,n:3,ds:511,mo:1
/exp/pberck/wopr/wopr -s do_pdt2.wopr_script -p file0:../nyt.3e7.10000,lc0:2,id:PDTT20073,timbl0:-a1 +D,dl:a,test:nyt.tail1000,file1:../nyt.3e7.50000,timbl1:-a1 +D,lc1:2,n:3,ds:521,mo:1
/exp/pberck/wopr/wopr -s do_pdt2.wopr_script -p file0:../nyt.3e7.10000,lc0:3,id:PDTT20074,timbl0:-a1 +D,dl:a,test:nyt.tail1000,file1:../nyt.3e7.50000,timbl1:-a1 +D,lc1:2,n:3,ds:511,mo:1
/exp/pberck/wopr/wopr -s do_pdt2.wopr_script -p file0:../nyt.3e7.10000,lc0:3,id:PDTT20075,timbl0:-a1 +D,dl:a,test:nyt.tail1000,file1:../nyt.3e7.50000,timbl1:-a1 +D,lc1:2,n:3,ds:521,mo:1
/exp/pberck/wopr/wopr -s do_pdt2.wopr_script -p file0:../nyt.3e7.10000,lc0:4,id:PDTT20076,timbl0:-a1 +D,dl:a,test:nyt.tail1000,file1:../nyt.3e7.50000,timbl1:-a1 +D,lc1:2,n:3,ds:511,mo:1
/exp/pberck/wopr/wopr -s do_pdt2.wopr_script -p file0:../nyt.3e7.10000,lc0:4,id:PDTT20077,timbl0:-a1 +D,dl:a,test:nyt.tail1000,file1:../nyt.3e7.50000,timbl1:-a1 +D,lc1:2,n:3,ds:521,mo:1
/exp/pberck/wopr/wopr -s do_pdt2.wopr_script -p file0:../nyt.3e7.10000,lc0:8,id:PDTT20078,timbl0:-a1 +D,dl:a,test:nyt.tail1000,file1:../nyt.3e7.50000,timbl1:-a1 +D,lc1:2,n:3,ds:511,mo:1
/exp/pberck/wopr/wopr -s do_pdt2.wopr_script -p file0:../nyt.3e7.10000,lc0:8,id:PDTT20079,timbl0:-a1 +D,dl:a,test:nyt.tail1000,file1:../nyt.3e7.50000,timbl1:-a1 +D,lc1:2,n:3,ds:521,mo:1
/exp/pberck/wopr/wopr -s do_pdt2.wopr_script -p file0:../nyt.3e7.10000,lc0:12,id:PDTT20080,timbl0:-a1 +D,dl:a,test:nyt.tail1000,file1:../nyt.3e7.50000,timbl1:-a1 +D,lc1:2,n:3,ds:511,mo:1
/exp/pberck/wopr/wopr -s do_pdt2.wopr_script -p file0:../nyt.3e7.10000,lc0:12,id:PDTT20081,timbl0:-a1 +D,dl:a,test:nyt.tail1000,file1:../nyt.3e7.50000,timbl1:-a1 +D,lc1:2,n:3,ds:521,mo:1
/exp/pberck/wopr/wopr -s do_pdt2.wopr_script -p file0:../nyt.3e7.10000,lc0:16,id:PDTT20082,timbl0:-a1 +D,dl:a,test:nyt.tail1000,file1:../nyt.3e7.50000,timbl1:-a1 +D,lc1:2,n:3,ds:511,mo:1
/exp/pberck/wopr/wopr -s do_pdt2.wopr_script -p file0:../nyt.3e7.10000,lc0:16,id:PDTT20083,timbl0:-a1 +D,dl:a,test:nyt.tail1000,file1:../nyt.3e7.50000,timbl1:-a1 +D,lc1:2,n:3,ds:521,mo:1
/exp/pberck/wopr/wopr -s do_pdt2.wopr_script -p file0:../nyt.3e7.10000,lc0:2,id:PDTT20084,timbl0:-a4 +D,dl:a,test:nyt.tail1000,file1:../nyt.3e7.50000,timbl1:-a1 +D,lc1:2,n:3,ds:511,mo:1
/exp/pberck/wopr/wopr -s do_pdt2.wopr_script -p file0:../nyt.3e7.10000,lc0:2,id:PDTT20085,timbl0:-a4 +D,dl:a,test:nyt.tail1000,file1:../nyt.3e7.50000,timbl1:-a1 +D,lc1:2,n:3,ds:521,mo:1
/exp/pberck/wopr/wopr -s do_pdt2.wopr_script -p file0:../nyt.3e7.10000,lc0:3,id:PDTT20086,timbl0:-a4 +D,dl:a,test:nyt.tail1000,file1:../nyt.3e7.50000,timbl1:-a1 +D,lc1:2,n:3,ds:511,mo:1
/exp/pberck/wopr/wopr -s do_pdt2.wopr_script -p file0:../nyt.3e7.10000,lc0:3,id:PDTT20087,timbl0:-a4 +D,dl:a,test:nyt.tail1000,file1:../nyt.3e7.50000,timbl1:-a1 +D,lc1:2,n:3,ds:521,mo:1
/exp/pberck/wopr/wopr -s do_pdt2.wopr_script -p file0:../nyt.3e7.10000,lc0:4,id:PDTT20088,timbl0:-a4 +D,dl:a,test:nyt.tail1000,file1:../nyt.3e7.50000,timbl1:-a1 +D,lc1:2,n:3,ds:511,mo:1
/exp/pberck/wopr/wopr -s do_pdt2.wopr_script -p file0:../nyt.3e7.10000,lc0:4,id:PDTT20089,timbl0:-a4 +D,dl:a,test:nyt.tail1000,file1:../nyt.3e7.50000,timbl1:-a1 +D,lc1:2,n:3,ds:521,mo:1
/exp/pberck/wopr/wopr -s do_pdt2.wopr_script -p file0:../nyt.3e7.10000,lc0:8,id:PDTT20090,timbl0:-a4 +D,dl:a,test:nyt.tail1000,file1:../nyt.3e7.50000,timbl1:-a1 +D,lc1:2,n:3,ds:511,mo:1
/exp/pberck/wopr/wopr -s do_pdt2.wopr_script -p file0:../nyt.3e7.10000,lc0:8,id:PDTT20091,timbl0:-a4 +D,dl:a,test:nyt.tail1000,file1:../nyt.3e7.50000,timbl1:-a1 +D,lc1:2,n:3,ds:521,mo:1
/exp/pberck/wopr/wopr -s do_pdt2.wopr_script -p file0:../nyt.3e7.10000,lc0:12,id:PDTT20092,timbl0:-a4 +D,dl:a,test:nyt.tail1000,file1:../nyt.3e7.50000,timbl1:-a1 +D,lc1:2,n:3,ds:511,mo:1
/exp/pberck/wopr/wopr -s do_pdt2.wopr_script -p file0:../nyt.3e7.10000,lc0:12,id:PDTT20093,timbl0:-a4 +D,dl:a,test:nyt.tail1000,file1:../nyt.3e7.50000,timbl1:-a1 +D,lc1:2,n:3,ds:521,mo:1
/exp/pberck/wopr/wopr -s do_pdt2.wopr_script -p file0:../nyt.3e7.10000,lc0:16,id:PDTT20094,timbl0:-a4 +D,dl:a,test:nyt.tail1000,file1:../nyt.3e7.50000,timbl1:-a1 +D,lc1:2,n:3,ds:511,mo:1
/exp/pberck/wopr/wopr -s do_pdt2.wopr_script -p file0:../nyt.3e7.10000,lc0:16,id:PDTT20095,timbl0:-a4 +D,dl:a,test:nyt.tail1000,file1:../nyt.3e7.50000,timbl1:-a1 +D,lc1:2,n:3,ds:521,mo:1
/exp/pberck/wopr/wopr -s do_pdt2.wopr_script -p file0:../nyt.3e7.10000,lc0:2,id:PDTT20096,timbl0:-a1 +D,dl:a,test:nyt.tail1000,file1:../nyt.3e7.100000,timbl1:-a1 +D,lc1:2,n:3,ds:511,mo:1
/exp/pberck/wopr/wopr -s do_pdt2.wopr_script -p file0:../nyt.3e7.10000,lc0:2,id:PDTT20097,timbl0:-a1 +D,dl:a,test:nyt.tail1000,file1:../nyt.3e7.100000,timbl1:-a1 +D,lc1:2,n:3,ds:521,mo:1
/exp/pberck/wopr/wopr -s do_pdt2.wopr_script -p file0:../nyt.3e7.10000,lc0:3,id:PDTT20098,timbl0:-a1 +D,dl:a,test:nyt.tail1000,file1:../nyt.3e7.100000,timbl1:-a1 +D,lc1:2,n:3,ds:511,mo:1
/exp/pberck/wopr/wopr -s do_pdt2.wopr_script -p file0:../nyt.3e7.10000,lc0:3,id:PDTT20099,timbl0:-a1 +D,dl:a,test:nyt.tail1000,file1:../nyt.3e7.100000,timbl1:-a1 +D,lc1:2,n:3,ds:521,mo:1
/exp/pberck/wopr/wopr -s do_pdt2.wopr_script -p file0:../nyt.3e7.10000,lc0:4,id:PDTT20100,timbl0:-a1 +D,dl:a,test:nyt.tail1000,file1:../nyt.3e7.100000,timbl1:-a1 +D,lc1:2,n:3,ds:511,mo:1
/exp/pberck/wopr/wopr -s do_pdt2.wopr_script -p file0:../nyt.3e7.10000,lc0:4,id:PDTT20101,timbl0:-a1 +D,dl:a,test:nyt.tail1000,file1:../nyt.3e7.100000,timbl1:-a1 +D,lc1:2,n:3,ds:521,mo:1
/exp/pberck/wopr/wopr -s do_pdt2.wopr_script -p file0:../nyt.3e7.10000,lc0:8,id:PDTT20102,timbl0:-a1 +D,dl:a,test:nyt.tail1000,file1:../nyt.3e7.100000,timbl1:-a1 +D,lc1:2,n:3,ds:511,mo:1
/exp/pberck/wopr/wopr -s do_pdt2.wopr_script -p file0:../nyt.3e7.10000,lc0:8,id:PDTT20103,timbl0:-a1 +D,dl:a,test:nyt.tail1000,file1:../nyt.3e7.100000,timbl1:-a1 +D,lc1:2,n:3,ds:521,mo:1
/exp/pberck/wopr/wopr -s do_pdt2.wopr_script -p file0:../nyt.3e7.10000,lc0:12,id:PDTT20104,timbl0:-a1 +D,dl:a,test:nyt.tail1000,file1:../nyt.3e7.100000,timbl1:-a1 +D,lc1:2,n:3,ds:511,mo:1
/exp/pberck/wopr/wopr -s do_pdt2.wopr_script -p file0:../nyt.3e7.10000,lc0:12,id:PDTT20105,timbl0:-a1 +D,dl:a,test:nyt.tail1000,file1:../nyt.3e7.100000,timbl1:-a1 +D,lc1:2,n:3,ds:521,mo:1
/exp/pberck/wopr/wopr -s do_pdt2.wopr_script -p file0:../nyt.3e7.10000,lc0:16,id:PDTT20106,timbl0:-a1 +D,dl:a,test:nyt.tail1000,file1:../nyt.3e7.100000,timbl1:-a1 +D,lc1:2,n:3,ds:511,mo:1
/exp/pberck/wopr/wopr -s do_pdt2.wopr_script -p file0:../nyt.3e7.10000,lc0:16,id:PDTT20107,timbl0:-a1 +D,dl:a,test:nyt.tail1000,file1:../nyt.3e7.100000,timbl1:-a1 +D,lc1:2,n:3,ds:521,mo:1
/exp/pberck/wopr/wopr -s do_pdt2.wopr_script -p file0:../nyt.3e7.10000,lc0:2,id:PDTT20108,timbl0:-a4 +D,dl:a,test:nyt.tail1000,file1:../nyt.3e7.100000,timbl1:-a1 +D,lc1:2,n:3,ds:511,mo:1
/exp/pberck/wopr/wopr -s do_pdt2.wopr_script -p file0:../nyt.3e7.10000,lc0:2,id:PDTT20109,timbl0:-a4 +D,dl:a,test:nyt.tail1000,file1:../nyt.3e7.100000,timbl1:-a1 +D,lc1:2,n:3,ds:521,mo:1
/exp/pberck/wopr/wopr -s do_pdt2.wopr_script -p file0:../nyt.3e7.10000,lc0:3,id:PDTT20110,timbl0:-a4 +D,dl:a,test:nyt.tail1000,file1:../nyt.3e7.100000,timbl1:-a1 +D,lc1:2,n:3,ds:511,mo:1
/exp/pberck/wopr/wopr -s do_pdt2.wopr_script -p file0:../nyt.3e7.10000,lc0:3,id:PDTT20111,timbl0:-a4 +D,dl:a,test:nyt.tail1000,file1:../nyt.3e7.100000,timbl1:-a1 +D,lc1:2,n:3,ds:521,mo:1
/exp/pberck/wopr/wopr -s do_pdt2.wopr_script -p file0:../nyt.3e7.10000,lc0:4,id:PDTT20112,timbl0:-a4 +D,dl:a,test:nyt.tail1000,file1:../nyt.3e7.100000,timbl1:-a1 +D,lc1:2,n:3,ds:511,mo:1
/exp/pberck/wopr/wopr -s do_pdt2.wopr_script -p file0:../nyt.3e7.10000,lc0:4,id:PDTT20113,timbl0:-a4 +D,dl:a,test:nyt.tail1000,file1:../nyt.3e7.100000,timbl1:-a1 +D,lc1:2,n:3,ds:521,mo:1
/exp/pberck/wopr/wopr -s do_pdt2.wopr_script -p file0:../nyt.3e7.10000,lc0:8,id:PDTT20114,timbl0:-a4 +D,dl:a,test:nyt.tail1000,file1:../nyt.3e7.100000,timbl1:-a1 +D,lc1:2,n:3,ds:511,mo:1
/exp/pberck/wopr/wopr -s do_pdt2.wopr_script -p file0:../nyt.3e7.10000,lc0:8,id:PDTT20115,timbl0:-a4 +D,dl:a,test:nyt.tail1000,file1:../nyt.3e7.100000,timbl1:-a1 +D,lc1:2,n:3,ds:521,mo:1
/exp/pberck/wopr/wopr -s do_pdt2.wopr_script -p file0:../nyt.3e7.10000,lc0:12,id:PDTT20116,timbl0:-a4 +D,dl:a,test:nyt.tail1000,file1:../nyt.3e7.100000,timbl1:-a1 +D,lc1:2,n:3,ds:511,mo:1
/exp/pberck/wopr/wopr -s do_pdt2.wopr_script -p file0:../nyt.3e7.10000,lc0:12,id:PDTT20117,timbl0:-a4 +D,dl:a,test:nyt.tail1000,file1:../nyt.3e7.100000,timbl1:-a1 +D,lc1:2,n:3,ds:521,mo:1
/exp/pberck/wopr/wopr -s do_pdt2.wopr_script -p file0:../nyt.3e7.10000,lc0:16,id:PDTT20118,timbl0:-a4 +D,dl:a,test:nyt.tail1000,file1:../nyt.3e7.100000,timbl1:-a1 +D,lc1:2,n:3,ds:511,mo:1
/exp/pberck/wopr/wopr -s do_pdt2.wopr_script -p file0:../nyt.3e7.10000,lc0:16,id:PDTT20119,timbl0:-a4 +D,dl:a,test:nyt.tail1000,file1:../nyt.3e7.100000,timbl1:-a1 +D,lc1:2,n:3,ds:521,mo:1
/exp/pberck/wopr/wopr -s do_pdt2.wopr_script -p file0:../nyt.3e7.10000,lc0:2,id:PDTT20120,timbl0:-a1 +D,dl:a,test:nyt.tail1000,file1:../nyt.3e7.500000,timbl1:-a1 +D,lc1:2,n:3,ds:511,mo:1
/exp/pberck/wopr/wopr -s do_pdt2.wopr_script -p file0:../nyt.3e7.10000,lc0:2,id:PDTT20121,timbl0:-a1 +D,dl:a,test:nyt.tail1000,file1:../nyt.3e7.500000,timbl1:-a1 +D,lc1:2,n:3,ds:521,mo:1
/exp/pberck/wopr/wopr -s do_pdt2.wopr_script -p file0:../nyt.3e7.10000,lc0:3,id:PDTT20122,timbl0:-a1 +D,dl:a,test:nyt.tail1000,file1:../nyt.3e7.500000,timbl1:-a1 +D,lc1:2,n:3,ds:511,mo:1
/exp/pberck/wopr/wopr -s do_pdt2.wopr_script -p file0:../nyt.3e7.10000,lc0:3,id:PDTT20123,timbl0:-a1 +D,dl:a,test:nyt.tail1000,file1:../nyt.3e7.500000,timbl1:-a1 +D,lc1:2,n:3,ds:521,mo:1
/exp/pberck/wopr/wopr -s do_pdt2.wopr_script -p file0:../nyt.3e7.10000,lc0:4,id:PDTT20124,timbl0:-a1 +D,dl:a,test:nyt.tail1000,file1:../nyt.3e7.500000,timbl1:-a1 +D,lc1:2,n:3,ds:511,mo:1
/exp/pberck/wopr/wopr -s do_pdt2.wopr_script -p file0:../nyt.3e7.10000,lc0:4,id:PDTT20125,timbl0:-a1 +D,dl:a,test:nyt.tail1000,file1:../nyt.3e7.500000,timbl1:-a1 +D,lc1:2,n:3,ds:521,mo:1
/exp/pberck/wopr/wopr -s do_pdt2.wopr_script -p file0:../nyt.3e7.10000,lc0:8,id:PDTT20126,timbl0:-a1 +D,dl:a,test:nyt.tail1000,file1:../nyt.3e7.500000,timbl1:-a1 +D,lc1:2,n:3,ds:511,mo:1
/exp/pberck/wopr/wopr -s do_pdt2.wopr_script -p file0:../nyt.3e7.10000,lc0:8,id:PDTT20127,timbl0:-a1 +D,dl:a,test:nyt.tail1000,file1:../nyt.3e7.500000,timbl1:-a1 +D,lc1:2,n:3,ds:521,mo:1
/exp/pberck/wopr/wopr -s do_pdt2.wopr_script -p file0:../nyt.3e7.10000,lc0:12,id:PDTT20128,timbl0:-a1 +D,dl:a,test:nyt.tail1000,file1:../nyt.3e7.500000,timbl1:-a1 +D,lc1:2,n:3,ds:511,mo:1
/exp/pberck/wopr/wopr -s do_pdt2.wopr_script -p file0:../nyt.3e7.10000,lc0:12,id:PDTT20129,timbl0:-a1 +D,dl:a,test:nyt.tail1000,file1:../nyt.3e7.500000,timbl1:-a1 +D,lc1:2,n:3,ds:521,mo:1
/exp/pberck/wopr/wopr -s do_pdt2.wopr_script -p file0:../nyt.3e7.10000,lc0:16,id:PDTT20130,timbl0:-a1 +D,dl:a,test:nyt.tail1000,file1:../nyt.3e7.500000,timbl1:-a1 +D,lc1:2,n:3,ds:511,mo:1
/exp/pberck/wopr/wopr -s do_pdt2.wopr_script -p file0:../nyt.3e7.10000,lc0:16,id:PDTT20131,timbl0:-a1 +D,dl:a,test:nyt.tail1000,file1:../nyt.3e7.500000,timbl1:-a1 +D,lc1:2,n:3,ds:521,mo:1
/exp/pberck/wopr/wopr -s do_pdt2.wopr_script -p file0:../nyt.3e7.10000,lc0:2,id:PDTT20132,timbl0:-a4 +D,dl:a,test:nyt.tail1000,file1:../nyt.3e7.500000,timbl1:-a1 +D,lc1:2,n:3,ds:511,mo:1
/exp/pberck/wopr/wopr -s do_pdt2.wopr_script -p file0:../nyt.3e7.10000,lc0:2,id:PDTT20133,timbl0:-a4 +D,dl:a,test:nyt.tail1000,file1:../nyt.3e7.500000,timbl1:-a1 +D,lc1:2,n:3,ds:521,mo:1
/exp/pberck/wopr/wopr -s do_pdt2.wopr_script -p file0:../nyt.3e7.10000,lc0:3,id:PDTT20134,timbl0:-a4 +D,dl:a,test:nyt.tail1000,file1:../nyt.3e7.500000,timbl1:-a1 +D,lc1:2,n:3,ds:511,mo:1
/exp/pberck/wopr/wopr -s do_pdt2.wopr_script -p file0:../nyt.3e7.10000,lc0:3,id:PDTT20135,timbl0:-a4 +D,dl:a,test:nyt.tail1000,file1:../nyt.3e7.500000,timbl1:-a1 +D,lc1:2,n:3,ds:521,mo:1
/exp/pberck/wopr/wopr -s do_pdt2.wopr_script -p file0:../nyt.3e7.10000,lc0:4,id:PDTT20136,timbl0:-a4 +D,dl:a,test:nyt.tail1000,file1:../nyt.3e7.500000,timbl1:-a1 +D,lc1:2,n:3,ds:511,mo:1
/exp/pberck/wopr/wopr -s do_pdt2.wopr_script -p file0:../nyt.3e7.10000,lc0:4,id:PDTT20137,timbl0:-a4 +D,dl:a,test:nyt.tail1000,file1:../nyt.3e7.500000,timbl1:-a1 +D,lc1:2,n:3,ds:521,mo:1
/exp/pberck/wopr/wopr -s do_pdt2.wopr_script -p file0:../nyt.3e7.10000,lc0:8,id:PDTT20138,timbl0:-a4 +D,dl:a,test:nyt.tail1000,file1:../nyt.3e7.500000,timbl1:-a1 +D,lc1:2,n:3,ds:511,mo:1
/exp/pberck/wopr/wopr -s do_pdt2.wopr_script -p file0:../nyt.3e7.10000,lc0:8,id:PDTT20139,timbl0:-a4 +D,dl:a,test:nyt.tail1000,file1:../nyt.3e7.500000,timbl1:-a1 +D,lc1:2,n:3,ds:521,mo:1
/exp/pberck/wopr/wopr -s do_pdt2.wopr_script -p file0:../nyt.3e7.10000,lc0:12,id:PDTT20140,timbl0:-a4 +D,dl:a,test:nyt.tail1000,file1:../nyt.3e7.500000,timbl1:-a1 +D,lc1:2,n:3,ds:511,mo:1
/exp/pberck/wopr/wopr -s do_pdt2.wopr_script -p file0:../nyt.3e7.10000,lc0:12,id:PDTT20141,timbl0:-a4 +D,dl:a,test:nyt.tail1000,file1:../nyt.3e7.500000,timbl1:-a1 +D,lc1:2,n:3,ds:521,mo:1
/exp/pberck/wopr/wopr -s do_pdt2.wopr_script -p file0:../nyt.3e7.10000,lc0:16,id:PDTT20142,timbl0:-a4 +D,dl:a,test:nyt.tail1000,file1:../nyt.3e7.500000,timbl1:-a1 +D,lc1:2,n:3,ds:511,mo:1
/exp/pberck/wopr/wopr -s do_pdt2.wopr_script -p file0:../nyt.3e7.10000,lc0:16,id:PDTT20143,timbl0:-a4 +D,dl:a,test:nyt.tail1000,file1:../nyt.3e7.500000,timbl1:-a1 +D,lc1:2,n:3,ds:521,mo:1
/exp/pberck/wopr/wopr -s do_pdt2.wopr_script -p file0:../nyt.3e7.10000,lc0:2,id:PDTT20144,timbl0:-a1 +D,dl:a,test:nyt.tail1000,file1:../nyt.3e7.1000000,timbl1:-a1 +D,lc1:2,n:3,ds:511,mo:1
/exp/pberck/wopr/wopr -s do_pdt2.wopr_script -p file0:../nyt.3e7.10000,lc0:2,id:PDTT20145,timbl0:-a1 +D,dl:a,test:nyt.tail1000,file1:../nyt.3e7.1000000,timbl1:-a1 +D,lc1:2,n:3,ds:521,mo:1
/exp/pberck/wopr/wopr -s do_pdt2.wopr_script -p file0:../nyt.3e7.10000,lc0:3,id:PDTT20146,timbl0:-a1 +D,dl:a,test:nyt.tail1000,file1:../nyt.3e7.1000000,timbl1:-a1 +D,lc1:2,n:3,ds:511,mo:1
/exp/pberck/wopr/wopr -s do_pdt2.wopr_script -p file0:../nyt.3e7.10000,lc0:3,id:PDTT20147,timbl0:-a1 +D,dl:a,test:nyt.tail1000,file1:../nyt.3e7.1000000,timbl1:-a1 +D,lc1:2,n:3,ds:521,mo:1
/exp/pberck/wopr/wopr -s do_pdt2.wopr_script -p file0:../nyt.3e7.10000,lc0:4,id:PDTT20148,timbl0:-a1 +D,dl:a,test:nyt.tail1000,file1:../nyt.3e7.1000000,timbl1:-a1 +D,lc1:2,n:3,ds:511,mo:1
/exp/pberck/wopr/wopr -s do_pdt2.wopr_script -p file0:../nyt.3e7.10000,lc0:4,id:PDTT20149,timbl0:-a1 +D,dl:a,test:nyt.tail1000,file1:../nyt.3e7.1000000,timbl1:-a1 +D,lc1:2,n:3,ds:521,mo:1
/exp/pberck/wopr/wopr -s do_pdt2.wopr_script -p file0:../nyt.3e7.10000,lc0:8,id:PDTT20150,timbl0:-a1 +D,dl:a,test:nyt.tail1000,file1:../nyt.3e7.1000000,timbl1:-a1 +D,lc1:2,n:3,ds:511,mo:1
/exp/pberck/wopr/wopr -s do_pdt2.wopr_script -p file0:../nyt.3e7.10000,lc0:8,id:PDTT20151,timbl0:-a1 +D,dl:a,test:nyt.tail1000,file1:../nyt.3e7.1000000,timbl1:-a1 +D,lc1:2,n:3,ds:521,mo:1
/exp/pberck/wopr/wopr -s do_pdt2.wopr_script -p file0:../nyt.3e7.10000,lc0:12,id:PDTT20152,timbl0:-a1 +D,dl:a,test:nyt.tail1000,file1:../nyt.3e7.1000000,timbl1:-a1 +D,lc1:2,n:3,ds:511,mo:1
/exp/pberck/wopr/wopr -s do_pdt2.wopr_script -p file0:../nyt.3e7.10000,lc0:12,id:PDTT20153,timbl0:-a1 +D,dl:a,test:nyt.tail1000,file1:../nyt.3e7.1000000,timbl1:-a1 +D,lc1:2,n:3,ds:521,mo:1
/exp/pberck/wopr/wopr -s do_pdt2.wopr_script -p file0:../nyt.3e7.10000,lc0:16,id:PDTT20154,timbl0:-a1 +D,dl:a,test:nyt.tail1000,file1:../nyt.3e7.1000000,timbl1:-a1 +D,lc1:2,n:3,ds:511,mo:1
/exp/pberck/wopr/wopr -s do_pdt2.wopr_script -p file0:../nyt.3e7.10000,lc0:16,id:PDTT20155,timbl0:-a1 +D,dl:a,test:nyt.tail1000,file1:../nyt.3e7.1000000,timbl1:-a1 +D,lc1:2,n:3,ds:521,mo:1
/exp/pberck/wopr/wopr -s do_pdt2.wopr_script -p file0:../nyt.3e7.10000,lc0:2,id:PDTT20156,timbl0:-a4 +D,dl:a,test:nyt.tail1000,file1:../nyt.3e7.1000000,timbl1:-a1 +D,lc1:2,n:3,ds:511,mo:1
/exp/pberck/wopr/wopr -s do_pdt2.wopr_script -p file0:../nyt.3e7.10000,lc0:2,id:PDTT20157,timbl0:-a4 +D,dl:a,test:nyt.tail1000,file1:../nyt.3e7.1000000,timbl1:-a1 +D,lc1:2,n:3,ds:521,mo:1
/exp/pberck/wopr/wopr -s do_pdt2.wopr_script -p file0:../nyt.3e7.10000,lc0:3,id:PDTT20158,timbl0:-a4 +D,dl:a,test:nyt.tail1000,file1:../nyt.3e7.1000000,timbl1:-a1 +D,lc1:2,n:3,ds:511,mo:1
/exp/pberck/wopr/wopr -s do_pdt2.wopr_script -p file0:../nyt.3e7.10000,lc0:3,id:PDTT20159,timbl0:-a4 +D,dl:a,test:nyt.tail1000,file1:../nyt.3e7.1000000,timbl1:-a1 +D,lc1:2,n:3,ds:521,mo:1
/exp/pberck/wopr/wopr -s do_pdt2.wopr_script -p file0:../nyt.3e7.10000,lc0:4,id:PDTT20160,timbl0:-a4 +D,dl:a,test:nyt.tail1000,file1:../nyt.3e7.1000000,timbl1:-a1 +D,lc1:2,n:3,ds:511,mo:1
/exp/pberck/wopr/wopr -s do_pdt2.wopr_script -p file0:../nyt.3e7.10000,lc0:4,id:PDTT20161,timbl0:-a4 +D,dl:a,test:nyt.tail1000,file1:../nyt.3e7.1000000,timbl1:-a1 +D,lc1:2,n:3,ds:521,mo:1
/exp/pberck/wopr/wopr -s do_pdt2.wopr_script -p file0:../nyt.3e7.10000,lc0:8,id:PDTT20162,timbl0:-a4 +D,dl:a,test:nyt.tail1000,file1:../nyt.3e7.1000000,timbl1:-a1 +D,lc1:2,n:3,ds:511,mo:1
/exp/pberck/wopr/wopr -s do_pdt2.wopr_script -p file0:../nyt.3e7.10000,lc0:8,id:PDTT20163,timbl0:-a4 +D,dl:a,test:nyt.tail1000,file1:../nyt.3e7.1000000,timbl1:-a1 +D,lc1:2,n:3,ds:521,mo:1
/exp/pberck/wopr/wopr -s do_pdt2.wopr_script -p file0:../nyt.3e7.10000,lc0:12,id:PDTT20164,timbl0:-a4 +D,dl:a,test:nyt.tail1000,file1:../nyt.3e7.1000000,timbl1:-a1 +D,lc1:2,n:3,ds:511,mo:1
/exp/pberck/wopr/wopr -s do_pdt2.wopr_script -p file0:../nyt.3e7.10000,lc0:12,id:PDTT20165,timbl0:-a4 +D,dl:a,test:nyt.tail1000,file1:../nyt.3e7.1000000,timbl1:-a1 +D,lc1:2,n:3,ds:521,mo:1
/exp/pberck/wopr/wopr -s do_pdt2.wopr_script -p file0:../nyt.3e7.10000,lc0:16,id:PDTT20166,timbl0:-a4 +D,dl:a,test:nyt.tail1000,file1:../nyt.3e7.1000000,timbl1:-a1 +D,lc1:2,n:3,ds:511,mo:1
/exp/pberck/wopr/wopr -s do_pdt2.wopr_script -p file0:../nyt.3e7.10000,lc0:16,id:PDTT20167,timbl0:-a4 +D,dl:a,test:nyt.tail1000,file1:../nyt.3e7.1000000,timbl1:-a1 +D,lc1:2,n:3,ds:521,mo:1
/exp/pberck/wopr/wopr -s do_pdt2.wopr_script -p file0:../nyt.3e7.10000,lc0:2,id:PDTT20168,timbl0:-a1 +D,dl:a,test:nyt.tail1000,file1:../nyt.3e7.5000000,timbl1:-a1 +D,lc1:2,n:3,ds:511,mo:1
/exp/pberck/wopr/wopr -s do_pdt2.wopr_script -p file0:../nyt.3e7.10000,lc0:2,id:PDTT20169,timbl0:-a1 +D,dl:a,test:nyt.tail1000,file1:../nyt.3e7.5000000,timbl1:-a1 +D,lc1:2,n:3,ds:521,mo:1
/exp/pberck/wopr/wopr -s do_pdt2.wopr_script -p file0:../nyt.3e7.10000,lc0:3,id:PDTT20170,timbl0:-a1 +D,dl:a,test:nyt.tail1000,file1:../nyt.3e7.5000000,timbl1:-a1 +D,lc1:2,n:3,ds:511,mo:1
/exp/pberck/wopr/wopr -s do_pdt2.wopr_script -p file0:../nyt.3e7.10000,lc0:3,id:PDTT20171,timbl0:-a1 +D,dl:a,test:nyt.tail1000,file1:../nyt.3e7.5000000,timbl1:-a1 +D,lc1:2,n:3,ds:521,mo:1
/exp/pberck/wopr/wopr -s do_pdt2.wopr_script -p file0:../nyt.3e7.10000,lc0:4,id:PDTT20172,timbl0:-a1 +D,dl:a,test:nyt.tail1000,file1:../nyt.3e7.5000000,timbl1:-a1 +D,lc1:2,n:3,ds:511,mo:1
/exp/pberck/wopr/wopr -s do_pdt2.wopr_script -p file0:../nyt.3e7.10000,lc0:4,id:PDTT20173,timbl0:-a1 +D,dl:a,test:nyt.tail1000,file1:../nyt.3e7.5000000,timbl1:-a1 +D,lc1:2,n:3,ds:521,mo:1
/exp/pberck/wopr/wopr -s do_pdt2.wopr_script -p file0:../nyt.3e7.10000,lc0:8,id:PDTT20174,timbl0:-a1 +D,dl:a,test:nyt.tail1000,file1:../nyt.3e7.5000000,timbl1:-a1 +D,lc1:2,n:3,ds:511,mo:1
/exp/pberck/wopr/wopr -s do_pdt2.wopr_script -p file0:../nyt.3e7.10000,lc0:8,id:PDTT20175,timbl0:-a1 +D,dl:a,test:nyt.tail1000,file1:../nyt.3e7.5000000,timbl1:-a1 +D,lc1:2,n:3,ds:521,mo:1
/exp/pberck/wopr/wopr -s do_pdt2.wopr_script -p file0:../nyt.3e7.10000,lc0:12,id:PDTT20176,timbl0:-a1 +D,dl:a,test:nyt.tail1000,file1:../nyt.3e7.5000000,timbl1:-a1 +D,lc1:2,n:3,ds:511,mo:1
/exp/pberck/wopr/wopr -s do_pdt2.wopr_script -p file0:../nyt.3e7.10000,lc0:12,id:PDTT20177,timbl0:-a1 +D,dl:a,test:nyt.tail1000,file1:../nyt.3e7.5000000,timbl1:-a1 +D,lc1:2,n:3,ds:521,mo:1
/exp/pberck/wopr/wopr -s do_pdt2.wopr_script -p file0:../nyt.3e7.10000,lc0:16,id:PDTT20178,timbl0:-a1 +D,dl:a,test:nyt.tail1000,file1:../nyt.3e7.5000000,timbl1:-a1 +D,lc1:2,n:3,ds:511,mo:1
/exp/pberck/wopr/wopr -s do_pdt2.wopr_script -p file0:../nyt.3e7.10000,lc0:16,id:PDTT20179,timbl0:-a1 +D,dl:a,test:nyt.tail1000,file1:../nyt.3e7.5000000,timbl1:-a1 +D,lc1:2,n:3,ds:521,mo:1
/exp/pberck/wopr/wopr -s do_pdt2.wopr_script -p file0:../nyt.3e7.10000,lc0:2,id:PDTT20180,timbl0:-a4 +D,dl:a,test:nyt.tail1000,file1:../nyt.3e7.5000000,timbl1:-a1 +D,lc1:2,n:3,ds:511,mo:1
/exp/pberck/wopr/wopr -s do_pdt2.wopr_script -p file0:../nyt.3e7.10000,lc0:2,id:PDTT20181,timbl0:-a4 +D,dl:a,test:nyt.tail1000,file1:../nyt.3e7.5000000,timbl1:-a1 +D,lc1:2,n:3,ds:521,mo:1
/exp/pberck/wopr/wopr -s do_pdt2.wopr_script -p file0:../nyt.3e7.10000,lc0:3,id:PDTT20182,timbl0:-a4 +D,dl:a,test:nyt.tail1000,file1:../nyt.3e7.5000000,timbl1:-a1 +D,lc1:2,n:3,ds:511,mo:1
/exp/pberck/wopr/wopr -s do_pdt2.wopr_script -p file0:../nyt.3e7.10000,lc0:3,id:PDTT20183,timbl0:-a4 +D,dl:a,test:nyt.tail1000,file1:../nyt.3e7.5000000,timbl1:-a1 +D,lc1:2,n:3,ds:521,mo:1
/exp/pberck/wopr/wopr -s do_pdt2.wopr_script -p file0:../nyt.3e7.10000,lc0:4,id:PDTT20184,timbl0:-a4 +D,dl:a,test:nyt.tail1000,file1:../nyt.3e7.5000000,timbl1:-a1 +D,lc1:2,n:3,ds:511,mo:1
/exp/pberck/wopr/wopr -s do_pdt2.wopr_script -p file0:../nyt.3e7.10000,lc0:4,id:PDTT20185,timbl0:-a4 +D,dl:a,test:nyt.tail1000,file1:../nyt.3e7.5000000,timbl1:-a1 +D,lc1:2,n:3,ds:521,mo:1
/exp/pberck/wopr/wopr -s do_pdt2.wopr_script -p file0:../nyt.3e7.10000,lc0:8,id:PDTT20186,timbl0:-a4 +D,dl:a,test:nyt.tail1000,file1:../nyt.3e7.5000000,timbl1:-a1 +D,lc1:2,n:3,ds:511,mo:1
/exp/pberck/wopr/wopr -s do_pdt2.wopr_script -p file0:../nyt.3e7.10000,lc0:8,id:PDTT20187,timbl0:-a4 +D,dl:a,test:nyt.tail1000,file1:../nyt.3e7.5000000,timbl1:-a1 +D,lc1:2,n:3,ds:521,mo:1
/exp/pberck/wopr/wopr -s do_pdt2.wopr_script -p file0:../nyt.3e7.10000,lc0:12,id:PDTT20188,timbl0:-a4 +D,dl:a,test:nyt.tail1000,file1:../nyt.3e7.5000000,timbl1:-a1 +D,lc1:2,n:3,ds:511,mo:1
/exp/pberck/wopr/wopr -s do_pdt2.wopr_script -p file0:../nyt.3e7.10000,lc0:12,id:PDTT20189,timbl0:-a4 +D,dl:a,test:nyt.tail1000,file1:../nyt.3e7.5000000,timbl1:-a1 +D,lc1:2,n:3,ds:521,mo:1
/exp/pberck/wopr/wopr -s do_pdt2.wopr_script -p file0:../nyt.3e7.10000,lc0:16,id:PDTT20190,timbl0:-a4 +D,dl:a,test:nyt.tail1000,file1:../nyt.3e7.5000000,timbl1:-a1 +D,lc1:2,n:3,ds:511,mo:1
/exp/pberck/wopr/wopr -s do_pdt2.wopr_script -p file0:../nyt.3e7.10000,lc0:16,id:PDTT20191,timbl0:-a4 +D,dl:a,test:nyt.tail1000,file1:../nyt.3e7.5000000,timbl1:-a1 +D,lc1:2,n:3,ds:521,mo:1
/exp/pberck/wopr/wopr -s do_pdt2.wopr_script -p file0:../nyt.3e7.10000,lc0:2,id:PDTT20192,timbl0:-a1 +D,dl:a,test:nyt.tail1000,file1:../nyt.3e7.10000000,timbl1:-a1 +D,lc1:2,n:3,ds:511,mo:1
/exp/pberck/wopr/wopr -s do_pdt2.wopr_script -p file0:../nyt.3e7.10000,lc0:2,id:PDTT20193,timbl0:-a1 +D,dl:a,test:nyt.tail1000,file1:../nyt.3e7.10000000,timbl1:-a1 +D,lc1:2,n:3,ds:521,mo:1
/exp/pberck/wopr/wopr -s do_pdt2.wopr_script -p file0:../nyt.3e7.10000,lc0:3,id:PDTT20194,timbl0:-a1 +D,dl:a,test:nyt.tail1000,file1:../nyt.3e7.10000000,timbl1:-a1 +D,lc1:2,n:3,ds:511,mo:1
/exp/pberck/wopr/wopr -s do_pdt2.wopr_script -p file0:../nyt.3e7.10000,lc0:3,id:PDTT20195,timbl0:-a1 +D,dl:a,test:nyt.tail1000,file1:../nyt.3e7.10000000,timbl1:-a1 +D,lc1:2,n:3,ds:521,mo:1
#2012-01-09 10:30:21
/exp/pberck/wopr/wopr -s do_pdt2.wopr_script -p file0:../nyt.3e7.10000,lc0:3,id:PDTT20195,timbl0:-a1 +D,dl:a,test:nyt.tail1000,file1:../nyt.3e7.10000000,timbl1:-a1 +D,lc1:2,n:3,ds:521,mo:1
/exp/pberck/wopr/wopr -s do_pdt2.wopr_script -p file0:../nyt.3e7.10000,lc0:4,id:PDTT20196,timbl0:-a1 +D,dl:a,test:nyt.tail1000,file1:../nyt.3e7.10000000,timbl1:-a1 +D,lc1:2,n:3,ds:511,mo:1
/exp/pberck/wopr/wopr -s do_pdt2.wopr_script -p file0:../nyt.3e7.10000,lc0:4,id:PDTT20197,timbl0:-a1 +D,dl:a,test:nyt.tail1000,file1:../nyt.3e7.10000000,timbl1:-a1 +D,lc1:2,n:3,ds:521,mo:1
/exp/pberck/wopr/wopr -s do_pdt2.wopr_script -p file0:../nyt.3e7.10000,lc0:8,id:PDTT20198,timbl0:-a1 +D,dl:a,test:nyt.tail1000,file1:../nyt.3e7.10000000,timbl1:-a1 +D,lc1:2,n:3,ds:511,mo:1
/exp/pberck/wopr/wopr -s do_pdt2.wopr_script -p file0:../nyt.3e7.10000,lc0:8,id:PDTT20199,timbl0:-a1 +D,dl:a,test:nyt.tail1000,file1:../nyt.3e7.10000000,timbl1:-a1 +D,lc1:2,n:3,ds:521,mo:1
/exp/pberck/wopr/wopr -s do_pdt2.wopr_script -p file0:../nyt.3e7.10000,lc0:12,id:PDTT20200,timbl0:-a1 +D,dl:a,test:nyt.tail1000,file1:../nyt.3e7.10000000,timbl1:-a1 +D,lc1:2,n:3,ds:511,mo:1
/exp/pberck/wopr/wopr -s do_pdt2.wopr_script -p file0:../nyt.3e7.10000,lc0:12,id:PDTT20201,timbl0:-a1 +D,dl:a,test:nyt.tail1000,file1:../nyt.3e7.10000000,timbl1:-a1 +D,lc1:2,n:3,ds:521,mo:1
/exp/pberck/wopr/wopr -s do_pdt2.wopr_script -p file0:../nyt.3e7.10000,lc0:16,id:PDTT20202,timbl0:-a1 +D,dl:a,test:nyt.tail1000,file1:../nyt.3e7.10000000,timbl1:-a1 +D,lc1:2,n:3,ds:511,mo:1
/exp/pberck/wopr/wopr -s do_pdt2.wopr_script -p file0:../nyt.3e7.10000,lc0:16,id:PDTT20203,timbl0:-a1 +D,dl:a,test:nyt.tail1000,file1:../nyt.3e7.10000000,timbl1:-a1 +D,lc1:2,n:3,ds:521,mo:1
/exp/pberck/wopr/wopr -s do_pdt2.wopr_script -p file0:../nyt.3e7.10000,lc0:2,id:PDTT20204,timbl0:-a4 +D,dl:a,test:nyt.tail1000,file1:../nyt.3e7.10000000,timbl1:-a1 +D,lc1:2,n:3,ds:511,mo:1
/exp/pberck/wopr/wopr -s do_pdt2.wopr_script -p file0:../nyt.3e7.10000,lc0:2,id:PDTT20205,timbl0:-a4 +D,dl:a,test:nyt.tail1000,file1:../nyt.3e7.10000000,timbl1:-a1 +D,lc1:2,n:3,ds:521,mo:1
/exp/pberck/wopr/wopr -s do_pdt2.wopr_script -p file0:../nyt.3e7.10000,lc0:3,id:PDTT20206,timbl0:-a4 +D,dl:a,test:nyt.tail1000,file1:../nyt.3e7.10000000,timbl1:-a1 +D,lc1:2,n:3,ds:511,mo:1
/exp/pberck/wopr/wopr -s do_pdt2.wopr_script -p file0:../nyt.3e7.10000,lc0:3,id:PDTT20207,timbl0:-a4 +D,dl:a,test:nyt.tail1000,file1:../nyt.3e7.10000000,timbl1:-a1 +D,lc1:2,n:3,ds:521,mo:1
/exp/pberck/wopr/wopr -s do_pdt2.wopr_script -p file0:../nyt.3e7.10000,lc0:4,id:PDTT20208,timbl0:-a4 +D,dl:a,test:nyt.tail1000,file1:../nyt.3e7.10000000,timbl1:-a1 +D,lc1:2,n:3,ds:511,mo:1
/exp/pberck/wopr/wopr -s do_pdt2.wopr_script -p file0:../nyt.3e7.10000,lc0:4,id:PDTT20209,timbl0:-a4 +D,dl:a,test:nyt.tail1000,file1:../nyt.3e7.10000000,timbl1:-a1 +D,lc1:2,n:3,ds:521,mo:1
/exp/pberck/wopr/wopr -s do_pdt2.wopr_script -p file0:../nyt.3e7.10000,lc0:8,id:PDTT20210,timbl0:-a4 +D,dl:a,test:nyt.tail1000,file1:../nyt.3e7.10000000,timbl1:-a1 +D,lc1:2,n:3,ds:511,mo:1
/exp/pberck/wopr/wopr -s do_pdt2.wopr_script -p file0:../nyt.3e7.10000,lc0:8,id:PDTT20211,timbl0:-a4 +D,dl:a,test:nyt.tail1000,file1:../nyt.3e7.10000000,timbl1:-a1 +D,lc1:2,n:3,ds:521,mo:1
/exp/pberck/wopr/wopr -s do_pdt2.wopr_script -p file0:../nyt.3e7.10000,lc0:12,id:PDTT20212,timbl0:-a4 +D,dl:a,test:nyt.tail1000,file1:../nyt.3e7.10000000,timbl1:-a1 +D,lc1:2,n:3,ds:511,mo:1
/exp/pberck/wopr/wopr -s do_pdt2.wopr_script -p file0:../nyt.3e7.10000,lc0:12,id:PDTT20213,timbl0:-a4 +D,dl:a,test:nyt.tail1000,file1:../nyt.3e7.10000000,timbl1:-a1 +D,lc1:2,n:3,ds:521,mo:1
/exp/pberck/wopr/wopr -s do_pdt2.wopr_script -p file0:../nyt.3e7.10000,lc0:16,id:PDTT20214,timbl0:-a4 +D,dl:a,test:nyt.tail1000,file1:../nyt.3e7.10000000,timbl1:-a1 +D,lc1:2,n:3,ds:511,mo:1
/exp/pberck/wopr/wopr -s do_pdt2.wopr_script -p file0:../nyt.3e7.10000,lc0:16,id:PDTT20215,timbl0:-a4 +D,dl:a,test:nyt.tail1000,file1:../nyt.3e7.10000000,timbl1:-a1 +D,lc1:2,n:3,ds:521,mo:1
