#2012-01-11 12:39:23
/exp/pberck/wopr/wopr -s do_pdt2.wopr_script -p file0:../nyt.3e7.100000,lc0:8,id:PDTT44000,timbl0:-a1 +D,dl:5,test:nyt.tail1000,file1:../nyt.3e7.100000,timbl1:-a4 +D,lc1:2,n:3,ds:211,mo:1
/exp/pberck/wopr/wopr -s do_pdt2.wopr_script -p file0:../nyt.3e7.100000,lc0:8,id:PDTT44001,timbl0:-a1 +D,dl:5,test:nyt.tail1000,file1:../nyt.3e7.100000,timbl1:-a4 +D,lc1:2,n:3,ds:221,mo:1
/exp/pberck/wopr/wopr -s do_pdt2.wopr_script -p file0:../nyt.3e7.100000,lc0:8,id:PDTT44002,timbl0:-a1 +D,dl:5,test:nyt.tail1000,file1:../nyt.3e7.100000,timbl1:-a4 +D,lc1:2,n:3,ds:511,mo:1
/exp/pberck/wopr/wopr -s do_pdt2.wopr_script -p file0:../nyt.3e7.100000,lc0:8,id:PDTT44003,timbl0:-a1 +D,dl:5,test:nyt.tail1000,file1:../nyt.3e7.100000,timbl1:-a4 +D,lc1:2,n:3,ds:521,mo:1
/exp/pberck/wopr/wopr -s do_pdt2.wopr_script -p file0:../nyt.3e7.100000,lc0:8,id:PDTT44004,timbl0:-a1 +D,dl:5,test:nyt.tail1000,file1:../nyt.3e7.100000,timbl1:-a4 +D,lc1:2,n:3,ds:551,mo:1
/exp/pberck/wopr/wopr -s do_pdt2.wopr_script -p file0:../nyt.3e7.100000,lc0:12,id:PDTT44005,timbl0:-a1 +D,dl:5,test:nyt.tail1000,file1:../nyt.3e7.100000,timbl1:-a4 +D,lc1:2,n:3,ds:211,mo:1
/exp/pberck/wopr/wopr -s do_pdt2.wopr_script -p file0:../nyt.3e7.100000,lc0:12,id:PDTT44006,timbl0:-a1 +D,dl:5,test:nyt.tail1000,file1:../nyt.3e7.100000,timbl1:-a4 +D,lc1:2,n:3,ds:221,mo:1
/exp/pberck/wopr/wopr -s do_pdt2.wopr_script -p file0:../nyt.3e7.100000,lc0:12,id:PDTT44007,timbl0:-a1 +D,dl:5,test:nyt.tail1000,file1:../nyt.3e7.100000,timbl1:-a4 +D,lc1:2,n:3,ds:511,mo:1
/exp/pberck/wopr/wopr -s do_pdt2.wopr_script -p file0:../nyt.3e7.100000,lc0:12,id:PDTT44008,timbl0:-a1 +D,dl:5,test:nyt.tail1000,file1:../nyt.3e7.100000,timbl1:-a4 +D,lc1:2,n:3,ds:521,mo:1
/exp/pberck/wopr/wopr -s do_pdt2.wopr_script -p file0:../nyt.3e7.100000,lc0:12,id:PDTT44009,timbl0:-a1 +D,dl:5,test:nyt.tail1000,file1:../nyt.3e7.100000,timbl1:-a4 +D,lc1:2,n:3,ds:551,mo:1
/exp/pberck/wopr/wopr -s do_pdt2.wopr_script -p file0:../nyt.3e7.100000,lc0:8,id:PDTT44010,timbl0:-a4 +D,dl:5,test:nyt.tail1000,file1:../nyt.3e7.100000,timbl1:-a4 +D,lc1:2,n:3,ds:211,mo:1
/exp/pberck/wopr/wopr -s do_pdt2.wopr_script -p file0:../nyt.3e7.100000,lc0:8,id:PDTT44011,timbl0:-a4 +D,dl:5,test:nyt.tail1000,file1:../nyt.3e7.100000,timbl1:-a4 +D,lc1:2,n:3,ds:221,mo:1
/exp/pberck/wopr/wopr -s do_pdt2.wopr_script -p file0:../nyt.3e7.100000,lc0:8,id:PDTT44012,timbl0:-a4 +D,dl:5,test:nyt.tail1000,file1:../nyt.3e7.100000,timbl1:-a4 +D,lc1:2,n:3,ds:511,mo:1
/exp/pberck/wopr/wopr -s do_pdt2.wopr_script -p file0:../nyt.3e7.100000,lc0:8,id:PDTT44013,timbl0:-a4 +D,dl:5,test:nyt.tail1000,file1:../nyt.3e7.100000,timbl1:-a4 +D,lc1:2,n:3,ds:521,mo:1
/exp/pberck/wopr/wopr -s do_pdt2.wopr_script -p file0:../nyt.3e7.100000,lc0:8,id:PDTT44014,timbl0:-a4 +D,dl:5,test:nyt.tail1000,file1:../nyt.3e7.100000,timbl1:-a4 +D,lc1:2,n:3,ds:551,mo:1
/exp/pberck/wopr/wopr -s do_pdt2.wopr_script -p file0:../nyt.3e7.100000,lc0:12,id:PDTT44015,timbl0:-a4 +D,dl:5,test:nyt.tail1000,file1:../nyt.3e7.100000,timbl1:-a4 +D,lc1:2,n:3,ds:211,mo:1
/exp/pberck/wopr/wopr -s do_pdt2.wopr_script -p file0:../nyt.3e7.100000,lc0:12,id:PDTT44016,timbl0:-a4 +D,dl:5,test:nyt.tail1000,file1:../nyt.3e7.100000,timbl1:-a4 +D,lc1:2,n:3,ds:221,mo:1
/exp/pberck/wopr/wopr -s do_pdt2.wopr_script -p file0:../nyt.3e7.100000,lc0:12,id:PDTT44017,timbl0:-a4 +D,dl:5,test:nyt.tail1000,file1:../nyt.3e7.100000,timbl1:-a4 +D,lc1:2,n:3,ds:511,mo:1
/exp/pberck/wopr/wopr -s do_pdt2.wopr_script -p file0:../nyt.3e7.100000,lc0:12,id:PDTT44018,timbl0:-a4 +D,dl:5,test:nyt.tail1000,file1:../nyt.3e7.100000,timbl1:-a4 +D,lc1:2,n:3,ds:521,mo:1
/exp/pberck/wopr/wopr -s do_pdt2.wopr_script -p file0:../nyt.3e7.100000,lc0:12,id:PDTT44019,timbl0:-a4 +D,dl:5,test:nyt.tail1000,file1:../nyt.3e7.100000,timbl1:-a4 +D,lc1:2,n:3,ds:551,mo:1
/exp/pberck/wopr/wopr -s do_pdt2.wopr_script -p file0:../nyt.3e7.100000,lc0:8,id:PDTT44020,timbl0:-a1 +D,dl:5,test:nyt.tail1000,file1:../nyt.3e7.500000,timbl1:-a4 +D,lc1:2,n:3,ds:211,mo:1
/exp/pberck/wopr/wopr -s do_pdt2.wopr_script -p file0:../nyt.3e7.100000,lc0:8,id:PDTT44021,timbl0:-a1 +D,dl:5,test:nyt.tail1000,file1:../nyt.3e7.500000,timbl1:-a4 +D,lc1:2,n:3,ds:221,mo:1
/exp/pberck/wopr/wopr -s do_pdt2.wopr_script -p file0:../nyt.3e7.100000,lc0:8,id:PDTT44022,timbl0:-a1 +D,dl:5,test:nyt.tail1000,file1:../nyt.3e7.500000,timbl1:-a4 +D,lc1:2,n:3,ds:511,mo:1
/exp/pberck/wopr/wopr -s do_pdt2.wopr_script -p file0:../nyt.3e7.100000,lc0:8,id:PDTT44023,timbl0:-a1 +D,dl:5,test:nyt.tail1000,file1:../nyt.3e7.500000,timbl1:-a4 +D,lc1:2,n:3,ds:521,mo:1
/exp/pberck/wopr/wopr -s do_pdt2.wopr_script -p file0:../nyt.3e7.100000,lc0:8,id:PDTT44024,timbl0:-a1 +D,dl:5,test:nyt.tail1000,file1:../nyt.3e7.500000,timbl1:-a4 +D,lc1:2,n:3,ds:551,mo:1
/exp/pberck/wopr/wopr -s do_pdt2.wopr_script -p file0:../nyt.3e7.100000,lc0:12,id:PDTT44025,timbl0:-a1 +D,dl:5,test:nyt.tail1000,file1:../nyt.3e7.500000,timbl1:-a4 +D,lc1:2,n:3,ds:211,mo:1
/exp/pberck/wopr/wopr -s do_pdt2.wopr_script -p file0:../nyt.3e7.100000,lc0:12,id:PDTT44026,timbl0:-a1 +D,dl:5,test:nyt.tail1000,file1:../nyt.3e7.500000,timbl1:-a4 +D,lc1:2,n:3,ds:221,mo:1
/exp/pberck/wopr/wopr -s do_pdt2.wopr_script -p file0:../nyt.3e7.100000,lc0:12,id:PDTT44027,timbl0:-a1 +D,dl:5,test:nyt.tail1000,file1:../nyt.3e7.500000,timbl1:-a4 +D,lc1:2,n:3,ds:511,mo:1
/exp/pberck/wopr/wopr -s do_pdt2.wopr_script -p file0:../nyt.3e7.100000,lc0:12,id:PDTT44028,timbl0:-a1 +D,dl:5,test:nyt.tail1000,file1:../nyt.3e7.500000,timbl1:-a4 +D,lc1:2,n:3,ds:521,mo:1
/exp/pberck/wopr/wopr -s do_pdt2.wopr_script -p file0:../nyt.3e7.100000,lc0:12,id:PDTT44029,timbl0:-a1 +D,dl:5,test:nyt.tail1000,file1:../nyt.3e7.500000,timbl1:-a4 +D,lc1:2,n:3,ds:551,mo:1
/exp/pberck/wopr/wopr -s do_pdt2.wopr_script -p file0:../nyt.3e7.100000,lc0:8,id:PDTT44030,timbl0:-a4 +D,dl:5,test:nyt.tail1000,file1:../nyt.3e7.500000,timbl1:-a4 +D,lc1:2,n:3,ds:211,mo:1
/exp/pberck/wopr/wopr -s do_pdt2.wopr_script -p file0:../nyt.3e7.100000,lc0:8,id:PDTT44031,timbl0:-a4 +D,dl:5,test:nyt.tail1000,file1:../nyt.3e7.500000,timbl1:-a4 +D,lc1:2,n:3,ds:221,mo:1
/exp/pberck/wopr/wopr -s do_pdt2.wopr_script -p file0:../nyt.3e7.100000,lc0:8,id:PDTT44032,timbl0:-a4 +D,dl:5,test:nyt.tail1000,file1:../nyt.3e7.500000,timbl1:-a4 +D,lc1:2,n:3,ds:511,mo:1
/exp/pberck/wopr/wopr -s do_pdt2.wopr_script -p file0:../nyt.3e7.100000,lc0:8,id:PDTT44033,timbl0:-a4 +D,dl:5,test:nyt.tail1000,file1:../nyt.3e7.500000,timbl1:-a4 +D,lc1:2,n:3,ds:521,mo:1
/exp/pberck/wopr/wopr -s do_pdt2.wopr_script -p file0:../nyt.3e7.100000,lc0:8,id:PDTT44034,timbl0:-a4 +D,dl:5,test:nyt.tail1000,file1:../nyt.3e7.500000,timbl1:-a4 +D,lc1:2,n:3,ds:551,mo:1
/exp/pberck/wopr/wopr -s do_pdt2.wopr_script -p file0:../nyt.3e7.100000,lc0:12,id:PDTT44035,timbl0:-a4 +D,dl:5,test:nyt.tail1000,file1:../nyt.3e7.500000,timbl1:-a4 +D,lc1:2,n:3,ds:211,mo:1
/exp/pberck/wopr/wopr -s do_pdt2.wopr_script -p file0:../nyt.3e7.100000,lc0:12,id:PDTT44036,timbl0:-a4 +D,dl:5,test:nyt.tail1000,file1:../nyt.3e7.500000,timbl1:-a4 +D,lc1:2,n:3,ds:221,mo:1
/exp/pberck/wopr/wopr -s do_pdt2.wopr_script -p file0:../nyt.3e7.100000,lc0:12,id:PDTT44037,timbl0:-a4 +D,dl:5,test:nyt.tail1000,file1:../nyt.3e7.500000,timbl1:-a4 +D,lc1:2,n:3,ds:511,mo:1
/exp/pberck/wopr/wopr -s do_pdt2.wopr_script -p file0:../nyt.3e7.100000,lc0:12,id:PDTT44038,timbl0:-a4 +D,dl:5,test:nyt.tail1000,file1:../nyt.3e7.500000,timbl1:-a4 +D,lc1:2,n:3,ds:521,mo:1
/exp/pberck/wopr/wopr -s do_pdt2.wopr_script -p file0:../nyt.3e7.100000,lc0:12,id:PDTT44039,timbl0:-a4 +D,dl:5,test:nyt.tail1000,file1:../nyt.3e7.500000,timbl1:-a4 +D,lc1:2,n:3,ds:551,mo:1
/exp/pberck/wopr/wopr -s do_pdt2.wopr_script -p file0:../nyt.3e7.100000,lc0:8,id:PDTT44040,timbl0:-a1 +D,dl:5,test:nyt.tail1000,file1:../nyt.3e7.1000000,timbl1:-a4 +D,lc1:2,n:3,ds:211,mo:1
/exp/pberck/wopr/wopr -s do_pdt2.wopr_script -p file0:../nyt.3e7.100000,lc0:8,id:PDTT44041,timbl0:-a1 +D,dl:5,test:nyt.tail1000,file1:../nyt.3e7.1000000,timbl1:-a4 +D,lc1:2,n:3,ds:221,mo:1
/exp/pberck/wopr/wopr -s do_pdt2.wopr_script -p file0:../nyt.3e7.100000,lc0:8,id:PDTT44042,timbl0:-a1 +D,dl:5,test:nyt.tail1000,file1:../nyt.3e7.1000000,timbl1:-a4 +D,lc1:2,n:3,ds:511,mo:1
/exp/pberck/wopr/wopr -s do_pdt2.wopr_script -p file0:../nyt.3e7.100000,lc0:8,id:PDTT44043,timbl0:-a1 +D,dl:5,test:nyt.tail1000,file1:../nyt.3e7.1000000,timbl1:-a4 +D,lc1:2,n:3,ds:521,mo:1
/exp/pberck/wopr/wopr -s do_pdt2.wopr_script -p file0:../nyt.3e7.100000,lc0:8,id:PDTT44044,timbl0:-a1 +D,dl:5,test:nyt.tail1000,file1:../nyt.3e7.1000000,timbl1:-a4 +D,lc1:2,n:3,ds:551,mo:1
/exp/pberck/wopr/wopr -s do_pdt2.wopr_script -p file0:../nyt.3e7.100000,lc0:12,id:PDTT44045,timbl0:-a1 +D,dl:5,test:nyt.tail1000,file1:../nyt.3e7.1000000,timbl1:-a4 +D,lc1:2,n:3,ds:211,mo:1
/exp/pberck/wopr/wopr -s do_pdt2.wopr_script -p file0:../nyt.3e7.100000,lc0:12,id:PDTT44046,timbl0:-a1 +D,dl:5,test:nyt.tail1000,file1:../nyt.3e7.1000000,timbl1:-a4 +D,lc1:2,n:3,ds:221,mo:1
/exp/pberck/wopr/wopr -s do_pdt2.wopr_script -p file0:../nyt.3e7.100000,lc0:12,id:PDTT44047,timbl0:-a1 +D,dl:5,test:nyt.tail1000,file1:../nyt.3e7.1000000,timbl1:-a4 +D,lc1:2,n:3,ds:511,mo:1
/exp/pberck/wopr/wopr -s do_pdt2.wopr_script -p file0:../nyt.3e7.100000,lc0:12,id:PDTT44048,timbl0:-a1 +D,dl:5,test:nyt.tail1000,file1:../nyt.3e7.1000000,timbl1:-a4 +D,lc1:2,n:3,ds:521,mo:1
/exp/pberck/wopr/wopr -s do_pdt2.wopr_script -p file0:../nyt.3e7.100000,lc0:12,id:PDTT44049,timbl0:-a1 +D,dl:5,test:nyt.tail1000,file1:../nyt.3e7.1000000,timbl1:-a4 +D,lc1:2,n:3,ds:551,mo:1
/exp/pberck/wopr/wopr -s do_pdt2.wopr_script -p file0:../nyt.3e7.100000,lc0:8,id:PDTT44050,timbl0:-a4 +D,dl:5,test:nyt.tail1000,file1:../nyt.3e7.1000000,timbl1:-a4 +D,lc1:2,n:3,ds:211,mo:1
/exp/pberck/wopr/wopr -s do_pdt2.wopr_script -p file0:../nyt.3e7.100000,lc0:8,id:PDTT44051,timbl0:-a4 +D,dl:5,test:nyt.tail1000,file1:../nyt.3e7.1000000,timbl1:-a4 +D,lc1:2,n:3,ds:221,mo:1
/exp/pberck/wopr/wopr -s do_pdt2.wopr_script -p file0:../nyt.3e7.100000,lc0:8,id:PDTT44052,timbl0:-a4 +D,dl:5,test:nyt.tail1000,file1:../nyt.3e7.1000000,timbl1:-a4 +D,lc1:2,n:3,ds:511,mo:1
/exp/pberck/wopr/wopr -s do_pdt2.wopr_script -p file0:../nyt.3e7.100000,lc0:8,id:PDTT44053,timbl0:-a4 +D,dl:5,test:nyt.tail1000,file1:../nyt.3e7.1000000,timbl1:-a4 +D,lc1:2,n:3,ds:521,mo:1
/exp/pberck/wopr/wopr -s do_pdt2.wopr_script -p file0:../nyt.3e7.100000,lc0:8,id:PDTT44054,timbl0:-a4 +D,dl:5,test:nyt.tail1000,file1:../nyt.3e7.1000000,timbl1:-a4 +D,lc1:2,n:3,ds:551,mo:1
/exp/pberck/wopr/wopr -s do_pdt2.wopr_script -p file0:../nyt.3e7.100000,lc0:12,id:PDTT44055,timbl0:-a4 +D,dl:5,test:nyt.tail1000,file1:../nyt.3e7.1000000,timbl1:-a4 +D,lc1:2,n:3,ds:211,mo:1
/exp/pberck/wopr/wopr -s do_pdt2.wopr_script -p file0:../nyt.3e7.100000,lc0:12,id:PDTT44056,timbl0:-a4 +D,dl:5,test:nyt.tail1000,file1:../nyt.3e7.1000000,timbl1:-a4 +D,lc1:2,n:3,ds:221,mo:1
/exp/pberck/wopr/wopr -s do_pdt2.wopr_script -p file0:../nyt.3e7.100000,lc0:12,id:PDTT44057,timbl0:-a4 +D,dl:5,test:nyt.tail1000,file1:../nyt.3e7.1000000,timbl1:-a4 +D,lc1:2,n:3,ds:511,mo:1
/exp/pberck/wopr/wopr -s do_pdt2.wopr_script -p file0:../nyt.3e7.100000,lc0:12,id:PDTT44058,timbl0:-a4 +D,dl:5,test:nyt.tail1000,file1:../nyt.3e7.1000000,timbl1:-a4 +D,lc1:2,n:3,ds:521,mo:1
/exp/pberck/wopr/wopr -s do_pdt2.wopr_script -p file0:../nyt.3e7.100000,lc0:12,id:PDTT44059,timbl0:-a4 +D,dl:5,test:nyt.tail1000,file1:../nyt.3e7.1000000,timbl1:-a4 +D,lc1:2,n:3,ds:551,mo:1
/exp/pberck/wopr/wopr -s do_pdt2.wopr_script -p file0:../nyt.3e7.100000,lc0:8,id:PDTT44060,timbl0:-a1 +D,dl:5,test:nyt.tail1000,file1:../nyt.3e7.5000000,timbl1:-a4 +D,lc1:2,n:3,ds:211,mo:1
/exp/pberck/wopr/wopr -s do_pdt2.wopr_script -p file0:../nyt.3e7.100000,lc0:8,id:PDTT44061,timbl0:-a1 +D,dl:5,test:nyt.tail1000,file1:../nyt.3e7.5000000,timbl1:-a4 +D,lc1:2,n:3,ds:221,mo:1
/exp/pberck/wopr/wopr -s do_pdt2.wopr_script -p file0:../nyt.3e7.100000,lc0:8,id:PDTT44062,timbl0:-a1 +D,dl:5,test:nyt.tail1000,file1:../nyt.3e7.5000000,timbl1:-a4 +D,lc1:2,n:3,ds:511,mo:1
/exp/pberck/wopr/wopr -s do_pdt2.wopr_script -p file0:../nyt.3e7.100000,lc0:8,id:PDTT44063,timbl0:-a1 +D,dl:5,test:nyt.tail1000,file1:../nyt.3e7.5000000,timbl1:-a4 +D,lc1:2,n:3,ds:521,mo:1
/exp/pberck/wopr/wopr -s do_pdt2.wopr_script -p file0:../nyt.3e7.100000,lc0:8,id:PDTT44064,timbl0:-a1 +D,dl:5,test:nyt.tail1000,file1:../nyt.3e7.5000000,timbl1:-a4 +D,lc1:2,n:3,ds:551,mo:1
/exp/pberck/wopr/wopr -s do_pdt2.wopr_script -p file0:../nyt.3e7.100000,lc0:12,id:PDTT44065,timbl0:-a1 +D,dl:5,test:nyt.tail1000,file1:../nyt.3e7.5000000,timbl1:-a4 +D,lc1:2,n:3,ds:211,mo:1
/exp/pberck/wopr/wopr -s do_pdt2.wopr_script -p file0:../nyt.3e7.100000,lc0:12,id:PDTT44066,timbl0:-a1 +D,dl:5,test:nyt.tail1000,file1:../nyt.3e7.5000000,timbl1:-a4 +D,lc1:2,n:3,ds:221,mo:1
/exp/pberck/wopr/wopr -s do_pdt2.wopr_script -p file0:../nyt.3e7.100000,lc0:12,id:PDTT44067,timbl0:-a1 +D,dl:5,test:nyt.tail1000,file1:../nyt.3e7.5000000,timbl1:-a4 +D,lc1:2,n:3,ds:511,mo:1
/exp/pberck/wopr/wopr -s do_pdt2.wopr_script -p file0:../nyt.3e7.100000,lc0:12,id:PDTT44068,timbl0:-a1 +D,dl:5,test:nyt.tail1000,file1:../nyt.3e7.5000000,timbl1:-a4 +D,lc1:2,n:3,ds:521,mo:1
/exp/pberck/wopr/wopr -s do_pdt2.wopr_script -p file0:../nyt.3e7.100000,lc0:12,id:PDTT44069,timbl0:-a1 +D,dl:5,test:nyt.tail1000,file1:../nyt.3e7.5000000,timbl1:-a4 +D,lc1:2,n:3,ds:551,mo:1
/exp/pberck/wopr/wopr -s do_pdt2.wopr_script -p file0:../nyt.3e7.100000,lc0:8,id:PDTT44070,timbl0:-a4 +D,dl:5,test:nyt.tail1000,file1:../nyt.3e7.5000000,timbl1:-a4 +D,lc1:2,n:3,ds:211,mo:1
/exp/pberck/wopr/wopr -s do_pdt2.wopr_script -p file0:../nyt.3e7.100000,lc0:8,id:PDTT44071,timbl0:-a4 +D,dl:5,test:nyt.tail1000,file1:../nyt.3e7.5000000,timbl1:-a4 +D,lc1:2,n:3,ds:221,mo:1
/exp/pberck/wopr/wopr -s do_pdt2.wopr_script -p file0:../nyt.3e7.100000,lc0:8,id:PDTT44072,timbl0:-a4 +D,dl:5,test:nyt.tail1000,file1:../nyt.3e7.5000000,timbl1:-a4 +D,lc1:2,n:3,ds:511,mo:1
/exp/pberck/wopr/wopr -s do_pdt2.wopr_script -p file0:../nyt.3e7.100000,lc0:8,id:PDTT44073,timbl0:-a4 +D,dl:5,test:nyt.tail1000,file1:../nyt.3e7.5000000,timbl1:-a4 +D,lc1:2,n:3,ds:521,mo:1
/exp/pberck/wopr/wopr -s do_pdt2.wopr_script -p file0:../nyt.3e7.100000,lc0:8,id:PDTT44074,timbl0:-a4 +D,dl:5,test:nyt.tail1000,file1:../nyt.3e7.5000000,timbl1:-a4 +D,lc1:2,n:3,ds:551,mo:1
/exp/pberck/wopr/wopr -s do_pdt2.wopr_script -p file0:../nyt.3e7.100000,lc0:12,id:PDTT44075,timbl0:-a4 +D,dl:5,test:nyt.tail1000,file1:../nyt.3e7.5000000,timbl1:-a4 +D,lc1:2,n:3,ds:211,mo:1
/exp/pberck/wopr/wopr -s do_pdt2.wopr_script -p file0:../nyt.3e7.100000,lc0:12,id:PDTT44076,timbl0:-a4 +D,dl:5,test:nyt.tail1000,file1:../nyt.3e7.5000000,timbl1:-a4 +D,lc1:2,n:3,ds:221,mo:1
/exp/pberck/wopr/wopr -s do_pdt2.wopr_script -p file0:../nyt.3e7.100000,lc0:12,id:PDTT44077,timbl0:-a4 +D,dl:5,test:nyt.tail1000,file1:../nyt.3e7.5000000,timbl1:-a4 +D,lc1:2,n:3,ds:511,mo:1
/exp/pberck/wopr/wopr -s do_pdt2.wopr_script -p file0:../nyt.3e7.100000,lc0:12,id:PDTT44078,timbl0:-a4 +D,dl:5,test:nyt.tail1000,file1:../nyt.3e7.5000000,timbl1:-a4 +D,lc1:2,n:3,ds:521,mo:1
/exp/pberck/wopr/wopr -s do_pdt2.wopr_script -p file0:../nyt.3e7.100000,lc0:12,id:PDTT44079,timbl0:-a4 +D,dl:5,test:nyt.tail1000,file1:../nyt.3e7.5000000,timbl1:-a4 +D,lc1:2,n:3,ds:551,mo:1
/exp/pberck/wopr/wopr -s do_pdt2.wopr_script -p file0:../nyt.3e7.100000,lc0:8,id:PDTT44080,timbl0:-a1 +D,dl:5,test:nyt.tail1000,file1:../nyt.3e7.10000000,timbl1:-a4 +D,lc1:2,n:3,ds:211,mo:1
/exp/pberck/wopr/wopr -s do_pdt2.wopr_script -p file0:../nyt.3e7.100000,lc0:8,id:PDTT44081,timbl0:-a1 +D,dl:5,test:nyt.tail1000,file1:../nyt.3e7.10000000,timbl1:-a4 +D,lc1:2,n:3,ds:221,mo:1
/exp/pberck/wopr/wopr -s do_pdt2.wopr_script -p file0:../nyt.3e7.100000,lc0:8,id:PDTT44082,timbl0:-a1 +D,dl:5,test:nyt.tail1000,file1:../nyt.3e7.10000000,timbl1:-a4 +D,lc1:2,n:3,ds:511,mo:1
/exp/pberck/wopr/wopr -s do_pdt2.wopr_script -p file0:../nyt.3e7.100000,lc0:8,id:PDTT44083,timbl0:-a1 +D,dl:5,test:nyt.tail1000,file1:../nyt.3e7.10000000,timbl1:-a4 +D,lc1:2,n:3,ds:521,mo:1
/exp/pberck/wopr/wopr -s do_pdt2.wopr_script -p file0:../nyt.3e7.100000,lc0:8,id:PDTT44084,timbl0:-a1 +D,dl:5,test:nyt.tail1000,file1:../nyt.3e7.10000000,timbl1:-a4 +D,lc1:2,n:3,ds:551,mo:1
/exp/pberck/wopr/wopr -s do_pdt2.wopr_script -p file0:../nyt.3e7.100000,lc0:12,id:PDTT44085,timbl0:-a1 +D,dl:5,test:nyt.tail1000,file1:../nyt.3e7.10000000,timbl1:-a4 +D,lc1:2,n:3,ds:211,mo:1
/exp/pberck/wopr/wopr -s do_pdt2.wopr_script -p file0:../nyt.3e7.100000,lc0:12,id:PDTT44086,timbl0:-a1 +D,dl:5,test:nyt.tail1000,file1:../nyt.3e7.10000000,timbl1:-a4 +D,lc1:2,n:3,ds:221,mo:1
/exp/pberck/wopr/wopr -s do_pdt2.wopr_script -p file0:../nyt.3e7.100000,lc0:12,id:PDTT44087,timbl0:-a1 +D,dl:5,test:nyt.tail1000,file1:../nyt.3e7.10000000,timbl1:-a4 +D,lc1:2,n:3,ds:511,mo:1
/exp/pberck/wopr/wopr -s do_pdt2.wopr_script -p file0:../nyt.3e7.100000,lc0:12,id:PDTT44088,timbl0:-a1 +D,dl:5,test:nyt.tail1000,file1:../nyt.3e7.10000000,timbl1:-a4 +D,lc1:2,n:3,ds:521,mo:1
/exp/pberck/wopr/wopr -s do_pdt2.wopr_script -p file0:../nyt.3e7.100000,lc0:12,id:PDTT44089,timbl0:-a1 +D,dl:5,test:nyt.tail1000,file1:../nyt.3e7.10000000,timbl1:-a4 +D,lc1:2,n:3,ds:551,mo:1
/exp/pberck/wopr/wopr -s do_pdt2.wopr_script -p file0:../nyt.3e7.100000,lc0:8,id:PDTT44090,timbl0:-a4 +D,dl:5,test:nyt.tail1000,file1:../nyt.3e7.10000000,timbl1:-a4 +D,lc1:2,n:3,ds:211,mo:1
/exp/pberck/wopr/wopr -s do_pdt2.wopr_script -p file0:../nyt.3e7.100000,lc0:8,id:PDTT44091,timbl0:-a4 +D,dl:5,test:nyt.tail1000,file1:../nyt.3e7.10000000,timbl1:-a4 +D,lc1:2,n:3,ds:221,mo:1
/exp/pberck/wopr/wopr -s do_pdt2.wopr_script -p file0:../nyt.3e7.100000,lc0:8,id:PDTT44092,timbl0:-a4 +D,dl:5,test:nyt.tail1000,file1:../nyt.3e7.10000000,timbl1:-a4 +D,lc1:2,n:3,ds:511,mo:1
/exp/pberck/wopr/wopr -s do_pdt2.wopr_script -p file0:../nyt.3e7.100000,lc0:8,id:PDTT44093,timbl0:-a4 +D,dl:5,test:nyt.tail1000,file1:../nyt.3e7.10000000,timbl1:-a4 +D,lc1:2,n:3,ds:521,mo:1
/exp/pberck/wopr/wopr -s do_pdt2.wopr_script -p file0:../nyt.3e7.100000,lc0:8,id:PDTT44094,timbl0:-a4 +D,dl:5,test:nyt.tail1000,file1:../nyt.3e7.10000000,timbl1:-a4 +D,lc1:2,n:3,ds:551,mo:1
/exp/pberck/wopr/wopr -s do_pdt2.wopr_script -p file0:../nyt.3e7.100000,lc0:12,id:PDTT44095,timbl0:-a4 +D,dl:5,test:nyt.tail1000,file1:../nyt.3e7.10000000,timbl1:-a4 +D,lc1:2,n:3,ds:211,mo:1
/exp/pberck/wopr/wopr -s do_pdt2.wopr_script -p file0:../nyt.3e7.100000,lc0:12,id:PDTT44096,timbl0:-a4 +D,dl:5,test:nyt.tail1000,file1:../nyt.3e7.10000000,timbl1:-a4 +D,lc1:2,n:3,ds:221,mo:1
/exp/pberck/wopr/wopr -s do_pdt2.wopr_script -p file0:../nyt.3e7.100000,lc0:12,id:PDTT44097,timbl0:-a4 +D,dl:5,test:nyt.tail1000,file1:../nyt.3e7.10000000,timbl1:-a4 +D,lc1:2,n:3,ds:511,mo:1
/exp/pberck/wopr/wopr -s do_pdt2.wopr_script -p file0:../nyt.3e7.100000,lc0:12,id:PDTT44098,timbl0:-a4 +D,dl:5,test:nyt.tail1000,file1:../nyt.3e7.10000000,timbl1:-a4 +D,lc1:2,n:3,ds:521,mo:1
/exp/pberck/wopr/wopr -s do_pdt2.wopr_script -p file0:../nyt.3e7.100000,lc0:12,id:PDTT44099,timbl0:-a4 +D,dl:5,test:nyt.tail1000,file1:../nyt.3e7.10000000,timbl1:-a4 +D,lc1:2,n:3,ds:551,mo:1
