#2012-01-05 13:53:56
/exp/pberck/wopr/wopr -s do_pdt2.wopr_script -p file0:../nyt.3e7.10000,lc0:2,id:PDTT30000,timbl0:-a1 +D,dl:5,test:nyt.tail1000,file1:../nyt.3e7.1000,timbl1:-a1 +D,lc1:2,n:3,ds:211,mo:1
/exp/pberck/wopr/wopr -s do_pdt2.wopr_script -p file0:../nyt.3e7.10000,lc0:2,id:PDTT30001,timbl0:-a1 +D,dl:5,test:nyt.tail1000,file1:../nyt.3e7.1000,timbl1:-a1 +D,lc1:2,n:3,ds:221,mo:1
/exp/pberck/wopr/wopr -s do_pdt2.wopr_script -p file0:../nyt.3e7.10000,lc0:2,id:PDTT30002,timbl0:-a1 +D,dl:5,test:nyt.tail1000,file1:../nyt.3e7.1000,timbl1:-a1 +D,lc1:2,n:3,ds:511,mo:1
/exp/pberck/wopr/wopr -s do_pdt2.wopr_script -p file0:../nyt.3e7.10000,lc0:2,id:PDTT30003,timbl0:-a1 +D,dl:5,test:nyt.tail1000,file1:../nyt.3e7.1000,timbl1:-a1 +D,lc1:2,n:3,ds:521,mo:1
/exp/pberck/wopr/wopr -s do_pdt2.wopr_script -p file0:../nyt.3e7.10000,lc0:2,id:PDTT30004,timbl0:-a1 +D,dl:5,test:nyt.tail1000,file1:../nyt.3e7.1000,timbl1:-a1 +D,lc1:2,n:3,ds:551,mo:1
/exp/pberck/wopr/wopr -s do_pdt2.wopr_script -p file0:../nyt.3e7.10000,lc0:3,id:PDTT30005,timbl0:-a1 +D,dl:5,test:nyt.tail1000,file1:../nyt.3e7.1000,timbl1:-a1 +D,lc1:2,n:3,ds:211,mo:1
/exp/pberck/wopr/wopr -s do_pdt2.wopr_script -p file0:../nyt.3e7.10000,lc0:3,id:PDTT30006,timbl0:-a1 +D,dl:5,test:nyt.tail1000,file1:../nyt.3e7.1000,timbl1:-a1 +D,lc1:2,n:3,ds:221,mo:1
/exp/pberck/wopr/wopr -s do_pdt2.wopr_script -p file0:../nyt.3e7.10000,lc0:3,id:PDTT30007,timbl0:-a1 +D,dl:5,test:nyt.tail1000,file1:../nyt.3e7.1000,timbl1:-a1 +D,lc1:2,n:3,ds:511,mo:1
/exp/pberck/wopr/wopr -s do_pdt2.wopr_script -p file0:../nyt.3e7.10000,lc0:3,id:PDTT30008,timbl0:-a1 +D,dl:5,test:nyt.tail1000,file1:../nyt.3e7.1000,timbl1:-a1 +D,lc1:2,n:3,ds:521,mo:1
/exp/pberck/wopr/wopr -s do_pdt2.wopr_script -p file0:../nyt.3e7.10000,lc0:3,id:PDTT30009,timbl0:-a1 +D,dl:5,test:nyt.tail1000,file1:../nyt.3e7.1000,timbl1:-a1 +D,lc1:2,n:3,ds:551,mo:1
/exp/pberck/wopr/wopr -s do_pdt2.wopr_script -p file0:../nyt.3e7.10000,lc0:4,id:PDTT30010,timbl0:-a1 +D,dl:5,test:nyt.tail1000,file1:../nyt.3e7.1000,timbl1:-a1 +D,lc1:2,n:3,ds:211,mo:1
/exp/pberck/wopr/wopr -s do_pdt2.wopr_script -p file0:../nyt.3e7.10000,lc0:4,id:PDTT30011,timbl0:-a1 +D,dl:5,test:nyt.tail1000,file1:../nyt.3e7.1000,timbl1:-a1 +D,lc1:2,n:3,ds:221,mo:1
/exp/pberck/wopr/wopr -s do_pdt2.wopr_script -p file0:../nyt.3e7.10000,lc0:4,id:PDTT30012,timbl0:-a1 +D,dl:5,test:nyt.tail1000,file1:../nyt.3e7.1000,timbl1:-a1 +D,lc1:2,n:3,ds:511,mo:1
/exp/pberck/wopr/wopr -s do_pdt2.wopr_script -p file0:../nyt.3e7.10000,lc0:4,id:PDTT30013,timbl0:-a1 +D,dl:5,test:nyt.tail1000,file1:../nyt.3e7.1000,timbl1:-a1 +D,lc1:2,n:3,ds:521,mo:1
/exp/pberck/wopr/wopr -s do_pdt2.wopr_script -p file0:../nyt.3e7.10000,lc0:4,id:PDTT30014,timbl0:-a1 +D,dl:5,test:nyt.tail1000,file1:../nyt.3e7.1000,timbl1:-a1 +D,lc1:2,n:3,ds:551,mo:1
/exp/pberck/wopr/wopr -s do_pdt2.wopr_script -p file0:../nyt.3e7.10000,lc0:8,id:PDTT30015,timbl0:-a1 +D,dl:5,test:nyt.tail1000,file1:../nyt.3e7.1000,timbl1:-a1 +D,lc1:2,n:3,ds:211,mo:1
/exp/pberck/wopr/wopr -s do_pdt2.wopr_script -p file0:../nyt.3e7.10000,lc0:8,id:PDTT30016,timbl0:-a1 +D,dl:5,test:nyt.tail1000,file1:../nyt.3e7.1000,timbl1:-a1 +D,lc1:2,n:3,ds:221,mo:1
/exp/pberck/wopr/wopr -s do_pdt2.wopr_script -p file0:../nyt.3e7.10000,lc0:8,id:PDTT30017,timbl0:-a1 +D,dl:5,test:nyt.tail1000,file1:../nyt.3e7.1000,timbl1:-a1 +D,lc1:2,n:3,ds:511,mo:1
/exp/pberck/wopr/wopr -s do_pdt2.wopr_script -p file0:../nyt.3e7.10000,lc0:8,id:PDTT30018,timbl0:-a1 +D,dl:5,test:nyt.tail1000,file1:../nyt.3e7.1000,timbl1:-a1 +D,lc1:2,n:3,ds:521,mo:1
/exp/pberck/wopr/wopr -s do_pdt2.wopr_script -p file0:../nyt.3e7.10000,lc0:8,id:PDTT30019,timbl0:-a1 +D,dl:5,test:nyt.tail1000,file1:../nyt.3e7.1000,timbl1:-a1 +D,lc1:2,n:3,ds:551,mo:1
/exp/pberck/wopr/wopr -s do_pdt2.wopr_script -p file0:../nyt.3e7.10000,lc0:12,id:PDTT30020,timbl0:-a1 +D,dl:5,test:nyt.tail1000,file1:../nyt.3e7.1000,timbl1:-a1 +D,lc1:2,n:3,ds:211,mo:1
/exp/pberck/wopr/wopr -s do_pdt2.wopr_script -p file0:../nyt.3e7.10000,lc0:12,id:PDTT30021,timbl0:-a1 +D,dl:5,test:nyt.tail1000,file1:../nyt.3e7.1000,timbl1:-a1 +D,lc1:2,n:3,ds:221,mo:1
/exp/pberck/wopr/wopr -s do_pdt2.wopr_script -p file0:../nyt.3e7.10000,lc0:12,id:PDTT30022,timbl0:-a1 +D,dl:5,test:nyt.tail1000,file1:../nyt.3e7.1000,timbl1:-a1 +D,lc1:2,n:3,ds:511,mo:1
/exp/pberck/wopr/wopr -s do_pdt2.wopr_script -p file0:../nyt.3e7.10000,lc0:12,id:PDTT30023,timbl0:-a1 +D,dl:5,test:nyt.tail1000,file1:../nyt.3e7.1000,timbl1:-a1 +D,lc1:2,n:3,ds:521,mo:1
/exp/pberck/wopr/wopr -s do_pdt2.wopr_script -p file0:../nyt.3e7.10000,lc0:12,id:PDTT30024,timbl0:-a1 +D,dl:5,test:nyt.tail1000,file1:../nyt.3e7.1000,timbl1:-a1 +D,lc1:2,n:3,ds:551,mo:1
/exp/pberck/wopr/wopr -s do_pdt2.wopr_script -p file0:../nyt.3e7.10000,lc0:16,id:PDTT30025,timbl0:-a1 +D,dl:5,test:nyt.tail1000,file1:../nyt.3e7.1000,timbl1:-a1 +D,lc1:2,n:3,ds:211,mo:1
/exp/pberck/wopr/wopr -s do_pdt2.wopr_script -p file0:../nyt.3e7.10000,lc0:16,id:PDTT30026,timbl0:-a1 +D,dl:5,test:nyt.tail1000,file1:../nyt.3e7.1000,timbl1:-a1 +D,lc1:2,n:3,ds:221,mo:1
/exp/pberck/wopr/wopr -s do_pdt2.wopr_script -p file0:../nyt.3e7.10000,lc0:16,id:PDTT30027,timbl0:-a1 +D,dl:5,test:nyt.tail1000,file1:../nyt.3e7.1000,timbl1:-a1 +D,lc1:2,n:3,ds:511,mo:1
/exp/pberck/wopr/wopr -s do_pdt2.wopr_script -p file0:../nyt.3e7.10000,lc0:16,id:PDTT30028,timbl0:-a1 +D,dl:5,test:nyt.tail1000,file1:../nyt.3e7.1000,timbl1:-a1 +D,lc1:2,n:3,ds:521,mo:1
/exp/pberck/wopr/wopr -s do_pdt2.wopr_script -p file0:../nyt.3e7.10000,lc0:16,id:PDTT30029,timbl0:-a1 +D,dl:5,test:nyt.tail1000,file1:../nyt.3e7.1000,timbl1:-a1 +D,lc1:2,n:3,ds:551,mo:1
/exp/pberck/wopr/wopr -s do_pdt2.wopr_script -p file0:../nyt.3e7.10000,lc0:2,id:PDTT30030,timbl0:-a4 +D,dl:5,test:nyt.tail1000,file1:../nyt.3e7.1000,timbl1:-a1 +D,lc1:2,n:3,ds:211,mo:1
/exp/pberck/wopr/wopr -s do_pdt2.wopr_script -p file0:../nyt.3e7.10000,lc0:2,id:PDTT30031,timbl0:-a4 +D,dl:5,test:nyt.tail1000,file1:../nyt.3e7.1000,timbl1:-a1 +D,lc1:2,n:3,ds:221,mo:1
/exp/pberck/wopr/wopr -s do_pdt2.wopr_script -p file0:../nyt.3e7.10000,lc0:2,id:PDTT30032,timbl0:-a4 +D,dl:5,test:nyt.tail1000,file1:../nyt.3e7.1000,timbl1:-a1 +D,lc1:2,n:3,ds:511,mo:1
/exp/pberck/wopr/wopr -s do_pdt2.wopr_script -p file0:../nyt.3e7.10000,lc0:2,id:PDTT30033,timbl0:-a4 +D,dl:5,test:nyt.tail1000,file1:../nyt.3e7.1000,timbl1:-a1 +D,lc1:2,n:3,ds:521,mo:1
/exp/pberck/wopr/wopr -s do_pdt2.wopr_script -p file0:../nyt.3e7.10000,lc0:2,id:PDTT30034,timbl0:-a4 +D,dl:5,test:nyt.tail1000,file1:../nyt.3e7.1000,timbl1:-a1 +D,lc1:2,n:3,ds:551,mo:1
/exp/pberck/wopr/wopr -s do_pdt2.wopr_script -p file0:../nyt.3e7.10000,lc0:3,id:PDTT30035,timbl0:-a4 +D,dl:5,test:nyt.tail1000,file1:../nyt.3e7.1000,timbl1:-a1 +D,lc1:2,n:3,ds:211,mo:1
/exp/pberck/wopr/wopr -s do_pdt2.wopr_script -p file0:../nyt.3e7.10000,lc0:3,id:PDTT30036,timbl0:-a4 +D,dl:5,test:nyt.tail1000,file1:../nyt.3e7.1000,timbl1:-a1 +D,lc1:2,n:3,ds:221,mo:1
/exp/pberck/wopr/wopr -s do_pdt2.wopr_script -p file0:../nyt.3e7.10000,lc0:3,id:PDTT30037,timbl0:-a4 +D,dl:5,test:nyt.tail1000,file1:../nyt.3e7.1000,timbl1:-a1 +D,lc1:2,n:3,ds:511,mo:1
/exp/pberck/wopr/wopr -s do_pdt2.wopr_script -p file0:../nyt.3e7.10000,lc0:3,id:PDTT30038,timbl0:-a4 +D,dl:5,test:nyt.tail1000,file1:../nyt.3e7.1000,timbl1:-a1 +D,lc1:2,n:3,ds:521,mo:1
/exp/pberck/wopr/wopr -s do_pdt2.wopr_script -p file0:../nyt.3e7.10000,lc0:3,id:PDTT30039,timbl0:-a4 +D,dl:5,test:nyt.tail1000,file1:../nyt.3e7.1000,timbl1:-a1 +D,lc1:2,n:3,ds:551,mo:1
/exp/pberck/wopr/wopr -s do_pdt2.wopr_script -p file0:../nyt.3e7.10000,lc0:4,id:PDTT30040,timbl0:-a4 +D,dl:5,test:nyt.tail1000,file1:../nyt.3e7.1000,timbl1:-a1 +D,lc1:2,n:3,ds:211,mo:1
/exp/pberck/wopr/wopr -s do_pdt2.wopr_script -p file0:../nyt.3e7.10000,lc0:4,id:PDTT30041,timbl0:-a4 +D,dl:5,test:nyt.tail1000,file1:../nyt.3e7.1000,timbl1:-a1 +D,lc1:2,n:3,ds:221,mo:1
/exp/pberck/wopr/wopr -s do_pdt2.wopr_script -p file0:../nyt.3e7.10000,lc0:4,id:PDTT30042,timbl0:-a4 +D,dl:5,test:nyt.tail1000,file1:../nyt.3e7.1000,timbl1:-a1 +D,lc1:2,n:3,ds:511,mo:1
/exp/pberck/wopr/wopr -s do_pdt2.wopr_script -p file0:../nyt.3e7.10000,lc0:4,id:PDTT30043,timbl0:-a4 +D,dl:5,test:nyt.tail1000,file1:../nyt.3e7.1000,timbl1:-a1 +D,lc1:2,n:3,ds:521,mo:1
/exp/pberck/wopr/wopr -s do_pdt2.wopr_script -p file0:../nyt.3e7.10000,lc0:4,id:PDTT30044,timbl0:-a4 +D,dl:5,test:nyt.tail1000,file1:../nyt.3e7.1000,timbl1:-a1 +D,lc1:2,n:3,ds:551,mo:1
/exp/pberck/wopr/wopr -s do_pdt2.wopr_script -p file0:../nyt.3e7.10000,lc0:8,id:PDTT30045,timbl0:-a4 +D,dl:5,test:nyt.tail1000,file1:../nyt.3e7.1000,timbl1:-a1 +D,lc1:2,n:3,ds:211,mo:1
/exp/pberck/wopr/wopr -s do_pdt2.wopr_script -p file0:../nyt.3e7.10000,lc0:8,id:PDTT30046,timbl0:-a4 +D,dl:5,test:nyt.tail1000,file1:../nyt.3e7.1000,timbl1:-a1 +D,lc1:2,n:3,ds:221,mo:1
/exp/pberck/wopr/wopr -s do_pdt2.wopr_script -p file0:../nyt.3e7.10000,lc0:8,id:PDTT30047,timbl0:-a4 +D,dl:5,test:nyt.tail1000,file1:../nyt.3e7.1000,timbl1:-a1 +D,lc1:2,n:3,ds:511,mo:1
/exp/pberck/wopr/wopr -s do_pdt2.wopr_script -p file0:../nyt.3e7.10000,lc0:8,id:PDTT30048,timbl0:-a4 +D,dl:5,test:nyt.tail1000,file1:../nyt.3e7.1000,timbl1:-a1 +D,lc1:2,n:3,ds:521,mo:1
/exp/pberck/wopr/wopr -s do_pdt2.wopr_script -p file0:../nyt.3e7.10000,lc0:8,id:PDTT30049,timbl0:-a4 +D,dl:5,test:nyt.tail1000,file1:../nyt.3e7.1000,timbl1:-a1 +D,lc1:2,n:3,ds:551,mo:1
/exp/pberck/wopr/wopr -s do_pdt2.wopr_script -p file0:../nyt.3e7.10000,lc0:12,id:PDTT30050,timbl0:-a4 +D,dl:5,test:nyt.tail1000,file1:../nyt.3e7.1000,timbl1:-a1 +D,lc1:2,n:3,ds:211,mo:1
/exp/pberck/wopr/wopr -s do_pdt2.wopr_script -p file0:../nyt.3e7.10000,lc0:12,id:PDTT30051,timbl0:-a4 +D,dl:5,test:nyt.tail1000,file1:../nyt.3e7.1000,timbl1:-a1 +D,lc1:2,n:3,ds:221,mo:1
/exp/pberck/wopr/wopr -s do_pdt2.wopr_script -p file0:../nyt.3e7.10000,lc0:12,id:PDTT30052,timbl0:-a4 +D,dl:5,test:nyt.tail1000,file1:../nyt.3e7.1000,timbl1:-a1 +D,lc1:2,n:3,ds:511,mo:1
/exp/pberck/wopr/wopr -s do_pdt2.wopr_script -p file0:../nyt.3e7.10000,lc0:12,id:PDTT30053,timbl0:-a4 +D,dl:5,test:nyt.tail1000,file1:../nyt.3e7.1000,timbl1:-a1 +D,lc1:2,n:3,ds:521,mo:1
/exp/pberck/wopr/wopr -s do_pdt2.wopr_script -p file0:../nyt.3e7.10000,lc0:12,id:PDTT30054,timbl0:-a4 +D,dl:5,test:nyt.tail1000,file1:../nyt.3e7.1000,timbl1:-a1 +D,lc1:2,n:3,ds:551,mo:1
/exp/pberck/wopr/wopr -s do_pdt2.wopr_script -p file0:../nyt.3e7.10000,lc0:16,id:PDTT30055,timbl0:-a4 +D,dl:5,test:nyt.tail1000,file1:../nyt.3e7.1000,timbl1:-a1 +D,lc1:2,n:3,ds:211,mo:1
/exp/pberck/wopr/wopr -s do_pdt2.wopr_script -p file0:../nyt.3e7.10000,lc0:16,id:PDTT30056,timbl0:-a4 +D,dl:5,test:nyt.tail1000,file1:../nyt.3e7.1000,timbl1:-a1 +D,lc1:2,n:3,ds:221,mo:1
/exp/pberck/wopr/wopr -s do_pdt2.wopr_script -p file0:../nyt.3e7.10000,lc0:16,id:PDTT30057,timbl0:-a4 +D,dl:5,test:nyt.tail1000,file1:../nyt.3e7.1000,timbl1:-a1 +D,lc1:2,n:3,ds:511,mo:1
/exp/pberck/wopr/wopr -s do_pdt2.wopr_script -p file0:../nyt.3e7.10000,lc0:16,id:PDTT30058,timbl0:-a4 +D,dl:5,test:nyt.tail1000,file1:../nyt.3e7.1000,timbl1:-a1 +D,lc1:2,n:3,ds:521,mo:1
/exp/pberck/wopr/wopr -s do_pdt2.wopr_script -p file0:../nyt.3e7.10000,lc0:16,id:PDTT30059,timbl0:-a4 +D,dl:5,test:nyt.tail1000,file1:../nyt.3e7.1000,timbl1:-a1 +D,lc1:2,n:3,ds:551,mo:1
/exp/pberck/wopr/wopr -s do_pdt2.wopr_script -p file0:../nyt.3e7.10000,lc0:2,id:PDTT30060,timbl0:-a1 +D,dl:5,test:nyt.tail1000,file1:../nyt.3e7.5000,timbl1:-a1 +D,lc1:2,n:3,ds:211,mo:1
/exp/pberck/wopr/wopr -s do_pdt2.wopr_script -p file0:../nyt.3e7.10000,lc0:2,id:PDTT30061,timbl0:-a1 +D,dl:5,test:nyt.tail1000,file1:../nyt.3e7.5000,timbl1:-a1 +D,lc1:2,n:3,ds:221,mo:1
/exp/pberck/wopr/wopr -s do_pdt2.wopr_script -p file0:../nyt.3e7.10000,lc0:2,id:PDTT30062,timbl0:-a1 +D,dl:5,test:nyt.tail1000,file1:../nyt.3e7.5000,timbl1:-a1 +D,lc1:2,n:3,ds:511,mo:1
/exp/pberck/wopr/wopr -s do_pdt2.wopr_script -p file0:../nyt.3e7.10000,lc0:2,id:PDTT30063,timbl0:-a1 +D,dl:5,test:nyt.tail1000,file1:../nyt.3e7.5000,timbl1:-a1 +D,lc1:2,n:3,ds:521,mo:1
/exp/pberck/wopr/wopr -s do_pdt2.wopr_script -p file0:../nyt.3e7.10000,lc0:2,id:PDTT30064,timbl0:-a1 +D,dl:5,test:nyt.tail1000,file1:../nyt.3e7.5000,timbl1:-a1 +D,lc1:2,n:3,ds:551,mo:1
/exp/pberck/wopr/wopr -s do_pdt2.wopr_script -p file0:../nyt.3e7.10000,lc0:3,id:PDTT30065,timbl0:-a1 +D,dl:5,test:nyt.tail1000,file1:../nyt.3e7.5000,timbl1:-a1 +D,lc1:2,n:3,ds:211,mo:1
/exp/pberck/wopr/wopr -s do_pdt2.wopr_script -p file0:../nyt.3e7.10000,lc0:3,id:PDTT30066,timbl0:-a1 +D,dl:5,test:nyt.tail1000,file1:../nyt.3e7.5000,timbl1:-a1 +D,lc1:2,n:3,ds:221,mo:1
/exp/pberck/wopr/wopr -s do_pdt2.wopr_script -p file0:../nyt.3e7.10000,lc0:3,id:PDTT30067,timbl0:-a1 +D,dl:5,test:nyt.tail1000,file1:../nyt.3e7.5000,timbl1:-a1 +D,lc1:2,n:3,ds:511,mo:1
/exp/pberck/wopr/wopr -s do_pdt2.wopr_script -p file0:../nyt.3e7.10000,lc0:3,id:PDTT30068,timbl0:-a1 +D,dl:5,test:nyt.tail1000,file1:../nyt.3e7.5000,timbl1:-a1 +D,lc1:2,n:3,ds:521,mo:1
/exp/pberck/wopr/wopr -s do_pdt2.wopr_script -p file0:../nyt.3e7.10000,lc0:3,id:PDTT30069,timbl0:-a1 +D,dl:5,test:nyt.tail1000,file1:../nyt.3e7.5000,timbl1:-a1 +D,lc1:2,n:3,ds:551,mo:1
/exp/pberck/wopr/wopr -s do_pdt2.wopr_script -p file0:../nyt.3e7.10000,lc0:4,id:PDTT30070,timbl0:-a1 +D,dl:5,test:nyt.tail1000,file1:../nyt.3e7.5000,timbl1:-a1 +D,lc1:2,n:3,ds:211,mo:1
/exp/pberck/wopr/wopr -s do_pdt2.wopr_script -p file0:../nyt.3e7.10000,lc0:4,id:PDTT30071,timbl0:-a1 +D,dl:5,test:nyt.tail1000,file1:../nyt.3e7.5000,timbl1:-a1 +D,lc1:2,n:3,ds:221,mo:1
/exp/pberck/wopr/wopr -s do_pdt2.wopr_script -p file0:../nyt.3e7.10000,lc0:4,id:PDTT30072,timbl0:-a1 +D,dl:5,test:nyt.tail1000,file1:../nyt.3e7.5000,timbl1:-a1 +D,lc1:2,n:3,ds:511,mo:1
/exp/pberck/wopr/wopr -s do_pdt2.wopr_script -p file0:../nyt.3e7.10000,lc0:4,id:PDTT30073,timbl0:-a1 +D,dl:5,test:nyt.tail1000,file1:../nyt.3e7.5000,timbl1:-a1 +D,lc1:2,n:3,ds:521,mo:1
/exp/pberck/wopr/wopr -s do_pdt2.wopr_script -p file0:../nyt.3e7.10000,lc0:4,id:PDTT30074,timbl0:-a1 +D,dl:5,test:nyt.tail1000,file1:../nyt.3e7.5000,timbl1:-a1 +D,lc1:2,n:3,ds:551,mo:1
/exp/pberck/wopr/wopr -s do_pdt2.wopr_script -p file0:../nyt.3e7.10000,lc0:8,id:PDTT30075,timbl0:-a1 +D,dl:5,test:nyt.tail1000,file1:../nyt.3e7.5000,timbl1:-a1 +D,lc1:2,n:3,ds:211,mo:1
/exp/pberck/wopr/wopr -s do_pdt2.wopr_script -p file0:../nyt.3e7.10000,lc0:8,id:PDTT30076,timbl0:-a1 +D,dl:5,test:nyt.tail1000,file1:../nyt.3e7.5000,timbl1:-a1 +D,lc1:2,n:3,ds:221,mo:1
/exp/pberck/wopr/wopr -s do_pdt2.wopr_script -p file0:../nyt.3e7.10000,lc0:8,id:PDTT30077,timbl0:-a1 +D,dl:5,test:nyt.tail1000,file1:../nyt.3e7.5000,timbl1:-a1 +D,lc1:2,n:3,ds:511,mo:1
/exp/pberck/wopr/wopr -s do_pdt2.wopr_script -p file0:../nyt.3e7.10000,lc0:8,id:PDTT30078,timbl0:-a1 +D,dl:5,test:nyt.tail1000,file1:../nyt.3e7.5000,timbl1:-a1 +D,lc1:2,n:3,ds:521,mo:1
/exp/pberck/wopr/wopr -s do_pdt2.wopr_script -p file0:../nyt.3e7.10000,lc0:8,id:PDTT30079,timbl0:-a1 +D,dl:5,test:nyt.tail1000,file1:../nyt.3e7.5000,timbl1:-a1 +D,lc1:2,n:3,ds:551,mo:1
/exp/pberck/wopr/wopr -s do_pdt2.wopr_script -p file0:../nyt.3e7.10000,lc0:12,id:PDTT30080,timbl0:-a1 +D,dl:5,test:nyt.tail1000,file1:../nyt.3e7.5000,timbl1:-a1 +D,lc1:2,n:3,ds:211,mo:1
/exp/pberck/wopr/wopr -s do_pdt2.wopr_script -p file0:../nyt.3e7.10000,lc0:12,id:PDTT30081,timbl0:-a1 +D,dl:5,test:nyt.tail1000,file1:../nyt.3e7.5000,timbl1:-a1 +D,lc1:2,n:3,ds:221,mo:1
/exp/pberck/wopr/wopr -s do_pdt2.wopr_script -p file0:../nyt.3e7.10000,lc0:12,id:PDTT30082,timbl0:-a1 +D,dl:5,test:nyt.tail1000,file1:../nyt.3e7.5000,timbl1:-a1 +D,lc1:2,n:3,ds:511,mo:1
/exp/pberck/wopr/wopr -s do_pdt2.wopr_script -p file0:../nyt.3e7.10000,lc0:12,id:PDTT30083,timbl0:-a1 +D,dl:5,test:nyt.tail1000,file1:../nyt.3e7.5000,timbl1:-a1 +D,lc1:2,n:3,ds:521,mo:1
/exp/pberck/wopr/wopr -s do_pdt2.wopr_script -p file0:../nyt.3e7.10000,lc0:12,id:PDTT30084,timbl0:-a1 +D,dl:5,test:nyt.tail1000,file1:../nyt.3e7.5000,timbl1:-a1 +D,lc1:2,n:3,ds:551,mo:1
/exp/pberck/wopr/wopr -s do_pdt2.wopr_script -p file0:../nyt.3e7.10000,lc0:16,id:PDTT30085,timbl0:-a1 +D,dl:5,test:nyt.tail1000,file1:../nyt.3e7.5000,timbl1:-a1 +D,lc1:2,n:3,ds:211,mo:1
/exp/pberck/wopr/wopr -s do_pdt2.wopr_script -p file0:../nyt.3e7.10000,lc0:16,id:PDTT30086,timbl0:-a1 +D,dl:5,test:nyt.tail1000,file1:../nyt.3e7.5000,timbl1:-a1 +D,lc1:2,n:3,ds:221,mo:1
/exp/pberck/wopr/wopr -s do_pdt2.wopr_script -p file0:../nyt.3e7.10000,lc0:16,id:PDTT30087,timbl0:-a1 +D,dl:5,test:nyt.tail1000,file1:../nyt.3e7.5000,timbl1:-a1 +D,lc1:2,n:3,ds:511,mo:1
/exp/pberck/wopr/wopr -s do_pdt2.wopr_script -p file0:../nyt.3e7.10000,lc0:16,id:PDTT30088,timbl0:-a1 +D,dl:5,test:nyt.tail1000,file1:../nyt.3e7.5000,timbl1:-a1 +D,lc1:2,n:3,ds:521,mo:1
/exp/pberck/wopr/wopr -s do_pdt2.wopr_script -p file0:../nyt.3e7.10000,lc0:16,id:PDTT30089,timbl0:-a1 +D,dl:5,test:nyt.tail1000,file1:../nyt.3e7.5000,timbl1:-a1 +D,lc1:2,n:3,ds:551,mo:1
/exp/pberck/wopr/wopr -s do_pdt2.wopr_script -p file0:../nyt.3e7.10000,lc0:2,id:PDTT30090,timbl0:-a4 +D,dl:5,test:nyt.tail1000,file1:../nyt.3e7.5000,timbl1:-a1 +D,lc1:2,n:3,ds:211,mo:1
/exp/pberck/wopr/wopr -s do_pdt2.wopr_script -p file0:../nyt.3e7.10000,lc0:2,id:PDTT30091,timbl0:-a4 +D,dl:5,test:nyt.tail1000,file1:../nyt.3e7.5000,timbl1:-a1 +D,lc1:2,n:3,ds:221,mo:1
/exp/pberck/wopr/wopr -s do_pdt2.wopr_script -p file0:../nyt.3e7.10000,lc0:2,id:PDTT30092,timbl0:-a4 +D,dl:5,test:nyt.tail1000,file1:../nyt.3e7.5000,timbl1:-a1 +D,lc1:2,n:3,ds:511,mo:1
/exp/pberck/wopr/wopr -s do_pdt2.wopr_script -p file0:../nyt.3e7.10000,lc0:2,id:PDTT30093,timbl0:-a4 +D,dl:5,test:nyt.tail1000,file1:../nyt.3e7.5000,timbl1:-a1 +D,lc1:2,n:3,ds:521,mo:1
/exp/pberck/wopr/wopr -s do_pdt2.wopr_script -p file0:../nyt.3e7.10000,lc0:2,id:PDTT30094,timbl0:-a4 +D,dl:5,test:nyt.tail1000,file1:../nyt.3e7.5000,timbl1:-a1 +D,lc1:2,n:3,ds:551,mo:1
/exp/pberck/wopr/wopr -s do_pdt2.wopr_script -p file0:../nyt.3e7.10000,lc0:3,id:PDTT30095,timbl0:-a4 +D,dl:5,test:nyt.tail1000,file1:../nyt.3e7.5000,timbl1:-a1 +D,lc1:2,n:3,ds:211,mo:1
/exp/pberck/wopr/wopr -s do_pdt2.wopr_script -p file0:../nyt.3e7.10000,lc0:3,id:PDTT30096,timbl0:-a4 +D,dl:5,test:nyt.tail1000,file1:../nyt.3e7.5000,timbl1:-a1 +D,lc1:2,n:3,ds:221,mo:1
/exp/pberck/wopr/wopr -s do_pdt2.wopr_script -p file0:../nyt.3e7.10000,lc0:3,id:PDTT30097,timbl0:-a4 +D,dl:5,test:nyt.tail1000,file1:../nyt.3e7.5000,timbl1:-a1 +D,lc1:2,n:3,ds:511,mo:1
/exp/pberck/wopr/wopr -s do_pdt2.wopr_script -p file0:../nyt.3e7.10000,lc0:3,id:PDTT30098,timbl0:-a4 +D,dl:5,test:nyt.tail1000,file1:../nyt.3e7.5000,timbl1:-a1 +D,lc1:2,n:3,ds:521,mo:1
/exp/pberck/wopr/wopr -s do_pdt2.wopr_script -p file0:../nyt.3e7.10000,lc0:3,id:PDTT30099,timbl0:-a4 +D,dl:5,test:nyt.tail1000,file1:../nyt.3e7.5000,timbl1:-a1 +D,lc1:2,n:3,ds:551,mo:1
/exp/pberck/wopr/wopr -s do_pdt2.wopr_script -p file0:../nyt.3e7.10000,lc0:4,id:PDTT30100,timbl0:-a4 +D,dl:5,test:nyt.tail1000,file1:../nyt.3e7.5000,timbl1:-a1 +D,lc1:2,n:3,ds:211,mo:1
/exp/pberck/wopr/wopr -s do_pdt2.wopr_script -p file0:../nyt.3e7.10000,lc0:4,id:PDTT30101,timbl0:-a4 +D,dl:5,test:nyt.tail1000,file1:../nyt.3e7.5000,timbl1:-a1 +D,lc1:2,n:3,ds:221,mo:1
/exp/pberck/wopr/wopr -s do_pdt2.wopr_script -p file0:../nyt.3e7.10000,lc0:4,id:PDTT30102,timbl0:-a4 +D,dl:5,test:nyt.tail1000,file1:../nyt.3e7.5000,timbl1:-a1 +D,lc1:2,n:3,ds:511,mo:1
/exp/pberck/wopr/wopr -s do_pdt2.wopr_script -p file0:../nyt.3e7.10000,lc0:4,id:PDTT30103,timbl0:-a4 +D,dl:5,test:nyt.tail1000,file1:../nyt.3e7.5000,timbl1:-a1 +D,lc1:2,n:3,ds:521,mo:1
/exp/pberck/wopr/wopr -s do_pdt2.wopr_script -p file0:../nyt.3e7.10000,lc0:4,id:PDTT30104,timbl0:-a4 +D,dl:5,test:nyt.tail1000,file1:../nyt.3e7.5000,timbl1:-a1 +D,lc1:2,n:3,ds:551,mo:1
/exp/pberck/wopr/wopr -s do_pdt2.wopr_script -p file0:../nyt.3e7.10000,lc0:8,id:PDTT30105,timbl0:-a4 +D,dl:5,test:nyt.tail1000,file1:../nyt.3e7.5000,timbl1:-a1 +D,lc1:2,n:3,ds:211,mo:1
/exp/pberck/wopr/wopr -s do_pdt2.wopr_script -p file0:../nyt.3e7.10000,lc0:8,id:PDTT30106,timbl0:-a4 +D,dl:5,test:nyt.tail1000,file1:../nyt.3e7.5000,timbl1:-a1 +D,lc1:2,n:3,ds:221,mo:1
/exp/pberck/wopr/wopr -s do_pdt2.wopr_script -p file0:../nyt.3e7.10000,lc0:8,id:PDTT30107,timbl0:-a4 +D,dl:5,test:nyt.tail1000,file1:../nyt.3e7.5000,timbl1:-a1 +D,lc1:2,n:3,ds:511,mo:1
/exp/pberck/wopr/wopr -s do_pdt2.wopr_script -p file0:../nyt.3e7.10000,lc0:8,id:PDTT30108,timbl0:-a4 +D,dl:5,test:nyt.tail1000,file1:../nyt.3e7.5000,timbl1:-a1 +D,lc1:2,n:3,ds:521,mo:1
/exp/pberck/wopr/wopr -s do_pdt2.wopr_script -p file0:../nyt.3e7.10000,lc0:8,id:PDTT30109,timbl0:-a4 +D,dl:5,test:nyt.tail1000,file1:../nyt.3e7.5000,timbl1:-a1 +D,lc1:2,n:3,ds:551,mo:1
/exp/pberck/wopr/wopr -s do_pdt2.wopr_script -p file0:../nyt.3e7.10000,lc0:12,id:PDTT30110,timbl0:-a4 +D,dl:5,test:nyt.tail1000,file1:../nyt.3e7.5000,timbl1:-a1 +D,lc1:2,n:3,ds:211,mo:1
/exp/pberck/wopr/wopr -s do_pdt2.wopr_script -p file0:../nyt.3e7.10000,lc0:12,id:PDTT30111,timbl0:-a4 +D,dl:5,test:nyt.tail1000,file1:../nyt.3e7.5000,timbl1:-a1 +D,lc1:2,n:3,ds:221,mo:1
/exp/pberck/wopr/wopr -s do_pdt2.wopr_script -p file0:../nyt.3e7.10000,lc0:12,id:PDTT30112,timbl0:-a4 +D,dl:5,test:nyt.tail1000,file1:../nyt.3e7.5000,timbl1:-a1 +D,lc1:2,n:3,ds:511,mo:1
/exp/pberck/wopr/wopr -s do_pdt2.wopr_script -p file0:../nyt.3e7.10000,lc0:12,id:PDTT30113,timbl0:-a4 +D,dl:5,test:nyt.tail1000,file1:../nyt.3e7.5000,timbl1:-a1 +D,lc1:2,n:3,ds:521,mo:1
/exp/pberck/wopr/wopr -s do_pdt2.wopr_script -p file0:../nyt.3e7.10000,lc0:12,id:PDTT30114,timbl0:-a4 +D,dl:5,test:nyt.tail1000,file1:../nyt.3e7.5000,timbl1:-a1 +D,lc1:2,n:3,ds:551,mo:1
/exp/pberck/wopr/wopr -s do_pdt2.wopr_script -p file0:../nyt.3e7.10000,lc0:16,id:PDTT30115,timbl0:-a4 +D,dl:5,test:nyt.tail1000,file1:../nyt.3e7.5000,timbl1:-a1 +D,lc1:2,n:3,ds:211,mo:1
/exp/pberck/wopr/wopr -s do_pdt2.wopr_script -p file0:../nyt.3e7.10000,lc0:16,id:PDTT30116,timbl0:-a4 +D,dl:5,test:nyt.tail1000,file1:../nyt.3e7.5000,timbl1:-a1 +D,lc1:2,n:3,ds:221,mo:1
/exp/pberck/wopr/wopr -s do_pdt2.wopr_script -p file0:../nyt.3e7.10000,lc0:16,id:PDTT30117,timbl0:-a4 +D,dl:5,test:nyt.tail1000,file1:../nyt.3e7.5000,timbl1:-a1 +D,lc1:2,n:3,ds:511,mo:1
/exp/pberck/wopr/wopr -s do_pdt2.wopr_script -p file0:../nyt.3e7.10000,lc0:16,id:PDTT30118,timbl0:-a4 +D,dl:5,test:nyt.tail1000,file1:../nyt.3e7.5000,timbl1:-a1 +D,lc1:2,n:3,ds:521,mo:1
/exp/pberck/wopr/wopr -s do_pdt2.wopr_script -p file0:../nyt.3e7.10000,lc0:16,id:PDTT30119,timbl0:-a4 +D,dl:5,test:nyt.tail1000,file1:../nyt.3e7.5000,timbl1:-a1 +D,lc1:2,n:3,ds:551,mo:1
/exp/pberck/wopr/wopr -s do_pdt2.wopr_script -p file0:../nyt.3e7.10000,lc0:2,id:PDTT30120,timbl0:-a1 +D,dl:5,test:nyt.tail1000,file1:../nyt.3e7.10000,timbl1:-a1 +D,lc1:2,n:3,ds:211,mo:1
/exp/pberck/wopr/wopr -s do_pdt2.wopr_script -p file0:../nyt.3e7.10000,lc0:2,id:PDTT30121,timbl0:-a1 +D,dl:5,test:nyt.tail1000,file1:../nyt.3e7.10000,timbl1:-a1 +D,lc1:2,n:3,ds:221,mo:1
/exp/pberck/wopr/wopr -s do_pdt2.wopr_script -p file0:../nyt.3e7.10000,lc0:2,id:PDTT30122,timbl0:-a1 +D,dl:5,test:nyt.tail1000,file1:../nyt.3e7.10000,timbl1:-a1 +D,lc1:2,n:3,ds:511,mo:1
/exp/pberck/wopr/wopr -s do_pdt2.wopr_script -p file0:../nyt.3e7.10000,lc0:2,id:PDTT30123,timbl0:-a1 +D,dl:5,test:nyt.tail1000,file1:../nyt.3e7.10000,timbl1:-a1 +D,lc1:2,n:3,ds:521,mo:1
/exp/pberck/wopr/wopr -s do_pdt2.wopr_script -p file0:../nyt.3e7.10000,lc0:2,id:PDTT30124,timbl0:-a1 +D,dl:5,test:nyt.tail1000,file1:../nyt.3e7.10000,timbl1:-a1 +D,lc1:2,n:3,ds:551,mo:1
/exp/pberck/wopr/wopr -s do_pdt2.wopr_script -p file0:../nyt.3e7.10000,lc0:3,id:PDTT30125,timbl0:-a1 +D,dl:5,test:nyt.tail1000,file1:../nyt.3e7.10000,timbl1:-a1 +D,lc1:2,n:3,ds:211,mo:1
/exp/pberck/wopr/wopr -s do_pdt2.wopr_script -p file0:../nyt.3e7.10000,lc0:3,id:PDTT30126,timbl0:-a1 +D,dl:5,test:nyt.tail1000,file1:../nyt.3e7.10000,timbl1:-a1 +D,lc1:2,n:3,ds:221,mo:1
/exp/pberck/wopr/wopr -s do_pdt2.wopr_script -p file0:../nyt.3e7.10000,lc0:3,id:PDTT30127,timbl0:-a1 +D,dl:5,test:nyt.tail1000,file1:../nyt.3e7.10000,timbl1:-a1 +D,lc1:2,n:3,ds:511,mo:1
/exp/pberck/wopr/wopr -s do_pdt2.wopr_script -p file0:../nyt.3e7.10000,lc0:3,id:PDTT30128,timbl0:-a1 +D,dl:5,test:nyt.tail1000,file1:../nyt.3e7.10000,timbl1:-a1 +D,lc1:2,n:3,ds:521,mo:1
/exp/pberck/wopr/wopr -s do_pdt2.wopr_script -p file0:../nyt.3e7.10000,lc0:3,id:PDTT30129,timbl0:-a1 +D,dl:5,test:nyt.tail1000,file1:../nyt.3e7.10000,timbl1:-a1 +D,lc1:2,n:3,ds:551,mo:1
/exp/pberck/wopr/wopr -s do_pdt2.wopr_script -p file0:../nyt.3e7.10000,lc0:4,id:PDTT30130,timbl0:-a1 +D,dl:5,test:nyt.tail1000,file1:../nyt.3e7.10000,timbl1:-a1 +D,lc1:2,n:3,ds:211,mo:1
/exp/pberck/wopr/wopr -s do_pdt2.wopr_script -p file0:../nyt.3e7.10000,lc0:4,id:PDTT30131,timbl0:-a1 +D,dl:5,test:nyt.tail1000,file1:../nyt.3e7.10000,timbl1:-a1 +D,lc1:2,n:3,ds:221,mo:1
/exp/pberck/wopr/wopr -s do_pdt2.wopr_script -p file0:../nyt.3e7.10000,lc0:4,id:PDTT30132,timbl0:-a1 +D,dl:5,test:nyt.tail1000,file1:../nyt.3e7.10000,timbl1:-a1 +D,lc1:2,n:3,ds:511,mo:1
/exp/pberck/wopr/wopr -s do_pdt2.wopr_script -p file0:../nyt.3e7.10000,lc0:4,id:PDTT30133,timbl0:-a1 +D,dl:5,test:nyt.tail1000,file1:../nyt.3e7.10000,timbl1:-a1 +D,lc1:2,n:3,ds:521,mo:1
/exp/pberck/wopr/wopr -s do_pdt2.wopr_script -p file0:../nyt.3e7.10000,lc0:4,id:PDTT30134,timbl0:-a1 +D,dl:5,test:nyt.tail1000,file1:../nyt.3e7.10000,timbl1:-a1 +D,lc1:2,n:3,ds:551,mo:1
/exp/pberck/wopr/wopr -s do_pdt2.wopr_script -p file0:../nyt.3e7.10000,lc0:8,id:PDTT30135,timbl0:-a1 +D,dl:5,test:nyt.tail1000,file1:../nyt.3e7.10000,timbl1:-a1 +D,lc1:2,n:3,ds:211,mo:1
/exp/pberck/wopr/wopr -s do_pdt2.wopr_script -p file0:../nyt.3e7.10000,lc0:8,id:PDTT30136,timbl0:-a1 +D,dl:5,test:nyt.tail1000,file1:../nyt.3e7.10000,timbl1:-a1 +D,lc1:2,n:3,ds:221,mo:1
/exp/pberck/wopr/wopr -s do_pdt2.wopr_script -p file0:../nyt.3e7.10000,lc0:8,id:PDTT30137,timbl0:-a1 +D,dl:5,test:nyt.tail1000,file1:../nyt.3e7.10000,timbl1:-a1 +D,lc1:2,n:3,ds:511,mo:1
/exp/pberck/wopr/wopr -s do_pdt2.wopr_script -p file0:../nyt.3e7.10000,lc0:8,id:PDTT30138,timbl0:-a1 +D,dl:5,test:nyt.tail1000,file1:../nyt.3e7.10000,timbl1:-a1 +D,lc1:2,n:3,ds:521,mo:1
/exp/pberck/wopr/wopr -s do_pdt2.wopr_script -p file0:../nyt.3e7.10000,lc0:8,id:PDTT30139,timbl0:-a1 +D,dl:5,test:nyt.tail1000,file1:../nyt.3e7.10000,timbl1:-a1 +D,lc1:2,n:3,ds:551,mo:1
/exp/pberck/wopr/wopr -s do_pdt2.wopr_script -p file0:../nyt.3e7.10000,lc0:12,id:PDTT30140,timbl0:-a1 +D,dl:5,test:nyt.tail1000,file1:../nyt.3e7.10000,timbl1:-a1 +D,lc1:2,n:3,ds:211,mo:1
/exp/pberck/wopr/wopr -s do_pdt2.wopr_script -p file0:../nyt.3e7.10000,lc0:12,id:PDTT30141,timbl0:-a1 +D,dl:5,test:nyt.tail1000,file1:../nyt.3e7.10000,timbl1:-a1 +D,lc1:2,n:3,ds:221,mo:1
/exp/pberck/wopr/wopr -s do_pdt2.wopr_script -p file0:../nyt.3e7.10000,lc0:12,id:PDTT30142,timbl0:-a1 +D,dl:5,test:nyt.tail1000,file1:../nyt.3e7.10000,timbl1:-a1 +D,lc1:2,n:3,ds:511,mo:1
/exp/pberck/wopr/wopr -s do_pdt2.wopr_script -p file0:../nyt.3e7.10000,lc0:12,id:PDTT30143,timbl0:-a1 +D,dl:5,test:nyt.tail1000,file1:../nyt.3e7.10000,timbl1:-a1 +D,lc1:2,n:3,ds:521,mo:1
/exp/pberck/wopr/wopr -s do_pdt2.wopr_script -p file0:../nyt.3e7.10000,lc0:12,id:PDTT30144,timbl0:-a1 +D,dl:5,test:nyt.tail1000,file1:../nyt.3e7.10000,timbl1:-a1 +D,lc1:2,n:3,ds:551,mo:1
/exp/pberck/wopr/wopr -s do_pdt2.wopr_script -p file0:../nyt.3e7.10000,lc0:16,id:PDTT30145,timbl0:-a1 +D,dl:5,test:nyt.tail1000,file1:../nyt.3e7.10000,timbl1:-a1 +D,lc1:2,n:3,ds:211,mo:1
/exp/pberck/wopr/wopr -s do_pdt2.wopr_script -p file0:../nyt.3e7.10000,lc0:16,id:PDTT30146,timbl0:-a1 +D,dl:5,test:nyt.tail1000,file1:../nyt.3e7.10000,timbl1:-a1 +D,lc1:2,n:3,ds:221,mo:1
/exp/pberck/wopr/wopr -s do_pdt2.wopr_script -p file0:../nyt.3e7.10000,lc0:16,id:PDTT30147,timbl0:-a1 +D,dl:5,test:nyt.tail1000,file1:../nyt.3e7.10000,timbl1:-a1 +D,lc1:2,n:3,ds:511,mo:1
/exp/pberck/wopr/wopr -s do_pdt2.wopr_script -p file0:../nyt.3e7.10000,lc0:16,id:PDTT30148,timbl0:-a1 +D,dl:5,test:nyt.tail1000,file1:../nyt.3e7.10000,timbl1:-a1 +D,lc1:2,n:3,ds:521,mo:1
/exp/pberck/wopr/wopr -s do_pdt2.wopr_script -p file0:../nyt.3e7.10000,lc0:16,id:PDTT30149,timbl0:-a1 +D,dl:5,test:nyt.tail1000,file1:../nyt.3e7.10000,timbl1:-a1 +D,lc1:2,n:3,ds:551,mo:1
/exp/pberck/wopr/wopr -s do_pdt2.wopr_script -p file0:../nyt.3e7.10000,lc0:2,id:PDTT30150,timbl0:-a4 +D,dl:5,test:nyt.tail1000,file1:../nyt.3e7.10000,timbl1:-a1 +D,lc1:2,n:3,ds:211,mo:1
/exp/pberck/wopr/wopr -s do_pdt2.wopr_script -p file0:../nyt.3e7.10000,lc0:2,id:PDTT30151,timbl0:-a4 +D,dl:5,test:nyt.tail1000,file1:../nyt.3e7.10000,timbl1:-a1 +D,lc1:2,n:3,ds:221,mo:1
/exp/pberck/wopr/wopr -s do_pdt2.wopr_script -p file0:../nyt.3e7.10000,lc0:2,id:PDTT30152,timbl0:-a4 +D,dl:5,test:nyt.tail1000,file1:../nyt.3e7.10000,timbl1:-a1 +D,lc1:2,n:3,ds:511,mo:1
/exp/pberck/wopr/wopr -s do_pdt2.wopr_script -p file0:../nyt.3e7.10000,lc0:2,id:PDTT30153,timbl0:-a4 +D,dl:5,test:nyt.tail1000,file1:../nyt.3e7.10000,timbl1:-a1 +D,lc1:2,n:3,ds:521,mo:1
/exp/pberck/wopr/wopr -s do_pdt2.wopr_script -p file0:../nyt.3e7.10000,lc0:2,id:PDTT30154,timbl0:-a4 +D,dl:5,test:nyt.tail1000,file1:../nyt.3e7.10000,timbl1:-a1 +D,lc1:2,n:3,ds:551,mo:1
/exp/pberck/wopr/wopr -s do_pdt2.wopr_script -p file0:../nyt.3e7.10000,lc0:3,id:PDTT30155,timbl0:-a4 +D,dl:5,test:nyt.tail1000,file1:../nyt.3e7.10000,timbl1:-a1 +D,lc1:2,n:3,ds:211,mo:1
/exp/pberck/wopr/wopr -s do_pdt2.wopr_script -p file0:../nyt.3e7.10000,lc0:3,id:PDTT30156,timbl0:-a4 +D,dl:5,test:nyt.tail1000,file1:../nyt.3e7.10000,timbl1:-a1 +D,lc1:2,n:3,ds:221,mo:1
/exp/pberck/wopr/wopr -s do_pdt2.wopr_script -p file0:../nyt.3e7.10000,lc0:3,id:PDTT30157,timbl0:-a4 +D,dl:5,test:nyt.tail1000,file1:../nyt.3e7.10000,timbl1:-a1 +D,lc1:2,n:3,ds:511,mo:1
/exp/pberck/wopr/wopr -s do_pdt2.wopr_script -p file0:../nyt.3e7.10000,lc0:3,id:PDTT30158,timbl0:-a4 +D,dl:5,test:nyt.tail1000,file1:../nyt.3e7.10000,timbl1:-a1 +D,lc1:2,n:3,ds:521,mo:1
/exp/pberck/wopr/wopr -s do_pdt2.wopr_script -p file0:../nyt.3e7.10000,lc0:3,id:PDTT30159,timbl0:-a4 +D,dl:5,test:nyt.tail1000,file1:../nyt.3e7.10000,timbl1:-a1 +D,lc1:2,n:3,ds:551,mo:1
/exp/pberck/wopr/wopr -s do_pdt2.wopr_script -p file0:../nyt.3e7.10000,lc0:4,id:PDTT30160,timbl0:-a4 +D,dl:5,test:nyt.tail1000,file1:../nyt.3e7.10000,timbl1:-a1 +D,lc1:2,n:3,ds:211,mo:1
/exp/pberck/wopr/wopr -s do_pdt2.wopr_script -p file0:../nyt.3e7.10000,lc0:4,id:PDTT30161,timbl0:-a4 +D,dl:5,test:nyt.tail1000,file1:../nyt.3e7.10000,timbl1:-a1 +D,lc1:2,n:3,ds:221,mo:1
/exp/pberck/wopr/wopr -s do_pdt2.wopr_script -p file0:../nyt.3e7.10000,lc0:4,id:PDTT30162,timbl0:-a4 +D,dl:5,test:nyt.tail1000,file1:../nyt.3e7.10000,timbl1:-a1 +D,lc1:2,n:3,ds:511,mo:1
/exp/pberck/wopr/wopr -s do_pdt2.wopr_script -p file0:../nyt.3e7.10000,lc0:4,id:PDTT30163,timbl0:-a4 +D,dl:5,test:nyt.tail1000,file1:../nyt.3e7.10000,timbl1:-a1 +D,lc1:2,n:3,ds:521,mo:1
/exp/pberck/wopr/wopr -s do_pdt2.wopr_script -p file0:../nyt.3e7.10000,lc0:4,id:PDTT30164,timbl0:-a4 +D,dl:5,test:nyt.tail1000,file1:../nyt.3e7.10000,timbl1:-a1 +D,lc1:2,n:3,ds:551,mo:1
/exp/pberck/wopr/wopr -s do_pdt2.wopr_script -p file0:../nyt.3e7.10000,lc0:8,id:PDTT30165,timbl0:-a4 +D,dl:5,test:nyt.tail1000,file1:../nyt.3e7.10000,timbl1:-a1 +D,lc1:2,n:3,ds:211,mo:1
/exp/pberck/wopr/wopr -s do_pdt2.wopr_script -p file0:../nyt.3e7.10000,lc0:8,id:PDTT30166,timbl0:-a4 +D,dl:5,test:nyt.tail1000,file1:../nyt.3e7.10000,timbl1:-a1 +D,lc1:2,n:3,ds:221,mo:1
/exp/pberck/wopr/wopr -s do_pdt2.wopr_script -p file0:../nyt.3e7.10000,lc0:8,id:PDTT30167,timbl0:-a4 +D,dl:5,test:nyt.tail1000,file1:../nyt.3e7.10000,timbl1:-a1 +D,lc1:2,n:3,ds:511,mo:1
/exp/pberck/wopr/wopr -s do_pdt2.wopr_script -p file0:../nyt.3e7.10000,lc0:8,id:PDTT30168,timbl0:-a4 +D,dl:5,test:nyt.tail1000,file1:../nyt.3e7.10000,timbl1:-a1 +D,lc1:2,n:3,ds:521,mo:1
/exp/pberck/wopr/wopr -s do_pdt2.wopr_script -p file0:../nyt.3e7.10000,lc0:8,id:PDTT30169,timbl0:-a4 +D,dl:5,test:nyt.tail1000,file1:../nyt.3e7.10000,timbl1:-a1 +D,lc1:2,n:3,ds:551,mo:1
/exp/pberck/wopr/wopr -s do_pdt2.wopr_script -p file0:../nyt.3e7.10000,lc0:12,id:PDTT30170,timbl0:-a4 +D,dl:5,test:nyt.tail1000,file1:../nyt.3e7.10000,timbl1:-a1 +D,lc1:2,n:3,ds:211,mo:1
/exp/pberck/wopr/wopr -s do_pdt2.wopr_script -p file0:../nyt.3e7.10000,lc0:12,id:PDTT30171,timbl0:-a4 +D,dl:5,test:nyt.tail1000,file1:../nyt.3e7.10000,timbl1:-a1 +D,lc1:2,n:3,ds:221,mo:1
/exp/pberck/wopr/wopr -s do_pdt2.wopr_script -p file0:../nyt.3e7.10000,lc0:12,id:PDTT30172,timbl0:-a4 +D,dl:5,test:nyt.tail1000,file1:../nyt.3e7.10000,timbl1:-a1 +D,lc1:2,n:3,ds:511,mo:1
/exp/pberck/wopr/wopr -s do_pdt2.wopr_script -p file0:../nyt.3e7.10000,lc0:12,id:PDTT30173,timbl0:-a4 +D,dl:5,test:nyt.tail1000,file1:../nyt.3e7.10000,timbl1:-a1 +D,lc1:2,n:3,ds:521,mo:1
/exp/pberck/wopr/wopr -s do_pdt2.wopr_script -p file0:../nyt.3e7.10000,lc0:12,id:PDTT30174,timbl0:-a4 +D,dl:5,test:nyt.tail1000,file1:../nyt.3e7.10000,timbl1:-a1 +D,lc1:2,n:3,ds:551,mo:1
/exp/pberck/wopr/wopr -s do_pdt2.wopr_script -p file0:../nyt.3e7.10000,lc0:16,id:PDTT30175,timbl0:-a4 +D,dl:5,test:nyt.tail1000,file1:../nyt.3e7.10000,timbl1:-a1 +D,lc1:2,n:3,ds:211,mo:1
/exp/pberck/wopr/wopr -s do_pdt2.wopr_script -p file0:../nyt.3e7.10000,lc0:16,id:PDTT30176,timbl0:-a4 +D,dl:5,test:nyt.tail1000,file1:../nyt.3e7.10000,timbl1:-a1 +D,lc1:2,n:3,ds:221,mo:1
/exp/pberck/wopr/wopr -s do_pdt2.wopr_script -p file0:../nyt.3e7.10000,lc0:16,id:PDTT30177,timbl0:-a4 +D,dl:5,test:nyt.tail1000,file1:../nyt.3e7.10000,timbl1:-a1 +D,lc1:2,n:3,ds:511,mo:1
/exp/pberck/wopr/wopr -s do_pdt2.wopr_script -p file0:../nyt.3e7.10000,lc0:16,id:PDTT30178,timbl0:-a4 +D,dl:5,test:nyt.tail1000,file1:../nyt.3e7.10000,timbl1:-a1 +D,lc1:2,n:3,ds:521,mo:1
/exp/pberck/wopr/wopr -s do_pdt2.wopr_script -p file0:../nyt.3e7.10000,lc0:16,id:PDTT30179,timbl0:-a4 +D,dl:5,test:nyt.tail1000,file1:../nyt.3e7.10000,timbl1:-a1 +D,lc1:2,n:3,ds:551,mo:1
/exp/pberck/wopr/wopr -s do_pdt2.wopr_script -p file0:../nyt.3e7.10000,lc0:2,id:PDTT30180,timbl0:-a1 +D,dl:5,test:nyt.tail1000,file1:../nyt.3e7.50000,timbl1:-a1 +D,lc1:2,n:3,ds:211,mo:1
/exp/pberck/wopr/wopr -s do_pdt2.wopr_script -p file0:../nyt.3e7.10000,lc0:2,id:PDTT30181,timbl0:-a1 +D,dl:5,test:nyt.tail1000,file1:../nyt.3e7.50000,timbl1:-a1 +D,lc1:2,n:3,ds:221,mo:1
/exp/pberck/wopr/wopr -s do_pdt2.wopr_script -p file0:../nyt.3e7.10000,lc0:2,id:PDTT30182,timbl0:-a1 +D,dl:5,test:nyt.tail1000,file1:../nyt.3e7.50000,timbl1:-a1 +D,lc1:2,n:3,ds:511,mo:1
/exp/pberck/wopr/wopr -s do_pdt2.wopr_script -p file0:../nyt.3e7.10000,lc0:2,id:PDTT30183,timbl0:-a1 +D,dl:5,test:nyt.tail1000,file1:../nyt.3e7.50000,timbl1:-a1 +D,lc1:2,n:3,ds:521,mo:1
/exp/pberck/wopr/wopr -s do_pdt2.wopr_script -p file0:../nyt.3e7.10000,lc0:2,id:PDTT30184,timbl0:-a1 +D,dl:5,test:nyt.tail1000,file1:../nyt.3e7.50000,timbl1:-a1 +D,lc1:2,n:3,ds:551,mo:1
/exp/pberck/wopr/wopr -s do_pdt2.wopr_script -p file0:../nyt.3e7.10000,lc0:3,id:PDTT30185,timbl0:-a1 +D,dl:5,test:nyt.tail1000,file1:../nyt.3e7.50000,timbl1:-a1 +D,lc1:2,n:3,ds:211,mo:1
/exp/pberck/wopr/wopr -s do_pdt2.wopr_script -p file0:../nyt.3e7.10000,lc0:3,id:PDTT30186,timbl0:-a1 +D,dl:5,test:nyt.tail1000,file1:../nyt.3e7.50000,timbl1:-a1 +D,lc1:2,n:3,ds:221,mo:1
/exp/pberck/wopr/wopr -s do_pdt2.wopr_script -p file0:../nyt.3e7.10000,lc0:3,id:PDTT30187,timbl0:-a1 +D,dl:5,test:nyt.tail1000,file1:../nyt.3e7.50000,timbl1:-a1 +D,lc1:2,n:3,ds:511,mo:1
/exp/pberck/wopr/wopr -s do_pdt2.wopr_script -p file0:../nyt.3e7.10000,lc0:3,id:PDTT30188,timbl0:-a1 +D,dl:5,test:nyt.tail1000,file1:../nyt.3e7.50000,timbl1:-a1 +D,lc1:2,n:3,ds:521,mo:1
/exp/pberck/wopr/wopr -s do_pdt2.wopr_script -p file0:../nyt.3e7.10000,lc0:3,id:PDTT30189,timbl0:-a1 +D,dl:5,test:nyt.tail1000,file1:../nyt.3e7.50000,timbl1:-a1 +D,lc1:2,n:3,ds:551,mo:1
/exp/pberck/wopr/wopr -s do_pdt2.wopr_script -p file0:../nyt.3e7.10000,lc0:4,id:PDTT30190,timbl0:-a1 +D,dl:5,test:nyt.tail1000,file1:../nyt.3e7.50000,timbl1:-a1 +D,lc1:2,n:3,ds:211,mo:1
/exp/pberck/wopr/wopr -s do_pdt2.wopr_script -p file0:../nyt.3e7.10000,lc0:4,id:PDTT30191,timbl0:-a1 +D,dl:5,test:nyt.tail1000,file1:../nyt.3e7.50000,timbl1:-a1 +D,lc1:2,n:3,ds:221,mo:1
/exp/pberck/wopr/wopr -s do_pdt2.wopr_script -p file0:../nyt.3e7.10000,lc0:4,id:PDTT30192,timbl0:-a1 +D,dl:5,test:nyt.tail1000,file1:../nyt.3e7.50000,timbl1:-a1 +D,lc1:2,n:3,ds:511,mo:1
/exp/pberck/wopr/wopr -s do_pdt2.wopr_script -p file0:../nyt.3e7.10000,lc0:4,id:PDTT30193,timbl0:-a1 +D,dl:5,test:nyt.tail1000,file1:../nyt.3e7.50000,timbl1:-a1 +D,lc1:2,n:3,ds:521,mo:1
/exp/pberck/wopr/wopr -s do_pdt2.wopr_script -p file0:../nyt.3e7.10000,lc0:4,id:PDTT30194,timbl0:-a1 +D,dl:5,test:nyt.tail1000,file1:../nyt.3e7.50000,timbl1:-a1 +D,lc1:2,n:3,ds:551,mo:1
/exp/pberck/wopr/wopr -s do_pdt2.wopr_script -p file0:../nyt.3e7.10000,lc0:8,id:PDTT30195,timbl0:-a1 +D,dl:5,test:nyt.tail1000,file1:../nyt.3e7.50000,timbl1:-a1 +D,lc1:2,n:3,ds:211,mo:1
/exp/pberck/wopr/wopr -s do_pdt2.wopr_script -p file0:../nyt.3e7.10000,lc0:8,id:PDTT30196,timbl0:-a1 +D,dl:5,test:nyt.tail1000,file1:../nyt.3e7.50000,timbl1:-a1 +D,lc1:2,n:3,ds:221,mo:1
/exp/pberck/wopr/wopr -s do_pdt2.wopr_script -p file0:../nyt.3e7.10000,lc0:8,id:PDTT30197,timbl0:-a1 +D,dl:5,test:nyt.tail1000,file1:../nyt.3e7.50000,timbl1:-a1 +D,lc1:2,n:3,ds:511,mo:1
/exp/pberck/wopr/wopr -s do_pdt2.wopr_script -p file0:../nyt.3e7.10000,lc0:8,id:PDTT30198,timbl0:-a1 +D,dl:5,test:nyt.tail1000,file1:../nyt.3e7.50000,timbl1:-a1 +D,lc1:2,n:3,ds:521,mo:1
/exp/pberck/wopr/wopr -s do_pdt2.wopr_script -p file0:../nyt.3e7.10000,lc0:8,id:PDTT30199,timbl0:-a1 +D,dl:5,test:nyt.tail1000,file1:../nyt.3e7.50000,timbl1:-a1 +D,lc1:2,n:3,ds:551,mo:1
/exp/pberck/wopr/wopr -s do_pdt2.wopr_script -p file0:../nyt.3e7.10000,lc0:12,id:PDTT30200,timbl0:-a1 +D,dl:5,test:nyt.tail1000,file1:../nyt.3e7.50000,timbl1:-a1 +D,lc1:2,n:3,ds:211,mo:1
/exp/pberck/wopr/wopr -s do_pdt2.wopr_script -p file0:../nyt.3e7.10000,lc0:12,id:PDTT30201,timbl0:-a1 +D,dl:5,test:nyt.tail1000,file1:../nyt.3e7.50000,timbl1:-a1 +D,lc1:2,n:3,ds:221,mo:1
/exp/pberck/wopr/wopr -s do_pdt2.wopr_script -p file0:../nyt.3e7.10000,lc0:12,id:PDTT30202,timbl0:-a1 +D,dl:5,test:nyt.tail1000,file1:../nyt.3e7.50000,timbl1:-a1 +D,lc1:2,n:3,ds:511,mo:1
/exp/pberck/wopr/wopr -s do_pdt2.wopr_script -p file0:../nyt.3e7.10000,lc0:12,id:PDTT30203,timbl0:-a1 +D,dl:5,test:nyt.tail1000,file1:../nyt.3e7.50000,timbl1:-a1 +D,lc1:2,n:3,ds:521,mo:1
/exp/pberck/wopr/wopr -s do_pdt2.wopr_script -p file0:../nyt.3e7.10000,lc0:12,id:PDTT30204,timbl0:-a1 +D,dl:5,test:nyt.tail1000,file1:../nyt.3e7.50000,timbl1:-a1 +D,lc1:2,n:3,ds:551,mo:1
/exp/pberck/wopr/wopr -s do_pdt2.wopr_script -p file0:../nyt.3e7.10000,lc0:16,id:PDTT30205,timbl0:-a1 +D,dl:5,test:nyt.tail1000,file1:../nyt.3e7.50000,timbl1:-a1 +D,lc1:2,n:3,ds:211,mo:1
/exp/pberck/wopr/wopr -s do_pdt2.wopr_script -p file0:../nyt.3e7.10000,lc0:16,id:PDTT30206,timbl0:-a1 +D,dl:5,test:nyt.tail1000,file1:../nyt.3e7.50000,timbl1:-a1 +D,lc1:2,n:3,ds:221,mo:1
/exp/pberck/wopr/wopr -s do_pdt2.wopr_script -p file0:../nyt.3e7.10000,lc0:16,id:PDTT30207,timbl0:-a1 +D,dl:5,test:nyt.tail1000,file1:../nyt.3e7.50000,timbl1:-a1 +D,lc1:2,n:3,ds:511,mo:1
/exp/pberck/wopr/wopr -s do_pdt2.wopr_script -p file0:../nyt.3e7.10000,lc0:16,id:PDTT30208,timbl0:-a1 +D,dl:5,test:nyt.tail1000,file1:../nyt.3e7.50000,timbl1:-a1 +D,lc1:2,n:3,ds:521,mo:1
/exp/pberck/wopr/wopr -s do_pdt2.wopr_script -p file0:../nyt.3e7.10000,lc0:16,id:PDTT30209,timbl0:-a1 +D,dl:5,test:nyt.tail1000,file1:../nyt.3e7.50000,timbl1:-a1 +D,lc1:2,n:3,ds:551,mo:1
/exp/pberck/wopr/wopr -s do_pdt2.wopr_script -p file0:../nyt.3e7.10000,lc0:2,id:PDTT30210,timbl0:-a4 +D,dl:5,test:nyt.tail1000,file1:../nyt.3e7.50000,timbl1:-a1 +D,lc1:2,n:3,ds:211,mo:1
/exp/pberck/wopr/wopr -s do_pdt2.wopr_script -p file0:../nyt.3e7.10000,lc0:2,id:PDTT30211,timbl0:-a4 +D,dl:5,test:nyt.tail1000,file1:../nyt.3e7.50000,timbl1:-a1 +D,lc1:2,n:3,ds:221,mo:1
/exp/pberck/wopr/wopr -s do_pdt2.wopr_script -p file0:../nyt.3e7.10000,lc0:2,id:PDTT30212,timbl0:-a4 +D,dl:5,test:nyt.tail1000,file1:../nyt.3e7.50000,timbl1:-a1 +D,lc1:2,n:3,ds:511,mo:1
/exp/pberck/wopr/wopr -s do_pdt2.wopr_script -p file0:../nyt.3e7.10000,lc0:2,id:PDTT30213,timbl0:-a4 +D,dl:5,test:nyt.tail1000,file1:../nyt.3e7.50000,timbl1:-a1 +D,lc1:2,n:3,ds:521,mo:1
/exp/pberck/wopr/wopr -s do_pdt2.wopr_script -p file0:../nyt.3e7.10000,lc0:2,id:PDTT30214,timbl0:-a4 +D,dl:5,test:nyt.tail1000,file1:../nyt.3e7.50000,timbl1:-a1 +D,lc1:2,n:3,ds:551,mo:1
/exp/pberck/wopr/wopr -s do_pdt2.wopr_script -p file0:../nyt.3e7.10000,lc0:3,id:PDTT30215,timbl0:-a4 +D,dl:5,test:nyt.tail1000,file1:../nyt.3e7.50000,timbl1:-a1 +D,lc1:2,n:3,ds:211,mo:1
/exp/pberck/wopr/wopr -s do_pdt2.wopr_script -p file0:../nyt.3e7.10000,lc0:3,id:PDTT30216,timbl0:-a4 +D,dl:5,test:nyt.tail1000,file1:../nyt.3e7.50000,timbl1:-a1 +D,lc1:2,n:3,ds:221,mo:1
/exp/pberck/wopr/wopr -s do_pdt2.wopr_script -p file0:../nyt.3e7.10000,lc0:3,id:PDTT30217,timbl0:-a4 +D,dl:5,test:nyt.tail1000,file1:../nyt.3e7.50000,timbl1:-a1 +D,lc1:2,n:3,ds:511,mo:1
/exp/pberck/wopr/wopr -s do_pdt2.wopr_script -p file0:../nyt.3e7.10000,lc0:3,id:PDTT30218,timbl0:-a4 +D,dl:5,test:nyt.tail1000,file1:../nyt.3e7.50000,timbl1:-a1 +D,lc1:2,n:3,ds:521,mo:1
/exp/pberck/wopr/wopr -s do_pdt2.wopr_script -p file0:../nyt.3e7.10000,lc0:3,id:PDTT30219,timbl0:-a4 +D,dl:5,test:nyt.tail1000,file1:../nyt.3e7.50000,timbl1:-a1 +D,lc1:2,n:3,ds:551,mo:1
/exp/pberck/wopr/wopr -s do_pdt2.wopr_script -p file0:../nyt.3e7.10000,lc0:4,id:PDTT30220,timbl0:-a4 +D,dl:5,test:nyt.tail1000,file1:../nyt.3e7.50000,timbl1:-a1 +D,lc1:2,n:3,ds:211,mo:1
/exp/pberck/wopr/wopr -s do_pdt2.wopr_script -p file0:../nyt.3e7.10000,lc0:4,id:PDTT30221,timbl0:-a4 +D,dl:5,test:nyt.tail1000,file1:../nyt.3e7.50000,timbl1:-a1 +D,lc1:2,n:3,ds:221,mo:1
/exp/pberck/wopr/wopr -s do_pdt2.wopr_script -p file0:../nyt.3e7.10000,lc0:4,id:PDTT30222,timbl0:-a4 +D,dl:5,test:nyt.tail1000,file1:../nyt.3e7.50000,timbl1:-a1 +D,lc1:2,n:3,ds:511,mo:1
/exp/pberck/wopr/wopr -s do_pdt2.wopr_script -p file0:../nyt.3e7.10000,lc0:4,id:PDTT30223,timbl0:-a4 +D,dl:5,test:nyt.tail1000,file1:../nyt.3e7.50000,timbl1:-a1 +D,lc1:2,n:3,ds:521,mo:1
/exp/pberck/wopr/wopr -s do_pdt2.wopr_script -p file0:../nyt.3e7.10000,lc0:4,id:PDTT30224,timbl0:-a4 +D,dl:5,test:nyt.tail1000,file1:../nyt.3e7.50000,timbl1:-a1 +D,lc1:2,n:3,ds:551,mo:1
/exp/pberck/wopr/wopr -s do_pdt2.wopr_script -p file0:../nyt.3e7.10000,lc0:8,id:PDTT30225,timbl0:-a4 +D,dl:5,test:nyt.tail1000,file1:../nyt.3e7.50000,timbl1:-a1 +D,lc1:2,n:3,ds:211,mo:1
/exp/pberck/wopr/wopr -s do_pdt2.wopr_script -p file0:../nyt.3e7.10000,lc0:8,id:PDTT30226,timbl0:-a4 +D,dl:5,test:nyt.tail1000,file1:../nyt.3e7.50000,timbl1:-a1 +D,lc1:2,n:3,ds:221,mo:1
/exp/pberck/wopr/wopr -s do_pdt2.wopr_script -p file0:../nyt.3e7.10000,lc0:8,id:PDTT30227,timbl0:-a4 +D,dl:5,test:nyt.tail1000,file1:../nyt.3e7.50000,timbl1:-a1 +D,lc1:2,n:3,ds:511,mo:1
/exp/pberck/wopr/wopr -s do_pdt2.wopr_script -p file0:../nyt.3e7.10000,lc0:8,id:PDTT30228,timbl0:-a4 +D,dl:5,test:nyt.tail1000,file1:../nyt.3e7.50000,timbl1:-a1 +D,lc1:2,n:3,ds:521,mo:1
/exp/pberck/wopr/wopr -s do_pdt2.wopr_script -p file0:../nyt.3e7.10000,lc0:8,id:PDTT30229,timbl0:-a4 +D,dl:5,test:nyt.tail1000,file1:../nyt.3e7.50000,timbl1:-a1 +D,lc1:2,n:3,ds:551,mo:1
/exp/pberck/wopr/wopr -s do_pdt2.wopr_script -p file0:../nyt.3e7.10000,lc0:12,id:PDTT30230,timbl0:-a4 +D,dl:5,test:nyt.tail1000,file1:../nyt.3e7.50000,timbl1:-a1 +D,lc1:2,n:3,ds:211,mo:1
/exp/pberck/wopr/wopr -s do_pdt2.wopr_script -p file0:../nyt.3e7.10000,lc0:12,id:PDTT30231,timbl0:-a4 +D,dl:5,test:nyt.tail1000,file1:../nyt.3e7.50000,timbl1:-a1 +D,lc1:2,n:3,ds:221,mo:1
/exp/pberck/wopr/wopr -s do_pdt2.wopr_script -p file0:../nyt.3e7.10000,lc0:12,id:PDTT30232,timbl0:-a4 +D,dl:5,test:nyt.tail1000,file1:../nyt.3e7.50000,timbl1:-a1 +D,lc1:2,n:3,ds:511,mo:1
/exp/pberck/wopr/wopr -s do_pdt2.wopr_script -p file0:../nyt.3e7.10000,lc0:12,id:PDTT30233,timbl0:-a4 +D,dl:5,test:nyt.tail1000,file1:../nyt.3e7.50000,timbl1:-a1 +D,lc1:2,n:3,ds:521,mo:1
/exp/pberck/wopr/wopr -s do_pdt2.wopr_script -p file0:../nyt.3e7.10000,lc0:12,id:PDTT30234,timbl0:-a4 +D,dl:5,test:nyt.tail1000,file1:../nyt.3e7.50000,timbl1:-a1 +D,lc1:2,n:3,ds:551,mo:1
/exp/pberck/wopr/wopr -s do_pdt2.wopr_script -p file0:../nyt.3e7.10000,lc0:16,id:PDTT30235,timbl0:-a4 +D,dl:5,test:nyt.tail1000,file1:../nyt.3e7.50000,timbl1:-a1 +D,lc1:2,n:3,ds:211,mo:1
/exp/pberck/wopr/wopr -s do_pdt2.wopr_script -p file0:../nyt.3e7.10000,lc0:16,id:PDTT30236,timbl0:-a4 +D,dl:5,test:nyt.tail1000,file1:../nyt.3e7.50000,timbl1:-a1 +D,lc1:2,n:3,ds:221,mo:1
/exp/pberck/wopr/wopr -s do_pdt2.wopr_script -p file0:../nyt.3e7.10000,lc0:16,id:PDTT30237,timbl0:-a4 +D,dl:5,test:nyt.tail1000,file1:../nyt.3e7.50000,timbl1:-a1 +D,lc1:2,n:3,ds:511,mo:1
/exp/pberck/wopr/wopr -s do_pdt2.wopr_script -p file0:../nyt.3e7.10000,lc0:16,id:PDTT30238,timbl0:-a4 +D,dl:5,test:nyt.tail1000,file1:../nyt.3e7.50000,timbl1:-a1 +D,lc1:2,n:3,ds:521,mo:1
/exp/pberck/wopr/wopr -s do_pdt2.wopr_script -p file0:../nyt.3e7.10000,lc0:16,id:PDTT30239,timbl0:-a4 +D,dl:5,test:nyt.tail1000,file1:../nyt.3e7.50000,timbl1:-a1 +D,lc1:2,n:3,ds:551,mo:1
/exp/pberck/wopr/wopr -s do_pdt2.wopr_script -p file0:../nyt.3e7.10000,lc0:2,id:PDTT30240,timbl0:-a1 +D,dl:5,test:nyt.tail1000,file1:../nyt.3e7.100000,timbl1:-a1 +D,lc1:2,n:3,ds:211,mo:1
/exp/pberck/wopr/wopr -s do_pdt2.wopr_script -p file0:../nyt.3e7.10000,lc0:2,id:PDTT30241,timbl0:-a1 +D,dl:5,test:nyt.tail1000,file1:../nyt.3e7.100000,timbl1:-a1 +D,lc1:2,n:3,ds:221,mo:1
/exp/pberck/wopr/wopr -s do_pdt2.wopr_script -p file0:../nyt.3e7.10000,lc0:2,id:PDTT30242,timbl0:-a1 +D,dl:5,test:nyt.tail1000,file1:../nyt.3e7.100000,timbl1:-a1 +D,lc1:2,n:3,ds:511,mo:1
/exp/pberck/wopr/wopr -s do_pdt2.wopr_script -p file0:../nyt.3e7.10000,lc0:2,id:PDTT30243,timbl0:-a1 +D,dl:5,test:nyt.tail1000,file1:../nyt.3e7.100000,timbl1:-a1 +D,lc1:2,n:3,ds:521,mo:1
/exp/pberck/wopr/wopr -s do_pdt2.wopr_script -p file0:../nyt.3e7.10000,lc0:2,id:PDTT30244,timbl0:-a1 +D,dl:5,test:nyt.tail1000,file1:../nyt.3e7.100000,timbl1:-a1 +D,lc1:2,n:3,ds:551,mo:1
/exp/pberck/wopr/wopr -s do_pdt2.wopr_script -p file0:../nyt.3e7.10000,lc0:3,id:PDTT30245,timbl0:-a1 +D,dl:5,test:nyt.tail1000,file1:../nyt.3e7.100000,timbl1:-a1 +D,lc1:2,n:3,ds:211,mo:1
/exp/pberck/wopr/wopr -s do_pdt2.wopr_script -p file0:../nyt.3e7.10000,lc0:3,id:PDTT30246,timbl0:-a1 +D,dl:5,test:nyt.tail1000,file1:../nyt.3e7.100000,timbl1:-a1 +D,lc1:2,n:3,ds:221,mo:1
/exp/pberck/wopr/wopr -s do_pdt2.wopr_script -p file0:../nyt.3e7.10000,lc0:3,id:PDTT30247,timbl0:-a1 +D,dl:5,test:nyt.tail1000,file1:../nyt.3e7.100000,timbl1:-a1 +D,lc1:2,n:3,ds:511,mo:1
/exp/pberck/wopr/wopr -s do_pdt2.wopr_script -p file0:../nyt.3e7.10000,lc0:3,id:PDTT30248,timbl0:-a1 +D,dl:5,test:nyt.tail1000,file1:../nyt.3e7.100000,timbl1:-a1 +D,lc1:2,n:3,ds:521,mo:1
/exp/pberck/wopr/wopr -s do_pdt2.wopr_script -p file0:../nyt.3e7.10000,lc0:3,id:PDTT30249,timbl0:-a1 +D,dl:5,test:nyt.tail1000,file1:../nyt.3e7.100000,timbl1:-a1 +D,lc1:2,n:3,ds:551,mo:1
/exp/pberck/wopr/wopr -s do_pdt2.wopr_script -p file0:../nyt.3e7.10000,lc0:4,id:PDTT30250,timbl0:-a1 +D,dl:5,test:nyt.tail1000,file1:../nyt.3e7.100000,timbl1:-a1 +D,lc1:2,n:3,ds:211,mo:1
/exp/pberck/wopr/wopr -s do_pdt2.wopr_script -p file0:../nyt.3e7.10000,lc0:4,id:PDTT30251,timbl0:-a1 +D,dl:5,test:nyt.tail1000,file1:../nyt.3e7.100000,timbl1:-a1 +D,lc1:2,n:3,ds:221,mo:1
/exp/pberck/wopr/wopr -s do_pdt2.wopr_script -p file0:../nyt.3e7.10000,lc0:4,id:PDTT30252,timbl0:-a1 +D,dl:5,test:nyt.tail1000,file1:../nyt.3e7.100000,timbl1:-a1 +D,lc1:2,n:3,ds:511,mo:1
/exp/pberck/wopr/wopr -s do_pdt2.wopr_script -p file0:../nyt.3e7.10000,lc0:4,id:PDTT30253,timbl0:-a1 +D,dl:5,test:nyt.tail1000,file1:../nyt.3e7.100000,timbl1:-a1 +D,lc1:2,n:3,ds:521,mo:1
/exp/pberck/wopr/wopr -s do_pdt2.wopr_script -p file0:../nyt.3e7.10000,lc0:4,id:PDTT30254,timbl0:-a1 +D,dl:5,test:nyt.tail1000,file1:../nyt.3e7.100000,timbl1:-a1 +D,lc1:2,n:3,ds:551,mo:1
/exp/pberck/wopr/wopr -s do_pdt2.wopr_script -p file0:../nyt.3e7.10000,lc0:8,id:PDTT30255,timbl0:-a1 +D,dl:5,test:nyt.tail1000,file1:../nyt.3e7.100000,timbl1:-a1 +D,lc1:2,n:3,ds:211,mo:1
/exp/pberck/wopr/wopr -s do_pdt2.wopr_script -p file0:../nyt.3e7.10000,lc0:8,id:PDTT30256,timbl0:-a1 +D,dl:5,test:nyt.tail1000,file1:../nyt.3e7.100000,timbl1:-a1 +D,lc1:2,n:3,ds:221,mo:1
/exp/pberck/wopr/wopr -s do_pdt2.wopr_script -p file0:../nyt.3e7.10000,lc0:8,id:PDTT30257,timbl0:-a1 +D,dl:5,test:nyt.tail1000,file1:../nyt.3e7.100000,timbl1:-a1 +D,lc1:2,n:3,ds:511,mo:1
/exp/pberck/wopr/wopr -s do_pdt2.wopr_script -p file0:../nyt.3e7.10000,lc0:8,id:PDTT30258,timbl0:-a1 +D,dl:5,test:nyt.tail1000,file1:../nyt.3e7.100000,timbl1:-a1 +D,lc1:2,n:3,ds:521,mo:1
/exp/pberck/wopr/wopr -s do_pdt2.wopr_script -p file0:../nyt.3e7.10000,lc0:8,id:PDTT30259,timbl0:-a1 +D,dl:5,test:nyt.tail1000,file1:../nyt.3e7.100000,timbl1:-a1 +D,lc1:2,n:3,ds:551,mo:1
/exp/pberck/wopr/wopr -s do_pdt2.wopr_script -p file0:../nyt.3e7.10000,lc0:12,id:PDTT30260,timbl0:-a1 +D,dl:5,test:nyt.tail1000,file1:../nyt.3e7.100000,timbl1:-a1 +D,lc1:2,n:3,ds:211,mo:1
/exp/pberck/wopr/wopr -s do_pdt2.wopr_script -p file0:../nyt.3e7.10000,lc0:12,id:PDTT30261,timbl0:-a1 +D,dl:5,test:nyt.tail1000,file1:../nyt.3e7.100000,timbl1:-a1 +D,lc1:2,n:3,ds:221,mo:1
/exp/pberck/wopr/wopr -s do_pdt2.wopr_script -p file0:../nyt.3e7.10000,lc0:12,id:PDTT30262,timbl0:-a1 +D,dl:5,test:nyt.tail1000,file1:../nyt.3e7.100000,timbl1:-a1 +D,lc1:2,n:3,ds:511,mo:1
/exp/pberck/wopr/wopr -s do_pdt2.wopr_script -p file0:../nyt.3e7.10000,lc0:12,id:PDTT30263,timbl0:-a1 +D,dl:5,test:nyt.tail1000,file1:../nyt.3e7.100000,timbl1:-a1 +D,lc1:2,n:3,ds:521,mo:1
/exp/pberck/wopr/wopr -s do_pdt2.wopr_script -p file0:../nyt.3e7.10000,lc0:12,id:PDTT30264,timbl0:-a1 +D,dl:5,test:nyt.tail1000,file1:../nyt.3e7.100000,timbl1:-a1 +D,lc1:2,n:3,ds:551,mo:1
/exp/pberck/wopr/wopr -s do_pdt2.wopr_script -p file0:../nyt.3e7.10000,lc0:16,id:PDTT30265,timbl0:-a1 +D,dl:5,test:nyt.tail1000,file1:../nyt.3e7.100000,timbl1:-a1 +D,lc1:2,n:3,ds:211,mo:1
/exp/pberck/wopr/wopr -s do_pdt2.wopr_script -p file0:../nyt.3e7.10000,lc0:16,id:PDTT30266,timbl0:-a1 +D,dl:5,test:nyt.tail1000,file1:../nyt.3e7.100000,timbl1:-a1 +D,lc1:2,n:3,ds:221,mo:1
/exp/pberck/wopr/wopr -s do_pdt2.wopr_script -p file0:../nyt.3e7.10000,lc0:16,id:PDTT30267,timbl0:-a1 +D,dl:5,test:nyt.tail1000,file1:../nyt.3e7.100000,timbl1:-a1 +D,lc1:2,n:3,ds:511,mo:1
/exp/pberck/wopr/wopr -s do_pdt2.wopr_script -p file0:../nyt.3e7.10000,lc0:16,id:PDTT30268,timbl0:-a1 +D,dl:5,test:nyt.tail1000,file1:../nyt.3e7.100000,timbl1:-a1 +D,lc1:2,n:3,ds:521,mo:1
/exp/pberck/wopr/wopr -s do_pdt2.wopr_script -p file0:../nyt.3e7.10000,lc0:16,id:PDTT30269,timbl0:-a1 +D,dl:5,test:nyt.tail1000,file1:../nyt.3e7.100000,timbl1:-a1 +D,lc1:2,n:3,ds:551,mo:1
/exp/pberck/wopr/wopr -s do_pdt2.wopr_script -p file0:../nyt.3e7.10000,lc0:2,id:PDTT30270,timbl0:-a4 +D,dl:5,test:nyt.tail1000,file1:../nyt.3e7.100000,timbl1:-a1 +D,lc1:2,n:3,ds:211,mo:1
/exp/pberck/wopr/wopr -s do_pdt2.wopr_script -p file0:../nyt.3e7.10000,lc0:2,id:PDTT30271,timbl0:-a4 +D,dl:5,test:nyt.tail1000,file1:../nyt.3e7.100000,timbl1:-a1 +D,lc1:2,n:3,ds:221,mo:1
/exp/pberck/wopr/wopr -s do_pdt2.wopr_script -p file0:../nyt.3e7.10000,lc0:2,id:PDTT30272,timbl0:-a4 +D,dl:5,test:nyt.tail1000,file1:../nyt.3e7.100000,timbl1:-a1 +D,lc1:2,n:3,ds:511,mo:1
/exp/pberck/wopr/wopr -s do_pdt2.wopr_script -p file0:../nyt.3e7.10000,lc0:2,id:PDTT30273,timbl0:-a4 +D,dl:5,test:nyt.tail1000,file1:../nyt.3e7.100000,timbl1:-a1 +D,lc1:2,n:3,ds:521,mo:1
/exp/pberck/wopr/wopr -s do_pdt2.wopr_script -p file0:../nyt.3e7.10000,lc0:2,id:PDTT30274,timbl0:-a4 +D,dl:5,test:nyt.tail1000,file1:../nyt.3e7.100000,timbl1:-a1 +D,lc1:2,n:3,ds:551,mo:1
/exp/pberck/wopr/wopr -s do_pdt2.wopr_script -p file0:../nyt.3e7.10000,lc0:3,id:PDTT30275,timbl0:-a4 +D,dl:5,test:nyt.tail1000,file1:../nyt.3e7.100000,timbl1:-a1 +D,lc1:2,n:3,ds:211,mo:1
/exp/pberck/wopr/wopr -s do_pdt2.wopr_script -p file0:../nyt.3e7.10000,lc0:3,id:PDTT30276,timbl0:-a4 +D,dl:5,test:nyt.tail1000,file1:../nyt.3e7.100000,timbl1:-a1 +D,lc1:2,n:3,ds:221,mo:1
/exp/pberck/wopr/wopr -s do_pdt2.wopr_script -p file0:../nyt.3e7.10000,lc0:3,id:PDTT30277,timbl0:-a4 +D,dl:5,test:nyt.tail1000,file1:../nyt.3e7.100000,timbl1:-a1 +D,lc1:2,n:3,ds:511,mo:1
/exp/pberck/wopr/wopr -s do_pdt2.wopr_script -p file0:../nyt.3e7.10000,lc0:3,id:PDTT30278,timbl0:-a4 +D,dl:5,test:nyt.tail1000,file1:../nyt.3e7.100000,timbl1:-a1 +D,lc1:2,n:3,ds:521,mo:1
/exp/pberck/wopr/wopr -s do_pdt2.wopr_script -p file0:../nyt.3e7.10000,lc0:3,id:PDTT30279,timbl0:-a4 +D,dl:5,test:nyt.tail1000,file1:../nyt.3e7.100000,timbl1:-a1 +D,lc1:2,n:3,ds:551,mo:1
/exp/pberck/wopr/wopr -s do_pdt2.wopr_script -p file0:../nyt.3e7.10000,lc0:4,id:PDTT30280,timbl0:-a4 +D,dl:5,test:nyt.tail1000,file1:../nyt.3e7.100000,timbl1:-a1 +D,lc1:2,n:3,ds:211,mo:1
/exp/pberck/wopr/wopr -s do_pdt2.wopr_script -p file0:../nyt.3e7.10000,lc0:4,id:PDTT30281,timbl0:-a4 +D,dl:5,test:nyt.tail1000,file1:../nyt.3e7.100000,timbl1:-a1 +D,lc1:2,n:3,ds:221,mo:1
/exp/pberck/wopr/wopr -s do_pdt2.wopr_script -p file0:../nyt.3e7.10000,lc0:4,id:PDTT30282,timbl0:-a4 +D,dl:5,test:nyt.tail1000,file1:../nyt.3e7.100000,timbl1:-a1 +D,lc1:2,n:3,ds:511,mo:1
/exp/pberck/wopr/wopr -s do_pdt2.wopr_script -p file0:../nyt.3e7.10000,lc0:4,id:PDTT30283,timbl0:-a4 +D,dl:5,test:nyt.tail1000,file1:../nyt.3e7.100000,timbl1:-a1 +D,lc1:2,n:3,ds:521,mo:1
/exp/pberck/wopr/wopr -s do_pdt2.wopr_script -p file0:../nyt.3e7.10000,lc0:4,id:PDTT30284,timbl0:-a4 +D,dl:5,test:nyt.tail1000,file1:../nyt.3e7.100000,timbl1:-a1 +D,lc1:2,n:3,ds:551,mo:1
/exp/pberck/wopr/wopr -s do_pdt2.wopr_script -p file0:../nyt.3e7.10000,lc0:8,id:PDTT30285,timbl0:-a4 +D,dl:5,test:nyt.tail1000,file1:../nyt.3e7.100000,timbl1:-a1 +D,lc1:2,n:3,ds:211,mo:1
/exp/pberck/wopr/wopr -s do_pdt2.wopr_script -p file0:../nyt.3e7.10000,lc0:8,id:PDTT30286,timbl0:-a4 +D,dl:5,test:nyt.tail1000,file1:../nyt.3e7.100000,timbl1:-a1 +D,lc1:2,n:3,ds:221,mo:1
/exp/pberck/wopr/wopr -s do_pdt2.wopr_script -p file0:../nyt.3e7.10000,lc0:8,id:PDTT30287,timbl0:-a4 +D,dl:5,test:nyt.tail1000,file1:../nyt.3e7.100000,timbl1:-a1 +D,lc1:2,n:3,ds:511,mo:1
/exp/pberck/wopr/wopr -s do_pdt2.wopr_script -p file0:../nyt.3e7.10000,lc0:8,id:PDTT30288,timbl0:-a4 +D,dl:5,test:nyt.tail1000,file1:../nyt.3e7.100000,timbl1:-a1 +D,lc1:2,n:3,ds:521,mo:1
/exp/pberck/wopr/wopr -s do_pdt2.wopr_script -p file0:../nyt.3e7.10000,lc0:8,id:PDTT30289,timbl0:-a4 +D,dl:5,test:nyt.tail1000,file1:../nyt.3e7.100000,timbl1:-a1 +D,lc1:2,n:3,ds:551,mo:1
/exp/pberck/wopr/wopr -s do_pdt2.wopr_script -p file0:../nyt.3e7.10000,lc0:12,id:PDTT30290,timbl0:-a4 +D,dl:5,test:nyt.tail1000,file1:../nyt.3e7.100000,timbl1:-a1 +D,lc1:2,n:3,ds:211,mo:1
/exp/pberck/wopr/wopr -s do_pdt2.wopr_script -p file0:../nyt.3e7.10000,lc0:12,id:PDTT30291,timbl0:-a4 +D,dl:5,test:nyt.tail1000,file1:../nyt.3e7.100000,timbl1:-a1 +D,lc1:2,n:3,ds:221,mo:1
/exp/pberck/wopr/wopr -s do_pdt2.wopr_script -p file0:../nyt.3e7.10000,lc0:12,id:PDTT30292,timbl0:-a4 +D,dl:5,test:nyt.tail1000,file1:../nyt.3e7.100000,timbl1:-a1 +D,lc1:2,n:3,ds:511,mo:1
/exp/pberck/wopr/wopr -s do_pdt2.wopr_script -p file0:../nyt.3e7.10000,lc0:12,id:PDTT30293,timbl0:-a4 +D,dl:5,test:nyt.tail1000,file1:../nyt.3e7.100000,timbl1:-a1 +D,lc1:2,n:3,ds:521,mo:1
/exp/pberck/wopr/wopr -s do_pdt2.wopr_script -p file0:../nyt.3e7.10000,lc0:12,id:PDTT30294,timbl0:-a4 +D,dl:5,test:nyt.tail1000,file1:../nyt.3e7.100000,timbl1:-a1 +D,lc1:2,n:3,ds:551,mo:1
/exp/pberck/wopr/wopr -s do_pdt2.wopr_script -p file0:../nyt.3e7.10000,lc0:16,id:PDTT30295,timbl0:-a4 +D,dl:5,test:nyt.tail1000,file1:../nyt.3e7.100000,timbl1:-a1 +D,lc1:2,n:3,ds:211,mo:1
/exp/pberck/wopr/wopr -s do_pdt2.wopr_script -p file0:../nyt.3e7.10000,lc0:16,id:PDTT30296,timbl0:-a4 +D,dl:5,test:nyt.tail1000,file1:../nyt.3e7.100000,timbl1:-a1 +D,lc1:2,n:3,ds:221,mo:1
/exp/pberck/wopr/wopr -s do_pdt2.wopr_script -p file0:../nyt.3e7.10000,lc0:16,id:PDTT30297,timbl0:-a4 +D,dl:5,test:nyt.tail1000,file1:../nyt.3e7.100000,timbl1:-a1 +D,lc1:2,n:3,ds:511,mo:1
/exp/pberck/wopr/wopr -s do_pdt2.wopr_script -p file0:../nyt.3e7.10000,lc0:16,id:PDTT30298,timbl0:-a4 +D,dl:5,test:nyt.tail1000,file1:../nyt.3e7.100000,timbl1:-a1 +D,lc1:2,n:3,ds:521,mo:1
/exp/pberck/wopr/wopr -s do_pdt2.wopr_script -p file0:../nyt.3e7.10000,lc0:16,id:PDTT30299,timbl0:-a4 +D,dl:5,test:nyt.tail1000,file1:../nyt.3e7.100000,timbl1:-a1 +D,lc1:2,n:3,ds:551,mo:1
/exp/pberck/wopr/wopr -s do_pdt2.wopr_script -p file0:../nyt.3e7.10000,lc0:2,id:PDTT30300,timbl0:-a1 +D,dl:5,test:nyt.tail1000,file1:../nyt.3e7.500000,timbl1:-a1 +D,lc1:2,n:3,ds:211,mo:1
/exp/pberck/wopr/wopr -s do_pdt2.wopr_script -p file0:../nyt.3e7.10000,lc0:2,id:PDTT30301,timbl0:-a1 +D,dl:5,test:nyt.tail1000,file1:../nyt.3e7.500000,timbl1:-a1 +D,lc1:2,n:3,ds:221,mo:1
/exp/pberck/wopr/wopr -s do_pdt2.wopr_script -p file0:../nyt.3e7.10000,lc0:2,id:PDTT30302,timbl0:-a1 +D,dl:5,test:nyt.tail1000,file1:../nyt.3e7.500000,timbl1:-a1 +D,lc1:2,n:3,ds:511,mo:1
/exp/pberck/wopr/wopr -s do_pdt2.wopr_script -p file0:../nyt.3e7.10000,lc0:2,id:PDTT30303,timbl0:-a1 +D,dl:5,test:nyt.tail1000,file1:../nyt.3e7.500000,timbl1:-a1 +D,lc1:2,n:3,ds:521,mo:1
/exp/pberck/wopr/wopr -s do_pdt2.wopr_script -p file0:../nyt.3e7.10000,lc0:2,id:PDTT30304,timbl0:-a1 +D,dl:5,test:nyt.tail1000,file1:../nyt.3e7.500000,timbl1:-a1 +D,lc1:2,n:3,ds:551,mo:1
/exp/pberck/wopr/wopr -s do_pdt2.wopr_script -p file0:../nyt.3e7.10000,lc0:3,id:PDTT30305,timbl0:-a1 +D,dl:5,test:nyt.tail1000,file1:../nyt.3e7.500000,timbl1:-a1 +D,lc1:2,n:3,ds:211,mo:1
/exp/pberck/wopr/wopr -s do_pdt2.wopr_script -p file0:../nyt.3e7.10000,lc0:3,id:PDTT30306,timbl0:-a1 +D,dl:5,test:nyt.tail1000,file1:../nyt.3e7.500000,timbl1:-a1 +D,lc1:2,n:3,ds:221,mo:1
/exp/pberck/wopr/wopr -s do_pdt2.wopr_script -p file0:../nyt.3e7.10000,lc0:3,id:PDTT30307,timbl0:-a1 +D,dl:5,test:nyt.tail1000,file1:../nyt.3e7.500000,timbl1:-a1 +D,lc1:2,n:3,ds:511,mo:1
/exp/pberck/wopr/wopr -s do_pdt2.wopr_script -p file0:../nyt.3e7.10000,lc0:3,id:PDTT30308,timbl0:-a1 +D,dl:5,test:nyt.tail1000,file1:../nyt.3e7.500000,timbl1:-a1 +D,lc1:2,n:3,ds:521,mo:1
/exp/pberck/wopr/wopr -s do_pdt2.wopr_script -p file0:../nyt.3e7.10000,lc0:3,id:PDTT30309,timbl0:-a1 +D,dl:5,test:nyt.tail1000,file1:../nyt.3e7.500000,timbl1:-a1 +D,lc1:2,n:3,ds:551,mo:1
/exp/pberck/wopr/wopr -s do_pdt2.wopr_script -p file0:../nyt.3e7.10000,lc0:4,id:PDTT30310,timbl0:-a1 +D,dl:5,test:nyt.tail1000,file1:../nyt.3e7.500000,timbl1:-a1 +D,lc1:2,n:3,ds:211,mo:1
/exp/pberck/wopr/wopr -s do_pdt2.wopr_script -p file0:../nyt.3e7.10000,lc0:4,id:PDTT30311,timbl0:-a1 +D,dl:5,test:nyt.tail1000,file1:../nyt.3e7.500000,timbl1:-a1 +D,lc1:2,n:3,ds:221,mo:1
/exp/pberck/wopr/wopr -s do_pdt2.wopr_script -p file0:../nyt.3e7.10000,lc0:4,id:PDTT30312,timbl0:-a1 +D,dl:5,test:nyt.tail1000,file1:../nyt.3e7.500000,timbl1:-a1 +D,lc1:2,n:3,ds:511,mo:1
/exp/pberck/wopr/wopr -s do_pdt2.wopr_script -p file0:../nyt.3e7.10000,lc0:4,id:PDTT30313,timbl0:-a1 +D,dl:5,test:nyt.tail1000,file1:../nyt.3e7.500000,timbl1:-a1 +D,lc1:2,n:3,ds:521,mo:1
/exp/pberck/wopr/wopr -s do_pdt2.wopr_script -p file0:../nyt.3e7.10000,lc0:4,id:PDTT30314,timbl0:-a1 +D,dl:5,test:nyt.tail1000,file1:../nyt.3e7.500000,timbl1:-a1 +D,lc1:2,n:3,ds:551,mo:1
/exp/pberck/wopr/wopr -s do_pdt2.wopr_script -p file0:../nyt.3e7.10000,lc0:8,id:PDTT30315,timbl0:-a1 +D,dl:5,test:nyt.tail1000,file1:../nyt.3e7.500000,timbl1:-a1 +D,lc1:2,n:3,ds:211,mo:1
/exp/pberck/wopr/wopr -s do_pdt2.wopr_script -p file0:../nyt.3e7.10000,lc0:8,id:PDTT30316,timbl0:-a1 +D,dl:5,test:nyt.tail1000,file1:../nyt.3e7.500000,timbl1:-a1 +D,lc1:2,n:3,ds:221,mo:1
/exp/pberck/wopr/wopr -s do_pdt2.wopr_script -p file0:../nyt.3e7.10000,lc0:8,id:PDTT30317,timbl0:-a1 +D,dl:5,test:nyt.tail1000,file1:../nyt.3e7.500000,timbl1:-a1 +D,lc1:2,n:3,ds:511,mo:1
/exp/pberck/wopr/wopr -s do_pdt2.wopr_script -p file0:../nyt.3e7.10000,lc0:8,id:PDTT30318,timbl0:-a1 +D,dl:5,test:nyt.tail1000,file1:../nyt.3e7.500000,timbl1:-a1 +D,lc1:2,n:3,ds:521,mo:1
/exp/pberck/wopr/wopr -s do_pdt2.wopr_script -p file0:../nyt.3e7.10000,lc0:8,id:PDTT30319,timbl0:-a1 +D,dl:5,test:nyt.tail1000,file1:../nyt.3e7.500000,timbl1:-a1 +D,lc1:2,n:3,ds:551,mo:1
/exp/pberck/wopr/wopr -s do_pdt2.wopr_script -p file0:../nyt.3e7.10000,lc0:12,id:PDTT30320,timbl0:-a1 +D,dl:5,test:nyt.tail1000,file1:../nyt.3e7.500000,timbl1:-a1 +D,lc1:2,n:3,ds:211,mo:1
/exp/pberck/wopr/wopr -s do_pdt2.wopr_script -p file0:../nyt.3e7.10000,lc0:12,id:PDTT30321,timbl0:-a1 +D,dl:5,test:nyt.tail1000,file1:../nyt.3e7.500000,timbl1:-a1 +D,lc1:2,n:3,ds:221,mo:1
/exp/pberck/wopr/wopr -s do_pdt2.wopr_script -p file0:../nyt.3e7.10000,lc0:12,id:PDTT30322,timbl0:-a1 +D,dl:5,test:nyt.tail1000,file1:../nyt.3e7.500000,timbl1:-a1 +D,lc1:2,n:3,ds:511,mo:1
/exp/pberck/wopr/wopr -s do_pdt2.wopr_script -p file0:../nyt.3e7.10000,lc0:12,id:PDTT30323,timbl0:-a1 +D,dl:5,test:nyt.tail1000,file1:../nyt.3e7.500000,timbl1:-a1 +D,lc1:2,n:3,ds:521,mo:1
/exp/pberck/wopr/wopr -s do_pdt2.wopr_script -p file0:../nyt.3e7.10000,lc0:12,id:PDTT30324,timbl0:-a1 +D,dl:5,test:nyt.tail1000,file1:../nyt.3e7.500000,timbl1:-a1 +D,lc1:2,n:3,ds:551,mo:1
/exp/pberck/wopr/wopr -s do_pdt2.wopr_script -p file0:../nyt.3e7.10000,lc0:16,id:PDTT30325,timbl0:-a1 +D,dl:5,test:nyt.tail1000,file1:../nyt.3e7.500000,timbl1:-a1 +D,lc1:2,n:3,ds:211,mo:1
/exp/pberck/wopr/wopr -s do_pdt2.wopr_script -p file0:../nyt.3e7.10000,lc0:16,id:PDTT30326,timbl0:-a1 +D,dl:5,test:nyt.tail1000,file1:../nyt.3e7.500000,timbl1:-a1 +D,lc1:2,n:3,ds:221,mo:1
/exp/pberck/wopr/wopr -s do_pdt2.wopr_script -p file0:../nyt.3e7.10000,lc0:16,id:PDTT30327,timbl0:-a1 +D,dl:5,test:nyt.tail1000,file1:../nyt.3e7.500000,timbl1:-a1 +D,lc1:2,n:3,ds:511,mo:1
/exp/pberck/wopr/wopr -s do_pdt2.wopr_script -p file0:../nyt.3e7.10000,lc0:16,id:PDTT30328,timbl0:-a1 +D,dl:5,test:nyt.tail1000,file1:../nyt.3e7.500000,timbl1:-a1 +D,lc1:2,n:3,ds:521,mo:1
/exp/pberck/wopr/wopr -s do_pdt2.wopr_script -p file0:../nyt.3e7.10000,lc0:16,id:PDTT30329,timbl0:-a1 +D,dl:5,test:nyt.tail1000,file1:../nyt.3e7.500000,timbl1:-a1 +D,lc1:2,n:3,ds:551,mo:1
/exp/pberck/wopr/wopr -s do_pdt2.wopr_script -p file0:../nyt.3e7.10000,lc0:2,id:PDTT30330,timbl0:-a4 +D,dl:5,test:nyt.tail1000,file1:../nyt.3e7.500000,timbl1:-a1 +D,lc1:2,n:3,ds:211,mo:1
/exp/pberck/wopr/wopr -s do_pdt2.wopr_script -p file0:../nyt.3e7.10000,lc0:2,id:PDTT30331,timbl0:-a4 +D,dl:5,test:nyt.tail1000,file1:../nyt.3e7.500000,timbl1:-a1 +D,lc1:2,n:3,ds:221,mo:1
/exp/pberck/wopr/wopr -s do_pdt2.wopr_script -p file0:../nyt.3e7.10000,lc0:2,id:PDTT30332,timbl0:-a4 +D,dl:5,test:nyt.tail1000,file1:../nyt.3e7.500000,timbl1:-a1 +D,lc1:2,n:3,ds:511,mo:1
/exp/pberck/wopr/wopr -s do_pdt2.wopr_script -p file0:../nyt.3e7.10000,lc0:2,id:PDTT30333,timbl0:-a4 +D,dl:5,test:nyt.tail1000,file1:../nyt.3e7.500000,timbl1:-a1 +D,lc1:2,n:3,ds:521,mo:1
/exp/pberck/wopr/wopr -s do_pdt2.wopr_script -p file0:../nyt.3e7.10000,lc0:2,id:PDTT30334,timbl0:-a4 +D,dl:5,test:nyt.tail1000,file1:../nyt.3e7.500000,timbl1:-a1 +D,lc1:2,n:3,ds:551,mo:1
/exp/pberck/wopr/wopr -s do_pdt2.wopr_script -p file0:../nyt.3e7.10000,lc0:3,id:PDTT30335,timbl0:-a4 +D,dl:5,test:nyt.tail1000,file1:../nyt.3e7.500000,timbl1:-a1 +D,lc1:2,n:3,ds:211,mo:1
/exp/pberck/wopr/wopr -s do_pdt2.wopr_script -p file0:../nyt.3e7.10000,lc0:3,id:PDTT30336,timbl0:-a4 +D,dl:5,test:nyt.tail1000,file1:../nyt.3e7.500000,timbl1:-a1 +D,lc1:2,n:3,ds:221,mo:1
/exp/pberck/wopr/wopr -s do_pdt2.wopr_script -p file0:../nyt.3e7.10000,lc0:3,id:PDTT30337,timbl0:-a4 +D,dl:5,test:nyt.tail1000,file1:../nyt.3e7.500000,timbl1:-a1 +D,lc1:2,n:3,ds:511,mo:1
/exp/pberck/wopr/wopr -s do_pdt2.wopr_script -p file0:../nyt.3e7.10000,lc0:3,id:PDTT30338,timbl0:-a4 +D,dl:5,test:nyt.tail1000,file1:../nyt.3e7.500000,timbl1:-a1 +D,lc1:2,n:3,ds:521,mo:1
/exp/pberck/wopr/wopr -s do_pdt2.wopr_script -p file0:../nyt.3e7.10000,lc0:3,id:PDTT30339,timbl0:-a4 +D,dl:5,test:nyt.tail1000,file1:../nyt.3e7.500000,timbl1:-a1 +D,lc1:2,n:3,ds:551,mo:1
/exp/pberck/wopr/wopr -s do_pdt2.wopr_script -p file0:../nyt.3e7.10000,lc0:4,id:PDTT30340,timbl0:-a4 +D,dl:5,test:nyt.tail1000,file1:../nyt.3e7.500000,timbl1:-a1 +D,lc1:2,n:3,ds:211,mo:1
/exp/pberck/wopr/wopr -s do_pdt2.wopr_script -p file0:../nyt.3e7.10000,lc0:4,id:PDTT30341,timbl0:-a4 +D,dl:5,test:nyt.tail1000,file1:../nyt.3e7.500000,timbl1:-a1 +D,lc1:2,n:3,ds:221,mo:1
/exp/pberck/wopr/wopr -s do_pdt2.wopr_script -p file0:../nyt.3e7.10000,lc0:4,id:PDTT30342,timbl0:-a4 +D,dl:5,test:nyt.tail1000,file1:../nyt.3e7.500000,timbl1:-a1 +D,lc1:2,n:3,ds:511,mo:1
/exp/pberck/wopr/wopr -s do_pdt2.wopr_script -p file0:../nyt.3e7.10000,lc0:4,id:PDTT30343,timbl0:-a4 +D,dl:5,test:nyt.tail1000,file1:../nyt.3e7.500000,timbl1:-a1 +D,lc1:2,n:3,ds:521,mo:1
/exp/pberck/wopr/wopr -s do_pdt2.wopr_script -p file0:../nyt.3e7.10000,lc0:4,id:PDTT30344,timbl0:-a4 +D,dl:5,test:nyt.tail1000,file1:../nyt.3e7.500000,timbl1:-a1 +D,lc1:2,n:3,ds:551,mo:1
/exp/pberck/wopr/wopr -s do_pdt2.wopr_script -p file0:../nyt.3e7.10000,lc0:8,id:PDTT30345,timbl0:-a4 +D,dl:5,test:nyt.tail1000,file1:../nyt.3e7.500000,timbl1:-a1 +D,lc1:2,n:3,ds:211,mo:1
/exp/pberck/wopr/wopr -s do_pdt2.wopr_script -p file0:../nyt.3e7.10000,lc0:8,id:PDTT30346,timbl0:-a4 +D,dl:5,test:nyt.tail1000,file1:../nyt.3e7.500000,timbl1:-a1 +D,lc1:2,n:3,ds:221,mo:1
/exp/pberck/wopr/wopr -s do_pdt2.wopr_script -p file0:../nyt.3e7.10000,lc0:8,id:PDTT30347,timbl0:-a4 +D,dl:5,test:nyt.tail1000,file1:../nyt.3e7.500000,timbl1:-a1 +D,lc1:2,n:3,ds:511,mo:1
/exp/pberck/wopr/wopr -s do_pdt2.wopr_script -p file0:../nyt.3e7.10000,lc0:8,id:PDTT30348,timbl0:-a4 +D,dl:5,test:nyt.tail1000,file1:../nyt.3e7.500000,timbl1:-a1 +D,lc1:2,n:3,ds:521,mo:1
/exp/pberck/wopr/wopr -s do_pdt2.wopr_script -p file0:../nyt.3e7.10000,lc0:8,id:PDTT30349,timbl0:-a4 +D,dl:5,test:nyt.tail1000,file1:../nyt.3e7.500000,timbl1:-a1 +D,lc1:2,n:3,ds:551,mo:1
/exp/pberck/wopr/wopr -s do_pdt2.wopr_script -p file0:../nyt.3e7.10000,lc0:12,id:PDTT30350,timbl0:-a4 +D,dl:5,test:nyt.tail1000,file1:../nyt.3e7.500000,timbl1:-a1 +D,lc1:2,n:3,ds:211,mo:1
/exp/pberck/wopr/wopr -s do_pdt2.wopr_script -p file0:../nyt.3e7.10000,lc0:12,id:PDTT30351,timbl0:-a4 +D,dl:5,test:nyt.tail1000,file1:../nyt.3e7.500000,timbl1:-a1 +D,lc1:2,n:3,ds:221,mo:1
/exp/pberck/wopr/wopr -s do_pdt2.wopr_script -p file0:../nyt.3e7.10000,lc0:12,id:PDTT30352,timbl0:-a4 +D,dl:5,test:nyt.tail1000,file1:../nyt.3e7.500000,timbl1:-a1 +D,lc1:2,n:3,ds:511,mo:1
/exp/pberck/wopr/wopr -s do_pdt2.wopr_script -p file0:../nyt.3e7.10000,lc0:12,id:PDTT30353,timbl0:-a4 +D,dl:5,test:nyt.tail1000,file1:../nyt.3e7.500000,timbl1:-a1 +D,lc1:2,n:3,ds:521,mo:1
/exp/pberck/wopr/wopr -s do_pdt2.wopr_script -p file0:../nyt.3e7.10000,lc0:12,id:PDTT30354,timbl0:-a4 +D,dl:5,test:nyt.tail1000,file1:../nyt.3e7.500000,timbl1:-a1 +D,lc1:2,n:3,ds:551,mo:1
/exp/pberck/wopr/wopr -s do_pdt2.wopr_script -p file0:../nyt.3e7.10000,lc0:16,id:PDTT30355,timbl0:-a4 +D,dl:5,test:nyt.tail1000,file1:../nyt.3e7.500000,timbl1:-a1 +D,lc1:2,n:3,ds:211,mo:1
/exp/pberck/wopr/wopr -s do_pdt2.wopr_script -p file0:../nyt.3e7.10000,lc0:16,id:PDTT30356,timbl0:-a4 +D,dl:5,test:nyt.tail1000,file1:../nyt.3e7.500000,timbl1:-a1 +D,lc1:2,n:3,ds:221,mo:1
/exp/pberck/wopr/wopr -s do_pdt2.wopr_script -p file0:../nyt.3e7.10000,lc0:16,id:PDTT30357,timbl0:-a4 +D,dl:5,test:nyt.tail1000,file1:../nyt.3e7.500000,timbl1:-a1 +D,lc1:2,n:3,ds:511,mo:1
/exp/pberck/wopr/wopr -s do_pdt2.wopr_script -p file0:../nyt.3e7.10000,lc0:16,id:PDTT30358,timbl0:-a4 +D,dl:5,test:nyt.tail1000,file1:../nyt.3e7.500000,timbl1:-a1 +D,lc1:2,n:3,ds:521,mo:1
/exp/pberck/wopr/wopr -s do_pdt2.wopr_script -p file0:../nyt.3e7.10000,lc0:16,id:PDTT30359,timbl0:-a4 +D,dl:5,test:nyt.tail1000,file1:../nyt.3e7.500000,timbl1:-a1 +D,lc1:2,n:3,ds:551,mo:1
/exp/pberck/wopr/wopr -s do_pdt2.wopr_script -p file0:../nyt.3e7.10000,lc0:2,id:PDTT30360,timbl0:-a1 +D,dl:5,test:nyt.tail1000,file1:../nyt.3e7.1000000,timbl1:-a1 +D,lc1:2,n:3,ds:211,mo:1
/exp/pberck/wopr/wopr -s do_pdt2.wopr_script -p file0:../nyt.3e7.10000,lc0:2,id:PDTT30361,timbl0:-a1 +D,dl:5,test:nyt.tail1000,file1:../nyt.3e7.1000000,timbl1:-a1 +D,lc1:2,n:3,ds:221,mo:1
/exp/pberck/wopr/wopr -s do_pdt2.wopr_script -p file0:../nyt.3e7.10000,lc0:2,id:PDTT30362,timbl0:-a1 +D,dl:5,test:nyt.tail1000,file1:../nyt.3e7.1000000,timbl1:-a1 +D,lc1:2,n:3,ds:511,mo:1
/exp/pberck/wopr/wopr -s do_pdt2.wopr_script -p file0:../nyt.3e7.10000,lc0:2,id:PDTT30363,timbl0:-a1 +D,dl:5,test:nyt.tail1000,file1:../nyt.3e7.1000000,timbl1:-a1 +D,lc1:2,n:3,ds:521,mo:1
/exp/pberck/wopr/wopr -s do_pdt2.wopr_script -p file0:../nyt.3e7.10000,lc0:2,id:PDTT30364,timbl0:-a1 +D,dl:5,test:nyt.tail1000,file1:../nyt.3e7.1000000,timbl1:-a1 +D,lc1:2,n:3,ds:551,mo:1
/exp/pberck/wopr/wopr -s do_pdt2.wopr_script -p file0:../nyt.3e7.10000,lc0:3,id:PDTT30365,timbl0:-a1 +D,dl:5,test:nyt.tail1000,file1:../nyt.3e7.1000000,timbl1:-a1 +D,lc1:2,n:3,ds:211,mo:1
/exp/pberck/wopr/wopr -s do_pdt2.wopr_script -p file0:../nyt.3e7.10000,lc0:3,id:PDTT30366,timbl0:-a1 +D,dl:5,test:nyt.tail1000,file1:../nyt.3e7.1000000,timbl1:-a1 +D,lc1:2,n:3,ds:221,mo:1
/exp/pberck/wopr/wopr -s do_pdt2.wopr_script -p file0:../nyt.3e7.10000,lc0:3,id:PDTT30367,timbl0:-a1 +D,dl:5,test:nyt.tail1000,file1:../nyt.3e7.1000000,timbl1:-a1 +D,lc1:2,n:3,ds:511,mo:1
/exp/pberck/wopr/wopr -s do_pdt2.wopr_script -p file0:../nyt.3e7.10000,lc0:3,id:PDTT30368,timbl0:-a1 +D,dl:5,test:nyt.tail1000,file1:../nyt.3e7.1000000,timbl1:-a1 +D,lc1:2,n:3,ds:521,mo:1
/exp/pberck/wopr/wopr -s do_pdt2.wopr_script -p file0:../nyt.3e7.10000,lc0:3,id:PDTT30369,timbl0:-a1 +D,dl:5,test:nyt.tail1000,file1:../nyt.3e7.1000000,timbl1:-a1 +D,lc1:2,n:3,ds:551,mo:1
/exp/pberck/wopr/wopr -s do_pdt2.wopr_script -p file0:../nyt.3e7.10000,lc0:4,id:PDTT30370,timbl0:-a1 +D,dl:5,test:nyt.tail1000,file1:../nyt.3e7.1000000,timbl1:-a1 +D,lc1:2,n:3,ds:211,mo:1
/exp/pberck/wopr/wopr -s do_pdt2.wopr_script -p file0:../nyt.3e7.10000,lc0:4,id:PDTT30371,timbl0:-a1 +D,dl:5,test:nyt.tail1000,file1:../nyt.3e7.1000000,timbl1:-a1 +D,lc1:2,n:3,ds:221,mo:1
/exp/pberck/wopr/wopr -s do_pdt2.wopr_script -p file0:../nyt.3e7.10000,lc0:4,id:PDTT30372,timbl0:-a1 +D,dl:5,test:nyt.tail1000,file1:../nyt.3e7.1000000,timbl1:-a1 +D,lc1:2,n:3,ds:511,mo:1
/exp/pberck/wopr/wopr -s do_pdt2.wopr_script -p file0:../nyt.3e7.10000,lc0:4,id:PDTT30373,timbl0:-a1 +D,dl:5,test:nyt.tail1000,file1:../nyt.3e7.1000000,timbl1:-a1 +D,lc1:2,n:3,ds:521,mo:1
/exp/pberck/wopr/wopr -s do_pdt2.wopr_script -p file0:../nyt.3e7.10000,lc0:4,id:PDTT30374,timbl0:-a1 +D,dl:5,test:nyt.tail1000,file1:../nyt.3e7.1000000,timbl1:-a1 +D,lc1:2,n:3,ds:551,mo:1
/exp/pberck/wopr/wopr -s do_pdt2.wopr_script -p file0:../nyt.3e7.10000,lc0:8,id:PDTT30375,timbl0:-a1 +D,dl:5,test:nyt.tail1000,file1:../nyt.3e7.1000000,timbl1:-a1 +D,lc1:2,n:3,ds:211,mo:1
/exp/pberck/wopr/wopr -s do_pdt2.wopr_script -p file0:../nyt.3e7.10000,lc0:8,id:PDTT30376,timbl0:-a1 +D,dl:5,test:nyt.tail1000,file1:../nyt.3e7.1000000,timbl1:-a1 +D,lc1:2,n:3,ds:221,mo:1
/exp/pberck/wopr/wopr -s do_pdt2.wopr_script -p file0:../nyt.3e7.10000,lc0:8,id:PDTT30377,timbl0:-a1 +D,dl:5,test:nyt.tail1000,file1:../nyt.3e7.1000000,timbl1:-a1 +D,lc1:2,n:3,ds:511,mo:1
/exp/pberck/wopr/wopr -s do_pdt2.wopr_script -p file0:../nyt.3e7.10000,lc0:8,id:PDTT30378,timbl0:-a1 +D,dl:5,test:nyt.tail1000,file1:../nyt.3e7.1000000,timbl1:-a1 +D,lc1:2,n:3,ds:521,mo:1
/exp/pberck/wopr/wopr -s do_pdt2.wopr_script -p file0:../nyt.3e7.10000,lc0:8,id:PDTT30379,timbl0:-a1 +D,dl:5,test:nyt.tail1000,file1:../nyt.3e7.1000000,timbl1:-a1 +D,lc1:2,n:3,ds:551,mo:1
/exp/pberck/wopr/wopr -s do_pdt2.wopr_script -p file0:../nyt.3e7.10000,lc0:12,id:PDTT30380,timbl0:-a1 +D,dl:5,test:nyt.tail1000,file1:../nyt.3e7.1000000,timbl1:-a1 +D,lc1:2,n:3,ds:211,mo:1
/exp/pberck/wopr/wopr -s do_pdt2.wopr_script -p file0:../nyt.3e7.10000,lc0:12,id:PDTT30381,timbl0:-a1 +D,dl:5,test:nyt.tail1000,file1:../nyt.3e7.1000000,timbl1:-a1 +D,lc1:2,n:3,ds:221,mo:1
/exp/pberck/wopr/wopr -s do_pdt2.wopr_script -p file0:../nyt.3e7.10000,lc0:12,id:PDTT30382,timbl0:-a1 +D,dl:5,test:nyt.tail1000,file1:../nyt.3e7.1000000,timbl1:-a1 +D,lc1:2,n:3,ds:511,mo:1
/exp/pberck/wopr/wopr -s do_pdt2.wopr_script -p file0:../nyt.3e7.10000,lc0:12,id:PDTT30383,timbl0:-a1 +D,dl:5,test:nyt.tail1000,file1:../nyt.3e7.1000000,timbl1:-a1 +D,lc1:2,n:3,ds:521,mo:1
/exp/pberck/wopr/wopr -s do_pdt2.wopr_script -p file0:../nyt.3e7.10000,lc0:12,id:PDTT30384,timbl0:-a1 +D,dl:5,test:nyt.tail1000,file1:../nyt.3e7.1000000,timbl1:-a1 +D,lc1:2,n:3,ds:551,mo:1
/exp/pberck/wopr/wopr -s do_pdt2.wopr_script -p file0:../nyt.3e7.10000,lc0:16,id:PDTT30385,timbl0:-a1 +D,dl:5,test:nyt.tail1000,file1:../nyt.3e7.1000000,timbl1:-a1 +D,lc1:2,n:3,ds:211,mo:1
/exp/pberck/wopr/wopr -s do_pdt2.wopr_script -p file0:../nyt.3e7.10000,lc0:16,id:PDTT30386,timbl0:-a1 +D,dl:5,test:nyt.tail1000,file1:../nyt.3e7.1000000,timbl1:-a1 +D,lc1:2,n:3,ds:221,mo:1
/exp/pberck/wopr/wopr -s do_pdt2.wopr_script -p file0:../nyt.3e7.10000,lc0:16,id:PDTT30387,timbl0:-a1 +D,dl:5,test:nyt.tail1000,file1:../nyt.3e7.1000000,timbl1:-a1 +D,lc1:2,n:3,ds:511,mo:1
/exp/pberck/wopr/wopr -s do_pdt2.wopr_script -p file0:../nyt.3e7.10000,lc0:16,id:PDTT30388,timbl0:-a1 +D,dl:5,test:nyt.tail1000,file1:../nyt.3e7.1000000,timbl1:-a1 +D,lc1:2,n:3,ds:521,mo:1
/exp/pberck/wopr/wopr -s do_pdt2.wopr_script -p file0:../nyt.3e7.10000,lc0:16,id:PDTT30389,timbl0:-a1 +D,dl:5,test:nyt.tail1000,file1:../nyt.3e7.1000000,timbl1:-a1 +D,lc1:2,n:3,ds:551,mo:1
/exp/pberck/wopr/wopr -s do_pdt2.wopr_script -p file0:../nyt.3e7.10000,lc0:2,id:PDTT30390,timbl0:-a4 +D,dl:5,test:nyt.tail1000,file1:../nyt.3e7.1000000,timbl1:-a1 +D,lc1:2,n:3,ds:211,mo:1
/exp/pberck/wopr/wopr -s do_pdt2.wopr_script -p file0:../nyt.3e7.10000,lc0:2,id:PDTT30391,timbl0:-a4 +D,dl:5,test:nyt.tail1000,file1:../nyt.3e7.1000000,timbl1:-a1 +D,lc1:2,n:3,ds:221,mo:1
/exp/pberck/wopr/wopr -s do_pdt2.wopr_script -p file0:../nyt.3e7.10000,lc0:2,id:PDTT30392,timbl0:-a4 +D,dl:5,test:nyt.tail1000,file1:../nyt.3e7.1000000,timbl1:-a1 +D,lc1:2,n:3,ds:511,mo:1
/exp/pberck/wopr/wopr -s do_pdt2.wopr_script -p file0:../nyt.3e7.10000,lc0:2,id:PDTT30393,timbl0:-a4 +D,dl:5,test:nyt.tail1000,file1:../nyt.3e7.1000000,timbl1:-a1 +D,lc1:2,n:3,ds:521,mo:1
/exp/pberck/wopr/wopr -s do_pdt2.wopr_script -p file0:../nyt.3e7.10000,lc0:2,id:PDTT30394,timbl0:-a4 +D,dl:5,test:nyt.tail1000,file1:../nyt.3e7.1000000,timbl1:-a1 +D,lc1:2,n:3,ds:551,mo:1
/exp/pberck/wopr/wopr -s do_pdt2.wopr_script -p file0:../nyt.3e7.10000,lc0:3,id:PDTT30395,timbl0:-a4 +D,dl:5,test:nyt.tail1000,file1:../nyt.3e7.1000000,timbl1:-a1 +D,lc1:2,n:3,ds:211,mo:1
/exp/pberck/wopr/wopr -s do_pdt2.wopr_script -p file0:../nyt.3e7.10000,lc0:3,id:PDTT30396,timbl0:-a4 +D,dl:5,test:nyt.tail1000,file1:../nyt.3e7.1000000,timbl1:-a1 +D,lc1:2,n:3,ds:221,mo:1
/exp/pberck/wopr/wopr -s do_pdt2.wopr_script -p file0:../nyt.3e7.10000,lc0:3,id:PDTT30397,timbl0:-a4 +D,dl:5,test:nyt.tail1000,file1:../nyt.3e7.1000000,timbl1:-a1 +D,lc1:2,n:3,ds:511,mo:1
/exp/pberck/wopr/wopr -s do_pdt2.wopr_script -p file0:../nyt.3e7.10000,lc0:3,id:PDTT30398,timbl0:-a4 +D,dl:5,test:nyt.tail1000,file1:../nyt.3e7.1000000,timbl1:-a1 +D,lc1:2,n:3,ds:521,mo:1
/exp/pberck/wopr/wopr -s do_pdt2.wopr_script -p file0:../nyt.3e7.10000,lc0:3,id:PDTT30399,timbl0:-a4 +D,dl:5,test:nyt.tail1000,file1:../nyt.3e7.1000000,timbl1:-a1 +D,lc1:2,n:3,ds:551,mo:1
/exp/pberck/wopr/wopr -s do_pdt2.wopr_script -p file0:../nyt.3e7.10000,lc0:4,id:PDTT30400,timbl0:-a4 +D,dl:5,test:nyt.tail1000,file1:../nyt.3e7.1000000,timbl1:-a1 +D,lc1:2,n:3,ds:211,mo:1
/exp/pberck/wopr/wopr -s do_pdt2.wopr_script -p file0:../nyt.3e7.10000,lc0:4,id:PDTT30401,timbl0:-a4 +D,dl:5,test:nyt.tail1000,file1:../nyt.3e7.1000000,timbl1:-a1 +D,lc1:2,n:3,ds:221,mo:1
/exp/pberck/wopr/wopr -s do_pdt2.wopr_script -p file0:../nyt.3e7.10000,lc0:4,id:PDTT30402,timbl0:-a4 +D,dl:5,test:nyt.tail1000,file1:../nyt.3e7.1000000,timbl1:-a1 +D,lc1:2,n:3,ds:511,mo:1
/exp/pberck/wopr/wopr -s do_pdt2.wopr_script -p file0:../nyt.3e7.10000,lc0:4,id:PDTT30403,timbl0:-a4 +D,dl:5,test:nyt.tail1000,file1:../nyt.3e7.1000000,timbl1:-a1 +D,lc1:2,n:3,ds:521,mo:1
/exp/pberck/wopr/wopr -s do_pdt2.wopr_script -p file0:../nyt.3e7.10000,lc0:4,id:PDTT30404,timbl0:-a4 +D,dl:5,test:nyt.tail1000,file1:../nyt.3e7.1000000,timbl1:-a1 +D,lc1:2,n:3,ds:551,mo:1
/exp/pberck/wopr/wopr -s do_pdt2.wopr_script -p file0:../nyt.3e7.10000,lc0:8,id:PDTT30405,timbl0:-a4 +D,dl:5,test:nyt.tail1000,file1:../nyt.3e7.1000000,timbl1:-a1 +D,lc1:2,n:3,ds:211,mo:1
/exp/pberck/wopr/wopr -s do_pdt2.wopr_script -p file0:../nyt.3e7.10000,lc0:8,id:PDTT30406,timbl0:-a4 +D,dl:5,test:nyt.tail1000,file1:../nyt.3e7.1000000,timbl1:-a1 +D,lc1:2,n:3,ds:221,mo:1
/exp/pberck/wopr/wopr -s do_pdt2.wopr_script -p file0:../nyt.3e7.10000,lc0:8,id:PDTT30407,timbl0:-a4 +D,dl:5,test:nyt.tail1000,file1:../nyt.3e7.1000000,timbl1:-a1 +D,lc1:2,n:3,ds:511,mo:1
/exp/pberck/wopr/wopr -s do_pdt2.wopr_script -p file0:../nyt.3e7.10000,lc0:8,id:PDTT30408,timbl0:-a4 +D,dl:5,test:nyt.tail1000,file1:../nyt.3e7.1000000,timbl1:-a1 +D,lc1:2,n:3,ds:521,mo:1
/exp/pberck/wopr/wopr -s do_pdt2.wopr_script -p file0:../nyt.3e7.10000,lc0:8,id:PDTT30409,timbl0:-a4 +D,dl:5,test:nyt.tail1000,file1:../nyt.3e7.1000000,timbl1:-a1 +D,lc1:2,n:3,ds:551,mo:1
/exp/pberck/wopr/wopr -s do_pdt2.wopr_script -p file0:../nyt.3e7.10000,lc0:12,id:PDTT30410,timbl0:-a4 +D,dl:5,test:nyt.tail1000,file1:../nyt.3e7.1000000,timbl1:-a1 +D,lc1:2,n:3,ds:211,mo:1
/exp/pberck/wopr/wopr -s do_pdt2.wopr_script -p file0:../nyt.3e7.10000,lc0:12,id:PDTT30411,timbl0:-a4 +D,dl:5,test:nyt.tail1000,file1:../nyt.3e7.1000000,timbl1:-a1 +D,lc1:2,n:3,ds:221,mo:1
/exp/pberck/wopr/wopr -s do_pdt2.wopr_script -p file0:../nyt.3e7.10000,lc0:12,id:PDTT30412,timbl0:-a4 +D,dl:5,test:nyt.tail1000,file1:../nyt.3e7.1000000,timbl1:-a1 +D,lc1:2,n:3,ds:511,mo:1
/exp/pberck/wopr/wopr -s do_pdt2.wopr_script -p file0:../nyt.3e7.10000,lc0:12,id:PDTT30413,timbl0:-a4 +D,dl:5,test:nyt.tail1000,file1:../nyt.3e7.1000000,timbl1:-a1 +D,lc1:2,n:3,ds:521,mo:1
/exp/pberck/wopr/wopr -s do_pdt2.wopr_script -p file0:../nyt.3e7.10000,lc0:12,id:PDTT30414,timbl0:-a4 +D,dl:5,test:nyt.tail1000,file1:../nyt.3e7.1000000,timbl1:-a1 +D,lc1:2,n:3,ds:551,mo:1
/exp/pberck/wopr/wopr -s do_pdt2.wopr_script -p file0:../nyt.3e7.10000,lc0:16,id:PDTT30415,timbl0:-a4 +D,dl:5,test:nyt.tail1000,file1:../nyt.3e7.1000000,timbl1:-a1 +D,lc1:2,n:3,ds:211,mo:1
#2012-01-09 10:31:51
/exp/pberck/wopr/wopr -s do_pdt2.wopr_script -p file0:../nyt.3e7.10000,lc0:16,id:PDTT30415,timbl0:-a4 +D,dl:5,test:nyt.tail1000,file1:../nyt.3e7.1000000,timbl1:-a1 +D,lc1:2,n:3,ds:211,mo:1
/exp/pberck/wopr/wopr -s do_pdt2.wopr_script -p file0:../nyt.3e7.10000,lc0:16,id:PDTT30416,timbl0:-a4 +D,dl:5,test:nyt.tail1000,file1:../nyt.3e7.1000000,timbl1:-a1 +D,lc1:2,n:3,ds:221,mo:1
/exp/pberck/wopr/wopr -s do_pdt2.wopr_script -p file0:../nyt.3e7.10000,lc0:16,id:PDTT30417,timbl0:-a4 +D,dl:5,test:nyt.tail1000,file1:../nyt.3e7.1000000,timbl1:-a1 +D,lc1:2,n:3,ds:511,mo:1
/exp/pberck/wopr/wopr -s do_pdt2.wopr_script -p file0:../nyt.3e7.10000,lc0:16,id:PDTT30418,timbl0:-a4 +D,dl:5,test:nyt.tail1000,file1:../nyt.3e7.1000000,timbl1:-a1 +D,lc1:2,n:3,ds:521,mo:1
/exp/pberck/wopr/wopr -s do_pdt2.wopr_script -p file0:../nyt.3e7.10000,lc0:16,id:PDTT30419,timbl0:-a4 +D,dl:5,test:nyt.tail1000,file1:../nyt.3e7.1000000,timbl1:-a1 +D,lc1:2,n:3,ds:551,mo:1
/exp/pberck/wopr/wopr -s do_pdt2.wopr_script -p file0:../nyt.3e7.10000,lc0:2,id:PDTT30420,timbl0:-a1 +D,dl:5,test:nyt.tail1000,file1:../nyt.3e7.5000000,timbl1:-a1 +D,lc1:2,n:3,ds:211,mo:1
/exp/pberck/wopr/wopr -s do_pdt2.wopr_script -p file0:../nyt.3e7.10000,lc0:2,id:PDTT30421,timbl0:-a1 +D,dl:5,test:nyt.tail1000,file1:../nyt.3e7.5000000,timbl1:-a1 +D,lc1:2,n:3,ds:221,mo:1
/exp/pberck/wopr/wopr -s do_pdt2.wopr_script -p file0:../nyt.3e7.10000,lc0:2,id:PDTT30422,timbl0:-a1 +D,dl:5,test:nyt.tail1000,file1:../nyt.3e7.5000000,timbl1:-a1 +D,lc1:2,n:3,ds:511,mo:1
/exp/pberck/wopr/wopr -s do_pdt2.wopr_script -p file0:../nyt.3e7.10000,lc0:2,id:PDTT30423,timbl0:-a1 +D,dl:5,test:nyt.tail1000,file1:../nyt.3e7.5000000,timbl1:-a1 +D,lc1:2,n:3,ds:521,mo:1
/exp/pberck/wopr/wopr -s do_pdt2.wopr_script -p file0:../nyt.3e7.10000,lc0:2,id:PDTT30424,timbl0:-a1 +D,dl:5,test:nyt.tail1000,file1:../nyt.3e7.5000000,timbl1:-a1 +D,lc1:2,n:3,ds:551,mo:1
/exp/pberck/wopr/wopr -s do_pdt2.wopr_script -p file0:../nyt.3e7.10000,lc0:3,id:PDTT30425,timbl0:-a1 +D,dl:5,test:nyt.tail1000,file1:../nyt.3e7.5000000,timbl1:-a1 +D,lc1:2,n:3,ds:211,mo:1
/exp/pberck/wopr/wopr -s do_pdt2.wopr_script -p file0:../nyt.3e7.10000,lc0:3,id:PDTT30426,timbl0:-a1 +D,dl:5,test:nyt.tail1000,file1:../nyt.3e7.5000000,timbl1:-a1 +D,lc1:2,n:3,ds:221,mo:1
/exp/pberck/wopr/wopr -s do_pdt2.wopr_script -p file0:../nyt.3e7.10000,lc0:3,id:PDTT30427,timbl0:-a1 +D,dl:5,test:nyt.tail1000,file1:../nyt.3e7.5000000,timbl1:-a1 +D,lc1:2,n:3,ds:511,mo:1
/exp/pberck/wopr/wopr -s do_pdt2.wopr_script -p file0:../nyt.3e7.10000,lc0:3,id:PDTT30428,timbl0:-a1 +D,dl:5,test:nyt.tail1000,file1:../nyt.3e7.5000000,timbl1:-a1 +D,lc1:2,n:3,ds:521,mo:1
/exp/pberck/wopr/wopr -s do_pdt2.wopr_script -p file0:../nyt.3e7.10000,lc0:3,id:PDTT30429,timbl0:-a1 +D,dl:5,test:nyt.tail1000,file1:../nyt.3e7.5000000,timbl1:-a1 +D,lc1:2,n:3,ds:551,mo:1
/exp/pberck/wopr/wopr -s do_pdt2.wopr_script -p file0:../nyt.3e7.10000,lc0:4,id:PDTT30430,timbl0:-a1 +D,dl:5,test:nyt.tail1000,file1:../nyt.3e7.5000000,timbl1:-a1 +D,lc1:2,n:3,ds:211,mo:1
/exp/pberck/wopr/wopr -s do_pdt2.wopr_script -p file0:../nyt.3e7.10000,lc0:4,id:PDTT30431,timbl0:-a1 +D,dl:5,test:nyt.tail1000,file1:../nyt.3e7.5000000,timbl1:-a1 +D,lc1:2,n:3,ds:221,mo:1
/exp/pberck/wopr/wopr -s do_pdt2.wopr_script -p file0:../nyt.3e7.10000,lc0:4,id:PDTT30432,timbl0:-a1 +D,dl:5,test:nyt.tail1000,file1:../nyt.3e7.5000000,timbl1:-a1 +D,lc1:2,n:3,ds:511,mo:1
/exp/pberck/wopr/wopr -s do_pdt2.wopr_script -p file0:../nyt.3e7.10000,lc0:4,id:PDTT30433,timbl0:-a1 +D,dl:5,test:nyt.tail1000,file1:../nyt.3e7.5000000,timbl1:-a1 +D,lc1:2,n:3,ds:521,mo:1
/exp/pberck/wopr/wopr -s do_pdt2.wopr_script -p file0:../nyt.3e7.10000,lc0:4,id:PDTT30434,timbl0:-a1 +D,dl:5,test:nyt.tail1000,file1:../nyt.3e7.5000000,timbl1:-a1 +D,lc1:2,n:3,ds:551,mo:1
/exp/pberck/wopr/wopr -s do_pdt2.wopr_script -p file0:../nyt.3e7.10000,lc0:8,id:PDTT30435,timbl0:-a1 +D,dl:5,test:nyt.tail1000,file1:../nyt.3e7.5000000,timbl1:-a1 +D,lc1:2,n:3,ds:211,mo:1
/exp/pberck/wopr/wopr -s do_pdt2.wopr_script -p file0:../nyt.3e7.10000,lc0:8,id:PDTT30436,timbl0:-a1 +D,dl:5,test:nyt.tail1000,file1:../nyt.3e7.5000000,timbl1:-a1 +D,lc1:2,n:3,ds:221,mo:1
/exp/pberck/wopr/wopr -s do_pdt2.wopr_script -p file0:../nyt.3e7.10000,lc0:8,id:PDTT30437,timbl0:-a1 +D,dl:5,test:nyt.tail1000,file1:../nyt.3e7.5000000,timbl1:-a1 +D,lc1:2,n:3,ds:511,mo:1
/exp/pberck/wopr/wopr -s do_pdt2.wopr_script -p file0:../nyt.3e7.10000,lc0:8,id:PDTT30438,timbl0:-a1 +D,dl:5,test:nyt.tail1000,file1:../nyt.3e7.5000000,timbl1:-a1 +D,lc1:2,n:3,ds:521,mo:1
/exp/pberck/wopr/wopr -s do_pdt2.wopr_script -p file0:../nyt.3e7.10000,lc0:8,id:PDTT30439,timbl0:-a1 +D,dl:5,test:nyt.tail1000,file1:../nyt.3e7.5000000,timbl1:-a1 +D,lc1:2,n:3,ds:551,mo:1
/exp/pberck/wopr/wopr -s do_pdt2.wopr_script -p file0:../nyt.3e7.10000,lc0:12,id:PDTT30440,timbl0:-a1 +D,dl:5,test:nyt.tail1000,file1:../nyt.3e7.5000000,timbl1:-a1 +D,lc1:2,n:3,ds:211,mo:1
/exp/pberck/wopr/wopr -s do_pdt2.wopr_script -p file0:../nyt.3e7.10000,lc0:12,id:PDTT30441,timbl0:-a1 +D,dl:5,test:nyt.tail1000,file1:../nyt.3e7.5000000,timbl1:-a1 +D,lc1:2,n:3,ds:221,mo:1
/exp/pberck/wopr/wopr -s do_pdt2.wopr_script -p file0:../nyt.3e7.10000,lc0:12,id:PDTT30442,timbl0:-a1 +D,dl:5,test:nyt.tail1000,file1:../nyt.3e7.5000000,timbl1:-a1 +D,lc1:2,n:3,ds:511,mo:1
/exp/pberck/wopr/wopr -s do_pdt2.wopr_script -p file0:../nyt.3e7.10000,lc0:12,id:PDTT30443,timbl0:-a1 +D,dl:5,test:nyt.tail1000,file1:../nyt.3e7.5000000,timbl1:-a1 +D,lc1:2,n:3,ds:521,mo:1
/exp/pberck/wopr/wopr -s do_pdt2.wopr_script -p file0:../nyt.3e7.10000,lc0:12,id:PDTT30444,timbl0:-a1 +D,dl:5,test:nyt.tail1000,file1:../nyt.3e7.5000000,timbl1:-a1 +D,lc1:2,n:3,ds:551,mo:1
/exp/pberck/wopr/wopr -s do_pdt2.wopr_script -p file0:../nyt.3e7.10000,lc0:16,id:PDTT30445,timbl0:-a1 +D,dl:5,test:nyt.tail1000,file1:../nyt.3e7.5000000,timbl1:-a1 +D,lc1:2,n:3,ds:211,mo:1
/exp/pberck/wopr/wopr -s do_pdt2.wopr_script -p file0:../nyt.3e7.10000,lc0:16,id:PDTT30446,timbl0:-a1 +D,dl:5,test:nyt.tail1000,file1:../nyt.3e7.5000000,timbl1:-a1 +D,lc1:2,n:3,ds:221,mo:1
/exp/pberck/wopr/wopr -s do_pdt2.wopr_script -p file0:../nyt.3e7.10000,lc0:16,id:PDTT30447,timbl0:-a1 +D,dl:5,test:nyt.tail1000,file1:../nyt.3e7.5000000,timbl1:-a1 +D,lc1:2,n:3,ds:511,mo:1
/exp/pberck/wopr/wopr -s do_pdt2.wopr_script -p file0:../nyt.3e7.10000,lc0:16,id:PDTT30448,timbl0:-a1 +D,dl:5,test:nyt.tail1000,file1:../nyt.3e7.5000000,timbl1:-a1 +D,lc1:2,n:3,ds:521,mo:1
/exp/pberck/wopr/wopr -s do_pdt2.wopr_script -p file0:../nyt.3e7.10000,lc0:16,id:PDTT30449,timbl0:-a1 +D,dl:5,test:nyt.tail1000,file1:../nyt.3e7.5000000,timbl1:-a1 +D,lc1:2,n:3,ds:551,mo:1
/exp/pberck/wopr/wopr -s do_pdt2.wopr_script -p file0:../nyt.3e7.10000,lc0:2,id:PDTT30450,timbl0:-a4 +D,dl:5,test:nyt.tail1000,file1:../nyt.3e7.5000000,timbl1:-a1 +D,lc1:2,n:3,ds:211,mo:1
/exp/pberck/wopr/wopr -s do_pdt2.wopr_script -p file0:../nyt.3e7.10000,lc0:2,id:PDTT30451,timbl0:-a4 +D,dl:5,test:nyt.tail1000,file1:../nyt.3e7.5000000,timbl1:-a1 +D,lc1:2,n:3,ds:221,mo:1
/exp/pberck/wopr/wopr -s do_pdt2.wopr_script -p file0:../nyt.3e7.10000,lc0:2,id:PDTT30452,timbl0:-a4 +D,dl:5,test:nyt.tail1000,file1:../nyt.3e7.5000000,timbl1:-a1 +D,lc1:2,n:3,ds:511,mo:1
/exp/pberck/wopr/wopr -s do_pdt2.wopr_script -p file0:../nyt.3e7.10000,lc0:2,id:PDTT30453,timbl0:-a4 +D,dl:5,test:nyt.tail1000,file1:../nyt.3e7.5000000,timbl1:-a1 +D,lc1:2,n:3,ds:521,mo:1
/exp/pberck/wopr/wopr -s do_pdt2.wopr_script -p file0:../nyt.3e7.10000,lc0:2,id:PDTT30454,timbl0:-a4 +D,dl:5,test:nyt.tail1000,file1:../nyt.3e7.5000000,timbl1:-a1 +D,lc1:2,n:3,ds:551,mo:1
/exp/pberck/wopr/wopr -s do_pdt2.wopr_script -p file0:../nyt.3e7.10000,lc0:3,id:PDTT30455,timbl0:-a4 +D,dl:5,test:nyt.tail1000,file1:../nyt.3e7.5000000,timbl1:-a1 +D,lc1:2,n:3,ds:211,mo:1
/exp/pberck/wopr/wopr -s do_pdt2.wopr_script -p file0:../nyt.3e7.10000,lc0:3,id:PDTT30456,timbl0:-a4 +D,dl:5,test:nyt.tail1000,file1:../nyt.3e7.5000000,timbl1:-a1 +D,lc1:2,n:3,ds:221,mo:1
/exp/pberck/wopr/wopr -s do_pdt2.wopr_script -p file0:../nyt.3e7.10000,lc0:3,id:PDTT30457,timbl0:-a4 +D,dl:5,test:nyt.tail1000,file1:../nyt.3e7.5000000,timbl1:-a1 +D,lc1:2,n:3,ds:511,mo:1
/exp/pberck/wopr/wopr -s do_pdt2.wopr_script -p file0:../nyt.3e7.10000,lc0:3,id:PDTT30458,timbl0:-a4 +D,dl:5,test:nyt.tail1000,file1:../nyt.3e7.5000000,timbl1:-a1 +D,lc1:2,n:3,ds:521,mo:1
/exp/pberck/wopr/wopr -s do_pdt2.wopr_script -p file0:../nyt.3e7.10000,lc0:3,id:PDTT30459,timbl0:-a4 +D,dl:5,test:nyt.tail1000,file1:../nyt.3e7.5000000,timbl1:-a1 +D,lc1:2,n:3,ds:551,mo:1
/exp/pberck/wopr/wopr -s do_pdt2.wopr_script -p file0:../nyt.3e7.10000,lc0:4,id:PDTT30460,timbl0:-a4 +D,dl:5,test:nyt.tail1000,file1:../nyt.3e7.5000000,timbl1:-a1 +D,lc1:2,n:3,ds:211,mo:1
/exp/pberck/wopr/wopr -s do_pdt2.wopr_script -p file0:../nyt.3e7.10000,lc0:4,id:PDTT30461,timbl0:-a4 +D,dl:5,test:nyt.tail1000,file1:../nyt.3e7.5000000,timbl1:-a1 +D,lc1:2,n:3,ds:221,mo:1
/exp/pberck/wopr/wopr -s do_pdt2.wopr_script -p file0:../nyt.3e7.10000,lc0:4,id:PDTT30462,timbl0:-a4 +D,dl:5,test:nyt.tail1000,file1:../nyt.3e7.5000000,timbl1:-a1 +D,lc1:2,n:3,ds:511,mo:1
/exp/pberck/wopr/wopr -s do_pdt2.wopr_script -p file0:../nyt.3e7.10000,lc0:4,id:PDTT30463,timbl0:-a4 +D,dl:5,test:nyt.tail1000,file1:../nyt.3e7.5000000,timbl1:-a1 +D,lc1:2,n:3,ds:521,mo:1
/exp/pberck/wopr/wopr -s do_pdt2.wopr_script -p file0:../nyt.3e7.10000,lc0:4,id:PDTT30464,timbl0:-a4 +D,dl:5,test:nyt.tail1000,file1:../nyt.3e7.5000000,timbl1:-a1 +D,lc1:2,n:3,ds:551,mo:1
/exp/pberck/wopr/wopr -s do_pdt2.wopr_script -p file0:../nyt.3e7.10000,lc0:8,id:PDTT30465,timbl0:-a4 +D,dl:5,test:nyt.tail1000,file1:../nyt.3e7.5000000,timbl1:-a1 +D,lc1:2,n:3,ds:211,mo:1
/exp/pberck/wopr/wopr -s do_pdt2.wopr_script -p file0:../nyt.3e7.10000,lc0:8,id:PDTT30466,timbl0:-a4 +D,dl:5,test:nyt.tail1000,file1:../nyt.3e7.5000000,timbl1:-a1 +D,lc1:2,n:3,ds:221,mo:1
/exp/pberck/wopr/wopr -s do_pdt2.wopr_script -p file0:../nyt.3e7.10000,lc0:8,id:PDTT30467,timbl0:-a4 +D,dl:5,test:nyt.tail1000,file1:../nyt.3e7.5000000,timbl1:-a1 +D,lc1:2,n:3,ds:511,mo:1
/exp/pberck/wopr/wopr -s do_pdt2.wopr_script -p file0:../nyt.3e7.10000,lc0:8,id:PDTT30468,timbl0:-a4 +D,dl:5,test:nyt.tail1000,file1:../nyt.3e7.5000000,timbl1:-a1 +D,lc1:2,n:3,ds:521,mo:1
/exp/pberck/wopr/wopr -s do_pdt2.wopr_script -p file0:../nyt.3e7.10000,lc0:8,id:PDTT30469,timbl0:-a4 +D,dl:5,test:nyt.tail1000,file1:../nyt.3e7.5000000,timbl1:-a1 +D,lc1:2,n:3,ds:551,mo:1
/exp/pberck/wopr/wopr -s do_pdt2.wopr_script -p file0:../nyt.3e7.10000,lc0:12,id:PDTT30470,timbl0:-a4 +D,dl:5,test:nyt.tail1000,file1:../nyt.3e7.5000000,timbl1:-a1 +D,lc1:2,n:3,ds:211,mo:1
/exp/pberck/wopr/wopr -s do_pdt2.wopr_script -p file0:../nyt.3e7.10000,lc0:12,id:PDTT30471,timbl0:-a4 +D,dl:5,test:nyt.tail1000,file1:../nyt.3e7.5000000,timbl1:-a1 +D,lc1:2,n:3,ds:221,mo:1
/exp/pberck/wopr/wopr -s do_pdt2.wopr_script -p file0:../nyt.3e7.10000,lc0:12,id:PDTT30472,timbl0:-a4 +D,dl:5,test:nyt.tail1000,file1:../nyt.3e7.5000000,timbl1:-a1 +D,lc1:2,n:3,ds:511,mo:1
/exp/pberck/wopr/wopr -s do_pdt2.wopr_script -p file0:../nyt.3e7.10000,lc0:12,id:PDTT30473,timbl0:-a4 +D,dl:5,test:nyt.tail1000,file1:../nyt.3e7.5000000,timbl1:-a1 +D,lc1:2,n:3,ds:521,mo:1
/exp/pberck/wopr/wopr -s do_pdt2.wopr_script -p file0:../nyt.3e7.10000,lc0:12,id:PDTT30474,timbl0:-a4 +D,dl:5,test:nyt.tail1000,file1:../nyt.3e7.5000000,timbl1:-a1 +D,lc1:2,n:3,ds:551,mo:1
/exp/pberck/wopr/wopr -s do_pdt2.wopr_script -p file0:../nyt.3e7.10000,lc0:16,id:PDTT30475,timbl0:-a4 +D,dl:5,test:nyt.tail1000,file1:../nyt.3e7.5000000,timbl1:-a1 +D,lc1:2,n:3,ds:211,mo:1
/exp/pberck/wopr/wopr -s do_pdt2.wopr_script -p file0:../nyt.3e7.10000,lc0:16,id:PDTT30476,timbl0:-a4 +D,dl:5,test:nyt.tail1000,file1:../nyt.3e7.5000000,timbl1:-a1 +D,lc1:2,n:3,ds:221,mo:1
/exp/pberck/wopr/wopr -s do_pdt2.wopr_script -p file0:../nyt.3e7.10000,lc0:16,id:PDTT30477,timbl0:-a4 +D,dl:5,test:nyt.tail1000,file1:../nyt.3e7.5000000,timbl1:-a1 +D,lc1:2,n:3,ds:511,mo:1
/exp/pberck/wopr/wopr -s do_pdt2.wopr_script -p file0:../nyt.3e7.10000,lc0:16,id:PDTT30478,timbl0:-a4 +D,dl:5,test:nyt.tail1000,file1:../nyt.3e7.5000000,timbl1:-a1 +D,lc1:2,n:3,ds:521,mo:1
/exp/pberck/wopr/wopr -s do_pdt2.wopr_script -p file0:../nyt.3e7.10000,lc0:16,id:PDTT30479,timbl0:-a4 +D,dl:5,test:nyt.tail1000,file1:../nyt.3e7.5000000,timbl1:-a1 +D,lc1:2,n:3,ds:551,mo:1
/exp/pberck/wopr/wopr -s do_pdt2.wopr_script -p file0:../nyt.3e7.10000,lc0:2,id:PDTT30480,timbl0:-a1 +D,dl:5,test:nyt.tail1000,file1:../nyt.3e7.10000000,timbl1:-a1 +D,lc1:2,n:3,ds:211,mo:1
/exp/pberck/wopr/wopr -s do_pdt2.wopr_script -p file0:../nyt.3e7.10000,lc0:2,id:PDTT30481,timbl0:-a1 +D,dl:5,test:nyt.tail1000,file1:../nyt.3e7.10000000,timbl1:-a1 +D,lc1:2,n:3,ds:221,mo:1
/exp/pberck/wopr/wopr -s do_pdt2.wopr_script -p file0:../nyt.3e7.10000,lc0:2,id:PDTT30482,timbl0:-a1 +D,dl:5,test:nyt.tail1000,file1:../nyt.3e7.10000000,timbl1:-a1 +D,lc1:2,n:3,ds:511,mo:1
/exp/pberck/wopr/wopr -s do_pdt2.wopr_script -p file0:../nyt.3e7.10000,lc0:2,id:PDTT30483,timbl0:-a1 +D,dl:5,test:nyt.tail1000,file1:../nyt.3e7.10000000,timbl1:-a1 +D,lc1:2,n:3,ds:521,mo:1
/exp/pberck/wopr/wopr -s do_pdt2.wopr_script -p file0:../nyt.3e7.10000,lc0:2,id:PDTT30484,timbl0:-a1 +D,dl:5,test:nyt.tail1000,file1:../nyt.3e7.10000000,timbl1:-a1 +D,lc1:2,n:3,ds:551,mo:1
/exp/pberck/wopr/wopr -s do_pdt2.wopr_script -p file0:../nyt.3e7.10000,lc0:3,id:PDTT30485,timbl0:-a1 +D,dl:5,test:nyt.tail1000,file1:../nyt.3e7.10000000,timbl1:-a1 +D,lc1:2,n:3,ds:211,mo:1
/exp/pberck/wopr/wopr -s do_pdt2.wopr_script -p file0:../nyt.3e7.10000,lc0:3,id:PDTT30486,timbl0:-a1 +D,dl:5,test:nyt.tail1000,file1:../nyt.3e7.10000000,timbl1:-a1 +D,lc1:2,n:3,ds:221,mo:1
/exp/pberck/wopr/wopr -s do_pdt2.wopr_script -p file0:../nyt.3e7.10000,lc0:3,id:PDTT30487,timbl0:-a1 +D,dl:5,test:nyt.tail1000,file1:../nyt.3e7.10000000,timbl1:-a1 +D,lc1:2,n:3,ds:511,mo:1
/exp/pberck/wopr/wopr -s do_pdt2.wopr_script -p file0:../nyt.3e7.10000,lc0:3,id:PDTT30488,timbl0:-a1 +D,dl:5,test:nyt.tail1000,file1:../nyt.3e7.10000000,timbl1:-a1 +D,lc1:2,n:3,ds:521,mo:1
/exp/pberck/wopr/wopr -s do_pdt2.wopr_script -p file0:../nyt.3e7.10000,lc0:3,id:PDTT30489,timbl0:-a1 +D,dl:5,test:nyt.tail1000,file1:../nyt.3e7.10000000,timbl1:-a1 +D,lc1:2,n:3,ds:551,mo:1
/exp/pberck/wopr/wopr -s do_pdt2.wopr_script -p file0:../nyt.3e7.10000,lc0:4,id:PDTT30490,timbl0:-a1 +D,dl:5,test:nyt.tail1000,file1:../nyt.3e7.10000000,timbl1:-a1 +D,lc1:2,n:3,ds:211,mo:1
/exp/pberck/wopr/wopr -s do_pdt2.wopr_script -p file0:../nyt.3e7.10000,lc0:4,id:PDTT30491,timbl0:-a1 +D,dl:5,test:nyt.tail1000,file1:../nyt.3e7.10000000,timbl1:-a1 +D,lc1:2,n:3,ds:221,mo:1
/exp/pberck/wopr/wopr -s do_pdt2.wopr_script -p file0:../nyt.3e7.10000,lc0:4,id:PDTT30492,timbl0:-a1 +D,dl:5,test:nyt.tail1000,file1:../nyt.3e7.10000000,timbl1:-a1 +D,lc1:2,n:3,ds:511,mo:1
/exp/pberck/wopr/wopr -s do_pdt2.wopr_script -p file0:../nyt.3e7.10000,lc0:4,id:PDTT30493,timbl0:-a1 +D,dl:5,test:nyt.tail1000,file1:../nyt.3e7.10000000,timbl1:-a1 +D,lc1:2,n:3,ds:521,mo:1
/exp/pberck/wopr/wopr -s do_pdt2.wopr_script -p file0:../nyt.3e7.10000,lc0:4,id:PDTT30494,timbl0:-a1 +D,dl:5,test:nyt.tail1000,file1:../nyt.3e7.10000000,timbl1:-a1 +D,lc1:2,n:3,ds:551,mo:1
/exp/pberck/wopr/wopr -s do_pdt2.wopr_script -p file0:../nyt.3e7.10000,lc0:8,id:PDTT30495,timbl0:-a1 +D,dl:5,test:nyt.tail1000,file1:../nyt.3e7.10000000,timbl1:-a1 +D,lc1:2,n:3,ds:211,mo:1
/exp/pberck/wopr/wopr -s do_pdt2.wopr_script -p file0:../nyt.3e7.10000,lc0:8,id:PDTT30496,timbl0:-a1 +D,dl:5,test:nyt.tail1000,file1:../nyt.3e7.10000000,timbl1:-a1 +D,lc1:2,n:3,ds:221,mo:1
/exp/pberck/wopr/wopr -s do_pdt2.wopr_script -p file0:../nyt.3e7.10000,lc0:8,id:PDTT30497,timbl0:-a1 +D,dl:5,test:nyt.tail1000,file1:../nyt.3e7.10000000,timbl1:-a1 +D,lc1:2,n:3,ds:511,mo:1
/exp/pberck/wopr/wopr -s do_pdt2.wopr_script -p file0:../nyt.3e7.10000,lc0:8,id:PDTT30498,timbl0:-a1 +D,dl:5,test:nyt.tail1000,file1:../nyt.3e7.10000000,timbl1:-a1 +D,lc1:2,n:3,ds:521,mo:1
/exp/pberck/wopr/wopr -s do_pdt2.wopr_script -p file0:../nyt.3e7.10000,lc0:8,id:PDTT30499,timbl0:-a1 +D,dl:5,test:nyt.tail1000,file1:../nyt.3e7.10000000,timbl1:-a1 +D,lc1:2,n:3,ds:551,mo:1
/exp/pberck/wopr/wopr -s do_pdt2.wopr_script -p file0:../nyt.3e7.10000,lc0:12,id:PDTT30500,timbl0:-a1 +D,dl:5,test:nyt.tail1000,file1:../nyt.3e7.10000000,timbl1:-a1 +D,lc1:2,n:3,ds:211,mo:1
/exp/pberck/wopr/wopr -s do_pdt2.wopr_script -p file0:../nyt.3e7.10000,lc0:12,id:PDTT30501,timbl0:-a1 +D,dl:5,test:nyt.tail1000,file1:../nyt.3e7.10000000,timbl1:-a1 +D,lc1:2,n:3,ds:221,mo:1
/exp/pberck/wopr/wopr -s do_pdt2.wopr_script -p file0:../nyt.3e7.10000,lc0:12,id:PDTT30502,timbl0:-a1 +D,dl:5,test:nyt.tail1000,file1:../nyt.3e7.10000000,timbl1:-a1 +D,lc1:2,n:3,ds:511,mo:1
/exp/pberck/wopr/wopr -s do_pdt2.wopr_script -p file0:../nyt.3e7.10000,lc0:12,id:PDTT30503,timbl0:-a1 +D,dl:5,test:nyt.tail1000,file1:../nyt.3e7.10000000,timbl1:-a1 +D,lc1:2,n:3,ds:521,mo:1
/exp/pberck/wopr/wopr -s do_pdt2.wopr_script -p file0:../nyt.3e7.10000,lc0:12,id:PDTT30504,timbl0:-a1 +D,dl:5,test:nyt.tail1000,file1:../nyt.3e7.10000000,timbl1:-a1 +D,lc1:2,n:3,ds:551,mo:1
/exp/pberck/wopr/wopr -s do_pdt2.wopr_script -p file0:../nyt.3e7.10000,lc0:16,id:PDTT30505,timbl0:-a1 +D,dl:5,test:nyt.tail1000,file1:../nyt.3e7.10000000,timbl1:-a1 +D,lc1:2,n:3,ds:211,mo:1
/exp/pberck/wopr/wopr -s do_pdt2.wopr_script -p file0:../nyt.3e7.10000,lc0:16,id:PDTT30506,timbl0:-a1 +D,dl:5,test:nyt.tail1000,file1:../nyt.3e7.10000000,timbl1:-a1 +D,lc1:2,n:3,ds:221,mo:1
/exp/pberck/wopr/wopr -s do_pdt2.wopr_script -p file0:../nyt.3e7.10000,lc0:16,id:PDTT30507,timbl0:-a1 +D,dl:5,test:nyt.tail1000,file1:../nyt.3e7.10000000,timbl1:-a1 +D,lc1:2,n:3,ds:511,mo:1
/exp/pberck/wopr/wopr -s do_pdt2.wopr_script -p file0:../nyt.3e7.10000,lc0:16,id:PDTT30508,timbl0:-a1 +D,dl:5,test:nyt.tail1000,file1:../nyt.3e7.10000000,timbl1:-a1 +D,lc1:2,n:3,ds:521,mo:1
/exp/pberck/wopr/wopr -s do_pdt2.wopr_script -p file0:../nyt.3e7.10000,lc0:16,id:PDTT30509,timbl0:-a1 +D,dl:5,test:nyt.tail1000,file1:../nyt.3e7.10000000,timbl1:-a1 +D,lc1:2,n:3,ds:551,mo:1
/exp/pberck/wopr/wopr -s do_pdt2.wopr_script -p file0:../nyt.3e7.10000,lc0:2,id:PDTT30510,timbl0:-a4 +D,dl:5,test:nyt.tail1000,file1:../nyt.3e7.10000000,timbl1:-a1 +D,lc1:2,n:3,ds:211,mo:1
/exp/pberck/wopr/wopr -s do_pdt2.wopr_script -p file0:../nyt.3e7.10000,lc0:2,id:PDTT30511,timbl0:-a4 +D,dl:5,test:nyt.tail1000,file1:../nyt.3e7.10000000,timbl1:-a1 +D,lc1:2,n:3,ds:221,mo:1
/exp/pberck/wopr/wopr -s do_pdt2.wopr_script -p file0:../nyt.3e7.10000,lc0:2,id:PDTT30512,timbl0:-a4 +D,dl:5,test:nyt.tail1000,file1:../nyt.3e7.10000000,timbl1:-a1 +D,lc1:2,n:3,ds:511,mo:1
/exp/pberck/wopr/wopr -s do_pdt2.wopr_script -p file0:../nyt.3e7.10000,lc0:2,id:PDTT30513,timbl0:-a4 +D,dl:5,test:nyt.tail1000,file1:../nyt.3e7.10000000,timbl1:-a1 +D,lc1:2,n:3,ds:521,mo:1
/exp/pberck/wopr/wopr -s do_pdt2.wopr_script -p file0:../nyt.3e7.10000,lc0:2,id:PDTT30514,timbl0:-a4 +D,dl:5,test:nyt.tail1000,file1:../nyt.3e7.10000000,timbl1:-a1 +D,lc1:2,n:3,ds:551,mo:1
/exp/pberck/wopr/wopr -s do_pdt2.wopr_script -p file0:../nyt.3e7.10000,lc0:3,id:PDTT30515,timbl0:-a4 +D,dl:5,test:nyt.tail1000,file1:../nyt.3e7.10000000,timbl1:-a1 +D,lc1:2,n:3,ds:211,mo:1
/exp/pberck/wopr/wopr -s do_pdt2.wopr_script -p file0:../nyt.3e7.10000,lc0:3,id:PDTT30516,timbl0:-a4 +D,dl:5,test:nyt.tail1000,file1:../nyt.3e7.10000000,timbl1:-a1 +D,lc1:2,n:3,ds:221,mo:1
/exp/pberck/wopr/wopr -s do_pdt2.wopr_script -p file0:../nyt.3e7.10000,lc0:3,id:PDTT30517,timbl0:-a4 +D,dl:5,test:nyt.tail1000,file1:../nyt.3e7.10000000,timbl1:-a1 +D,lc1:2,n:3,ds:511,mo:1
/exp/pberck/wopr/wopr -s do_pdt2.wopr_script -p file0:../nyt.3e7.10000,lc0:3,id:PDTT30518,timbl0:-a4 +D,dl:5,test:nyt.tail1000,file1:../nyt.3e7.10000000,timbl1:-a1 +D,lc1:2,n:3,ds:521,mo:1
/exp/pberck/wopr/wopr -s do_pdt2.wopr_script -p file0:../nyt.3e7.10000,lc0:3,id:PDTT30519,timbl0:-a4 +D,dl:5,test:nyt.tail1000,file1:../nyt.3e7.10000000,timbl1:-a1 +D,lc1:2,n:3,ds:551,mo:1
