#2013-04-14 16:16:14
#HPX50000,/exp2/pberck/nyt.3e7.1000,timbl:'-a1 +D',lc:1,rc:0
#HPX50001,/exp2/pberck/nyt.3e7.1000,timbl:'-a1 +D',lc:1,rc:1
#HPX50002,/exp2/pberck/nyt.3e7.1000,timbl:'-a1 +D',lc:1,rc:2
#HPX50003,/exp2/pberck/nyt.3e7.1000,timbl:'-a1 +D',lc:1,rc:3
#HPX50004,/exp2/pberck/nyt.3e7.1000,timbl:'-a1 +D',lc:1,rc:4
#HPX50005,/exp2/pberck/nyt.3e7.1000,timbl:'-a1 +D',lc:2,rc:0
#HPX50006,/exp2/pberck/nyt.3e7.1000,timbl:'-a1 +D',lc:2,rc:1
#HPX50007,/exp2/pberck/nyt.3e7.1000,timbl:'-a1 +D',lc:2,rc:2
#HPX50008,/exp2/pberck/nyt.3e7.1000,timbl:'-a1 +D',lc:2,rc:3
#HPX50009,/exp2/pberck/nyt.3e7.1000,timbl:'-a1 +D',lc:2,rc:4
#HPX50010,/exp2/pberck/nyt.3e7.1000,timbl:'-a1 +D',lc:3,rc:0
#HPX50011,/exp2/pberck/nyt.3e7.1000,timbl:'-a1 +D',lc:3,rc:1
#HPX50012,/exp2/pberck/nyt.3e7.1000,timbl:'-a1 +D',lc:3,rc:2
#HPX50013,/exp2/pberck/nyt.3e7.1000,timbl:'-a1 +D',lc:3,rc:3
#HPX50014,/exp2/pberck/nyt.3e7.1000,timbl:'-a1 +D',lc:3,rc:4
#HPX50015,/exp2/pberck/nyt.3e7.1000,timbl:'-a1 +D',lc:4,rc:0
#HPX50016,/exp2/pberck/nyt.3e7.1000,timbl:'-a1 +D',lc:4,rc:1
#HPX50017,/exp2/pberck/nyt.3e7.1000,timbl:'-a1 +D',lc:4,rc:2
#HPX50018,/exp2/pberck/nyt.3e7.1000,timbl:'-a1 +D',lc:4,rc:3
#HPX50019,/exp2/pberck/nyt.3e7.1000,timbl:'-a1 +D',lc:4,rc:4
#HPX50020,/exp2/pberck/nyt.3e7.5000,timbl:'-a1 +D',lc:1,rc:0
#HPX50021,/exp2/pberck/nyt.3e7.5000,timbl:'-a1 +D',lc:1,rc:1
#HPX50022,/exp2/pberck/nyt.3e7.5000,timbl:'-a1 +D',lc:1,rc:2
#HPX50023,/exp2/pberck/nyt.3e7.5000,timbl:'-a1 +D',lc:1,rc:3
#HPX50024,/exp2/pberck/nyt.3e7.5000,timbl:'-a1 +D',lc:1,rc:4
#HPX50025,/exp2/pberck/nyt.3e7.5000,timbl:'-a1 +D',lc:2,rc:0
#HPX50026,/exp2/pberck/nyt.3e7.5000,timbl:'-a1 +D',lc:2,rc:1
#HPX50027,/exp2/pberck/nyt.3e7.5000,timbl:'-a1 +D',lc:2,rc:2
#HPX50028,/exp2/pberck/nyt.3e7.5000,timbl:'-a1 +D',lc:2,rc:3
#HPX50029,/exp2/pberck/nyt.3e7.5000,timbl:'-a1 +D',lc:2,rc:4
#HPX50030,/exp2/pberck/nyt.3e7.5000,timbl:'-a1 +D',lc:3,rc:0
#HPX50031,/exp2/pberck/nyt.3e7.5000,timbl:'-a1 +D',lc:3,rc:1
#HPX50032,/exp2/pberck/nyt.3e7.5000,timbl:'-a1 +D',lc:3,rc:2
#HPX50033,/exp2/pberck/nyt.3e7.5000,timbl:'-a1 +D',lc:3,rc:3
#HPX50034,/exp2/pberck/nyt.3e7.5000,timbl:'-a1 +D',lc:3,rc:4
#HPX50035,/exp2/pberck/nyt.3e7.5000,timbl:'-a1 +D',lc:4,rc:0
#HPX50036,/exp2/pberck/nyt.3e7.5000,timbl:'-a1 +D',lc:4,rc:1
#HPX50037,/exp2/pberck/nyt.3e7.5000,timbl:'-a1 +D',lc:4,rc:2
#HPX50038,/exp2/pberck/nyt.3e7.5000,timbl:'-a1 +D',lc:4,rc:3
#HPX50039,/exp2/pberck/nyt.3e7.5000,timbl:'-a1 +D',lc:4,rc:4
#HPX50040,/exp2/pberck/nyt.3e7.10000,timbl:'-a1 +D',lc:1,rc:0
#HPX50041,/exp2/pberck/nyt.3e7.10000,timbl:'-a1 +D',lc:1,rc:1
#HPX50042,/exp2/pberck/nyt.3e7.10000,timbl:'-a1 +D',lc:1,rc:2
#HPX50043,/exp2/pberck/nyt.3e7.10000,timbl:'-a1 +D',lc:1,rc:3
#HPX50044,/exp2/pberck/nyt.3e7.10000,timbl:'-a1 +D',lc:1,rc:4
#HPX50045,/exp2/pberck/nyt.3e7.10000,timbl:'-a1 +D',lc:2,rc:0
#HPX50046,/exp2/pberck/nyt.3e7.10000,timbl:'-a1 +D',lc:2,rc:1
#HPX50047,/exp2/pberck/nyt.3e7.10000,timbl:'-a1 +D',lc:2,rc:2
#HPX50048,/exp2/pberck/nyt.3e7.10000,timbl:'-a1 +D',lc:2,rc:3
#HPX50049,/exp2/pberck/nyt.3e7.10000,timbl:'-a1 +D',lc:2,rc:4
#HPX50050,/exp2/pberck/nyt.3e7.10000,timbl:'-a1 +D',lc:3,rc:0
#HPX50051,/exp2/pberck/nyt.3e7.10000,timbl:'-a1 +D',lc:3,rc:1
#HPX50052,/exp2/pberck/nyt.3e7.10000,timbl:'-a1 +D',lc:3,rc:2
#HPX50053,/exp2/pberck/nyt.3e7.10000,timbl:'-a1 +D',lc:3,rc:3
#HPX50054,/exp2/pberck/nyt.3e7.10000,timbl:'-a1 +D',lc:3,rc:4
#HPX50055,/exp2/pberck/nyt.3e7.10000,timbl:'-a1 +D',lc:4,rc:0
#HPX50056,/exp2/pberck/nyt.3e7.10000,timbl:'-a1 +D',lc:4,rc:1
#HPX50057,/exp2/pberck/nyt.3e7.10000,timbl:'-a1 +D',lc:4,rc:2
#HPX50058,/exp2/pberck/nyt.3e7.10000,timbl:'-a1 +D',lc:4,rc:3
#HPX50059,/exp2/pberck/nyt.3e7.10000,timbl:'-a1 +D',lc:4,rc:4
#HPX50060,/exp2/pberck/nyt.3e7.50000,timbl:'-a1 +D',lc:1,rc:0
#HPX50061,/exp2/pberck/nyt.3e7.50000,timbl:'-a1 +D',lc:1,rc:1
#HPX50062,/exp2/pberck/nyt.3e7.50000,timbl:'-a1 +D',lc:1,rc:2
#HPX50063,/exp2/pberck/nyt.3e7.50000,timbl:'-a1 +D',lc:1,rc:3
#HPX50064,/exp2/pberck/nyt.3e7.50000,timbl:'-a1 +D',lc:1,rc:4
#HPX50065,/exp2/pberck/nyt.3e7.50000,timbl:'-a1 +D',lc:2,rc:0
#HPX50066,/exp2/pberck/nyt.3e7.50000,timbl:'-a1 +D',lc:2,rc:1
#HPX50067,/exp2/pberck/nyt.3e7.50000,timbl:'-a1 +D',lc:2,rc:2
#HPX50068,/exp2/pberck/nyt.3e7.50000,timbl:'-a1 +D',lc:2,rc:3
#HPX50069,/exp2/pberck/nyt.3e7.50000,timbl:'-a1 +D',lc:2,rc:4
#HPX50070,/exp2/pberck/nyt.3e7.50000,timbl:'-a1 +D',lc:3,rc:0
#HPX50071,/exp2/pberck/nyt.3e7.50000,timbl:'-a1 +D',lc:3,rc:1
#HPX50072,/exp2/pberck/nyt.3e7.50000,timbl:'-a1 +D',lc:3,rc:2
#HPX50073,/exp2/pberck/nyt.3e7.50000,timbl:'-a1 +D',lc:3,rc:3
#HPX50074,/exp2/pberck/nyt.3e7.50000,timbl:'-a1 +D',lc:3,rc:4
#HPX50075,/exp2/pberck/nyt.3e7.50000,timbl:'-a1 +D',lc:4,rc:0
#HPX50076,/exp2/pberck/nyt.3e7.50000,timbl:'-a1 +D',lc:4,rc:1
#HPX50077,/exp2/pberck/nyt.3e7.50000,timbl:'-a1 +D',lc:4,rc:2
#HPX50078,/exp2/pberck/nyt.3e7.50000,timbl:'-a1 +D',lc:4,rc:3
#HPX50079,/exp2/pberck/nyt.3e7.50000,timbl:'-a1 +D',lc:4,rc:4
#HPX50080,/exp2/pberck/nyt.3e7.100000,timbl:'-a1 +D',lc:1,rc:0
#HPX50081,/exp2/pberck/nyt.3e7.100000,timbl:'-a1 +D',lc:1,rc:1
#HPX50082,/exp2/pberck/nyt.3e7.100000,timbl:'-a1 +D',lc:1,rc:2
#HPX50083,/exp2/pberck/nyt.3e7.100000,timbl:'-a1 +D',lc:1,rc:3
#HPX50084,/exp2/pberck/nyt.3e7.100000,timbl:'-a1 +D',lc:1,rc:4
#HPX50085,/exp2/pberck/nyt.3e7.100000,timbl:'-a1 +D',lc:2,rc:0
#HPX50086,/exp2/pberck/nyt.3e7.100000,timbl:'-a1 +D',lc:2,rc:1
#HPX50087,/exp2/pberck/nyt.3e7.100000,timbl:'-a1 +D',lc:2,rc:2
#HPX50088,/exp2/pberck/nyt.3e7.100000,timbl:'-a1 +D',lc:2,rc:3
#HPX50089,/exp2/pberck/nyt.3e7.100000,timbl:'-a1 +D',lc:2,rc:4
#HPX50090,/exp2/pberck/nyt.3e7.100000,timbl:'-a1 +D',lc:3,rc:0
#HPX50091,/exp2/pberck/nyt.3e7.100000,timbl:'-a1 +D',lc:3,rc:1
#HPX50092,/exp2/pberck/nyt.3e7.100000,timbl:'-a1 +D',lc:3,rc:2
#HPX50093,/exp2/pberck/nyt.3e7.100000,timbl:'-a1 +D',lc:3,rc:3
#HPX50094,/exp2/pberck/nyt.3e7.100000,timbl:'-a1 +D',lc:3,rc:4
#HPX50095,/exp2/pberck/nyt.3e7.100000,timbl:'-a1 +D',lc:4,rc:0
#HPX50096,/exp2/pberck/nyt.3e7.100000,timbl:'-a1 +D',lc:4,rc:1
#HPX50097,/exp2/pberck/nyt.3e7.100000,timbl:'-a1 +D',lc:4,rc:2
#HPX50098,/exp2/pberck/nyt.3e7.100000,timbl:'-a1 +D',lc:4,rc:3
#HPX50099,/exp2/pberck/nyt.3e7.100000,timbl:'-a1 +D',lc:4,rc:4
#HPX50100,/exp2/pberck/nyt.3e7.500000,timbl:'-a1 +D',lc:1,rc:0
#HPX50101,/exp2/pberck/nyt.3e7.500000,timbl:'-a1 +D',lc:1,rc:1
#HPX50102,/exp2/pberck/nyt.3e7.500000,timbl:'-a1 +D',lc:1,rc:2
#HPX50103,/exp2/pberck/nyt.3e7.500000,timbl:'-a1 +D',lc:1,rc:3
#HPX50104,/exp2/pberck/nyt.3e7.500000,timbl:'-a1 +D',lc:1,rc:4
#HPX50105,/exp2/pberck/nyt.3e7.500000,timbl:'-a1 +D',lc:2,rc:0
#HPX50106,/exp2/pberck/nyt.3e7.500000,timbl:'-a1 +D',lc:2,rc:1
#HPX50107,/exp2/pberck/nyt.3e7.500000,timbl:'-a1 +D',lc:2,rc:2
#HPX50108,/exp2/pberck/nyt.3e7.500000,timbl:'-a1 +D',lc:2,rc:3
#HPX50109,/exp2/pberck/nyt.3e7.500000,timbl:'-a1 +D',lc:2,rc:4
#HPX50110,/exp2/pberck/nyt.3e7.500000,timbl:'-a1 +D',lc:3,rc:0
#HPX50111,/exp2/pberck/nyt.3e7.500000,timbl:'-a1 +D',lc:3,rc:1
#HPX50112,/exp2/pberck/nyt.3e7.500000,timbl:'-a1 +D',lc:3,rc:2
#HPX50113,/exp2/pberck/nyt.3e7.500000,timbl:'-a1 +D',lc:3,rc:3
#HPX50114,/exp2/pberck/nyt.3e7.500000,timbl:'-a1 +D',lc:3,rc:4
#HPX50115,/exp2/pberck/nyt.3e7.500000,timbl:'-a1 +D',lc:4,rc:0
#HPX50116,/exp2/pberck/nyt.3e7.500000,timbl:'-a1 +D',lc:4,rc:1
#HPX50117,/exp2/pberck/nyt.3e7.500000,timbl:'-a1 +D',lc:4,rc:2
#HPX50118,/exp2/pberck/nyt.3e7.500000,timbl:'-a1 +D',lc:4,rc:3
#HPX50119,/exp2/pberck/nyt.3e7.500000,timbl:'-a1 +D',lc:4,rc:4
#HPX50120,/exp2/pberck/nyt.3e7.1000000,timbl:'-a1 +D',lc:1,rc:0
#HPX50121,/exp2/pberck/nyt.3e7.1000000,timbl:'-a1 +D',lc:1,rc:1
#HPX50122,/exp2/pberck/nyt.3e7.1000000,timbl:'-a1 +D',lc:1,rc:2
#HPX50123,/exp2/pberck/nyt.3e7.1000000,timbl:'-a1 +D',lc:1,rc:3
#HPX50124,/exp2/pberck/nyt.3e7.1000000,timbl:'-a1 +D',lc:1,rc:4
#HPX50125,/exp2/pberck/nyt.3e7.1000000,timbl:'-a1 +D',lc:2,rc:0
#HPX50126,/exp2/pberck/nyt.3e7.1000000,timbl:'-a1 +D',lc:2,rc:1
#HPX50127,/exp2/pberck/nyt.3e7.1000000,timbl:'-a1 +D',lc:2,rc:2
#HPX50128,/exp2/pberck/nyt.3e7.1000000,timbl:'-a1 +D',lc:2,rc:3
#HPX50129,/exp2/pberck/nyt.3e7.1000000,timbl:'-a1 +D',lc:2,rc:4
#HPX50130,/exp2/pberck/nyt.3e7.1000000,timbl:'-a1 +D',lc:3,rc:0
#HPX50131,/exp2/pberck/nyt.3e7.1000000,timbl:'-a1 +D',lc:3,rc:1
#HPX50132,/exp2/pberck/nyt.3e7.1000000,timbl:'-a1 +D',lc:3,rc:2
#HPX50133,/exp2/pberck/nyt.3e7.1000000,timbl:'-a1 +D',lc:3,rc:3
#HPX50134,/exp2/pberck/nyt.3e7.1000000,timbl:'-a1 +D',lc:3,rc:4
#HPX50135,/exp2/pberck/nyt.3e7.1000000,timbl:'-a1 +D',lc:4,rc:0
#HPX50136,/exp2/pberck/nyt.3e7.1000000,timbl:'-a1 +D',lc:4,rc:1
#HPX50137,/exp2/pberck/nyt.3e7.1000000,timbl:'-a1 +D',lc:4,rc:2
#HPX50138,/exp2/pberck/nyt.3e7.1000000,timbl:'-a1 +D',lc:4,rc:3
#HPX50139,/exp2/pberck/nyt.3e7.1000000,timbl:'-a1 +D',lc:4,rc:4
#HPX50140,/exp2/pberck/nyt.3e7.5000000,timbl:'-a1 +D',lc:1,rc:0
#HPX50141,/exp2/pberck/nyt.3e7.5000000,timbl:'-a1 +D',lc:1,rc:1
#HPX50142,/exp2/pberck/nyt.3e7.5000000,timbl:'-a1 +D',lc:1,rc:2
#HPX50143,/exp2/pberck/nyt.3e7.5000000,timbl:'-a1 +D',lc:1,rc:3
#HPX50144,/exp2/pberck/nyt.3e7.5000000,timbl:'-a1 +D',lc:1,rc:4
