#2013-03-29 11:44:06
#HPX30000,/exp2/pberck/nyt.3e7.1000,timbl:'-a4 +D',lc:1,rc:0
#HPX30001,/exp2/pberck/nyt.3e7.1000,timbl:'-a4 +D',lc:1,rc:1
#HPX30002,/exp2/pberck/nyt.3e7.1000,timbl:'-a4 +D',lc:1,rc:2
#HPX30003,/exp2/pberck/nyt.3e7.1000,timbl:'-a4 +D',lc:1,rc:3
#HPX30004,/exp2/pberck/nyt.3e7.1000,timbl:'-a4 +D',lc:1,rc:4
#HPX30005,/exp2/pberck/nyt.3e7.1000,timbl:'-a4 +D',lc:2,rc:0
#HPX30006,/exp2/pberck/nyt.3e7.1000,timbl:'-a4 +D',lc:2,rc:1
#HPX30007,/exp2/pberck/nyt.3e7.1000,timbl:'-a4 +D',lc:2,rc:2
#HPX30008,/exp2/pberck/nyt.3e7.1000,timbl:'-a4 +D',lc:2,rc:3
#HPX30009,/exp2/pberck/nyt.3e7.1000,timbl:'-a4 +D',lc:2,rc:4
#HPX30010,/exp2/pberck/nyt.3e7.1000,timbl:'-a4 +D',lc:3,rc:0
#HPX30011,/exp2/pberck/nyt.3e7.1000,timbl:'-a4 +D',lc:3,rc:1
#HPX30012,/exp2/pberck/nyt.3e7.1000,timbl:'-a4 +D',lc:3,rc:2
#HPX30013,/exp2/pberck/nyt.3e7.1000,timbl:'-a4 +D',lc:3,rc:3
#HPX30014,/exp2/pberck/nyt.3e7.1000,timbl:'-a4 +D',lc:3,rc:4
#HPX30015,/exp2/pberck/nyt.3e7.1000,timbl:'-a4 +D',lc:4,rc:0
#HPX30016,/exp2/pberck/nyt.3e7.1000,timbl:'-a4 +D',lc:4,rc:1
#HPX30017,/exp2/pberck/nyt.3e7.1000,timbl:'-a4 +D',lc:4,rc:2
#HPX30018,/exp2/pberck/nyt.3e7.1000,timbl:'-a4 +D',lc:4,rc:3
#HPX30019,/exp2/pberck/nyt.3e7.1000,timbl:'-a4 +D',lc:4,rc:4
#HPX30020,/exp2/pberck/nyt.3e7.5000,timbl:'-a4 +D',lc:1,rc:0
#HPX30021,/exp2/pberck/nyt.3e7.5000,timbl:'-a4 +D',lc:1,rc:1
#HPX30022,/exp2/pberck/nyt.3e7.5000,timbl:'-a4 +D',lc:1,rc:2
#HPX30023,/exp2/pberck/nyt.3e7.5000,timbl:'-a4 +D',lc:1,rc:3
#HPX30024,/exp2/pberck/nyt.3e7.5000,timbl:'-a4 +D',lc:1,rc:4
#HPX30025,/exp2/pberck/nyt.3e7.5000,timbl:'-a4 +D',lc:2,rc:0
#HPX30026,/exp2/pberck/nyt.3e7.5000,timbl:'-a4 +D',lc:2,rc:1
#HPX30027,/exp2/pberck/nyt.3e7.5000,timbl:'-a4 +D',lc:2,rc:2
#HPX30028,/exp2/pberck/nyt.3e7.5000,timbl:'-a4 +D',lc:2,rc:3
#HPX30029,/exp2/pberck/nyt.3e7.5000,timbl:'-a4 +D',lc:2,rc:4
#HPX30030,/exp2/pberck/nyt.3e7.5000,timbl:'-a4 +D',lc:3,rc:0
#HPX30031,/exp2/pberck/nyt.3e7.5000,timbl:'-a4 +D',lc:3,rc:1
#HPX30032,/exp2/pberck/nyt.3e7.5000,timbl:'-a4 +D',lc:3,rc:2
#HPX30033,/exp2/pberck/nyt.3e7.5000,timbl:'-a4 +D',lc:3,rc:3
#HPX30034,/exp2/pberck/nyt.3e7.5000,timbl:'-a4 +D',lc:3,rc:4
#HPX30035,/exp2/pberck/nyt.3e7.5000,timbl:'-a4 +D',lc:4,rc:0
#HPX30036,/exp2/pberck/nyt.3e7.5000,timbl:'-a4 +D',lc:4,rc:1
#HPX30037,/exp2/pberck/nyt.3e7.5000,timbl:'-a4 +D',lc:4,rc:2
#HPX30038,/exp2/pberck/nyt.3e7.5000,timbl:'-a4 +D',lc:4,rc:3
#HPX30039,/exp2/pberck/nyt.3e7.5000,timbl:'-a4 +D',lc:4,rc:4
#HPX30040,/exp2/pberck/nyt.3e7.10000,timbl:'-a4 +D',lc:1,rc:0
#HPX30041,/exp2/pberck/nyt.3e7.10000,timbl:'-a4 +D',lc:1,rc:1
#HPX30042,/exp2/pberck/nyt.3e7.10000,timbl:'-a4 +D',lc:1,rc:2
#HPX30043,/exp2/pberck/nyt.3e7.10000,timbl:'-a4 +D',lc:1,rc:3
#HPX30044,/exp2/pberck/nyt.3e7.10000,timbl:'-a4 +D',lc:1,rc:4
#HPX30045,/exp2/pberck/nyt.3e7.10000,timbl:'-a4 +D',lc:2,rc:0
#HPX30046,/exp2/pberck/nyt.3e7.10000,timbl:'-a4 +D',lc:2,rc:1
#HPX30047,/exp2/pberck/nyt.3e7.10000,timbl:'-a4 +D',lc:2,rc:2
#HPX30048,/exp2/pberck/nyt.3e7.10000,timbl:'-a4 +D',lc:2,rc:3
#HPX30049,/exp2/pberck/nyt.3e7.10000,timbl:'-a4 +D',lc:2,rc:4
#HPX30050,/exp2/pberck/nyt.3e7.10000,timbl:'-a4 +D',lc:3,rc:0
#HPX30051,/exp2/pberck/nyt.3e7.10000,timbl:'-a4 +D',lc:3,rc:1
#HPX30052,/exp2/pberck/nyt.3e7.10000,timbl:'-a4 +D',lc:3,rc:2
#HPX30053,/exp2/pberck/nyt.3e7.10000,timbl:'-a4 +D',lc:3,rc:3
#HPX30054,/exp2/pberck/nyt.3e7.10000,timbl:'-a4 +D',lc:3,rc:4
#HPX30055,/exp2/pberck/nyt.3e7.10000,timbl:'-a4 +D',lc:4,rc:0
#HPX30056,/exp2/pberck/nyt.3e7.10000,timbl:'-a4 +D',lc:4,rc:1
#HPX30057,/exp2/pberck/nyt.3e7.10000,timbl:'-a4 +D',lc:4,rc:2
#HPX30058,/exp2/pberck/nyt.3e7.10000,timbl:'-a4 +D',lc:4,rc:3
#HPX30059,/exp2/pberck/nyt.3e7.10000,timbl:'-a4 +D',lc:4,rc:4
#HPX30060,/exp2/pberck/nyt.3e7.50000,timbl:'-a4 +D',lc:1,rc:0
#HPX30061,/exp2/pberck/nyt.3e7.50000,timbl:'-a4 +D',lc:1,rc:1
#HPX30062,/exp2/pberck/nyt.3e7.50000,timbl:'-a4 +D',lc:1,rc:2
#HPX30063,/exp2/pberck/nyt.3e7.50000,timbl:'-a4 +D',lc:1,rc:3
#HPX30064,/exp2/pberck/nyt.3e7.50000,timbl:'-a4 +D',lc:1,rc:4
#HPX30065,/exp2/pberck/nyt.3e7.50000,timbl:'-a4 +D',lc:2,rc:0
#HPX30066,/exp2/pberck/nyt.3e7.50000,timbl:'-a4 +D',lc:2,rc:1
#HPX30067,/exp2/pberck/nyt.3e7.50000,timbl:'-a4 +D',lc:2,rc:2
#HPX30068,/exp2/pberck/nyt.3e7.50000,timbl:'-a4 +D',lc:2,rc:3
#HPX30069,/exp2/pberck/nyt.3e7.50000,timbl:'-a4 +D',lc:2,rc:4
#HPX30070,/exp2/pberck/nyt.3e7.50000,timbl:'-a4 +D',lc:3,rc:0
#HPX30071,/exp2/pberck/nyt.3e7.50000,timbl:'-a4 +D',lc:3,rc:1
#HPX30072,/exp2/pberck/nyt.3e7.50000,timbl:'-a4 +D',lc:3,rc:2
#HPX30073,/exp2/pberck/nyt.3e7.50000,timbl:'-a4 +D',lc:3,rc:3
#HPX30074,/exp2/pberck/nyt.3e7.50000,timbl:'-a4 +D',lc:3,rc:4
#HPX30075,/exp2/pberck/nyt.3e7.50000,timbl:'-a4 +D',lc:4,rc:0
#HPX30076,/exp2/pberck/nyt.3e7.50000,timbl:'-a4 +D',lc:4,rc:1
#HPX30077,/exp2/pberck/nyt.3e7.50000,timbl:'-a4 +D',lc:4,rc:2
#HPX30078,/exp2/pberck/nyt.3e7.50000,timbl:'-a4 +D',lc:4,rc:3
#HPX30079,/exp2/pberck/nyt.3e7.50000,timbl:'-a4 +D',lc:4,rc:4
#HPX30080,/exp2/pberck/nyt.3e7.100000,timbl:'-a4 +D',lc:1,rc:0
#HPX30081,/exp2/pberck/nyt.3e7.100000,timbl:'-a4 +D',lc:1,rc:1
#HPX30082,/exp2/pberck/nyt.3e7.100000,timbl:'-a4 +D',lc:1,rc:2
#HPX30083,/exp2/pberck/nyt.3e7.100000,timbl:'-a4 +D',lc:1,rc:3
#HPX30084,/exp2/pberck/nyt.3e7.100000,timbl:'-a4 +D',lc:1,rc:4
#HPX30085,/exp2/pberck/nyt.3e7.100000,timbl:'-a4 +D',lc:2,rc:0
#HPX30086,/exp2/pberck/nyt.3e7.100000,timbl:'-a4 +D',lc:2,rc:1
#HPX30087,/exp2/pberck/nyt.3e7.100000,timbl:'-a4 +D',lc:2,rc:2
#HPX30088,/exp2/pberck/nyt.3e7.100000,timbl:'-a4 +D',lc:2,rc:3
#HPX30089,/exp2/pberck/nyt.3e7.100000,timbl:'-a4 +D',lc:2,rc:4
#HPX30090,/exp2/pberck/nyt.3e7.100000,timbl:'-a4 +D',lc:3,rc:0
#HPX30091,/exp2/pberck/nyt.3e7.100000,timbl:'-a4 +D',lc:3,rc:1
#HPX30092,/exp2/pberck/nyt.3e7.100000,timbl:'-a4 +D',lc:3,rc:2
#HPX30093,/exp2/pberck/nyt.3e7.100000,timbl:'-a4 +D',lc:3,rc:3
#HPX30094,/exp2/pberck/nyt.3e7.100000,timbl:'-a4 +D',lc:3,rc:4
#HPX30095,/exp2/pberck/nyt.3e7.100000,timbl:'-a4 +D',lc:4,rc:0
#HPX30096,/exp2/pberck/nyt.3e7.100000,timbl:'-a4 +D',lc:4,rc:1
#HPX30097,/exp2/pberck/nyt.3e7.100000,timbl:'-a4 +D',lc:4,rc:2
#HPX30098,/exp2/pberck/nyt.3e7.100000,timbl:'-a4 +D',lc:4,rc:3
#HPX30099,/exp2/pberck/nyt.3e7.100000,timbl:'-a4 +D',lc:4,rc:4
#HPX30100,/exp2/pberck/nyt.3e7.500000,timbl:'-a4 +D',lc:1,rc:0
#HPX30101,/exp2/pberck/nyt.3e7.500000,timbl:'-a4 +D',lc:1,rc:1
#HPX30102,/exp2/pberck/nyt.3e7.500000,timbl:'-a4 +D',lc:1,rc:2
#HPX30103,/exp2/pberck/nyt.3e7.500000,timbl:'-a4 +D',lc:1,rc:3
#HPX30104,/exp2/pberck/nyt.3e7.500000,timbl:'-a4 +D',lc:1,rc:4
#HPX30105,/exp2/pberck/nyt.3e7.500000,timbl:'-a4 +D',lc:2,rc:0
#HPX30106,/exp2/pberck/nyt.3e7.500000,timbl:'-a4 +D',lc:2,rc:1
#HPX30107,/exp2/pberck/nyt.3e7.500000,timbl:'-a4 +D',lc:2,rc:2
#HPX30108,/exp2/pberck/nyt.3e7.500000,timbl:'-a4 +D',lc:2,rc:3
#HPX30109,/exp2/pberck/nyt.3e7.500000,timbl:'-a4 +D',lc:2,rc:4
#HPX30110,/exp2/pberck/nyt.3e7.500000,timbl:'-a4 +D',lc:3,rc:0
#HPX30111,/exp2/pberck/nyt.3e7.500000,timbl:'-a4 +D',lc:3,rc:1
#HPX30112,/exp2/pberck/nyt.3e7.500000,timbl:'-a4 +D',lc:3,rc:2
#HPX30113,/exp2/pberck/nyt.3e7.500000,timbl:'-a4 +D',lc:3,rc:3
#HPX30114,/exp2/pberck/nyt.3e7.500000,timbl:'-a4 +D',lc:3,rc:4
#HPX30115,/exp2/pberck/nyt.3e7.500000,timbl:'-a4 +D',lc:4,rc:0
#HPX30116,/exp2/pberck/nyt.3e7.500000,timbl:'-a4 +D',lc:4,rc:1
#HPX30117,/exp2/pberck/nyt.3e7.500000,timbl:'-a4 +D',lc:4,rc:2
#HPX30118,/exp2/pberck/nyt.3e7.500000,timbl:'-a4 +D',lc:4,rc:3
#HPX30119,/exp2/pberck/nyt.3e7.500000,timbl:'-a4 +D',lc:4,rc:4
#HPX30120,/exp2/pberck/nyt.3e7.1000000,timbl:'-a4 +D',lc:1,rc:0
#HPX30121,/exp2/pberck/nyt.3e7.1000000,timbl:'-a4 +D',lc:1,rc:1
#HPX30122,/exp2/pberck/nyt.3e7.1000000,timbl:'-a4 +D',lc:1,rc:2
#HPX30123,/exp2/pberck/nyt.3e7.1000000,timbl:'-a4 +D',lc:1,rc:3
#HPX30124,/exp2/pberck/nyt.3e7.1000000,timbl:'-a4 +D',lc:1,rc:4
#HPX30125,/exp2/pberck/nyt.3e7.1000000,timbl:'-a4 +D',lc:2,rc:0
#HPX30126,/exp2/pberck/nyt.3e7.1000000,timbl:'-a4 +D',lc:2,rc:1
#HPX30127,/exp2/pberck/nyt.3e7.1000000,timbl:'-a4 +D',lc:2,rc:2
#HPX30128,/exp2/pberck/nyt.3e7.1000000,timbl:'-a4 +D',lc:2,rc:3
#HPX30129,/exp2/pberck/nyt.3e7.1000000,timbl:'-a4 +D',lc:2,rc:4
#HPX30130,/exp2/pberck/nyt.3e7.1000000,timbl:'-a4 +D',lc:3,rc:0
#HPX30131,/exp2/pberck/nyt.3e7.1000000,timbl:'-a4 +D',lc:3,rc:1
#HPX30132,/exp2/pberck/nyt.3e7.1000000,timbl:'-a4 +D',lc:3,rc:2
#HPX30133,/exp2/pberck/nyt.3e7.1000000,timbl:'-a4 +D',lc:3,rc:3
#HPX30134,/exp2/pberck/nyt.3e7.1000000,timbl:'-a4 +D',lc:3,rc:4
#HPX30135,/exp2/pberck/nyt.3e7.1000000,timbl:'-a4 +D',lc:4,rc:0
#HPX30136,/exp2/pberck/nyt.3e7.1000000,timbl:'-a4 +D',lc:4,rc:1
#HPX30137,/exp2/pberck/nyt.3e7.1000000,timbl:'-a4 +D',lc:4,rc:2
#HPX30138,/exp2/pberck/nyt.3e7.1000000,timbl:'-a4 +D',lc:4,rc:3
#HPX30139,/exp2/pberck/nyt.3e7.1000000,timbl:'-a4 +D',lc:4,rc:4
#HPX30140,/exp2/pberck/nyt.3e7.5000000,timbl:'-a4 +D',lc:1,rc:0
#HPX30141,/exp2/pberck/nyt.3e7.5000000,timbl:'-a4 +D',lc:1,rc:1
#HPX30142,/exp2/pberck/nyt.3e7.5000000,timbl:'-a4 +D',lc:1,rc:2
#HPX30143,/exp2/pberck/nyt.3e7.5000000,timbl:'-a4 +D',lc:1,rc:3
#HPX30144,/exp2/pberck/nyt.3e7.5000000,timbl:'-a4 +D',lc:1,rc:4
#HPX30145,/exp2/pberck/nyt.3e7.5000000,timbl:'-a4 +D',lc:2,rc:0
#HPX30146,/exp2/pberck/nyt.3e7.5000000,timbl:'-a4 +D',lc:2,rc:1
#HPX30147,/exp2/pberck/nyt.3e7.5000000,timbl:'-a4 +D',lc:2,rc:2
#HPX30148,/exp2/pberck/nyt.3e7.5000000,timbl:'-a4 +D',lc:2,rc:3
#HPX30149,/exp2/pberck/nyt.3e7.5000000,timbl:'-a4 +D',lc:2,rc:4
#HPX30150,/exp2/pberck/nyt.3e7.5000000,timbl:'-a4 +D',lc:3,rc:0
#HPX30151,/exp2/pberck/nyt.3e7.5000000,timbl:'-a4 +D',lc:3,rc:1
#HPX30152,/exp2/pberck/nyt.3e7.5000000,timbl:'-a4 +D',lc:3,rc:2
#HPX30153,/exp2/pberck/nyt.3e7.5000000,timbl:'-a4 +D',lc:3,rc:3
#HPX30154,/exp2/pberck/nyt.3e7.5000000,timbl:'-a4 +D',lc:3,rc:4
#HPX30155,/exp2/pberck/nyt.3e7.5000000,timbl:'-a4 +D',lc:4,rc:0
#HPX30156,/exp2/pberck/nyt.3e7.5000000,timbl:'-a4 +D',lc:4,rc:1
#HPX30157,/exp2/pberck/nyt.3e7.5000000,timbl:'-a4 +D',lc:4,rc:2
