#2013-04-14 11:52:59
#HPX40000,/exp2/pberck/nyt.3e7.1000,timbl:'-a1 +D',lc:1,rc:0
#HPX40001,/exp2/pberck/nyt.3e7.1000,timbl:'-a1 +D',lc:1,rc:1
#HPX40002,/exp2/pberck/nyt.3e7.1000,timbl:'-a1 +D',lc:1,rc:2
#HPX40003,/exp2/pberck/nyt.3e7.1000,timbl:'-a1 +D',lc:1,rc:3
#HPX40004,/exp2/pberck/nyt.3e7.1000,timbl:'-a1 +D',lc:1,rc:4
#HPX40005,/exp2/pberck/nyt.3e7.1000,timbl:'-a1 +D',lc:2,rc:0
#HPX40006,/exp2/pberck/nyt.3e7.1000,timbl:'-a1 +D',lc:2,rc:1
#HPX40007,/exp2/pberck/nyt.3e7.1000,timbl:'-a1 +D',lc:2,rc:2
#HPX40008,/exp2/pberck/nyt.3e7.1000,timbl:'-a1 +D',lc:2,rc:3
#HPX40009,/exp2/pberck/nyt.3e7.1000,timbl:'-a1 +D',lc:2,rc:4
#HPX40010,/exp2/pberck/nyt.3e7.1000,timbl:'-a1 +D',lc:3,rc:0
#HPX40011,/exp2/pberck/nyt.3e7.1000,timbl:'-a1 +D',lc:3,rc:1
#HPX40012,/exp2/pberck/nyt.3e7.1000,timbl:'-a1 +D',lc:3,rc:2
#HPX40013,/exp2/pberck/nyt.3e7.1000,timbl:'-a1 +D',lc:3,rc:3
#HPX40014,/exp2/pberck/nyt.3e7.1000,timbl:'-a1 +D',lc:3,rc:4
#HPX40015,/exp2/pberck/nyt.3e7.1000,timbl:'-a1 +D',lc:4,rc:0
#HPX40016,/exp2/pberck/nyt.3e7.1000,timbl:'-a1 +D',lc:4,rc:1
#HPX40017,/exp2/pberck/nyt.3e7.1000,timbl:'-a1 +D',lc:4,rc:2
#HPX40018,/exp2/pberck/nyt.3e7.1000,timbl:'-a1 +D',lc:4,rc:3
#HPX40019,/exp2/pberck/nyt.3e7.1000,timbl:'-a1 +D',lc:4,rc:4
#HPX40020,/exp2/pberck/nyt.3e7.5000,timbl:'-a1 +D',lc:1,rc:0
#HPX40021,/exp2/pberck/nyt.3e7.5000,timbl:'-a1 +D',lc:1,rc:1
#HPX40022,/exp2/pberck/nyt.3e7.5000,timbl:'-a1 +D',lc:1,rc:2
#HPX40023,/exp2/pberck/nyt.3e7.5000,timbl:'-a1 +D',lc:1,rc:3
#HPX40024,/exp2/pberck/nyt.3e7.5000,timbl:'-a1 +D',lc:1,rc:4
#HPX40025,/exp2/pberck/nyt.3e7.5000,timbl:'-a1 +D',lc:2,rc:0
#HPX40026,/exp2/pberck/nyt.3e7.5000,timbl:'-a1 +D',lc:2,rc:1
#HPX40027,/exp2/pberck/nyt.3e7.5000,timbl:'-a1 +D',lc:2,rc:2
#HPX40028,/exp2/pberck/nyt.3e7.5000,timbl:'-a1 +D',lc:2,rc:3
#HPX40029,/exp2/pberck/nyt.3e7.5000,timbl:'-a1 +D',lc:2,rc:4
#HPX40030,/exp2/pberck/nyt.3e7.5000,timbl:'-a1 +D',lc:3,rc:0
#HPX40031,/exp2/pberck/nyt.3e7.5000,timbl:'-a1 +D',lc:3,rc:1
#HPX40032,/exp2/pberck/nyt.3e7.5000,timbl:'-a1 +D',lc:3,rc:2
#HPX40033,/exp2/pberck/nyt.3e7.5000,timbl:'-a1 +D',lc:3,rc:3
#HPX40034,/exp2/pberck/nyt.3e7.5000,timbl:'-a1 +D',lc:3,rc:4
#HPX40035,/exp2/pberck/nyt.3e7.5000,timbl:'-a1 +D',lc:4,rc:0
#HPX40036,/exp2/pberck/nyt.3e7.5000,timbl:'-a1 +D',lc:4,rc:1
#HPX40037,/exp2/pberck/nyt.3e7.5000,timbl:'-a1 +D',lc:4,rc:2
#HPX40038,/exp2/pberck/nyt.3e7.5000,timbl:'-a1 +D',lc:4,rc:3
#HPX40039,/exp2/pberck/nyt.3e7.5000,timbl:'-a1 +D',lc:4,rc:4
#HPX40040,/exp2/pberck/nyt.3e7.10000,timbl:'-a1 +D',lc:1,rc:0
#HPX40041,/exp2/pberck/nyt.3e7.10000,timbl:'-a1 +D',lc:1,rc:1
#HPX40042,/exp2/pberck/nyt.3e7.10000,timbl:'-a1 +D',lc:1,rc:2
#HPX40043,/exp2/pberck/nyt.3e7.10000,timbl:'-a1 +D',lc:1,rc:3
#HPX40044,/exp2/pberck/nyt.3e7.10000,timbl:'-a1 +D',lc:1,rc:4
#HPX40045,/exp2/pberck/nyt.3e7.10000,timbl:'-a1 +D',lc:2,rc:0
#HPX40046,/exp2/pberck/nyt.3e7.10000,timbl:'-a1 +D',lc:2,rc:1
#HPX40047,/exp2/pberck/nyt.3e7.10000,timbl:'-a1 +D',lc:2,rc:2
#HPX40048,/exp2/pberck/nyt.3e7.10000,timbl:'-a1 +D',lc:2,rc:3
#HPX40049,/exp2/pberck/nyt.3e7.10000,timbl:'-a1 +D',lc:2,rc:4
#HPX40050,/exp2/pberck/nyt.3e7.10000,timbl:'-a1 +D',lc:3,rc:0
#HPX40051,/exp2/pberck/nyt.3e7.10000,timbl:'-a1 +D',lc:3,rc:1
#HPX40052,/exp2/pberck/nyt.3e7.10000,timbl:'-a1 +D',lc:3,rc:2
#HPX40053,/exp2/pberck/nyt.3e7.10000,timbl:'-a1 +D',lc:3,rc:3
#HPX40054,/exp2/pberck/nyt.3e7.10000,timbl:'-a1 +D',lc:3,rc:4
#HPX40055,/exp2/pberck/nyt.3e7.10000,timbl:'-a1 +D',lc:4,rc:0
#HPX40056,/exp2/pberck/nyt.3e7.10000,timbl:'-a1 +D',lc:4,rc:1
#HPX40057,/exp2/pberck/nyt.3e7.10000,timbl:'-a1 +D',lc:4,rc:2
#HPX40058,/exp2/pberck/nyt.3e7.10000,timbl:'-a1 +D',lc:4,rc:3
#HPX40059,/exp2/pberck/nyt.3e7.10000,timbl:'-a1 +D',lc:4,rc:4
#HPX40060,/exp2/pberck/nyt.3e7.50000,timbl:'-a1 +D',lc:1,rc:0
#HPX40061,/exp2/pberck/nyt.3e7.50000,timbl:'-a1 +D',lc:1,rc:1
#HPX40062,/exp2/pberck/nyt.3e7.50000,timbl:'-a1 +D',lc:1,rc:2
#HPX40063,/exp2/pberck/nyt.3e7.50000,timbl:'-a1 +D',lc:1,rc:3
#HPX40064,/exp2/pberck/nyt.3e7.50000,timbl:'-a1 +D',lc:1,rc:4
#HPX40065,/exp2/pberck/nyt.3e7.50000,timbl:'-a1 +D',lc:2,rc:0
#HPX40066,/exp2/pberck/nyt.3e7.50000,timbl:'-a1 +D',lc:2,rc:1
#HPX40067,/exp2/pberck/nyt.3e7.50000,timbl:'-a1 +D',lc:2,rc:2
#HPX40068,/exp2/pberck/nyt.3e7.50000,timbl:'-a1 +D',lc:2,rc:3
#HPX40069,/exp2/pberck/nyt.3e7.50000,timbl:'-a1 +D',lc:2,rc:4
#HPX40070,/exp2/pberck/nyt.3e7.50000,timbl:'-a1 +D',lc:3,rc:0
#HPX40071,/exp2/pberck/nyt.3e7.50000,timbl:'-a1 +D',lc:3,rc:1
#HPX40072,/exp2/pberck/nyt.3e7.50000,timbl:'-a1 +D',lc:3,rc:2
#HPX40073,/exp2/pberck/nyt.3e7.50000,timbl:'-a1 +D',lc:3,rc:3
#HPX40074,/exp2/pberck/nyt.3e7.50000,timbl:'-a1 +D',lc:3,rc:4
#HPX40075,/exp2/pberck/nyt.3e7.50000,timbl:'-a1 +D',lc:4,rc:0
#HPX40076,/exp2/pberck/nyt.3e7.50000,timbl:'-a1 +D',lc:4,rc:1
#HPX40077,/exp2/pberck/nyt.3e7.50000,timbl:'-a1 +D',lc:4,rc:2
#HPX40078,/exp2/pberck/nyt.3e7.50000,timbl:'-a1 +D',lc:4,rc:3
#HPX40079,/exp2/pberck/nyt.3e7.50000,timbl:'-a1 +D',lc:4,rc:4
#HPX40080,/exp2/pberck/nyt.3e7.100000,timbl:'-a1 +D',lc:1,rc:0
#HPX40081,/exp2/pberck/nyt.3e7.100000,timbl:'-a1 +D',lc:1,rc:1
#HPX40082,/exp2/pberck/nyt.3e7.100000,timbl:'-a1 +D',lc:1,rc:2
#HPX40083,/exp2/pberck/nyt.3e7.100000,timbl:'-a1 +D',lc:1,rc:3
#HPX40084,/exp2/pberck/nyt.3e7.100000,timbl:'-a1 +D',lc:1,rc:4
#HPX40085,/exp2/pberck/nyt.3e7.100000,timbl:'-a1 +D',lc:2,rc:0
#HPX40086,/exp2/pberck/nyt.3e7.100000,timbl:'-a1 +D',lc:2,rc:1
#HPX40087,/exp2/pberck/nyt.3e7.100000,timbl:'-a1 +D',lc:2,rc:2
#HPX40088,/exp2/pberck/nyt.3e7.100000,timbl:'-a1 +D',lc:2,rc:3
#HPX40089,/exp2/pberck/nyt.3e7.100000,timbl:'-a1 +D',lc:2,rc:4
#HPX40090,/exp2/pberck/nyt.3e7.100000,timbl:'-a1 +D',lc:3,rc:0
#HPX40091,/exp2/pberck/nyt.3e7.100000,timbl:'-a1 +D',lc:3,rc:1
#HPX40092,/exp2/pberck/nyt.3e7.100000,timbl:'-a1 +D',lc:3,rc:2
#HPX40093,/exp2/pberck/nyt.3e7.100000,timbl:'-a1 +D',lc:3,rc:3
#HPX40094,/exp2/pberck/nyt.3e7.100000,timbl:'-a1 +D',lc:3,rc:4
#HPX40095,/exp2/pberck/nyt.3e7.100000,timbl:'-a1 +D',lc:4,rc:0
#HPX40096,/exp2/pberck/nyt.3e7.100000,timbl:'-a1 +D',lc:4,rc:1
#HPX40097,/exp2/pberck/nyt.3e7.100000,timbl:'-a1 +D',lc:4,rc:2
#HPX40098,/exp2/pberck/nyt.3e7.100000,timbl:'-a1 +D',lc:4,rc:3
#HPX40099,/exp2/pberck/nyt.3e7.100000,timbl:'-a1 +D',lc:4,rc:4
#HPX40100,/exp2/pberck/nyt.3e7.500000,timbl:'-a1 +D',lc:1,rc:0
#HPX40101,/exp2/pberck/nyt.3e7.500000,timbl:'-a1 +D',lc:1,rc:1
#HPX40102,/exp2/pberck/nyt.3e7.500000,timbl:'-a1 +D',lc:1,rc:2
#HPX40103,/exp2/pberck/nyt.3e7.500000,timbl:'-a1 +D',lc:1,rc:3
#HPX40104,/exp2/pberck/nyt.3e7.500000,timbl:'-a1 +D',lc:1,rc:4
#HPX40105,/exp2/pberck/nyt.3e7.500000,timbl:'-a1 +D',lc:2,rc:0
#HPX40106,/exp2/pberck/nyt.3e7.500000,timbl:'-a1 +D',lc:2,rc:1
#HPX40107,/exp2/pberck/nyt.3e7.500000,timbl:'-a1 +D',lc:2,rc:2
#HPX40108,/exp2/pberck/nyt.3e7.500000,timbl:'-a1 +D',lc:2,rc:3
#HPX40109,/exp2/pberck/nyt.3e7.500000,timbl:'-a1 +D',lc:2,rc:4
#HPX40110,/exp2/pberck/nyt.3e7.500000,timbl:'-a1 +D',lc:3,rc:0
#HPX40111,/exp2/pberck/nyt.3e7.500000,timbl:'-a1 +D',lc:3,rc:1
#HPX40112,/exp2/pberck/nyt.3e7.500000,timbl:'-a1 +D',lc:3,rc:2
#HPX40113,/exp2/pberck/nyt.3e7.500000,timbl:'-a1 +D',lc:3,rc:3
#HPX40114,/exp2/pberck/nyt.3e7.500000,timbl:'-a1 +D',lc:3,rc:4
#HPX40115,/exp2/pberck/nyt.3e7.500000,timbl:'-a1 +D',lc:4,rc:0
#HPX40116,/exp2/pberck/nyt.3e7.500000,timbl:'-a1 +D',lc:4,rc:1
#HPX40117,/exp2/pberck/nyt.3e7.500000,timbl:'-a1 +D',lc:4,rc:2
#HPX40118,/exp2/pberck/nyt.3e7.500000,timbl:'-a1 +D',lc:4,rc:3
#HPX40119,/exp2/pberck/nyt.3e7.500000,timbl:'-a1 +D',lc:4,rc:4
#HPX40120,/exp2/pberck/nyt.3e7.1000000,timbl:'-a1 +D',lc:1,rc:0
#HPX40121,/exp2/pberck/nyt.3e7.1000000,timbl:'-a1 +D',lc:1,rc:1
#HPX40122,/exp2/pberck/nyt.3e7.1000000,timbl:'-a1 +D',lc:1,rc:2
#HPX40123,/exp2/pberck/nyt.3e7.1000000,timbl:'-a1 +D',lc:1,rc:3
#HPX40124,/exp2/pberck/nyt.3e7.1000000,timbl:'-a1 +D',lc:1,rc:4
#HPX40125,/exp2/pberck/nyt.3e7.1000000,timbl:'-a1 +D',lc:2,rc:0
#HPX40126,/exp2/pberck/nyt.3e7.1000000,timbl:'-a1 +D',lc:2,rc:1
#HPX40127,/exp2/pberck/nyt.3e7.1000000,timbl:'-a1 +D',lc:2,rc:2
#HPX40128,/exp2/pberck/nyt.3e7.1000000,timbl:'-a1 +D',lc:2,rc:3
#HPX40129,/exp2/pberck/nyt.3e7.1000000,timbl:'-a1 +D',lc:2,rc:4
#HPX40130,/exp2/pberck/nyt.3e7.1000000,timbl:'-a1 +D',lc:3,rc:0
#HPX40131,/exp2/pberck/nyt.3e7.1000000,timbl:'-a1 +D',lc:3,rc:1
#HPX40132,/exp2/pberck/nyt.3e7.1000000,timbl:'-a1 +D',lc:3,rc:2
#HPX40133,/exp2/pberck/nyt.3e7.1000000,timbl:'-a1 +D',lc:3,rc:3
#HPX40134,/exp2/pberck/nyt.3e7.1000000,timbl:'-a1 +D',lc:3,rc:4
#HPX40135,/exp2/pberck/nyt.3e7.1000000,timbl:'-a1 +D',lc:4,rc:0
#HPX40136,/exp2/pberck/nyt.3e7.1000000,timbl:'-a1 +D',lc:4,rc:1
#HPX40137,/exp2/pberck/nyt.3e7.1000000,timbl:'-a1 +D',lc:4,rc:2
#HPX40138,/exp2/pberck/nyt.3e7.1000000,timbl:'-a1 +D',lc:4,rc:3
#HPX40139,/exp2/pberck/nyt.3e7.1000000,timbl:'-a1 +D',lc:4,rc:4
#HPX40140,/exp2/pberck/nyt.3e7.5000000,timbl:'-a1 +D',lc:1,rc:0
#HPX40141,/exp2/pberck/nyt.3e7.5000000,timbl:'-a1 +D',lc:1,rc:1
#HPX40142,/exp2/pberck/nyt.3e7.5000000,timbl:'-a1 +D',lc:1,rc:2
#HPX40143,/exp2/pberck/nyt.3e7.5000000,timbl:'-a1 +D',lc:1,rc:3
#HPX40144,/exp2/pberck/nyt.3e7.5000000,timbl:'-a1 +D',lc:1,rc:4
#HPX40145,/exp2/pberck/nyt.3e7.5000000,timbl:'-a1 +D',lc:2,rc:0
#HPX40146,/exp2/pberck/nyt.3e7.5000000,timbl:'-a1 +D',lc:2,rc:1
#HPX40147,/exp2/pberck/nyt.3e7.5000000,timbl:'-a1 +D',lc:2,rc:2
