#2013-03-29 10:29:49
#HPX20000,/exp2/pberck/nyt.3e7.1000,timbl:'-a1 +D',lc:1,rc:0
#2013-03-29 10:31:35
#HPX20000,/exp2/pberck/nyt.3e7.1000,timbl:'-a1 +D',lc:1,rc:0
#HPX20001,/exp2/pberck/nyt.3e7.1000,timbl:'-a1 +D',lc:1,rc:1
#HPX20002,/exp2/pberck/nyt.3e7.1000,timbl:'-a1 +D',lc:1,rc:2
#HPX20003,/exp2/pberck/nyt.3e7.1000,timbl:'-a1 +D',lc:1,rc:3
#HPX20004,/exp2/pberck/nyt.3e7.1000,timbl:'-a1 +D',lc:1,rc:4
#HPX20005,/exp2/pberck/nyt.3e7.1000,timbl:'-a1 +D',lc:2,rc:0
#HPX20006,/exp2/pberck/nyt.3e7.1000,timbl:'-a1 +D',lc:2,rc:1
#HPX20007,/exp2/pberck/nyt.3e7.1000,timbl:'-a1 +D',lc:2,rc:2
#HPX20008,/exp2/pberck/nyt.3e7.1000,timbl:'-a1 +D',lc:2,rc:3
#HPX20009,/exp2/pberck/nyt.3e7.1000,timbl:'-a1 +D',lc:2,rc:4
#HPX20010,/exp2/pberck/nyt.3e7.1000,timbl:'-a1 +D',lc:3,rc:0
#HPX20011,/exp2/pberck/nyt.3e7.1000,timbl:'-a1 +D',lc:3,rc:1
#HPX20012,/exp2/pberck/nyt.3e7.1000,timbl:'-a1 +D',lc:3,rc:2
#HPX20013,/exp2/pberck/nyt.3e7.1000,timbl:'-a1 +D',lc:3,rc:3
#HPX20014,/exp2/pberck/nyt.3e7.1000,timbl:'-a1 +D',lc:3,rc:4
#HPX20015,/exp2/pberck/nyt.3e7.1000,timbl:'-a1 +D',lc:4,rc:0
#HPX20016,/exp2/pberck/nyt.3e7.1000,timbl:'-a1 +D',lc:4,rc:1
#HPX20017,/exp2/pberck/nyt.3e7.1000,timbl:'-a1 +D',lc:4,rc:2
#HPX20018,/exp2/pberck/nyt.3e7.1000,timbl:'-a1 +D',lc:4,rc:3
#HPX20019,/exp2/pberck/nyt.3e7.1000,timbl:'-a1 +D',lc:4,rc:4
#HPX20020,/exp2/pberck/nyt.3e7.5000,timbl:'-a1 +D',lc:1,rc:0
#HPX20021,/exp2/pberck/nyt.3e7.5000,timbl:'-a1 +D',lc:1,rc:1
#HPX20022,/exp2/pberck/nyt.3e7.5000,timbl:'-a1 +D',lc:1,rc:2
#HPX20023,/exp2/pberck/nyt.3e7.5000,timbl:'-a1 +D',lc:1,rc:3
#HPX20024,/exp2/pberck/nyt.3e7.5000,timbl:'-a1 +D',lc:1,rc:4
#HPX20025,/exp2/pberck/nyt.3e7.5000,timbl:'-a1 +D',lc:2,rc:0
#HPX20026,/exp2/pberck/nyt.3e7.5000,timbl:'-a1 +D',lc:2,rc:1
#HPX20027,/exp2/pberck/nyt.3e7.5000,timbl:'-a1 +D',lc:2,rc:2
#HPX20028,/exp2/pberck/nyt.3e7.5000,timbl:'-a1 +D',lc:2,rc:3
#HPX20029,/exp2/pberck/nyt.3e7.5000,timbl:'-a1 +D',lc:2,rc:4
#HPX20030,/exp2/pberck/nyt.3e7.5000,timbl:'-a1 +D',lc:3,rc:0
#HPX20031,/exp2/pberck/nyt.3e7.5000,timbl:'-a1 +D',lc:3,rc:1
#HPX20032,/exp2/pberck/nyt.3e7.5000,timbl:'-a1 +D',lc:3,rc:2
#HPX20033,/exp2/pberck/nyt.3e7.5000,timbl:'-a1 +D',lc:3,rc:3
#HPX20034,/exp2/pberck/nyt.3e7.5000,timbl:'-a1 +D',lc:3,rc:4
#HPX20035,/exp2/pberck/nyt.3e7.5000,timbl:'-a1 +D',lc:4,rc:0
#HPX20036,/exp2/pberck/nyt.3e7.5000,timbl:'-a1 +D',lc:4,rc:1
#HPX20037,/exp2/pberck/nyt.3e7.5000,timbl:'-a1 +D',lc:4,rc:2
#HPX20038,/exp2/pberck/nyt.3e7.5000,timbl:'-a1 +D',lc:4,rc:3
#HPX20039,/exp2/pberck/nyt.3e7.5000,timbl:'-a1 +D',lc:4,rc:4
#HPX20040,/exp2/pberck/nyt.3e7.10000,timbl:'-a1 +D',lc:1,rc:0
#HPX20041,/exp2/pberck/nyt.3e7.10000,timbl:'-a1 +D',lc:1,rc:1
#HPX20042,/exp2/pberck/nyt.3e7.10000,timbl:'-a1 +D',lc:1,rc:2
#HPX20043,/exp2/pberck/nyt.3e7.10000,timbl:'-a1 +D',lc:1,rc:3
#HPX20044,/exp2/pberck/nyt.3e7.10000,timbl:'-a1 +D',lc:1,rc:4
#HPX20045,/exp2/pberck/nyt.3e7.10000,timbl:'-a1 +D',lc:2,rc:0
#HPX20046,/exp2/pberck/nyt.3e7.10000,timbl:'-a1 +D',lc:2,rc:1
#HPX20047,/exp2/pberck/nyt.3e7.10000,timbl:'-a1 +D',lc:2,rc:2
#HPX20048,/exp2/pberck/nyt.3e7.10000,timbl:'-a1 +D',lc:2,rc:3
#HPX20049,/exp2/pberck/nyt.3e7.10000,timbl:'-a1 +D',lc:2,rc:4
#HPX20050,/exp2/pberck/nyt.3e7.10000,timbl:'-a1 +D',lc:3,rc:0
#HPX20051,/exp2/pberck/nyt.3e7.10000,timbl:'-a1 +D',lc:3,rc:1
#HPX20052,/exp2/pberck/nyt.3e7.10000,timbl:'-a1 +D',lc:3,rc:2
#HPX20053,/exp2/pberck/nyt.3e7.10000,timbl:'-a1 +D',lc:3,rc:3
#HPX20054,/exp2/pberck/nyt.3e7.10000,timbl:'-a1 +D',lc:3,rc:4
#HPX20055,/exp2/pberck/nyt.3e7.10000,timbl:'-a1 +D',lc:4,rc:0
#HPX20056,/exp2/pberck/nyt.3e7.10000,timbl:'-a1 +D',lc:4,rc:1
#HPX20057,/exp2/pberck/nyt.3e7.10000,timbl:'-a1 +D',lc:4,rc:2
#HPX20058,/exp2/pberck/nyt.3e7.10000,timbl:'-a1 +D',lc:4,rc:3
#HPX20059,/exp2/pberck/nyt.3e7.10000,timbl:'-a1 +D',lc:4,rc:4
#HPX20060,/exp2/pberck/nyt.3e7.50000,timbl:'-a1 +D',lc:1,rc:0
#HPX20061,/exp2/pberck/nyt.3e7.50000,timbl:'-a1 +D',lc:1,rc:1
#HPX20062,/exp2/pberck/nyt.3e7.50000,timbl:'-a1 +D',lc:1,rc:2
#HPX20063,/exp2/pberck/nyt.3e7.50000,timbl:'-a1 +D',lc:1,rc:3
#HPX20064,/exp2/pberck/nyt.3e7.50000,timbl:'-a1 +D',lc:1,rc:4
#HPX20065,/exp2/pberck/nyt.3e7.50000,timbl:'-a1 +D',lc:2,rc:0
#HPX20066,/exp2/pberck/nyt.3e7.50000,timbl:'-a1 +D',lc:2,rc:1
#HPX20067,/exp2/pberck/nyt.3e7.50000,timbl:'-a1 +D',lc:2,rc:2
#HPX20068,/exp2/pberck/nyt.3e7.50000,timbl:'-a1 +D',lc:2,rc:3
#HPX20069,/exp2/pberck/nyt.3e7.50000,timbl:'-a1 +D',lc:2,rc:4
#HPX20070,/exp2/pberck/nyt.3e7.50000,timbl:'-a1 +D',lc:3,rc:0
#HPX20071,/exp2/pberck/nyt.3e7.50000,timbl:'-a1 +D',lc:3,rc:1
#HPX20072,/exp2/pberck/nyt.3e7.50000,timbl:'-a1 +D',lc:3,rc:2
#HPX20073,/exp2/pberck/nyt.3e7.50000,timbl:'-a1 +D',lc:3,rc:3
#HPX20074,/exp2/pberck/nyt.3e7.50000,timbl:'-a1 +D',lc:3,rc:4
#HPX20075,/exp2/pberck/nyt.3e7.50000,timbl:'-a1 +D',lc:4,rc:0
#HPX20076,/exp2/pberck/nyt.3e7.50000,timbl:'-a1 +D',lc:4,rc:1
#HPX20077,/exp2/pberck/nyt.3e7.50000,timbl:'-a1 +D',lc:4,rc:2
#HPX20078,/exp2/pberck/nyt.3e7.50000,timbl:'-a1 +D',lc:4,rc:3
#HPX20079,/exp2/pberck/nyt.3e7.50000,timbl:'-a1 +D',lc:4,rc:4
#2013-03-29 11:43:19
#HPX20080,/exp2/pberck/nyt.3e7.100000,timbl:'-a1 +D',lc:1,rc:0
#HPX20081,/exp2/pberck/nyt.3e7.100000,timbl:'-a1 +D',lc:1,rc:1
#HPX20082,/exp2/pberck/nyt.3e7.100000,timbl:'-a1 +D',lc:1,rc:2
#HPX20083,/exp2/pberck/nyt.3e7.100000,timbl:'-a1 +D',lc:1,rc:3
#HPX20084,/exp2/pberck/nyt.3e7.100000,timbl:'-a1 +D',lc:1,rc:4
#HPX20085,/exp2/pberck/nyt.3e7.100000,timbl:'-a1 +D',lc:2,rc:0
#HPX20086,/exp2/pberck/nyt.3e7.100000,timbl:'-a1 +D',lc:2,rc:1
#HPX20087,/exp2/pberck/nyt.3e7.100000,timbl:'-a1 +D',lc:2,rc:2
#HPX20088,/exp2/pberck/nyt.3e7.100000,timbl:'-a1 +D',lc:2,rc:3
#HPX20089,/exp2/pberck/nyt.3e7.100000,timbl:'-a1 +D',lc:2,rc:4
#HPX20090,/exp2/pberck/nyt.3e7.100000,timbl:'-a1 +D',lc:3,rc:0
#HPX20091,/exp2/pberck/nyt.3e7.100000,timbl:'-a1 +D',lc:3,rc:1
#HPX20092,/exp2/pberck/nyt.3e7.100000,timbl:'-a1 +D',lc:3,rc:2
#HPX20093,/exp2/pberck/nyt.3e7.100000,timbl:'-a1 +D',lc:3,rc:3
#HPX20094,/exp2/pberck/nyt.3e7.100000,timbl:'-a1 +D',lc:3,rc:4
#HPX20095,/exp2/pberck/nyt.3e7.100000,timbl:'-a1 +D',lc:4,rc:0
#HPX20096,/exp2/pberck/nyt.3e7.100000,timbl:'-a1 +D',lc:4,rc:1
#HPX20097,/exp2/pberck/nyt.3e7.100000,timbl:'-a1 +D',lc:4,rc:2
#HPX20098,/exp2/pberck/nyt.3e7.100000,timbl:'-a1 +D',lc:4,rc:3
#HPX20099,/exp2/pberck/nyt.3e7.100000,timbl:'-a1 +D',lc:4,rc:4
#HPX20100,/exp2/pberck/nyt.3e7.500000,timbl:'-a1 +D',lc:1,rc:0
#HPX20101,/exp2/pberck/nyt.3e7.500000,timbl:'-a1 +D',lc:1,rc:1
#HPX20102,/exp2/pberck/nyt.3e7.500000,timbl:'-a1 +D',lc:1,rc:2
#HPX20103,/exp2/pberck/nyt.3e7.500000,timbl:'-a1 +D',lc:1,rc:3
#HPX20104,/exp2/pberck/nyt.3e7.500000,timbl:'-a1 +D',lc:1,rc:4
#HPX20105,/exp2/pberck/nyt.3e7.500000,timbl:'-a1 +D',lc:2,rc:0
#HPX20106,/exp2/pberck/nyt.3e7.500000,timbl:'-a1 +D',lc:2,rc:1
#HPX20107,/exp2/pberck/nyt.3e7.500000,timbl:'-a1 +D',lc:2,rc:2
#HPX20108,/exp2/pberck/nyt.3e7.500000,timbl:'-a1 +D',lc:2,rc:3
#HPX20109,/exp2/pberck/nyt.3e7.500000,timbl:'-a1 +D',lc:2,rc:4
#HPX20110,/exp2/pberck/nyt.3e7.500000,timbl:'-a1 +D',lc:3,rc:0
#HPX20111,/exp2/pberck/nyt.3e7.500000,timbl:'-a1 +D',lc:3,rc:1
#HPX20112,/exp2/pberck/nyt.3e7.500000,timbl:'-a1 +D',lc:3,rc:2
#HPX20113,/exp2/pberck/nyt.3e7.500000,timbl:'-a1 +D',lc:3,rc:3
#HPX20114,/exp2/pberck/nyt.3e7.500000,timbl:'-a1 +D',lc:3,rc:4
#HPX20115,/exp2/pberck/nyt.3e7.500000,timbl:'-a1 +D',lc:4,rc:0
#HPX20116,/exp2/pberck/nyt.3e7.500000,timbl:'-a1 +D',lc:4,rc:1
#HPX20117,/exp2/pberck/nyt.3e7.500000,timbl:'-a1 +D',lc:4,rc:2
#HPX20118,/exp2/pberck/nyt.3e7.500000,timbl:'-a1 +D',lc:4,rc:3
#HPX20119,/exp2/pberck/nyt.3e7.500000,timbl:'-a1 +D',lc:4,rc:4
#HPX20120,/exp2/pberck/nyt.3e7.1000000,timbl:'-a1 +D',lc:1,rc:0
#HPX20121,/exp2/pberck/nyt.3e7.1000000,timbl:'-a1 +D',lc:1,rc:1
#HPX20122,/exp2/pberck/nyt.3e7.1000000,timbl:'-a1 +D',lc:1,rc:2
#HPX20123,/exp2/pberck/nyt.3e7.1000000,timbl:'-a1 +D',lc:1,rc:3
#HPX20124,/exp2/pberck/nyt.3e7.1000000,timbl:'-a1 +D',lc:1,rc:4
#HPX20125,/exp2/pberck/nyt.3e7.1000000,timbl:'-a1 +D',lc:2,rc:0
#HPX20126,/exp2/pberck/nyt.3e7.1000000,timbl:'-a1 +D',lc:2,rc:1
#HPX20127,/exp2/pberck/nyt.3e7.1000000,timbl:'-a1 +D',lc:2,rc:2
#HPX20128,/exp2/pberck/nyt.3e7.1000000,timbl:'-a1 +D',lc:2,rc:3
#HPX20129,/exp2/pberck/nyt.3e7.1000000,timbl:'-a1 +D',lc:2,rc:4
#HPX20130,/exp2/pberck/nyt.3e7.1000000,timbl:'-a1 +D',lc:3,rc:0
#HPX20131,/exp2/pberck/nyt.3e7.1000000,timbl:'-a1 +D',lc:3,rc:1
#HPX20132,/exp2/pberck/nyt.3e7.1000000,timbl:'-a1 +D',lc:3,rc:2
#HPX20133,/exp2/pberck/nyt.3e7.1000000,timbl:'-a1 +D',lc:3,rc:3
#HPX20134,/exp2/pberck/nyt.3e7.1000000,timbl:'-a1 +D',lc:3,rc:4
#HPX20135,/exp2/pberck/nyt.3e7.1000000,timbl:'-a1 +D',lc:4,rc:0
#HPX20136,/exp2/pberck/nyt.3e7.1000000,timbl:'-a1 +D',lc:4,rc:1
#HPX20137,/exp2/pberck/nyt.3e7.1000000,timbl:'-a1 +D',lc:4,rc:2
#HPX20138,/exp2/pberck/nyt.3e7.1000000,timbl:'-a1 +D',lc:4,rc:3
#HPX20139,/exp2/pberck/nyt.3e7.1000000,timbl:'-a1 +D',lc:4,rc:4
#HPX20140,/exp2/pberck/nyt.3e7.5000000,timbl:'-a1 +D',lc:1,rc:0
#HPX20141,/exp2/pberck/nyt.3e7.5000000,timbl:'-a1 +D',lc:1,rc:1
#HPX20142,/exp2/pberck/nyt.3e7.5000000,timbl:'-a1 +D',lc:1,rc:2
#HPX20143,/exp2/pberck/nyt.3e7.5000000,timbl:'-a1 +D',lc:1,rc:3
#HPX20144,/exp2/pberck/nyt.3e7.5000000,timbl:'-a1 +D',lc:1,rc:4
#HPX20145,/exp2/pberck/nyt.3e7.5000000,timbl:'-a1 +D',lc:2,rc:0
#HPX20146,/exp2/pberck/nyt.3e7.5000000,timbl:'-a1 +D',lc:2,rc:1
#HPX20147,/exp2/pberck/nyt.3e7.5000000,timbl:'-a1 +D',lc:2,rc:2
#HPX20148,/exp2/pberck/nyt.3e7.5000000,timbl:'-a1 +D',lc:2,rc:3
#HPX20149,/exp2/pberck/nyt.3e7.5000000,timbl:'-a1 +D',lc:2,rc:4
#HPX20150,/exp2/pberck/nyt.3e7.5000000,timbl:'-a1 +D',lc:3,rc:0
#HPX20151,/exp2/pberck/nyt.3e7.5000000,timbl:'-a1 +D',lc:3,rc:1
#HPX20152,/exp2/pberck/nyt.3e7.5000000,timbl:'-a1 +D',lc:3,rc:2
#HPX20153,/exp2/pberck/nyt.3e7.5000000,timbl:'-a1 +D',lc:3,rc:3
#HPX20154,/exp2/pberck/nyt.3e7.5000000,timbl:'-a1 +D',lc:3,rc:4
#HPX20155,/exp2/pberck/nyt.3e7.5000000,timbl:'-a1 +D',lc:4,rc:0
#HPX20156,/exp2/pberck/nyt.3e7.5000000,timbl:'-a1 +D',lc:4,rc:1
#HPX20157,/exp2/pberck/nyt.3e7.5000000,timbl:'-a1 +D',lc:4,rc:2
#HPX20158,/exp2/pberck/nyt.3e7.5000000,timbl:'-a1 +D',lc:4,rc:3
#HPX20159,/exp2/pberck/nyt.3e7.5000000,timbl:'-a1 +D',lc:4,rc:4
#HPX20160,/exp2/pberck/nyt.3e7.10000000,timbl:'-a1 +D',lc:1,rc:0
#HPX20161,/exp2/pberck/nyt.3e7.10000000,timbl:'-a1 +D',lc:1,rc:1
#HPX20162,/exp2/pberck/nyt.3e7.10000000,timbl:'-a1 +D',lc:1,rc:2
#HPX20163,/exp2/pberck/nyt.3e7.10000000,timbl:'-a1 +D',lc:1,rc:3
#HPX20164,/exp2/pberck/nyt.3e7.10000000,timbl:'-a1 +D',lc:1,rc:4
#HPX20165,/exp2/pberck/nyt.3e7.10000000,timbl:'-a1 +D',lc:2,rc:0
#HPX20166,/exp2/pberck/nyt.3e7.10000000,timbl:'-a1 +D',lc:2,rc:1
#HPX20167,/exp2/pberck/nyt.3e7.10000000,timbl:'-a1 +D',lc:2,rc:2
#HPX20168,/exp2/pberck/nyt.3e7.10000000,timbl:'-a1 +D',lc:2,rc:3
#HPX20169,/exp2/pberck/nyt.3e7.10000000,timbl:'-a1 +D',lc:2,rc:4
#HPX20170,/exp2/pberck/nyt.3e7.10000000,timbl:'-a1 +D',lc:3,rc:0
#HPX20171,/exp2/pberck/nyt.3e7.10000000,timbl:'-a1 +D',lc:3,rc:1
#HPX20172,/exp2/pberck/nyt.3e7.10000000,timbl:'-a1 +D',lc:3,rc:2
#HPX20173,/exp2/pberck/nyt.3e7.10000000,timbl:'-a1 +D',lc:3,rc:3
#HPX20174,/exp2/pberck/nyt.3e7.10000000,timbl:'-a1 +D',lc:3,rc:4
#HPX20175,/exp2/pberck/nyt.3e7.10000000,timbl:'-a1 +D',lc:4,rc:0
#HPX20176,/exp2/pberck/nyt.3e7.10000000,timbl:'-a1 +D',lc:4,rc:1
#HPX20177,/exp2/pberck/nyt.3e7.10000000,timbl:'-a1 +D',lc:4,rc:2
#HPX20178,/exp2/pberck/nyt.3e7.10000000,timbl:'-a1 +D',lc:4,rc:3
#HPX20179,/exp2/pberck/nyt.3e7.10000000,timbl:'-a1 +D',lc:4,rc:4
