#2013-03-29 09:07:43
#HPX10000,/exp2/pberck/nyt.3e7.1000,timbl:'-a1 +D',lc:2,rc:0
#2013-03-29 09:09:35
#HPX10000,/exp2/pberck/nyt.3e7.1000,timbl:'-a1 +D',lc:2,rc:0
#2013-03-29 09:12:23
#HPX10000,/exp2/pberck/nyt.3e7.1000,timbl:'-a1 +D',lc:1,rc:0
#HPX10001,/exp2/pberck/nyt.3e7.1000,timbl:'-a1 +D',lc:1,rc:1
#HPX10002,/exp2/pberck/nyt.3e7.1000,timbl:'-a1 +D',lc:1,rc:2
#HPX10003,/exp2/pberck/nyt.3e7.1000,timbl:'-a1 +D',lc:1,rc:3
#HPX10004,/exp2/pberck/nyt.3e7.1000,timbl:'-a1 +D',lc:1,rc:4
#HPX10005,/exp2/pberck/nyt.3e7.1000,timbl:'-a1 +D',lc:2,rc:0
#HPX10006,/exp2/pberck/nyt.3e7.1000,timbl:'-a1 +D',lc:2,rc:1
#HPX10007,/exp2/pberck/nyt.3e7.1000,timbl:'-a1 +D',lc:2,rc:2
#HPX10008,/exp2/pberck/nyt.3e7.1000,timbl:'-a1 +D',lc:2,rc:3
#HPX10009,/exp2/pberck/nyt.3e7.1000,timbl:'-a1 +D',lc:2,rc:4
#HPX10010,/exp2/pberck/nyt.3e7.1000,timbl:'-a1 +D',lc:3,rc:0
#HPX10011,/exp2/pberck/nyt.3e7.1000,timbl:'-a1 +D',lc:3,rc:1
#HPX10012,/exp2/pberck/nyt.3e7.1000,timbl:'-a1 +D',lc:3,rc:2
#HPX10013,/exp2/pberck/nyt.3e7.1000,timbl:'-a1 +D',lc:3,rc:3
#HPX10014,/exp2/pberck/nyt.3e7.1000,timbl:'-a1 +D',lc:3,rc:4
#HPX10015,/exp2/pberck/nyt.3e7.1000,timbl:'-a1 +D',lc:4,rc:0
#HPX10016,/exp2/pberck/nyt.3e7.1000,timbl:'-a1 +D',lc:4,rc:1
#HPX10017,/exp2/pberck/nyt.3e7.1000,timbl:'-a1 +D',lc:4,rc:2
#HPX10018,/exp2/pberck/nyt.3e7.1000,timbl:'-a1 +D',lc:4,rc:3
#HPX10019,/exp2/pberck/nyt.3e7.1000,timbl:'-a1 +D',lc:4,rc:4
#HPX10020,/exp2/pberck/nyt.3e7.5000,timbl:'-a1 +D',lc:1,rc:0
#HPX10021,/exp2/pberck/nyt.3e7.5000,timbl:'-a1 +D',lc:1,rc:1
#HPX10022,/exp2/pberck/nyt.3e7.5000,timbl:'-a1 +D',lc:1,rc:2
#HPX10023,/exp2/pberck/nyt.3e7.5000,timbl:'-a1 +D',lc:1,rc:3
#HPX10024,/exp2/pberck/nyt.3e7.5000,timbl:'-a1 +D',lc:1,rc:4
#HPX10025,/exp2/pberck/nyt.3e7.5000,timbl:'-a1 +D',lc:2,rc:0
#HPX10026,/exp2/pberck/nyt.3e7.5000,timbl:'-a1 +D',lc:2,rc:1
#HPX10027,/exp2/pberck/nyt.3e7.5000,timbl:'-a1 +D',lc:2,rc:2
#HPX10028,/exp2/pberck/nyt.3e7.5000,timbl:'-a1 +D',lc:2,rc:3
#HPX10029,/exp2/pberck/nyt.3e7.5000,timbl:'-a1 +D',lc:2,rc:4
#HPX10030,/exp2/pberck/nyt.3e7.5000,timbl:'-a1 +D',lc:3,rc:0
#HPX10031,/exp2/pberck/nyt.3e7.5000,timbl:'-a1 +D',lc:3,rc:1
#HPX10032,/exp2/pberck/nyt.3e7.5000,timbl:'-a1 +D',lc:3,rc:2
#HPX10033,/exp2/pberck/nyt.3e7.5000,timbl:'-a1 +D',lc:3,rc:3
#HPX10034,/exp2/pberck/nyt.3e7.5000,timbl:'-a1 +D',lc:3,rc:4
#HPX10035,/exp2/pberck/nyt.3e7.5000,timbl:'-a1 +D',lc:4,rc:0
#HPX10036,/exp2/pberck/nyt.3e7.5000,timbl:'-a1 +D',lc:4,rc:1
#HPX10037,/exp2/pberck/nyt.3e7.5000,timbl:'-a1 +D',lc:4,rc:2
#HPX10038,/exp2/pberck/nyt.3e7.5000,timbl:'-a1 +D',lc:4,rc:3
#HPX10039,/exp2/pberck/nyt.3e7.5000,timbl:'-a1 +D',lc:4,rc:4
#HPX10040,/exp2/pberck/nyt.3e7.10000,timbl:'-a1 +D',lc:1,rc:0
#HPX10041,/exp2/pberck/nyt.3e7.10000,timbl:'-a1 +D',lc:1,rc:1
#HPX10042,/exp2/pberck/nyt.3e7.10000,timbl:'-a1 +D',lc:1,rc:2
#HPX10043,/exp2/pberck/nyt.3e7.10000,timbl:'-a1 +D',lc:1,rc:3
#HPX10044,/exp2/pberck/nyt.3e7.10000,timbl:'-a1 +D',lc:1,rc:4
#HPX10045,/exp2/pberck/nyt.3e7.10000,timbl:'-a1 +D',lc:2,rc:0
#HPX10046,/exp2/pberck/nyt.3e7.10000,timbl:'-a1 +D',lc:2,rc:1
#HPX10047,/exp2/pberck/nyt.3e7.10000,timbl:'-a1 +D',lc:2,rc:2
#HPX10048,/exp2/pberck/nyt.3e7.10000,timbl:'-a1 +D',lc:2,rc:3
#HPX10049,/exp2/pberck/nyt.3e7.10000,timbl:'-a1 +D',lc:2,rc:4
#HPX10050,/exp2/pberck/nyt.3e7.10000,timbl:'-a1 +D',lc:3,rc:0
#HPX10051,/exp2/pberck/nyt.3e7.10000,timbl:'-a1 +D',lc:3,rc:1
#HPX10052,/exp2/pberck/nyt.3e7.10000,timbl:'-a1 +D',lc:3,rc:2
#HPX10053,/exp2/pberck/nyt.3e7.10000,timbl:'-a1 +D',lc:3,rc:3
#HPX10054,/exp2/pberck/nyt.3e7.10000,timbl:'-a1 +D',lc:3,rc:4
#HPX10055,/exp2/pberck/nyt.3e7.10000,timbl:'-a1 +D',lc:4,rc:0
#HPX10056,/exp2/pberck/nyt.3e7.10000,timbl:'-a1 +D',lc:4,rc:1
#HPX10057,/exp2/pberck/nyt.3e7.10000,timbl:'-a1 +D',lc:4,rc:2
#HPX10058,/exp2/pberck/nyt.3e7.10000,timbl:'-a1 +D',lc:4,rc:3
#HPX10059,/exp2/pberck/nyt.3e7.10000,timbl:'-a1 +D',lc:4,rc:4
#HPX10060,/exp2/pberck/nyt.3e7.50000,timbl:'-a1 +D',lc:1,rc:0
#HPX10061,/exp2/pberck/nyt.3e7.50000,timbl:'-a1 +D',lc:1,rc:1
#HPX10062,/exp2/pberck/nyt.3e7.50000,timbl:'-a1 +D',lc:1,rc:2
#HPX10063,/exp2/pberck/nyt.3e7.50000,timbl:'-a1 +D',lc:1,rc:3
#HPX10064,/exp2/pberck/nyt.3e7.50000,timbl:'-a1 +D',lc:1,rc:4
#HPX10065,/exp2/pberck/nyt.3e7.50000,timbl:'-a1 +D',lc:2,rc:0
#HPX10066,/exp2/pberck/nyt.3e7.50000,timbl:'-a1 +D',lc:2,rc:1
#HPX10067,/exp2/pberck/nyt.3e7.50000,timbl:'-a1 +D',lc:2,rc:2
#HPX10068,/exp2/pberck/nyt.3e7.50000,timbl:'-a1 +D',lc:2,rc:3
#HPX10069,/exp2/pberck/nyt.3e7.50000,timbl:'-a1 +D',lc:2,rc:4
#HPX10070,/exp2/pberck/nyt.3e7.50000,timbl:'-a1 +D',lc:3,rc:0
#HPX10071,/exp2/pberck/nyt.3e7.50000,timbl:'-a1 +D',lc:3,rc:1
#HPX10072,/exp2/pberck/nyt.3e7.50000,timbl:'-a1 +D',lc:3,rc:2
#HPX10073,/exp2/pberck/nyt.3e7.50000,timbl:'-a1 +D',lc:3,rc:3
#HPX10074,/exp2/pberck/nyt.3e7.50000,timbl:'-a1 +D',lc:3,rc:4
#HPX10075,/exp2/pberck/nyt.3e7.50000,timbl:'-a1 +D',lc:4,rc:0
#HPX10076,/exp2/pberck/nyt.3e7.50000,timbl:'-a1 +D',lc:4,rc:1
#HPX10077,/exp2/pberck/nyt.3e7.50000,timbl:'-a1 +D',lc:4,rc:2
#HPX10078,/exp2/pberck/nyt.3e7.50000,timbl:'-a1 +D',lc:4,rc:3
#HPX10079,/exp2/pberck/nyt.3e7.50000,timbl:'-a1 +D',lc:4,rc:4
#HPX10080,/exp2/pberck/nyt.3e7.100000,timbl:'-a1 +D',lc:1,rc:0
#HPX10081,/exp2/pberck/nyt.3e7.100000,timbl:'-a1 +D',lc:1,rc:1
#HPX10082,/exp2/pberck/nyt.3e7.100000,timbl:'-a1 +D',lc:1,rc:2
#HPX10083,/exp2/pberck/nyt.3e7.100000,timbl:'-a1 +D',lc:1,rc:3
#HPX10084,/exp2/pberck/nyt.3e7.100000,timbl:'-a1 +D',lc:1,rc:4
#HPX10085,/exp2/pberck/nyt.3e7.100000,timbl:'-a1 +D',lc:2,rc:0
#HPX10086,/exp2/pberck/nyt.3e7.100000,timbl:'-a1 +D',lc:2,rc:1
#HPX10087,/exp2/pberck/nyt.3e7.100000,timbl:'-a1 +D',lc:2,rc:2
#HPX10088,/exp2/pberck/nyt.3e7.100000,timbl:'-a1 +D',lc:2,rc:3
#HPX10089,/exp2/pberck/nyt.3e7.100000,timbl:'-a1 +D',lc:2,rc:4
#HPX10090,/exp2/pberck/nyt.3e7.100000,timbl:'-a1 +D',lc:3,rc:0
#HPX10091,/exp2/pberck/nyt.3e7.100000,timbl:'-a1 +D',lc:3,rc:1
#HPX10092,/exp2/pberck/nyt.3e7.100000,timbl:'-a1 +D',lc:3,rc:2
#HPX10093,/exp2/pberck/nyt.3e7.100000,timbl:'-a1 +D',lc:3,rc:3
#HPX10094,/exp2/pberck/nyt.3e7.100000,timbl:'-a1 +D',lc:3,rc:4
#HPX10095,/exp2/pberck/nyt.3e7.100000,timbl:'-a1 +D',lc:4,rc:0
#HPX10096,/exp2/pberck/nyt.3e7.100000,timbl:'-a1 +D',lc:4,rc:1
#HPX10097,/exp2/pberck/nyt.3e7.100000,timbl:'-a1 +D',lc:4,rc:2
#HPX10098,/exp2/pberck/nyt.3e7.100000,timbl:'-a1 +D',lc:4,rc:3
#HPX10099,/exp2/pberck/nyt.3e7.100000,timbl:'-a1 +D',lc:4,rc:4
#HPX10100,/exp2/pberck/nyt.3e7.500000,timbl:'-a1 +D',lc:1,rc:0
#HPX10101,/exp2/pberck/nyt.3e7.500000,timbl:'-a1 +D',lc:1,rc:1
#HPX10102,/exp2/pberck/nyt.3e7.500000,timbl:'-a1 +D',lc:1,rc:2
#HPX10103,/exp2/pberck/nyt.3e7.500000,timbl:'-a1 +D',lc:1,rc:3
#HPX10104,/exp2/pberck/nyt.3e7.500000,timbl:'-a1 +D',lc:1,rc:4
#HPX10105,/exp2/pberck/nyt.3e7.500000,timbl:'-a1 +D',lc:2,rc:0
#HPX10106,/exp2/pberck/nyt.3e7.500000,timbl:'-a1 +D',lc:2,rc:1
#HPX10107,/exp2/pberck/nyt.3e7.500000,timbl:'-a1 +D',lc:2,rc:2
#HPX10108,/exp2/pberck/nyt.3e7.500000,timbl:'-a1 +D',lc:2,rc:3
#HPX10109,/exp2/pberck/nyt.3e7.500000,timbl:'-a1 +D',lc:2,rc:4
#HPX10110,/exp2/pberck/nyt.3e7.500000,timbl:'-a1 +D',lc:3,rc:0
#HPX10111,/exp2/pberck/nyt.3e7.500000,timbl:'-a1 +D',lc:3,rc:1
#HPX10112,/exp2/pberck/nyt.3e7.500000,timbl:'-a1 +D',lc:3,rc:2
#HPX10113,/exp2/pberck/nyt.3e7.500000,timbl:'-a1 +D',lc:3,rc:3
#HPX10114,/exp2/pberck/nyt.3e7.500000,timbl:'-a1 +D',lc:3,rc:4
#HPX10115,/exp2/pberck/nyt.3e7.500000,timbl:'-a1 +D',lc:4,rc:0
#HPX10116,/exp2/pberck/nyt.3e7.500000,timbl:'-a1 +D',lc:4,rc:1
#HPX10117,/exp2/pberck/nyt.3e7.500000,timbl:'-a1 +D',lc:4,rc:2
#HPX10118,/exp2/pberck/nyt.3e7.500000,timbl:'-a1 +D',lc:4,rc:3
#HPX10119,/exp2/pberck/nyt.3e7.500000,timbl:'-a1 +D',lc:4,rc:4
#HPX10120,/exp2/pberck/nyt.3e7.1000000,timbl:'-a1 +D',lc:1,rc:0
#HPX10121,/exp2/pberck/nyt.3e7.1000000,timbl:'-a1 +D',lc:1,rc:1
#HPX10122,/exp2/pberck/nyt.3e7.1000000,timbl:'-a1 +D',lc:1,rc:2
#HPX10123,/exp2/pberck/nyt.3e7.1000000,timbl:'-a1 +D',lc:1,rc:3
#HPX10124,/exp2/pberck/nyt.3e7.1000000,timbl:'-a1 +D',lc:1,rc:4
#HPX10125,/exp2/pberck/nyt.3e7.1000000,timbl:'-a1 +D',lc:2,rc:0
#HPX10126,/exp2/pberck/nyt.3e7.1000000,timbl:'-a1 +D',lc:2,rc:1
#HPX10127,/exp2/pberck/nyt.3e7.1000000,timbl:'-a1 +D',lc:2,rc:2
#HPX10128,/exp2/pberck/nyt.3e7.1000000,timbl:'-a1 +D',lc:2,rc:3
#HPX10129,/exp2/pberck/nyt.3e7.1000000,timbl:'-a1 +D',lc:2,rc:4
#HPX10130,/exp2/pberck/nyt.3e7.1000000,timbl:'-a1 +D',lc:3,rc:0
#HPX10131,/exp2/pberck/nyt.3e7.1000000,timbl:'-a1 +D',lc:3,rc:1
#HPX10132,/exp2/pberck/nyt.3e7.1000000,timbl:'-a1 +D',lc:3,rc:2
#HPX10133,/exp2/pberck/nyt.3e7.1000000,timbl:'-a1 +D',lc:3,rc:3
#HPX10134,/exp2/pberck/nyt.3e7.1000000,timbl:'-a1 +D',lc:3,rc:4
#HPX10135,/exp2/pberck/nyt.3e7.1000000,timbl:'-a1 +D',lc:4,rc:0
#HPX10136,/exp2/pberck/nyt.3e7.1000000,timbl:'-a1 +D',lc:4,rc:1
#HPX10137,/exp2/pberck/nyt.3e7.1000000,timbl:'-a1 +D',lc:4,rc:2
#HPX10138,/exp2/pberck/nyt.3e7.1000000,timbl:'-a1 +D',lc:4,rc:3
#HPX10139,/exp2/pberck/nyt.3e7.1000000,timbl:'-a1 +D',lc:4,rc:4
#HPX10140,/exp2/pberck/nyt.3e7.5000000,timbl:'-a1 +D',lc:1,rc:0
#HPX10141,/exp2/pberck/nyt.3e7.5000000,timbl:'-a1 +D',lc:1,rc:1
#HPX10142,/exp2/pberck/nyt.3e7.5000000,timbl:'-a1 +D',lc:1,rc:2
#HPX10143,/exp2/pberck/nyt.3e7.5000000,timbl:'-a1 +D',lc:1,rc:3
#HPX10144,/exp2/pberck/nyt.3e7.5000000,timbl:'-a1 +D',lc:1,rc:4
#HPX10145,/exp2/pberck/nyt.3e7.5000000,timbl:'-a1 +D',lc:2,rc:0
#HPX10146,/exp2/pberck/nyt.3e7.5000000,timbl:'-a1 +D',lc:2,rc:1
#HPX10147,/exp2/pberck/nyt.3e7.5000000,timbl:'-a1 +D',lc:2,rc:2
#HPX10148,/exp2/pberck/nyt.3e7.5000000,timbl:'-a1 +D',lc:2,rc:3
#HPX10149,/exp2/pberck/nyt.3e7.5000000,timbl:'-a1 +D',lc:2,rc:4
#HPX10150,/exp2/pberck/nyt.3e7.5000000,timbl:'-a1 +D',lc:3,rc:0
#HPX10151,/exp2/pberck/nyt.3e7.5000000,timbl:'-a1 +D',lc:3,rc:1
#HPX10152,/exp2/pberck/nyt.3e7.5000000,timbl:'-a1 +D',lc:3,rc:2
#HPX10153,/exp2/pberck/nyt.3e7.5000000,timbl:'-a1 +D',lc:3,rc:3
#HPX10154,/exp2/pberck/nyt.3e7.5000000,timbl:'-a1 +D',lc:3,rc:4
#HPX10155,/exp2/pberck/nyt.3e7.5000000,timbl:'-a1 +D',lc:4,rc:0
#HPX10156,/exp2/pberck/nyt.3e7.5000000,timbl:'-a1 +D',lc:4,rc:1
#HPX10157,/exp2/pberck/nyt.3e7.5000000,timbl:'-a1 +D',lc:4,rc:2
#HPX10158,/exp2/pberck/nyt.3e7.5000000,timbl:'-a1 +D',lc:4,rc:3
#HPX10159,/exp2/pberck/nyt.3e7.5000000,timbl:'-a1 +D',lc:4,rc:4
#2013-04-02 13:21:36
#HPX10137,/exp2/pberck/nyt.3e7.1000000,timbl:'-a1 +D',lc:4,rc:2
#HPX10138,/exp2/pberck/nyt.3e7.1000000,timbl:'-a1 +D',lc:4,rc:3
#HPX10139,/exp2/pberck/nyt.3e7.1000000,timbl:'-a1 +D',lc:4,rc:4
#HPX10140,/exp2/pberck/nyt.3e7.5000000,timbl:'-a1 +D',lc:1,rc:0
#HPX10141,/exp2/pberck/nyt.3e7.5000000,timbl:'-a1 +D',lc:1,rc:1
#HPX10142,/exp2/pberck/nyt.3e7.5000000,timbl:'-a1 +D',lc:1,rc:2
#HPX10143,/exp2/pberck/nyt.3e7.5000000,timbl:'-a1 +D',lc:1,rc:3
#HPX10144,/exp2/pberck/nyt.3e7.5000000,timbl:'-a1 +D',lc:1,rc:4
#HPX10145,/exp2/pberck/nyt.3e7.5000000,timbl:'-a1 +D',lc:2,rc:0
#HPX10146,/exp2/pberck/nyt.3e7.5000000,timbl:'-a1 +D',lc:2,rc:1
#HPX10147,/exp2/pberck/nyt.3e7.5000000,timbl:'-a1 +D',lc:2,rc:2
#HPX10148,/exp2/pberck/nyt.3e7.5000000,timbl:'-a1 +D',lc:2,rc:3
#HPX10149,/exp2/pberck/nyt.3e7.5000000,timbl:'-a1 +D',lc:2,rc:4
#HPX10150,/exp2/pberck/nyt.3e7.5000000,timbl:'-a1 +D',lc:3,rc:0
#HPX10151,/exp2/pberck/nyt.3e7.5000000,timbl:'-a1 +D',lc:3,rc:1
#HPX10152,/exp2/pberck/nyt.3e7.5000000,timbl:'-a1 +D',lc:3,rc:2
#HPX10153,/exp2/pberck/nyt.3e7.5000000,timbl:'-a1 +D',lc:3,rc:3
#HPX10154,/exp2/pberck/nyt.3e7.5000000,timbl:'-a1 +D',lc:3,rc:4
#HPX10155,/exp2/pberck/nyt.3e7.5000000,timbl:'-a1 +D',lc:4,rc:0
#HPX10156,/exp2/pberck/nyt.3e7.5000000,timbl:'-a1 +D',lc:4,rc:1
#HPX10157,/exp2/pberck/nyt.3e7.5000000,timbl:'-a1 +D',lc:4,rc:2
#HPX10158,/exp2/pberck/nyt.3e7.5000000,timbl:'-a1 +D',lc:4,rc:3
#HPX10159,/exp2/pberck/nyt.3e7.5000000,timbl:'-a1 +D',lc:4,rc:4
#2013-04-05 13:32:55
#HPX10146,/exp2/pberck/nyt.3e7.5000000,timbl:'-a1 +D',lc:2,rc:1
#HPX10147,/exp2/pberck/nyt.3e7.5000000,timbl:'-a1 +D',lc:2,rc:2
#HPX10148,/exp2/pberck/nyt.3e7.5000000,timbl:'-a1 +D',lc:2,rc:3
#HPX10149,/exp2/pberck/nyt.3e7.5000000,timbl:'-a1 +D',lc:2,rc:4
#HPX10150,/exp2/pberck/nyt.3e7.5000000,timbl:'-a1 +D',lc:3,rc:0
#HPX10151,/exp2/pberck/nyt.3e7.5000000,timbl:'-a1 +D',lc:3,rc:1
#HPX10152,/exp2/pberck/nyt.3e7.5000000,timbl:'-a1 +D',lc:3,rc:2
#HPX10153,/exp2/pberck/nyt.3e7.5000000,timbl:'-a1 +D',lc:3,rc:3
#HPX10154,/exp2/pberck/nyt.3e7.5000000,timbl:'-a1 +D',lc:3,rc:4
#HPX10155,/ex#2013-04-07 10:40:33
#HPX10149,/exp2/pberck/nyt.3e7.5000000,timbl:'-a1 +D',lc:2,rc:4
#HPX10150,/exp2/pberck/nyt.3e7.5000000,timbl:'-a1 +D',lc:3,rc:0
#HPX10151,/exp2/pberck/nyt.3e7.5000000,timbl:'-a1 +D',lc:3,rc:1
#HPX10152,/exp2/pberck/nyt.3e7.5000000,timbl:'-a1 +D',lc:3,rc:2
#HPX10153,/exp2/pberck/nyt.3e7.5000000,timbl:'-a1 +D',lc:3,rc:3
#HPX10154,/exp2/pberck/nyt.3e7.5000000,timbl:'-a1 +D',lc:3,rc:4
#HPX10155,/exp2/pberck/nyt.3e7.5000000,timbl:'-a1 +D',lc:4,rc:0
#HPX10156,/exp2/pberck/nyt.3e7.5000000,timbl:'-a1 +D',lc:4,rc:1
#HPX10157,/exp2/pberck/nyt.3e7.5000000,timbl:'-a1 +D',lc:4,rc:2
#HPX10158,/exp2/pberck/nyt.3e7.5000000,timbl:'-a1 +D',lc:4,rc:3
#HPX10159,/exp2/pberck/nyt.3e7.5000000,timbl:'-a1 +D',lc:4,rc:4
#2013-04-07 10:58:22
#HPX10149,/exp2/pberck/nyt.3e7.5000000,timbl:'-a1 +D',lc:2,rc:4
#2013-04-07 11:34:02
#HPX10149,/exp2/pberck/nyt.3e7.5000000,timbl:'-a1 +D',lc:2,rc:4
#HPX10150,/exp2/pberck/nyt.3e7.5000000,timbl:'-a1 +D',lc:3,rc:0
#HPX10151,/exp2/pberck/nyt.3e7.5000000,timbl:'-a1 +D',lc:3,rc:1
#HPX10152,/exp2/pberck/nyt.3e7.5000000,timbl:'-a1 +D',lc:3,rc:2
#HPX10153,/exp2/pberck/nyt.3e7.5000000,timbl:'-a1 +D',lc:3,rc:3
#HPX10154,/exp2/pberck/nyt.3e7.5000000,timbl:'-a1 +D',lc:3,rc:4
#HPX10155,/exp2/pberck/nyt.3e7.5000000,timbl:'-a1 +D',lc:4,rc:0
#HPX10156,/exp2/pberck/nyt.3e7.5000000,timbl:'-a1 +D',lc:4,rc:1
#HPX10157,/exp2/pberck/nyt.3e7.5000000,timbl:'-a1 +D',lc:4,rc:2
#HPX10158,/exp2/pberck/nyt.3e7.5000000,timbl:'-a1 +D',lc:4,rc:3
#HPX10159,/exp2/pberck/nyt.3e7.5000000,timbl:'-a1 +D',lc:4,rc:4
