ALG22001 1000 9.09 15.76 75.15 227.14 227.14 0.274 1.000 0.539 165.82 610.10 l4r0_-a0+D
ALG22003 5000 10.45 16.66 72.89 357.23 357.23 0.253 1.000 0.541 262.92 1739.94 l4r0_-a0+D
ALG22005 10000 11.63 17.41 70.96 396.20 396.20 0.258 1.000 0.555 347.56 2561.23 l4r0_-a0+D
ALG22007 50000 14.24 19.77 65.99 414.22 414.22 0.263 1.000 0.572 505.00 5060.41 l4r0_-a0+D
ALG22009 100000 15.31 21.09 63.60 400.44 400.44 0.262 1.000 0.572 702.58 8390.80 l4r0_-a0+D
ALG22011 500000 19.96 24.14 55.90 302.84 302.84 0.262 1.000 0.596 1687.83 33491.64 l4r0_-a0+D
ALG22013 1000000 20.56 24.63 54.82 298.55 298.55 0.254 1.000 0.593 2305.55 63256.59 l4r0_-a0+D
ALG22015 5000000 23.37 27.87 48.76 235.69 235.69 0.248 1.000 0.591 5797.44 261398.39 l4r0_-a0+D
ALG22017 10000000 25.02 29.70 45.28 200.07 200.07 0.246 1.000 0.591 8590.06 510486.01 l4r0_-a0+D
