ALG21001 1000 9.77 14.68 75.54 212.19 212.19 0.300 1.000 0.580 148.86 553.87 l4r0_-a4+D
ALG21003 5000 11.23 15.80 72.97 328.61 328.61 0.280 1.000 0.579 236.26 1596.84 l4r0_-a4+D
ALG21005 10000 12.58 16.65 70.77 361.77 361.77 0.283 1.000 0.592 316.30 2396.38 l4r0_-a4+D
ALG21007 50000 15.26 19.38 65.36 375.43 375.43 0.288 1.000 0.601 447.33 4428.65 l4r0_-a4+D
ALG21009 100000 16.28 20.91 62.81 359.90 359.90 0.287 1.000 0.599 640.35 7676.24 l4r0_-a4+D
ALG21011 500000 20.59 23.18 56.23 284.02 284.02 0.288 1.000 0.623 1566.35 31538.99 l4r0_-a4+D
ALG21013 1000000 21.00 24.04 54.96 281.17 281.17 0.278 1.000 0.615 2193.80 60836.02 l4r0_-a4+D
ALG21015 5000000 23.75 26.79 49.45 225.55 225.55 0.274 1.000 0.615 5651.35 255665.22 l4r0_-a4+D
ALG21017 10000000 25.06 27.76 47.18 202.83 202.83 0.272 1.000 0.618 8421.93 501993.28 l4r0_-a4+D
