#2013-02-06 15:10:55
#ALG60100,/exp2/pberck/nyt.3e7.2000000,timbl:'-a0 +D',lc:2,rc:0
#ALG60101,/exp2/pberck/nyt.3e7.2000000,timbl:'-a0 +D',lc:2,rc:1
#ALG60102,/exp2/pberck/nyt.3e7.2000000,timbl:'-a0 +D',lc:2,rc:2
#ALG60103,/exp2/pberck/nyt.3e7.2000000,timbl:'-a0 +D',lc:2,rc:3
#ALG60104,/exp2/pberck/nyt.3e7.2000000,timbl:'-a0 +D',lc:3,rc:0
#ALG60105,/exp2/pberck/nyt.3e7.2000000,timbl:'-a0 +D',lc:3,rc:1
#ALG60106,/exp2/pberck/nyt.3e7.2000000,timbl:'-a0 +D',lc:3,rc:2
#ALG60107,/exp2/pberck/nyt.3e7.2000000,timbl:'-a0 +D',lc:3,rc:3
#ALG60108,/exp2/pberck/nyt.3e7.2000000,timbl:'-a0 +D',lc:4,rc:0
#ALG60109,/exp2/pberck/nyt.3e7.2000000,timbl:'-a0 +D',lc:4,rc:1
