#2013-02-05 17:21:56
#ALG10500,/exp2/pberck/nyt.3e7.2000000,timbl:'-a1 +D',lc:2,rc:0
#ALG10501,/exp2/pberck/nyt.3e7.2000000,timbl:'-a1 +D',lc:2,rc:1
#ALG10502,/exp2/pberck/nyt.3e7.2000000,timbl:'-a1 +D',lc:2,rc:2
#ALG10503,/exp2/pberck/nyt.3e7.2000000,timbl:'-a1 +D',lc:2,rc:3
#ALG10504,/exp2/pberck/nyt.3e7.2000000,timbl:'-a1 +D',lc:3,rc:0
#ALG10505,/exp2/pberck/nyt.3e7.2000000,timbl:'-a1 +D',lc:3,rc:1
#ALG10506,/exp2/pberck/nyt.3e7.2000000,timbl:'-a1 +D',lc:3,rc:2
#ALG10507,/exp2/pberck/nyt.3e7.2000000,timbl:'-a1 +D',lc:3,rc:3
#ALG10508,/exp2/pberck/nyt.3e7.2000000,timbl:'-a1 +D',lc:4,rc:0
#ALG10509,/exp2/pberck/nyt.3e7.2000000,timbl:'-a1 +D',lc:4,rc:1
#ALG10510,/exp2/pberck/nyt.3e7.2000000,timbl:'-a1 +D',lc:4,rc:2
#ALG10511,/exp2/pberck/nyt.3e7.2000000,timbl:'-a1 +D',lc:4,rc:3
#ALG10512,/exp2/pberck/nyt.3e7.2000000,timbl:'-a4 +D',lc:2,rc:0
#ALG10513,/exp2/pberck/nyt.3e7.2000000,timbl:'-a4 +D',lc:2,rc:1
#ALG10514,/exp2/pberck/nyt.3e7.2000000,timbl:'-a4 +D',lc:2,rc:2
#ALG10515,/exp2/pberck/nyt.3e7.2000000,timbl:'-a4 +D',lc:2,rc:3
#ALG10516,/exp2/pberck/nyt.3e7.2000000,timbl:'-a4 +D',lc:3,rc:0
#ALG10517,/exp2/pberck/nyt.3e7.2000000,timbl:'-a4 +D',lc:3,rc:1
#ALG10518,/exp2/pberck/nyt.3e7.2000000,timbl:'-a4 +D',lc:3,rc:2
#ALG10519,/exp2/pberck/nyt.3e7.2000000,timbl:'-a4 +D',lc:3,rc:3
#ALG10520,/exp2/pberck/nyt.3e7.2000000,timbl:'-a4 +D',lc:4,rc:0
#ALG10521,/exp2/pberck/nyt.3e7.2000000,timbl:'-a4 +D',lc:4,rc:1
#ALG10522,/exp2/pberck/nyt.3e7.2000000,timbl:'-a4 +D',lc:4,rc:2
#ALG10523,/exp2/pberck/nyt.3e7.2000000,timbl:'-a4 +D',lc:4,rc:3
#ALG10524,/exp2/pberck/nyt.3e7.2000000,timbl:'-a4 +D -k3',lc:2,rc:0
#ALG10525,/exp2/pberck/nyt.3e7.2000000,timbl:'-a4 +D -k3',lc:2,rc:1
#ALG10526,/exp2/pberck/nyt.3e7.2000000,timbl:'-a4 +D -k3',lc:2,rc:2
#ALG10527,/exp2/pberck/nyt.3e7.2000000,timbl:'-a4 +D -k3',lc:2,rc:3
#ALG10528,/exp2/pberck/nyt.3e7.2000000,timbl:'-a4 +D -k3',lc:3,rc:0
#ALG10529,/exp2/pberck/nyt.3e7.2000000,timbl:'-a4 +D -k3',lc:3,rc:1
#ALG10530,/exp2/pberck/nyt.3e7.2000000,timbl:'-a4 +D -k3',lc:3,rc:2
#ALG10531,/exp2/pberck/nyt.3e7.2000000,timbl:'-a4 +D -k3',lc:3,rc:3
#ALG10532,/exp2/pberck/nyt.3e7.2000000,timbl:'-a4 +D -k3',lc:4,rc:0
#ALG10533,/exp2/pberck/nyt.3e7.2000000,timbl:'-a4 +D -k3',lc:4,rc:1
#ALG10534,/exp2/pberck/nyt.3e7.2000000,timbl:'-a4 +D -k3',lc:4,rc:2
#ALG10535,/exp2/pberck/nyt.3e7.2000000,timbl:'-a4 +D -k3',lc:4,rc:3
#ALG10536,/exp2/pberck/nyt.3e7.2000000,timbl:'-a4 +D -k5',lc:2,rc:0
#ALG10537,/exp2/pberck/nyt.3e7.2000000,timbl:'-a4 +D -k5',lc:2,rc:1
#ALG10538,/exp2/pberck/nyt.3e7.2000000,timbl:'-a4 +D -k5',lc:2,rc:2
#ALG10539,/exp2/pberck/nyt.3e7.2000000,timbl:'-a4 +D -k5',lc:2,rc:3
#ALG10540,/exp2/pberck/nyt.3e7.2000000,timbl:'-a4 +D -k5',lc:3,rc:0
#ALG10541,/exp2/pberck/nyt.3e7.2000000,timbl:'-a4 +D -k5',lc:3,rc:1
#ALG10542,/exp2/pberck/nyt.3e7.2000000,timbl:'-a4 +D -k5',lc:3,rc:2
#ALG10543,/exp2/pberck/nyt.3e7.2000000,timbl:'-a4 +D -k5',lc:3,rc:3
#ALG10544,/exp2/pberck/nyt.3e7.2000000,timbl:'-a4 +D -k5',lc:4,rc:0
#ALG10545,/exp2/pberck/nyt.3e7.2000000,timbl:'-a4 +D -k5',lc:4,rc:1
#ALG10546,/exp2/pberck/nyt.3e7.2000000,timbl:'-a4 +D -k5',lc:4,rc:2
#ALG10547,/exp2/pberck/nyt.3e7.2000000,timbl:'-a4 +D -k5',lc:4,rc:3
#ALG10548,/exp2/pberck/nyt.3e7.2000000,timbl:'-a4 +D -k7',lc:2,rc:0
#ALG10549,/exp2/pberck/nyt.3e7.2000000,timbl:'-a4 +D -k7',lc:2,rc:1
#ALG10550,/exp2/pberck/nyt.3e7.2000000,timbl:'-a4 +D -k7',lc:2,rc:2
#ALG10551,/exp2/pberck/nyt.3e7.2000000,timbl:'-a4 +D -k7',lc:2,rc:3
#ALG10552,/exp2/pberck/nyt.3e7.2000000,timbl:'-a4 +D -k7',lc:3,rc:0
#ALG10553,/exp2/pberck/nyt.3e7.2000000,timbl:'-a4 +D -k7',lc:3,rc:1
#ALG10554,/exp2/pberck/nyt.3e7.2000000,timbl:'-a4 +D -k7',lc:3,rc:2
#ALG10555,/exp2/pberck/nyt.3e7.2000000,timbl:'-a4 +D -k7',lc:3,rc:3
#ALG10556,/exp2/pberck/nyt.3e7.2000000,timbl:'-a4 +D -k7',lc:4,rc:0
#ALG10557,/exp2/pberck/nyt.3e7.2000000,timbl:'-a4 +D -k7',lc:4,rc:1
#ALG10558,/exp2/pberck/nyt.3e7.2000000,timbl:'-a4 +D -k7',lc:4,rc:2
#ALG10559,/exp2/pberck/nyt.3e7.2000000,timbl:'-a4 +D -k7',lc:4,rc:3
#ALG10560,/exp2/pberck/nyt.3e7.5000000,timbl:'-a1 +D',lc:2,rc:0
#ALG10561,/exp2/pberck/nyt.3e7.5000000,timbl:'-a1 +D',lc:2,rc:1
#ALG10562,/exp2/pberck/nyt.3e7.5000000,timbl:'-a1 +D',lc:2,rc:2
#ALG10563,/exp2/pberck/nyt.3e7.5000000,timbl:'-a1 +D',lc:2,rc:3
#ALG10564,/exp2/pberck/nyt.3e7.5000000,timbl:'-a1 +D',lc:3,rc:0
#ALG10565,/exp2/pberck/nyt.3e7.5000000,timbl:'-a1 +D',lc:3,rc:1
#ALG10566,/exp2/pberck/nyt.3e7.5000000,timbl:'-a1 +D',lc:3,rc:2
#ALG10567,/exp2/pberck/nyt.3e7.5000000,timbl:'-a1 +D',lc:3,rc:3
#ALG10568,/exp2/pberck/nyt.3e7.5000000,timbl:'-a1 +D',lc:4,rc:0
#ALG10569,/exp2/pberck/nyt.3e7.5000000,timbl:'-a1 +D',lc:4,rc:1
#ALG10570,/exp2/pberck/nyt.3e7.5000000,timbl:'-a1 +D',lc:4,rc:2
#ALG10571,/exp2/pberck/nyt.3e7.5000000,timbl:'-a1 +D',lc:4,rc:3
#ALG10572,/exp2/pberck/nyt.3e7.5000000,timbl:'-a4 +D',lc:2,rc:0
#ALG10573,/exp2/pberck/nyt.3e7.5000000,timbl:'-a4 +D',lc:2,rc:1
#ALG10574,/exp2/pberck/nyt.3e7.5000000,timbl:'-a4 +D',lc:2,rc:2
#ALG10575,/exp2/pberck/nyt.3e7.5000000,timbl:'-a4 +D',lc:2,rc:3
#ALG10576,/exp2/pberck/nyt.3e7.5000000,timbl:'-a4 +D',lc:3,rc:0
#ALG10577,/exp2/pberck/nyt.3e7.5000000,timbl:'-a4 +D',lc:3,rc:1
#ALG10578,/exp2/pberck/nyt.3e7.5000000,timbl:'-a4 +D',lc:3,rc:2
#ALG10579,/exp2/pberck/nyt.3e7.5000000,timbl:'-a4 +D',lc:3,rc:3
#ALG10580,/exp2/pberck/nyt.3e7.5000000,timbl:'-a4 +D',lc:4,rc:0
#ALG10581,/exp2/pberck/nyt.3e7.5000000,timbl:'-a4 +D',lc:4,rc:1
#ALG10582,/exp2/pberck/nyt.3e7.5000000,timbl:'-a4 +D',lc:4,rc:2
#ALG10583,/exp2/pberck/nyt.3e7.5000000,timbl:'-a4 +D',lc:4,rc:3
#ALG10584,/exp2/pberck/nyt.3e7.5000000,timbl:'-a4 +D -k3',lc:2,rc:0
#ALG10585,/exp2/pberck/nyt.3e7.5000000,timbl:'-a4 +D -k3',lc:2,rc:1
#ALG10586,/exp2/pberck/nyt.3e7.5000000,timbl:'-a4 +D -k3',lc:2,rc:2
#ALG10587,/exp2/pberck/nyt.3e7.5000000,timbl:'-a4 +D -k3',lc:2,rc:3
#ALG10588,/exp2/pberck/nyt.3e7.5000000,timbl:'-a4 +D -k3',lc:3,rc:0
#ALG10589,/exp2/pberck/nyt.3e7.5000000,timbl:'-a4 +D -k3',lc:3,rc:1
#ALG10590,/exp2/pberck/nyt.3e7.5000000,timbl:'-a4 +D -k3',lc:3,rc:2
#ALG10591,/exp2/pberck/nyt.3e7.5000000,timbl:'-a4 +D -k3',lc:3,rc:3
#ALG10592,/exp2/pberck/nyt.3e7.5000000,timbl:'-a4 +D -k3',lc:4,rc:0
#ALG10593,/exp2/pberck/nyt.3e7.5000000,timbl:'-a4 +D -k3',lc:4,rc:1
#ALG10594,/exp2/pberck/nyt.3e7.5000000,timbl:'-a4 +D -k3',lc:4,rc:2
#ALG10595,/exp2/pberck/nyt.3e7.5000000,timbl:'-a4 +D -k3',lc:4,rc:3
#ALG10596,/exp2/pberck/nyt.3e7.5000000,timbl:'-a4 +D -k5',lc:2,rc:0
#ALG10597,/exp2/pberck/nyt.3e7.5000000,timbl:'-a4 +D -k5',lc:2,rc:1
#ALG10598,/exp2/pberck/nyt.3e7.5000000,timbl:'-a4 +D -k5',lc:2,rc:2
#ALG10599,/exp2/pberck/nyt.3e7.5000000,timbl:'-a4 +D -k5',lc:2,rc:3
#ALG10600,/exp2/pberck/nyt.3e7.5000000,timbl:'-a4 +D -k5',lc:3,rc:0
#ALG10601,/exp2/pberck/nyt.3e7.5000000,timbl:'-a4 +D -k5',lc:3,rc:1
#ALG10602,/exp2/pberck/nyt.3e7.5000000,timbl:'-a4 +D -k5',lc:3,rc:2
#ALG10603,/exp2/pberck/nyt.3e7.5000000,timbl:'-a4 +D -k5',lc:3,rc:3
#ALG10604,/exp2/pberck/nyt.3e7.5000000,timbl:'-a4 +D -k5',lc:4,rc:0
#ALG10605,/exp2/pberck/nyt.3e7.5000000,timbl:'-a4 +D -k5',lc:4,rc:1
#ALG10606,/exp2/pberck/nyt.3e7.5000000,timbl:'-a4 +D -k5',lc:4,rc:2
#ALG10607,/exp2/pberck/nyt.3e7.5000000,timbl:'-a4 +D -k5',lc:4,rc:3
#ALG10608,/exp2/pberck/nyt.3e7.5000000,timbl:'-a4 +D -k7',lc:2,rc:0
#ALG10609,/exp2/pberck/nyt.3e7.5000000,timbl:'-a4 +D -k7',lc:2,rc:1
#ALG10610,/exp2/pberck/nyt.3e7.5000000,timbl:'-a4 +D -k7',lc:2,rc:2
#ALG10611,/exp2/pberck/nyt.3e7.5000000,timbl:'-a4 +D -k7',lc:2,rc:3
#ALG10612,/exp2/pberck/nyt.3e7.5000000,timbl:'-a4 +D -k7',lc:3,rc:0
#ALG10613,/exp2/pberck/nyt.3e7.5000000,timbl:'-a4 +D -k7',lc:3,rc:1
#ALG10614,/exp2/pberck/nyt.3e7.5000000,timbl:'-a4 +D -k7',lc:3,rc:2
#ALG10615,/exp2/pberck/nyt.3e7.5000000,timbl:'-a4 +D -k7',lc:3,rc:3
#ALG10616,/exp2/pberck/nyt.3e7.5000000,timbl:'-a4 +D -k7',lc:4,rc:0
#ALG10617,/exp2/pberck/nyt.3e7.5000000,timbl:'-a4 +D -k7',lc:4,rc:1
#ALG10618,/exp2/pberck/nyt.3e7.5000000,timbl:'-a4 +D -k7',lc:4,rc:2
#ALG10619,/exp2/pberck/nyt.3e7.5000000,timbl:'-a4 +D -k7',lc:4,rc:3
#ALG10620,/exp2/pberck/nyt.3e7.10000000,timbl:'-a1 +D',lc:2,rc:0
#ALG10621,/exp2/pberck/nyt.3e7.10000000,timbl:'-a1 +D',lc:2,rc:1
#ALG10622,/exp2/pberck/nyt.3e7.10000000,timbl:'-a1 +D',lc:2,rc:2
#ALG10623,/exp2/pberck/nyt.3e7.10000000,timbl:'-a1 +D',lc:2,rc:3
#ALG10624,/exp2/pberck/nyt.3e7.10000000,timbl:'-a1 +D',lc:3,rc:0
#ALG10625,/exp2/pberck/nyt.3e7.10000000,timbl:'-a1 +D',lc:3,rc:1
#ALG10626,/exp2/pberck/nyt.3e7.10000000,timbl:'-a1 +D',lc:3,rc:2
#ALG10627,/exp2/pberck/nyt.3e7.10000000,timbl:'-a1 +D',lc:3,rc:3
#ALG10628,/exp2/pberck/nyt.3e7.10000000,timbl:'-a1 +D',lc:4,rc:0
#ALG10629,/exp2/pberck/nyt.3e7.10000000,timbl:'-a1 +D',lc:4,rc:1
#ALG10630,/exp2/pberck/nyt.3e7.10000000,timbl:'-a1 +D',lc:4,rc:2
#ALG10631,/exp2/pberck/nyt.3e7.10000000,timbl:'-a1 +D',lc:4,rc:3
#ALG10632,/exp2/pberck/nyt.3e7.10000000,timbl:'-a4 +D',lc:2,rc:0
#ALG10633,/exp2/pberck/nyt.3e7.10000000,timbl:'-a4 +D',lc:2,rc:1
#ALG10634,/exp2/pberck/nyt.3e7.10000000,timbl:'-a4 +D',lc:2,rc:2
#ALG10635,/exp2/pberck/nyt.3e7.10000000,timbl:'-a4 +D',lc:2,rc:3
#ALG10636,/exp2/pberck/nyt.3e7.10000000,timbl:'-a4 +D',lc:3,rc:0
#ALG10637,/exp2/pberck/nyt.3e7.10000000,timbl:'-a4 +D',lc:3,rc:1
#ALG10638,/exp2/pberck/nyt.3e7.10000000,timbl:'-a4 +D',lc:3,rc:2
#ALG10639,/exp2/pberck/nyt.3e7.10000000,timbl:'-a4 +D',lc:3,rc:3
#ALG10640,/exp2/pberck/nyt.3e7.10000000,timbl:'-a4 +D',lc:4,rc:0
#ALG10641,/exp2/pberck/nyt.3e7.10000000,timbl:'-a4 +D',lc:4,rc:1
#ALG10642,/exp2/pberck/nyt.3e7.10000000,timbl:'-a4 +D',lc:4,rc:2
#ALG10643,/exp2/pberck/nyt.3e7.10000000,timbl:'-a4 +D',lc:4,rc:3
#ALG10644,/exp2/pberck/nyt.3e7.10000000,timbl:'-a4 +D -k3',lc:2,rc:0
#ALG10645,/exp2/pberck/nyt.3e7.10000000,timbl:'-a4 +D -k3',lc:2,rc:1
#ALG10646,/exp2/pberck/nyt.3e7.10000000,timbl:'-a4 +D -k3',lc:2,rc:2
#ALG10647,/exp2/pberck/nyt.3e7.10000000,timbl:'-a4 +D -k3',lc:2,rc:3
#ALG10648,/exp2/pberck/nyt.3e7.10000000,timbl:'-a4 +D -k3',lc:3,rc:0
#ALG10649,/exp2/pberck/nyt.3e7.10000000,timbl:'-a4 +D -k3',lc:3,rc:1
#ALG10650,/exp2/pberck/nyt.3e7.10000000,timbl:'-a4 +D -k3',lc:3,rc:2
#ALG10651,/exp2/pberck/nyt.3e7.10000000,timbl:'-a4 +D -k3',lc:3,rc:3
#ALG10652,/exp2/pberck/nyt.3e7.10000000,timbl:'-a4 +D -k3',lc:4,rc:0
#ALG10653,/exp2/pberck/nyt.3e7.10000000,timbl:'-a4 +D -k3',lc:4,rc:1
#ALG10654,/exp2/pberck/nyt.3e7.10000000,timbl:'-a4 +D -k3',lc:4,rc:2
#ALG10655,/exp2/pberck/nyt.3e7.10000000,timbl:'-a4 +D -k3',lc:4,rc:3
#ALG10656,/exp2/pberck/nyt.3e7.10000000,timbl:'-a4 +D -k5',lc:2,rc:0
#ALG10657,/exp2/pberck/nyt.3e7.10000000,timbl:'-a4 +D -k5',lc:2,rc:1
#ALG10658,/exp2/pberck/nyt.3e7.10000000,timbl:'-a4 +D -k5',lc:2,rc:2
#ALG10659,/exp2/pberck/nyt.3e7.10000000,timbl:'-a4 +D -k5',lc:2,rc:3
#ALG10660,/exp2/pberck/nyt.3e7.10000000,timbl:'-a4 +D -k5',lc:3,rc:0
#ALG10661,/exp2/pberck/nyt.3e7.10000000,timbl:'-a4 +D -k5',lc:3,rc:1
#ALG10662,/exp2/pberck/nyt.3e7.10000000,timbl:'-a4 +D -k5',lc:3,rc:2
#ALG10663,/exp2/pberck/nyt.3e7.10000000,timbl:'-a4 +D -k5',lc:3,rc:3
#ALG10664,/exp2/pberck/nyt.3e7.10000000,timbl:'-a4 +D -k5',lc:4,rc:0
#ALG10665,/exp2/pberck/nyt.3e7.10000000,timbl:'-a4 +D -k5',lc:4,rc:1
#ALG10666,/exp2/pberck/nyt.3e7.10000000,timbl:'-a4 +D -k5',lc:4,rc:2
#ALG10667,/exp2/pberck/nyt.3e7.10000000,timbl:'-a4 +D -k5',lc:4,rc:3
#ALG10668,/exp2/pberck/nyt.3e7.10000000,timbl:'-a4 +D -k7',lc:2,rc:0
#ALG10669,/exp2/pberck/nyt.3e7.10000000,timbl:'-a4 +D -k7',lc:2,rc:1
#ALG10670,/exp2/pberck/nyt.3e7.10000000,timbl:'-a4 +D -k7',lc:2,rc:2
#ALG10671,/exp2/pberck/nyt.3e7.10000000,timbl:'-a4 +D -k7',lc:2,rc:3
#ALG10672,/exp2/pberck/nyt.3e7.10000000,timbl:'-a4 +D -k7',lc:3,rc:0
#ALG10673,/exp2/pberck/nyt.3e7.10000000,timbl:'-a4 +D -k7',lc:3,rc:1
#ALG10674,/exp2/pberck/nyt.3e7.10000000,timbl:'-a4 +D -k7',lc:3,rc:2
#ALG10675,/exp2/pberck/nyt.3e7.10000000,timbl:'-a4 +D -k7',lc:3,rc:3
#ALG10676,/exp2/pberck/nyt.3e7.10000000,timbl:'-a4 +D -k7',lc:4,rc:0
#ALG10677,/exp2/pberck/nyt.3e7.10000000,timbl:'-a4 +D -k7',lc:4,rc:1
#ALG10678,/exp2/pberck/nyt.3e7.10000000,timbl:'-a4 +D -k7',lc:4,rc:2
#ALG10679,/exp2/pberck/nyt.3e7.10000000,timbl:'-a4 +D -k7',lc:4,rc:3
#2013-02-18 08:53:17
#ALG10626,/exp2/pberck/nyt.3e7.10000000,timbl:'-a1 +D',lc:3,rc:2
#ALG10627,/exp2/pberck/nyt.3e7.10000000,timbl:'-a1 +D',lc:3,rc:3
#ALG10628,/exp2/pberck/nyt.3e7.10000000,timbl:'-a1 +D',lc:4,rc:0
#ALG10629,/exp2/pberck/nyt.3e7.10000000,timbl:'-a1 +D',lc:4,rc:1
#ALG10630,/exp2/pberck/nyt.3e7.10000000,timbl:'-a1 +D',lc:4,rc:2
#ALG10631,/exp2/pberck/nyt.3e7.10000000,timbl:'-a1 +D',lc:4,rc:3
#ALG10632,/exp2/pberck/nyt.3e7.10000000,timbl:'-a4 +D',lc:2,rc:0
#ALG10633,/exp2/pberck/nyt.3e7.10000000,timbl:'-a4 +D',lc:2,rc:1
#ALG10634,/exp2/pberck/nyt.3e7.10000000,timbl:'-a4 +D',lc:2,rc:2
#ALG10635,/exp2/pberck/nyt.3e7.10000000,timbl:'-a4 +D',lc:2,rc:3
#ALG10636,/exp2/pberck/nyt.3e7.10000000,timbl:'-a4 +D',lc:3,rc:0
#ALG10637,/exp2/pberck/nyt.3e7.10000000,timbl:'-a4 +D',lc:3,rc:1
#ALG10638,/exp2/pberck/nyt.3e7.10000000,timbl:'-a4 +D',lc:3,rc:2
#ALG10639,/exp2/pberck/nyt.3e7.10000000,timbl:'-a4 +D',lc:3,rc:3
